10000 16782
1002 22791
100 3492684
100400 1195
10040 1447
100410 6938
10080 7460
10090 266608
100970 4436
100980 1302
10100 10686
10110 10963
10120 2110
10130 6659
10140 3365
10150 149149
10170 19494
10180 2084135
10190 2084139
102200 52476
10220 22102
10230 4378
102400 26058
10240 4925
102410 752641
102500 90278
10250 4176
102600 533398
10260 4242
102700 752680
102810 20498
102820 17506
102840 265546
102850 23213
104000 58195
10400 4038
104020 7730
104100 13644
10410 644
104200 23450
10420 735
10430 59709
104320 614652
10440 989
104600 62233
10460 12424
10 4629358
104700 885079
10470 1021
10480 915
104900 287917
10490 1623
105000 13916
10500 754200
105100 31264
10510 710
105200 1096
10520 1115
105300 41939
10530 26407
105310 752641
105400 225229
10540 79046
105420 2173
105430 752641
105450 247696
10545 80254
105600 1855732
10560 2032
105700 28288
105800 24801
10590 280
106000 16089
106010 752641
10630 1410
10650 8948
10660 5908
10680 396141
10690 8460
10699 17
107000 2644
10700 63859
107100 849536
107200 422332
107300 213403
107310 215366
107400 752641
107410 262991
107430 21480
107600 32280
107800 209947
107900 752641
108100 8389
108110 5750
108200 35992
108210 752641
108500 211549
108700 39098
108710 547428
108800 434000
109200 5442
109400 752641
109410 752641
109500 3218
109700 6364
110400 39749
11040 49782
110500 15471
11050 41890
110600 13762
11060 33709
110610 14409
110630 8948
110800 443923
111000 3391
111010 2506
111100 53688
11120 3083
111300 3219
11130 48730
111400 123742
11140 55007
11150 49001
111600 110885
11170 29525
111800 154009
11180 17291
111900 1648
11190 24451
11200 251279
112100 109020
11230 38301
11240 50677
11250 49650
11260 45089
11280 44119
113020 95099
113200 963318
11330 51701
113400 752641
11340 46205
113420 752641
11360 53586
11370 66070
113900 752641
11390 47008
11420 32573
11440 51759
11450 232315
11480 13062
11490 77
11500 36878
115100 152298
115110 134041
115120 37852
115200 13790
11520 4360
115210 13644
115220 11378
115320 88630
11550 8523
11560 4467
11590 14363
11610 752671
116120 17072
11900 21184
11920 12827
1200 410573
12100 456723
1210 416
12110 533716
12120 650127
12130 42157
12140 208670
12150 216725
12160 136751
12170 393043
12180 393043
12190 26482
12200 164703
12210 1238823
12220 872753
12230 456729
12240 533714
12250 629632
12260 6690
12300 1635
1230 410354
12310 7442
12320 34622
12330 34135
12340 7851
12350 2
12360 102236
12370 23178
12380 23178
12390 5151
12400 1325
12420 7334
12430 7522
12440 6292
12450 5675
12460 6511
12470 25035
12480 5284
12500 46116
1250 1506400
12510 12493
12520 50358
12530 9523
12540 1160
12550 1359
12560 39935
12570 1162
12580 1219
12590 38956
12600 7417
12610 2
12630 33081
12640 51548
12650 31809
12660 31840
12670 32683
12690 42765
1270 130
12710 184289
12720 665
12750 193411
12770 6346
12790 7940
12800 60030
1280 410354
12810 229401
12830 129584
12840 214210
12860 3867
12900 693576
13000 11138
1300 77112
130 1950169
1309 108288
13100 48
13120 297
1313 108288
13140 752641
13200 130063
1320 4181
13210 322282
13230 161510
13240 145701
13250 131345
1330 16
13500 110399
13510 92521
13520 229014
13530 110237
13540 43749
13560 78184
13570 109588
13580 83340
13600 125523
13620 49881
13630 49831
13640 61616
13650 245
13660 459
13700 11600
15000 17596
1500 274810
15060 4592
15080 1736
15100 316430
1510 280243
15110 245
15120 186205
15130 90485
15140 1559
15150 1984
15160 2401
15170 100740
15190 34170
15200 17193
1520 304748
15210 29858
15220 7959
15230 8088
15240 10471
1525 34
15260 3001
15270 4888
15280 1328
15290 1479
15300 53049
1530 238191
15310 4591
15320 70478
15330 1944
15340 245
15350 980
15370 77915
15380 73345
15390 38660
15400 61538
15500 83493
1550 21
15520 115470
15540 74817
15550 7
15560 50019
15620 964559
15700 183344
15710 175548
15740 73319
15750 84200
15800 32098
15900 4672
15910 36506
15920 39621
15930 39992
15940 34180
15950 39381
15960 4015
15970 36588
15980 2189
15990 36830
16000 3205
1600 51010
16020 3860
16030 35804
16040 5679
16060 4134
16090 1105
16100 34979
1610 57063
16110 34522
16120 35262
16130 35467
16180 35356
16200 32729
16300 33766
1630 65773
1640 67128
16410 5200
16450 316445
16480 661
16500 33452
16600 76784
16620 12010
16700 2475
1670 43373
16710 15262
16720 49834
16730 43589
16800 82
16810 249073
16900 41
1690 56551
1700 84011
17020 857280
17030 523
17080 752668
17100 15873
17120 9932
17130 46
17140 19485
17180 3322
17300 410008
17330 366219
17340 366219
17390 135602
17400 2389
17410 613422
17420 8068
17430 66446
17440 53589
17450 176630
17460 493395
17470 555555
17480 183214
17500 752669
17510 752641
17520 752659
17530 752664
17550 752857
17570 752659
17580 752849
17600 32247
17700 752650
17710 150052
17730 752682
17740 752644
17760 33
17790 12
17800 7564
17810 6302
18000 106416
18020 101561
18040 34338
18050 17595
18070 46140
18100 3989
18110 149978
18120 34980
18300 53873
18400 55078
1840 876620
18420 44220
18450 43636
18460 43636
18470 38157
18480 38036
18490 42026
18500 325564
18600 33231
18700 364018
18820 54775
19000 24541
1900 31665
19020 5479
19030 5103
19080 673
19090 1663
19100 2
19200 48858
1920 5302
1930 28326
19320 2588
19500 4660
19600 9
19610 9
19620 9
19680 132399
19800 32088
19810 743
19830 35669
19840 35669
19860 245
19900 420885
19910 245
19920 245
19930 8606
19980 139593
19990 2951
200010 117776
200020 2438
200050 15461
200060 17526
200080 1817
200130 4476
200170 173785
200190 31850
200210 752641
200230 11675
200260 274791
200269 53
200350 13539
200370 40153
200390 127076
200410 26914
200490 2153
200510 670566
200530 604
200550 58267
200630 21569
200670 20947
200710 1011600
200900 411673
200910 88736
200940 44013
200960 25595
200980 25595
200990 25595
201000 25595
201010 25595
201020 21492
201070 10738
201190 752641
201210 752641
201230 752641
201280 388024
201290 92892
201310 132788
201330 698
201420 2259
201480 109854
201490 18713
201510 32981
201569 2
201570 37403
201700 84220
201760 79061
201790 538326
201830 28619
201870 233937
201930 2
20 1961790
20200 32337
202070 16037
202090 179
202110 24
202130 33084
202170 398255
202200 108525
202270 34286
202310 21169
202351 8104
202370 4969
202410 25855
202530 42403
202570 1464
202670 1456
202690 5456
202710 75839
202730 82749
202750 424606
202860 9281
202970 860697
202990 1065160
203140 470267
203160 390893
203210 26236
203250 8149
203350 19187
203510 44969
203560 22351
203630 76719
203650 31041
203680 5979
203730 83291
203750 56581
203770 175636
203810 366628
203830 9366
203850 182319
203990 6438
20400 707
204030 173085
204060 425779
204080 163365
204100 367276
204120 15022
204140 37442
204180 30644
204220 208389
204240 10901
204300 606539
204340 116815
204360 401319
204390 11759
204440 3995
204450 46743
204510 1974
204530 1578
204560 17472
204580 1843
204630 37217
204760 4019
204840 13279
204860 22721
204880 175106
204940 16077
204960 7309
20500 324119
205060 13342
205070 6844
205080 1695
205100 441598
20510 174180
205180 6
205190 41832
205230 37141
205250 6165
205270 8321
20530 223573
205330 2848
205350 25734
20540 949450
20550 213903
205530 20963
205550 20840
205590 14266
205610 28734
205650 20028
205669 42
205690 16495
20570 723422
205710 752641
205730 58171
205790 6472932
205810 9989
205830 3840
205840 14992
205870 22867
20590 8789
205910 122964
205930 341145
205950 49368
206020 22260
206040 21929
206060 22864
206180 222
206190 44650
206210 752663
206230 657
206250 7043
206270 20556
206370 11376
206410 9298
206420 39583
206440 121719
206480 752641
206500 752837
206610 1357
206630 105
206690 36070
206740 2638
206760 29196
206940 222
206950 222
206960 222
206970 222
206980 179196
207000 1562
20700 11965
207020 8915
207040 43263
207060 6449
207080 195616
20710 27910
207140 88
207150 43961
207170 410410
207190 14299
207210 33017
207230 762452
207241 264
207250 86469
207320 62166
207350 69669
207370 8762
207380 7719
207400 7934
207420 143664
207430 39830
207490 71678
207530 31484
207570 89645
207610 571081
207650 28257
207670 16903
207690 125115
207710 2661
207730 2506
207750 37549
207790 3032
207890 195257
207899 182
207930 49111
208030 752641
208090 150295
208110 11271
208140 204020
208200 69720
20820 237415
208400 18960
20840 4610
208460 4490
208480 153564
208500 64576
208520 35940
208580 256047
208600 30391
208610 11289
208620 3811
208630 3793
208640 3903
208670 37444
208710 7645
208730 35517
208860 8898
209000 695
20900 511715
209060 1757
209080 167315
209100 30115
209120 41819
209160 130
209190 47813
20920 584250
209230 5260
209270 71141
209330 58725
209340 519
209360 15417
209370 34678
209390 4083
209520 7661
209540 50098
209610 4899
209630 1352
209670 56940
209690 53332
209710 752653
209730 14406
209750 2479
209790 116881
209830 306152
209850 3801
209870 752653
209890 674
209950 12688
21000 28449
2100 353197
21010 7573
210150 5083
210170 46742
210230 1243
21030 5247
210350 6614
210390 6412
210410 3812
210430 616
210490 4653
210500 752641
210550 13679
21070 3129
210770 50618
21080 3400
210870 1556
21090 210224
210950 10031
210990 5640
21100 284789
211010 9414
211050 6542
211070 3840
21110 210245
211120 21061
211140 394
211160 70977
211180 30666
21120 210245
211260 54854
211280 8947
21130 21131
211 3042437
211340 8947
211360 149876
211380 7955
211400 173007
21140 4573
211420 356230
211440 27076
211500 752641
211580 53424
211600 111703
211670 3965
21170 109662
211740 107031
211780 1451
211800 4790
21180 15
211880 752641
211900 11666
211970 1116
212010 23917
212030 34714
212050 27203
212070 752657
212090 120
212110 13622
212160 752870
212180 752803
212200 752671
212220 752671
212240 752671
212370 752641
212390 752641
212410 7280
212480 120301
212500 752641
212542 752641
212580 21266
212630 73271
212680 597579
212700 18175
212740 1425
212780 5245
212800 752642
212840 752641
212910 860697
21300 12609
213030 128557
2130 353265
213120 33559
213330 26030
213350 1946
213610 71517
213630 8
213650 752654
213850 58062
21400 37593
214050 139
214100 8212
214130 2514
214150 36026
214170 40755
214210 2230
214230 2826
214250 115921
214270 1185
214310 6664
214320 2037
214340 71438
214360 76329
214400 777
214420 765022
214510 70381
214560 308725
214570 4102
214590 23432
214610 8041
214630 4738
214640 4738
214700 49593
214730 6670
214770 1736
214790 217337
214830 91822
214850 752852
214870 61592
214910 6873
214950 28116
214970 128452
21500 1843
215060 8836
215120 752641
215160 18677
215280 65401
215350 752641
215360 752641
215390 1431
215450 5849
215470 144475
215490 24
215510 23197
215530 53945
215590 33
215630 8
215670 98418
215690 9810
215710 12281
215770 11439
215790 8037
215870 752686
215930 4418
21600 2935
216090 5803
21610 3143
216110 8901
216130 8073
216150 752671
21620 306
216210 1222
216250 198181
216280 752641
216290 9103
216370 188088
216390 41899
21640 4946
216570 905
21660 64606
216610 5073
216670 5741
21670 13805
21680 23338
216890 49116
21690 162387
216910 24851
216930 635
217060 48268
217080 6820
217140 3898
217200 28391
217270 16722
217290 5805
21730 2785
217490 128429
21750 1463
21760 59682
217690 37665
217750 752664
217790 7610
21780 6917
217860 9667
217920 238
217980 37834
21800 28085
218020 10210
218040 13116
218060 31854
218090 13513
218130 74743
218170 752664
218210 752641
218230 752693
218310 752664
218330 96
218350 752641
218410 23684
218450 752647
218461 571
218510 22598
218620 105220
218640 25021
218660 8697
218680 188915
218700 2270
218740 22667
218800 501259
218820 5540
218860 2775
218900 45
218980 4215
21900 40370
219030 752643
219070 9443
21910 57665
219150 380341
219190 7386
219200 10816
21920 1678
219340 758350
21950 1145
219540 1336867
219600 31027
219640 825599
219680 135441
21970 202169
219740 502851
219760 14814
219780 97417
219800 1775
21980 106447
219870 752641
219890 136595
21989 186
21990 1659
219910 26218
219950 7781
22000 451161
2200 149020
220050 10044
220090 19468
220160 63965
220200 174668
220240 374315
220260 90287
220 3420001
220420 637
220440 77454
220460 29866
220660 49515
220680 694
220700 30599
220740 27004
220780 216436
220820 29273
220823 11036
220824 135
220860 114490
220900 1837
220960 820
22100 307631
221020 106619
221040 97517
2210 73228
221080 752647
221120 752666
221200 752837
22120 154590
221220 752837
221260 234338
221300 5593
22130 60901
221340 105
221360 752693
221380 265057
22140 154590
221410 788849
221430 7015
221560 1
221640 137083
221680 44
221790 752646
22180 242541
221810 67894
221830 6804
221910 1050
22200 176992
222140 27846
222160 10368
222300 9
22230 150380
222320 518
222480 17955
222520 752649
222640 174
222660 2623
222710 4270
222730 83562
222750 40732
222820 3635
222880 11158
222940 1469
222980 61744
223000 1586
22300 132974
22310 39947
223140 10
22320 261355
223220 42687
223280 2248
22330 517454
223330 2549
223390 854493
22340 57706
223430 34769
223450 3673
223470 67585
22350 360132
223510 29038
223530 3640707
223630 29331
223670 621
22370 455387
223710 752839
223730 16153
223750 752641
22380 1024289
223810 19748
223830 4948
223850 12197
223870 19748
223910 752681
224060 18599
224220 4673
224300 21751
224320 752647
224340 1037
224360 875
224380 1507
224420 16211
224440 6508
224460 42
224480 1
224500 33022
22450 57999
224540 409553
224580 462159
224600 127235
224640 752641
224700 1133
224760 99900
224780 156432
224820 22316
224860 268
224900 573
22490 80163
224920 22725
224940 21302
224960 57532
224980 55352
225000 54702
22500 13843
225020 55735
225080 599
225140 43024
225160 9518
225180 444
225200 10660
225220 2056
225260 144930
225280 404
225300 56778
225320 56409
225360 3653
225420 22398
225600 6001
225640 96003
225760 188088
22600 309246
22609 13
22610 58567
226120 10327
226240 752644
226300 13
226320 935307
22650 197112
226700 243972
22670 45738
226720 1074
226740 21101
226760 260
226780 2089
226820 950
226960 188
226980 754932
227000 18916
22700 589
2270 141927
227020 69
227080 7369
227100 115315
227160 18891
227180 24217
227200 44902
227220 20663
227240 752642
227260 4260
227280 25522
227300 79744
227320 13650
227380 7405
227400 2775
227480 55879
227580 40998
227600 421
227680 75972
227720 22035
227760 11514
227800 46157
227860 6114
227900 399
227920 1692
227980 914
228000 247
2280 186439
228200 1282754
228260 19083
228280 81249
228300 21086
228320 58725
228400 25642
228440 15452
228560 2347
228760 32235
228860 19
228960 2662
2290 176124
229480 6559
229520 22103
229580 1202
229600 6099
229660 21889
229870 21187
229890 1939
229970 4049
2300 188419
230050 81941
230150 9272
230170 10878
230190 11665
230310 3271
230330 1745
230350 755
230410 752672
230650 5221
230700 11246
230760 843
230780 1583
230820 2740
230860 1873
230980 9461
23100 37950
2310 183487
231020 667
231040 446
231060 752646
231140 36496
231160 15221
231180 2266
231200 13148
23120 63212
23130 32932
231310 257
23140 34021
231430 637100
23150 33012
231670 70
231720 18
231740 9798
231910 2299
23200 24947
232010 11984
2320 177299
232050 20580
232210 722442
232430 2642
232450 754439
232750 23473
232770 7201
232810 2575
232910 28227
232950 7155
232970 1683
23300 22695
2330 170224
23310 138956
233110 11
233130 662
233190 3
233210 44
233230 6804
233250 5854
233270 103187
233370 994
233390 12021
233410 5290
233450 64064
233470 75704
233510 7313
233530 7313
233550 4636
233570 752643
23360 13566
233680 495
233700 31151
233720 170154
233740 84498
23380 32930
233840 2483
233860 27457
23390 27427
233980 27268
234000 157
23400 49458
2340 170253
234060 33
234080 2158
234100 235
234160 30046
234190 28562
23420 28121
234290 3521
234310 752645
234350 466
234370 6592
234390 1381
23440 28121
234490 5826
23450 36551
234530 2481
23460 15297
234630 539
234650 19356
234670 245
234710 164017
234740 76317
234900 17101
23490 190235
234940 2245
234980 2776
23500 36736
2350 149020
235070 1306
23510 32668
235250 15355
23530 31083
235360 13246
235600 6967
235660 4578
235700 3922
235720 407
235780 752655
235800 311
235820 4201
235980 13
23600 18882
2360 128080
236090 58454
236130 682
236150 321
236290 754
236370 11775
236390 752643
236450 321
236490 462
236510 527
236530 44
236730 8683
236790 2282
236830 359610
236850 5405
236890 1
236970 215
23700 24984
2370 126352
237110 35105
237310 752641
237370 88
237430 4718
237530 2259
237550 480
237570 14431
237590 1030
237630 3271
237740 774
237890 832
238010 92
238050 3366
238070 754034
238110 752645
238130 192
238170 4011
238210 69092
238240 4779
238280 865
238320 9270
238430 121
238530 5777
238630 2359
238690 752648
238710 221
238750 1149
238870 1426
238890 10208
238910 22
238930 3098
2390 127513
239030 13600
239070 7320
239200 9066
239350 7890
239410 349
239430 2
239450 89567
239660 752647
239700 500
239800 10393
239820 14760
2400 277386
24010 120274
240160 1933
240180 1884
240200 1620
240220 147
240340 90
240360 2
240 5702325
240600 1224
241100 752646
24120 7919
241240 303
24130 7823
241320 1521
24140 4994
241410 3891
24150 2798
241540 3083
241600 66047
241620 831
241640 1
24170 22093
241720 5407
241790 47
24180 1553
241910 78
24200 752641
2420 226244
24210 570
242110 2067
24220 1425
242320 22
24240 673122
242460 47
242480 47
242530 108
242550 1802
242570 2033
242590 501304
242630 4
242680 43
242700 1
242780 203
242800 252
242820 61
242860 317
242880 2013
242940 2
242960 73
242980 7
243000 13
243020 10
2430 280981
243040 13
243060 4
243120 416
243140 11
243180 3
243200 227
243360 3504
243380 1107
243450 255
243780 229
243800 65
243950 3943
24400 157779
244030 2172
244050 105
244070 233
24410 43154
24420 225335
24460 37606
244650 6
244690 3
24470 52982
244710 941
244730 1902
24480 46642
244810 243
244850 204
244870 1403
244930 71
24500 7771
245010 8
2450 66859
245130 646
245170 6917
245280 14
245350 36
245390 26
245410 91
245430 91
245450 97
245470 129
245730 97
24600 1501
246090 80
24610 891
24620 803
246210 27338
246300 664
24630 1710
246360 348
24640 856
24650 1702
246580 15
246600 56
24660 663
24670 10406
246740 267
246760 56
246960 176
246980 161
247000 21
24700 4973
247020 100
247120 2002
247140 52
24720 55066
247240 509
247310 17
247350 137
24740 337815
247580 1
24760 4635
247660 5
247730 37
24780 325052
247830 6
24790 111918
247910 34
24800 156047
24810 68835
248190 7
24820 870
24830 725
248350 202
24840 38260
248410 124
248450 32
248470 219
248490 285
24850 4044
248510 55
248550 23
24860 176015
248610 471
24870 47564
248710 18
248800 164
249130 85
249150 752642
24920 752792
249330 196
249360 471
24950 4
24960 765656
249630 383
249680 31
24980 478439
249870 716
249930 14
249990 442
2500 256426
25010 115117
250110 96
250200 9
250320 473
250380 115
250400 543
250460 41
250500 108
250520 105
250580 1017
250660 63
250720 23
251170 560
251310 15
251370 94
251410 9
251430 95
251710 19
251770 8
251790 11
251850 1
251910 2
252030 1
2520 52344
252210 9
252310 1
252330 49
2525 52344
252630 14
252670 10
252910 10
253650 28
253880 4
253900 61
253920 283
253940 390
253960 45
253980 269
254000 105
254020 96
254040 48
2540 56230
254060 180
254080 211
254100 162
254440 27
2545 56230
254960 53
254980 53
25500 39562
2550 56230
255320 4
255480 427
255520 249
255920 10
255940 8
25600 13997
256070 1
25620 21033
256330 7
25700 92869
2570 50020
257220 3
25730 19
25800 134337
258200 44
25830 56249
25840 39236
25850 62451
25860 12070
25870 1711
25890 96556
25900 159590
2590 51710
25910 8113
259170 7
259190 6
25920 10934
259280 4
259300 4
25930 60153
259320 1
25940 45699
25980 56413
25990 63117
26000 57937
2600 153943
260250 2
260270 5
260 4802173
2610 12564
2620 58853
26300 33681
2630 82115
2640 51444
26500 436861
26700 1
26710 573
26800 580047
2680 2227
26900 414109
2690 1896
27000 94686
2700 92238
27020 39274
27040 752641
27050 37804
2710 4711
27200 873
2720 3534
27220 6150
27300 5061
27330 30167
27400 46415
27600 32272
2760 135277
27800 43734
2780 11887
27810 23111
27900 39310
2790 4109
27920 19386
27940 50584
28000 146104
2800 105913
28050 1053100
280 847862
2810 164751
2820 184489
2840 65016
2850 63775
2900 10897
29100 2
2910 10897
29110 752643
29120 33529
29130 34888
29140 752642
29150 752641
29160 33571
29180 324650
2920 10897
2930 8089
29500 6349
29520 720
29530 1991
29550 3630
29590 1284
29640 20314
29650 19314
29660 16863
29670 10529
29680 6233
29690 2247
29720 96654
29800 14051
29900 7931
2990 115022
30000 217
3000 9621
300 2841302
3010 10999
3020 11561
3030 245
30 3209809
3040 91
3050 1648
31100 106398
31110 100633
31120 100633
31130 100633
31170 85474
31180 85474
31190 85474
31200 85474
31210 85474
31220 162933
31230 162933
31240 162933
31250 162933
31260 162933
31270 175298
31280 432290
31290 160546
31300 1405
3130 92413
31400 12
31410 163425
31500 752641
3150 34038
3160 36127
31700 69188
3170 150156
31740 752641
31800 1195
31810 1256
31820 1850
31830 3456
31840 1383
31850 2735
31860 1427
31870 1133
31880 1240
31890 1217
31900 1289
31910 2272
31920 1402
31930 1382
31980 1953
32000 34727
3200 47808
320 4629226
32110 36690
32120 34428
32130 2238
32140 6782
32150 9762
32160 14947
32200 55163
3220 39230
3230 7049
32310 41936
32330 4641
32340 45084
32350 56140
32360 212194
32370 604320
32380 164825
32390 158862
32400 159928
32410 16723
32420 41829
32430 130244
32440 31314
32450 4193
32460 161390
32470 145314
32500 100195
32510 10488
3260 39960
32610 3689
32620 35198
32630 35701
32640 3696
32650 3390
32660 3005
32670 6493
32680 5199
32690 4035
32700 3135
3270 97517
32710 35328
32720 35364
32730 36144
3273 3
32740 35248
32750 5564
32760 37325
32770 1685
32800 112915
32900 4567
3290 3
3300 50057
33100 58794
3310 43021
33110 50632
33120 64777
33130 87310
33180 88214
3320 51056
33210 17923
33220 243586
33230 379678
33250 13373
33260 2175
33270 1077
33280 10459
3330 48359
33320 114851
33340 12196
33350 6905
33390 5437
3340 41451
33420 39237
33440 79590
33460 279727
33500 1629
3350 45343
33510 1516
33520 48650
33530 48650
33540 5292
33550 3175
33570 31956
33580 22660
33600 53803
3360 41193
33610 52923
33620 5774
33650 5897
33660 3761
33670 33888
33680 18624
33700 31877
3370 42774
33710 31847
33720 715
33730 10568
33740 5649
33750 7314
33760 563
33770 6700
33780 2525
33790 789
3380 41637
33900 576676
3390 42517
33910 766108
33930 1336826
33950 1510
33970 752911
33980 7380
33990 4507
34000 80030
3400 41169
34010 152882
34030 478387
340 5386876
3410 50012
34180 6544
34190 37736
3420 41041
34220 92599
34250 207
34270 176788
3430 41419
34330 790735
3440 41359
34410 52852
34420 17940
34440 315702
34450 255730
34460 260865
34470 249073
34500 35810
3450 41585
34600 44124
3460 41226
34630 32398
34640 32475
34650 1389
34670 37735
3470 15315
34800 2571
3480 126815
34810 6966
34820 13751
34830 228833
3483 752641
34860 3368
34870 76688
34900 72605
3490 9538
34920 20203
34930 752641
35000 55592
3500 41207
35010 61666
35030 3840
35070 33799
3510 9727
35130 210866
35140 466240
3520 9922
35300 1496
3530 9125
35310 2880
35320 3550
3540 58304
35420 1505256
35430 26
35440 10
35450 614689
35460 143804
35470 162
35480 98442
35500 23737
35510 12654
35600 10896
3560 11620
35700 548067
3570 8729
35720 547579
35800 23057
3580 8559
3590 531327
36000 42984
3600 9991
360 1219379
36100 1955
3610 4934
36110 1955
36120 1955
36130 1137
36140 1137
36150 1361
36160 1361
36170 1361
36180 1648
36190 1648
36200 1648
3620 13810
36210 1826
36240 912
36270 986
36280 986
36290 986
36300 1298
3630 8696
36310 1632
36320 898
36340 218
36350 218
36360 218
36370 218
3650 1359
36620 752654
36630 752653
36700 33115
36900 1129
36910 1226
37000 72134
3700 131462
37010 4247
37030 16851
37100 42439
3710 12220
37200 5291
3720 85180
37210 2973
37220 3453
37230 2966
37240 4416
37250 3417
37260 3933
37270 2634
37280 2994
37290 2464
37300 3025
3730 78272
37310 2646
37320 2880
37330 2470
37340 2374
37350 2473
37360 2318
37370 2058
37380 2698
37390 2305
37400 129120
37420 129120
37500 8999
37600 76206
37700 38755
37800 28431
37900 33570
37910 33570
37920 33372
37930 33372
37940 33372
37950 33372
37960 33708
37970 33708
37980 33708
37990 33708
38000 34125
3800 36161
38010 34125
38020 34125
380 2191622
38030 32360
38040 32360
38050 34175
38060 37014
38070 32401
38080 2640
38090 2539
38100 2546
3810 34168
38110 3034
38120 2730
38130 3011
38140 2624
38150 2616
38160 2204
38170 1539
38180 1419
38190 1445
38200 1467
3820 34991
38210 4788
38220 51267
38230 12565
38240 1994
3830 610385
38400 164920
38410 165145
38420 155389
38430 34182
38440 37363
38450 4836
38460 4987
38480 6482
38490 6482
38530 4092
38600 98198
38700 188671
38720 124952
38740 150581
38800 1466
38810 397
38820 1138
38830 756507
38900 47736
39000 752641
3900 315702
3910 121287
39110 22813
39120 158478
39140 51832
39160 188252
39190 103115
39200 103455
3920 68656
39250 22053
39260 9222
39300 861
39310 779
39320 779
39330 861
39350 779
39360 861
39370 861
39380 779
39500 105808
39510 66927
39530 95135
39540 41806
39550 52287
39560 84819
39600 1131
3960 26513
39610 1055
39620 1132
39630 12179
39640 11690
39650 41566
39660 34271
39670 10850
39680 36607
39690 61944
3970 44395
39710 1622
39800 157410
3980 28297
39900 2351
3990 255730
40000 14670
4000 2083291
400 3414615
40100 355622
4010 20216
40120 71
40200 32385
40210 1247
40300 101106
40 3160934
40320 2598
40330 2966
40340 2313
40350 5339
40370 5103
40380 5834
40390 154769
40400 84571
40420 36335
40500 10037
40700 403455
40720 197076
40800 825031
40920 19950
40930 108599
40950 140594
40960 96846
40970 96896
40980 96842
40990 71301
41000 350651
4100 33125
41010 1043260
41030 27
41050 216712
41060 216190
41070 364210
41100 338764
41210 170096
41300 133395
41400 33401
41500 824353
41600 6482
41610 589
41660 2267
41680 1423
41700 319430
41730 23372
41740 29772
41760 752658
41800 352504
41900 38569
42000 3994
420 2039288
42120 177215
42140 27247
42160 887361
42170 81198
42179 217
42190 752684
42200 1287
42210 2391
42220 1350
42230 2434
4230 60729
42500 110477
42640 69268
42650 95753
42660 1132
42670 41544
42680 1365285
42690 1365285
42700 1446975
42710 1446975
42730 7859
42800 45188
42810 10527
42820 44586
42830 2378
42850 13934
42870 8146
42890 39936
4290 45919
42910 1474352
42920 25888
42930 18440
42940 18424
42950 18437
42960 63459
42980 25045
42990 50929
43000 60097
4300 20442
43100 30067
43110 1744853
43160 137469
43190 28565
4320 8573
43500 13776
43600 1518
44000 1413
4400 1761
440 3666656
44100 32149
4410 2309
44200 54736
4420 10320
44310 35179
44320 243843
44340 44239
44350 46896
44360 26933
44600 3745
4460 8885
44620 16739
44630 88937
44650 17796
44660 17527
44670 15133
44680 11000
44690 12243
4470 8800
45000 127056
4500 461137
45100 46595
4520 64032
45300 95628
4530 63559
45400 37324
4540 753576
45410 4713
45450 33210
45500 2796
4550 440360
4560 1219064
45700 75236
4570 542738
45710 4019
45720 7737
45730 7900
45740 129106
45750 31048
45760 101468
45770 45282
4580 269922
45900 4432
45910 2
46000 41999
4600 4683
46200 37775
46210 34750
46220 35250
46230 37775
46250 26271
46260 52526
46270 16146
46280 44030
46290 17146
46320 53349
46330 45210
46340 27367
46350 8984
46360 14911
46370 22966
46380 22460
46400 71898
46410 26752
46420 56802
46430 57762
46440 62148
46450 71003
46460 30628
46470 9
46480 21829
46490 22098
46500 42436
46510 39188
46520 32767
46540 61222
46550 17315
46560 20366
46570 36047
46600 15861
46700 19753
46710 20118
46720 5710
46730 8261
46740 9444
46750 21355
46760 19122
46770 2782
46790 8479
46830 19185
46840 18811
46850 11309
47000 7693
4700 331765
47110 32245
47120 32246
47130 32468
4720 15594
4730 9873
47400 141776
47410 752684
47500 1717
47520 1316
47540 60956
47570 1065
4760 403547
47700 119946
4770 192922
47730 54780
47780 353869
47790 289977
47800 22033
4780 238188
47810 223800
47830 289977
47850 4391
47870 181542
47890 194428
47900 81839
4790 895
47920 37650
48000 798220
4800 5711
480 752641
48110 21109
48120 28415
48150 1045
48160 23307
48180 41185
48190 290944
48210 33261
48220 155618
48240 223638
48260 261
4830 12106
4850 25066
48700 556483
4870 11019
48720 370979
48800 26007
4880 11632
48900 41072
4890 14895
48950 111638
49000 3279
4900 34882
4920 452081
49300 25734
49320 18397
49330 21911
49400 108648
49470 224825
49520 1396740
49539 76
49540 84522
49600 312773
49700 6939
49800 35183
49810 8573
49900 120025
50000 40946
500 1790163
50120 19629
50130 406232
50 1955369
50300 232851
50310 6579
50400 3253
50510 83293
50620 1040619
50640 11725
50650 424466
50800 1103
50820 63042
50900 426
50910 441
50920 613
50930 517
50940 656
50950 743
50960 759
50970 656
50980 647
50990 797
51000 1023
51010 956
51020 406
51030 433
51040 587
51060 3038
52003 217
520 1425662
55000 71259
55020 17151
550 3640626
55040 286500
55050 752644
55100 379582
55110 819590
55130 752641
55140 148721
55150 491642
55180 66
55190 980
55210 297
55230 1425402
55370 752641
56400 686142
57000 21767
570 6471982
57200 77060
57210 752641
57300 911583
57400 350268
57500 24601
57510 20661
57600 116969
57610 752641
57620 45309
57640 67900
57650 75571
57680 18809
57690 261949
57700 11512
57730 28750
57740 51407
57800 60579
57900 287833
57970 16373
58200 101697
58230 13236
58300 17756
58400 57496
58510 53774
58520 117025
58540 74085
58550 55358
58560 18985
58570 21692
58610 139769
6000 127723
6010 52099
6020 214918
60300 11
6030 180953
60310 11
60 3157538
60320 11
60330 11
60340 5830
60350 6484
6040 47944
60600 11694
6060 366352
60610 752647
60700 5046
60800 52435
6080 2447
6090 7619
61000 14006
6100 127931
61010 30954
61100 34692
6120 294958
61220 5130
61230 1025
61310 67003
61500 10775
61510 10958
61520 13769
61530 8303
61600 93544
61700 55592
61730 9414
61800 752650
61810 752650
61820 752650
61830 752650
62000 61462
6200 80724
620 2488291
62100 77661
6210 51741
6220 74674
6250 55057
6270 41819
6290 36867
63000 115442
6300 94651
630 752641
6310 119714
63110 36888
63200 206167
63230 29
6330 9763
63380 195594
6340 6235
63500 144152
6350 1909
63510 28
63600 32825
6360 1767
63610 30217
63620 20112
63630 20112
63640 20112
63650 21817
63660 29989
63700 229494
6370 752641
63710 437003
63800 78451
63900 22894
63910 84282
63930 240
63940 41935
63950 37490
63960 8543
64000 89084
6400 34999
6420 21258
644 2488294
65080 9133
65100 5584
6510 95655
65200 2572
6520 45
65260 1018
65270 5941
65300 161161
65400 4893
65500 6858
6550 32798
65530 27267
65540 48704
65560 59532
65600 45514
65610 30179
65700 131304
6570 2015
65710 1912
65720 132905
65730 13708
65740 15704
65770 61
65780 22357
65790 43573
65800 1014796
6580 752641
6590 752641
65930 5731
65950 21576
6600 62452
67000 105025
67370 139554
6800 94036
6810 91878
6820 3495
6830 105175
6840 100879
6850 286389
6860 394350
6870 41833
6880 130888
6900 271477
6910 394095
6920 287051
6980 235524
70000 88260
7000 151292
70100 87377
7010 38061
70110 80695
70120 62156
70200 2255
7020 37751
70210 4089
70 2165798
70300 397157
70400 193973
70420 71718
70500 15535
70600 62406
7060 37907
70620 37641
70630 49
70640 27631
70650 22179
70660 21740
70900 48489
71000 55650
7110 87201
71230 28008
71240 21510
71250 67184
71260 23072
71270 160937
71300 239
71310 381
71320 2795
71340 173377
71390 16096
71420 5933
72000 220105
7200 54435
7203 39
7210 55791
72200 343794
7220 52599
72300 39315
72400 7106
7240 39
72500 7749
7250 1596
72510 1
72520 1
72530 9
7260 37892
72850 1951516
72900 10658
72910 752641
73000 3
73010 76203
73020 32593
730 2217691
73060 20032
73170 17146
73190 11223
73210 12764
73220 8377
73230 63117
7340 753
7400 1186
7420 1172
742 10
7440 446
7450 1424
7470 1936
7500 57868
7510 23603
7520 128833
7530 19200
7600 37110
7610 35630
761 752641
7620 49772
7650 125782
765 752641
7660 123925
7670 766665
7730 115760
7740 28670
7760 156110
7770 115601
7780 28960
78000 39466
7800 16857
7810 2584
7830 127593
7840 47013
7850 76786
7860 33184
7870 6758
7880 6758
7900 6295
7910 4060
7940 388005
7970 5855
7980 3447
7990 2115
80000 19028
8000 164083
8010 842
80200 51276
80300 16411
80310 68109
80330 26675
80340 25988
80 3492628
80350 25991
80360 20353
8040 2490
8060 2874
8080 67615
8100 37576
8130 5
8140 176609
8160 34377
8170 47979
8190 961105
8200 67033
8210 66142
8220 66115
8230 815384
8240 64878
8250 64823
8260 62471
8270 61874
8280 62187
8290 61948
8300 61979
8310 9395
8320 9348
8330 9292
8340 28674
8350 28674
8360 28674
8370 29198
8380 28674
8400 109396
8500 115852
852 21
8600 112870
8620 33276
8640 19989
8650 10787
8660 39768
8690 23512
8740 389
8790 7363
8800 260865
8840 6005
8850 560470
8870 554020
8880 99426
8890 85505
8930 1617469
8955 156
8970 13532
8980 1191949
9000 130779
90100 10452
9010 108902
90200 34019
9030 170031
90400 5353
9040 170151
90500 25316
9050 190445
90530 752641
9060 129267
9070 168906
90800 4331
91100 34429
91200 233850
91310 1020093
91330 27772
91600 615185
9160 188419
91700 252339
91800 11341
9180 139465
91810 9286
91830 752641
91900 71960
92000 106506
9200 425317
92100 11888
92200 24475
92210 24560
92220 25553
92230 752649
92250 752649
92300 70336
92400 5870
92500 752641
92600 41049
92700 13658
92 752640
92800 212189
92900 10139
9310 267106
93200 273960
9340 1104542
9350 206598
94000 15617
9400 62530
94200 400396
9420 215149
94300 12353
94304 974
94500 160546
9450 258727
94510 160546
94520 160546
94530 160546
94590 118978
94600 106585
9460 130931
94610 102028
94620 102028
9480 491674
95000 1025
9500 243012
95300 215015
95500 68783
95700 753206
95900 24729
96000 37944
96100 10088
96200 244988
96300 91850
96400 72482
96800 188088
96900 14647
97000 187881
97100 148431
9710 1756
97110 8046
97120 7928
97130 10492
9730 2527
97330 237232
9740 29027
9 752639
9760 4815
9800 46802
98100 159637
98200 347358
98300 88335
98400 100600
98500 9108
9850 1970
98510 12264
98600 57482
9860 80104
9870 57521
98800 268026
9880 780739
98810 104
98900 11575
9900 796548
99100 37533
99120 2144
99200 7772
99300 94513
9930 123508
99400 51393
9940 11139
99410 5964
9960 2776
99700 333062
9970 3602
9980 5828
99810 116206
99830 71999
99870 752643
99890 53565
99900 752656
9990 7113
99910 752655
99920 752655
99930 14
