(10, 541.7923, 100.64, 4)
(100, 95.2142, 1.3, 0)
(10000, 1.2073, 11.04, 5)
(1002, 0.8564, 0.54, 8)
(10040, 0.0239, 0.58, 8)
(100400, 0.1213, 6.21, 6)
(100410, 0.6808, 4.55, 6)
(10080, 0.7729, 4.27, 6)
(10090, 25.6402, 17.07, 7)
(100970, 0.466, 9.89, 6)
(100980, 0.0973, 5.76, 6)
(10100, 0.9927, 3.67, 6)
(10110, 0.904, 2.9, 8)
(10120, 0.1273, 0.72, 8)
(10130, 0.4984, 3.86, 6)
(10140, 0.277, 2.17, 8)
(10150, 13.8098, 8.29, 7)
(10170, 1.8803, 7.57, 6)
(10180, 303.5739, 13.9, 4)
(10190, 288.1087, 98.0, 4)
(10220, 2.9239, 2.89, 6)
(102200, 3.1518, 2.67, 8)
(10230, 0.403, 1.85, 8)
(10240, 0.2333, 2.41, 8)
(102400, 0.9058, 0.46, 8)
(102410, 0.0356, 0.0, 8)
(10250, 0.5788, 1.67, 8)
(102500, 11.1999, 21.85, 5)
(10260, 0.3999, 1.09, 8)
(102600, 53.4181, 4.64, 0)
(102700, 8.7692, 0.17, 3)
(102810, 1.2295, 1.67, 8)
(102820, 2.3108, 13.79, 5)
(102840, 10.7773, 1.22, 3)
(102850, 1.7127, 2.24, 8)
(10400, 0.068, 0.39, 8)
(104000, 2.7966, 3.43, 6)
(104020, 0.4305, 0.76, 8)
(10410, 0.0005, 0.53, 8)
(104100, 1.2012, 0.64, 8)
(10420, 0.0077, 23.36, 5)
(104200, 0.9797, 0.74, 8)
(10430, 4.5258, 3.22, 3)
(104320, 6.9016, 0.79, 3)
(10440, 0.0034, 0.28, 8)
(10460, 0.5172, 0.67, 8)
(104600, 4.6404, 0.89, 3)
(10470, 0.0251, 0.53, 8)
(104700, 16.8784, 0.26, 7)
(10480, 0.0171, 24.24, 5)
(10490, 0.0382, 1.68, 8)
(104900, 6.4987, 0.69, 3)
(10500, 187.4612, 56.2, 2)
(105000, 0.6873, 2.6, 8)
(10510, 0.0119, 2.75, 8)
(105100, 1.8357, 0.62, 8)
(10520, 0.0528, 2.36, 8)
(105200, 0.1322, 15.65, 5)
(10530, 1.9731, 2.49, 8)
(105300, 2.5285, 1.02, 8)
(105310, 0.0759, 0.0, 8)
(10540, 63.6189, 89.34, 9)
(105400, 24.1544, 12.25, 7)
(105420, 0.1619, 2.2, 8)
(105430, 6.9571, 0.09, 3)
(10545, 0.0001, 0.18, 8)
(105450, 29.4689, 10.29, 7)
(10560, 0.8114, 154.28, 1)
(105600, 210.6036, 30.97, 2)
(105700, 1.4507, 0.48, 8)
(105800, 1.6054, 1.15, 8)
(10590, 0.5764, 135.97, 1)
(106000, 3.5449, 3.73, 6)
(106010, 1.9514, 0.0, 8)
(10630, 0.1504, 45.58, 9)
(10650, 0.4162, 1.01, 8)
(10660, 0.6918, 0.71, 8)
(10680, 55.3212, 8.14, 0)
(10690, 0.6023, 7.9, 6)
(10700, 3.4558, 0.63, 8)
(107000, 0.262, 2.66, 8)
(107100, 78.5625, 3.39, 0)
(107200, 24.6902, 8.23, 7)
(107300, 8.0877, 0.9, 3)
(107310, 13.2111, 1.63, 7)
(107400, 2.72, 0.02, 8)
(107410, 30.2623, 14.02, 7)
(107430, 0.0036, 0.0, 8)
(107600, 2.0231, 1.47, 8)
(107800, 8.5618, 1.28, 3)
(107900, 6.4084, 0.04, 3)
(108100, 0.6638, 1.18, 8)
(108110, 0.7088, 4.62, 6)
(108200, 3.9553, 13.68, 5)
(108210, 0.2898, 0.0, 8)
(108500, 8.3304, 1.57, 3)
(108700, 3.52, 2.56, 3)
(108710, 46.1758, 3.64, 0)
(108800, 29.9333, 3.06, 7)
(109200, 0.5017, 2.87, 8)
(109400, 2.6205, 0.02, 8)
(109410, 4.1112, 0.02, 3)
(109500, 0.1487, 0.37, 8)
(109700, 0.4491, 1.97, 8)
(11040, 0.6718, 1.18, 8)
(110400, 1.9406, 0.72, 8)
(11050, 0.6488, 1.01, 8)
(110500, 0.4722, 0.17, 8)
(11060, 0.2769, 4.77, 6)
(110600, 0.488, 0.61, 8)
(110610, 0.5504, 0.95, 8)
(110630, 0.3197, 0.63, 8)
(110800, 41.5699, 7.59, 0)
(111000, 0.4854, 2.75, 8)
(111010, 0.3267, 3.49, 6)
(111100, 2.5481, 0.7, 8)
(11120, 0.3923, 24.12, 5)
(11130, 0.6316, 0.47, 8)
(111300, 0.3094, 1.53, 8)
(11140, 1.0642, 1.3, 8)
(111400, 8.9433, 0.79, 3)
(11150, 0.6156, 0.96, 8)
(111600, 3.6581, 0.53, 8)
(11170, 3.1674, 11.71, 5)
(11180, 0.4256, 1.14, 8)
(111800, 10.5838, 1.32, 3)
(11190, 1.2321, 2.94, 6)
(111900, 0.1913, 2.33, 8)
(11200, 5.0328, 0.87, 3)
(112100, 5.0476, 3.78, 3)
(11230, 0.5561, 0.22, 8)
(11240, 1.3857, 1.5, 8)
(11250, 0.0007, 0.0, 8)
(11260, 0.7085, 3.78, 6)
(11280, 0.7704, 0.44, 8)
(113020, 9.4006, 2.81, 3)
(113200, 94.7133, 16.67, 0)
(11330, 1.2627, 1.1, 8)
(11340, 0.8521, 0.66, 8)
(113400, 13.44, 0.27, 3)
(113420, 6.6876, 0.05, 3)
(11360, 1.4346, 0.62, 8)
(11370, 1.1052, 0.6, 8)
(11390, 1.2911, 2.08, 8)
(113900, 1.9882, 0.01, 8)
(11420, 2.4841, 2.41, 8)
(11440, 3.4542, 3.51, 6)
(11450, 13.9825, 4.18, 7)
(11480, 0.7897, 4.0, 6)
(11490, 0.0004, 0.16, 8)
(11500, 2.2665, 4.27, 6)
(115100, 8.1558, 2.76, 3)
(115110, 6.8293, 1.77, 3)
(115120, 2.4376, 3.69, 6)
(11520, 0.3246, 9.29, 6)
(115200, 1.1441, 2.86, 8)
(115210, 1.1098, 3.51, 6)
(115220, 0.686, 4.76, 6)
(115320, 10.9047, 10.3, 7)
(11550, 0.5529, 2.12, 8)
(11560, 0.2001, 2.42, 8)
(11590, 1.7118, 2.89, 6)
(11610, 0.7549, 0.01, 8)
(116120, 0.9404, 0.98, 8)
(11900, 1.6468, 2.5, 8)
(11920, 0.5627, 2.84, 8)
(1200, 35.8559, 11.11, 0)
(1210, 0.0082, 0.91, 8)
(12100, 17.3603, 1.78, 7)
(12110, 29.1031, 3.03, 7)
(12120, 46.8335, 7.01, 0)
(12130, 1.71, 1.09, 8)
(12140, 14.2458, 2.51, 7)
(12150, 10.7091, 2.6, 3)
(12160, 4.4677, 0.8, 3)
(12170, 9.8601, 0.34, 3)
(12180, 8.9909, 0.26, 3)
(12190, 0.2802, 0.1, 8)
(12200, 14.4138, 4.21, 7)
(12210, 124.4663, 13.55, 2)
(12220, 52.2877, 7.53, 0)
(12230, 0.7572, 0.17, 8)
(12240, 1.4794, 0.29, 8)
(12250, 3.0526, 1.06, 8)
(12260, 0.4003, 1.96, 8)
(1230, 8.1614, 0.56, 3)
(12300, 0.0189, 11.86, 5)
(12310, 0.2925, 2.7, 8)
(12320, 2.5824, 6.04, 6)
(12330, 2.5912, 4.7, 6)
(12340, 0.3823, 2.44, 8)
(12360, 7.1737, 4.21, 3)
(12370, 1.6861, 11.73, 5)
(12380, 0.5204, 1.95, 8)
(12390, 0.2298, 2.91, 8)
(12400, 0.0121, 45.4, 9)
(12420, 0.3371, 1.44, 8)
(12430, 0.7965, 1.25, 8)
(12440, 0.2224, 1.21, 8)
(12450, 0.1027, 1.43, 8)
(12460, 0.3656, 2.0, 8)
(12470, 2.9598, 7.41, 6)
(12480, 0.3941, 2.81, 8)
(1250, 142.3619, 24.73, 2)
(12500, 4.5052, 12.03, 5)
(12510, 0.9519, 2.79, 8)
(12520, 2.6632, 4.22, 6)
(12530, 0.4095, 3.02, 6)
(12540, 0.0811, 3.39, 6)
(12550, 0.103, 0.82, 8)
(12560, 0.6174, 0.35, 8)
(12570, 0.0818, 1.63, 8)
(12580, 0.081, 2.01, 8)
(12590, 0.4764, 1.08, 8)
(12600, 0.2182, 0.37, 8)
(12630, 0.2919, 1.18, 8)
(12640, 1.5143, 6.9, 6)
(12650, 0.0533, 0.1, 8)
(12660, 0.0654, 0.09, 8)
(12670, 0.0006, 0.0, 8)
(12690, 1.3678, 2.18, 8)
(1270, 0.0127, 8.13, 6)
(12710, 6.7932, 5.04, 3)
(12720, 0.0002, 0.01, 8)
(12750, 19.1811, 6.42, 7)
(12770, 0.4253, 3.19, 6)
(12790, 0.5873, 3.0, 6)
(1280, 15.4237, 8.7, 7)
(12800, 5.1239, 3.59, 3)
(12810, 12.5529, 6.56, 7)
(12830, 12.6187, 4.92, 7)
(12840, 26.1434, 6.83, 7)
(12860, 0.309, 14.8, 5)
(12900, 73.2005, 4.86, 0)
(130, 32.7442, 1.15, 7)
(1300, 5.5867, 2.26, 3)
(13000, 0.7297, 1.03, 8)
(1309, 0.5804, 0.06, 8)
(13100, 0.0012, 7.41, 6)
(13120, 0.0357, 58.43, 9)
(1313, 3.5391, 0.64, 8)
(13140, 7.5109, 0.1, 3)
(1320, 0.638, 1.95, 8)
(13200, 3.0019, 0.99, 8)
(13210, 30.3449, 6.83, 7)
(13230, 9.6233, 5.6, 3)
(13240, 6.9551, 2.42, 3)
(13250, 4.2628, 1.12, 3)
(1330, 0.0017, 6.45, 6)
(13500, 3.276, 2.09, 8)
(13510, 5.9047, 2.85, 3)
(13520, 15.8429, 3.66, 7)
(13530, 2.7086, 1.77, 8)
(13540, 0.69, 0.75, 8)
(13560, 4.9848, 2.98, 3)
(13570, 7.5651, 4.43, 3)
(13580, 4.659, 3.11, 3)
(13600, 6.3278, 2.13, 3)
(13620, 0.5987, 0.75, 8)
(13630, 0.5786, 0.9, 8)
(13640, 3.1643, 2.29, 8)
(13650, 0.0001, 0.0, 8)
(13700, 0.5666, 4.12, 6)
(1500, 10.7612, 1.08, 3)
(15000, 0.6518, 1.84, 8)
(15060, 0.3122, 1.11, 8)
(15080, 0.1269, 1.91, 8)
(1510, 12.2678, 1.44, 3)
(15100, 27.5502, 5.9, 7)
(15120, 16.1759, 6.8, 7)
(15130, 5.7584, 2.64, 3)
(15140, 0.1383, 3.37, 6)
(15150, 0.1596, 2.89, 8)
(15160, 0.233, 6.85, 6)
(15170, 9.5956, 12.2, 5)
(15190, 2.7058, 2.92, 6)
(1520, 20.1016, 1.5, 7)
(15200, 1.9942, 9.58, 6)
(15210, 3.728, 12.72, 5)
(15220, 0.4454, 0.87, 8)
(15230, 0.689, 3.19, 6)
(15240, 0.6907, 9.33, 6)
(1525, 0.003, 1.74, 8)
(15260, 0.3438, 24.6, 5)
(15270, 0.3823, 1.97, 8)
(15280, 0.0936, 3.23, 6)
(15290, 0.126, 3.06, 6)
(1530, 5.4113, 0.9, 3)
(15300, 2.7223, 2.05, 8)
(15310, 0.479, 7.5, 6)
(15320, 6.8824, 8.25, 3)
(15330, 0.0747, 4.69, 6)
(15350, 0.0619, 1.87, 8)
(15370, 4.0573, 15.01, 5)
(15380, 2.306, 4.46, 6)
(15390, 2.7881, 4.67, 6)
(15400, 2.0075, 2.11, 8)
(15500, 5.6133, 1.17, 3)
(15520, 9.6971, 1.06, 3)
(15540, 5.1226, 0.74, 3)
(15560, 3.7213, 0.69, 8)
(15620, 131.8603, 18.72, 2)
(15700, 10.7097, 1.49, 3)
(15710, 5.5402, 1.63, 3)
(15740, 2.8009, 1.37, 8)
(15750, 4.8047, 1.71, 3)
(15800, 0.0391, 0.02, 8)
(15900, 0.3757, 16.63, 5)
(15910, 0.2809, 3.61, 6)
(15920, 0.4923, 4.18, 6)
(15930, 0.8416, 2.93, 6)
(15940, 0.1677, 0.12, 8)
(15950, 0.6472, 1.26, 8)
(15960, 0.3274, 4.8, 6)
(15970, 0.4579, 5.34, 6)
(15980, 0.1597, 1.35, 8)
(15990, 0.6151, 1.49, 8)
(1600, 1.3094, 1.73, 8)
(16000, 0.2216, 2.5, 8)
(16020, 0.2493, 3.57, 6)
(16030, 0.5805, 2.65, 8)
(16040, 0.4024, 9.92, 6)
(16060, 0.2913, 4.28, 6)
(16090, 0.0525, 15.31, 5)
(1610, 1.2416, 4.83, 6)
(16100, 0.3885, 3.0, 6)
(16110, 0.2641, 2.76, 8)
(16120, 0.4239, 6.28, 6)
(16130, 0.4382, 3.83, 6)
(16180, 0.3977, 4.08, 6)
(16200, 0.2569, 4.68, 6)
(1630, 1.7902, 3.26, 6)
(16300, 2.1064, 0.63, 8)
(1640, 2.1906, 3.54, 6)
(16450, 45.2366, 8.79, 0)
(16480, 0.2719, 11.01, 5)
(16500, 0.136, 0.08, 8)
(16600, 7.7306, 4.19, 3)
(16620, 1.2271, 3.55, 6)
(1670, 0.0996, 0.03, 8)
(16700, 0.0969, 7.28, 6)
(16710, 0.2997, 0.53, 8)
(16720, 3.7716, 1.94, 3)
(16730, 2.5588, 1.06, 8)
(16800, 0.003, 4.92, 6)
(16810, 11.5342, 5.99, 3)
(1690, 1.8803, 9.36, 6)
(16900, 0.0044, 1.65, 8)
(1700, 2.7769, 1.4, 8)
(17020, 14.0842, 1.13, 7)
(17030, 0.0614, 20.11, 5)
(17080, 5.3698, 0.04, 3)
(17100, 1.523, 7.85, 6)
(17120, 0.7799, 12.65, 5)
(17130, 0.0003, 0.4, 8)
(17140, 1.7092, 5.13, 6)
(17180, 0.3122, 3.16, 6)
(17300, 41.1653, 5.07, 0)
(17330, 21.0506, 2.6, 7)
(17340, 12.1597, 1.48, 3)
(17390, 15.7869, 11.27, 7)
(17400, 0.301, 39.33, 9)
(17410, 48.4841, 2.19, 0)
(17420, 0.2739, 15.39, 5)
(17430, 6.5809, 7.68, 3)
(17440, 2.757, 4.18, 6)
(17450, 21.6745, 48.62, 9)
(17460, 53.3515, 15.72, 0)
(17470, 38.8419, 3.18, 0)
(17480, 19.0627, 9.93, 7)
(17500, 3.9745, 0.05, 3)
(17510, 1.9977, 0.01, 8)
(17520, 0.7751, 0.0, 8)
(17530, 0.5143, 0.0, 8)
(17550, 0.1571, 0.0, 8)
(17570, 1.4028, 0.01, 8)
(17580, 0.4978, 0.0, 8)
(17600, 0.2067, 4.98, 6)
(17700, 2.7325, 0.03, 8)
(17710, 11.2308, 4.94, 3)
(17730, 0.2914, 0.0, 8)
(17740, 0.1694, 0.0, 8)
(17760, 0.0002, 6.06, 6)
(17800, 0.4291, 6.75, 6)
(17810, 0.2793, 8.15, 6)
(18000, 8.3455, 2.12, 3)
(18020, 3.1756, 2.98, 6)
(18040, 3.4593, 4.39, 6)
(18050, 1.1907, 5.64, 6)
(18070, 2.5766, 2.03, 8)
(18100, 0.1203, 8.85, 6)
(18110, 10.5692, 1.72, 3)
(18120, 2.3044, 1.48, 8)
(18300, 2.095, 0.74, 8)
(1840, 10.5842, 0.12, 3)
(18400, 2.0322, 1.78, 8)
(18420, 1.2336, 1.03, 8)
(18450, 0.4307, 0.46, 8)
(18460, 0.4492, 0.31, 8)
(18470, 0.3691, 0.65, 8)
(18480, 0.2723, 0.52, 8)
(18490, 0.7199, 1.42, 8)
(18500, 31.1763, 11.91, 7)
(18600, 0.1654, 0.57, 8)
(18700, 20.4107, 0.5, 7)
(18820, 2.1124, 1.95, 8)
(1900, 2.0384, 3.51, 6)
(19000, 4.284, 4.09, 3)
(19020, 0.3683, 3.42, 6)
(19030, 0.4597, 2.04, 8)
(19080, 0.0401, 0.54, 8)
(19090, 0.2444, 8.81, 6)
(19100, 0.0001, 0.05, 8)
(1920, 0.1888, 5.3, 6)
(19200, 0.7157, 0.69, 8)
(1930, 1.9228, 7.32, 6)
(19320, 0.1252, 0.56, 8)
(19500, 0.2039, 0.42, 8)
(19680, 12.0955, 5.15, 7)
(19800, 1.9637, 3.04, 6)
(19810, 0.0332, 1.25, 8)
(19830, 2.6869, 5.17, 6)
(19840, 0.0151, 0.02, 8)
(19860, 0.001, 0.03, 8)
(19900, 36.7614, 6.21, 0)
(19920, 0.0002, 0.0, 8)
(19930, 1.1582, 12.84, 5)
(19980, 5.3941, 1.56, 3)
(19990, 0.1688, 1.05, 8)
(20, 37.8079, 4.24, 0)
(200010, 9.8346, 3.13, 3)
(200020, 0.2078, 1.53, 8)
(200050, 1.9801, 4.46, 6)
(200060, 0.4787, 3.54, 6)
(200080, 0.2019, 6.42, 6)
(200130, 0.4213, 11.48, 5)
(200170, 17.968, 4.54, 7)
(200190, 1.4043, 0.67, 8)
(200210, 11.7729, 0.17, 3)
(200230, 0.7489, 2.64, 8)
(200260, 23.929, 8.19, 7)
(200350, 0.6595, 0.71, 8)
(200370, 3.8001, 6.33, 6)
(200390, 4.6359, 0.83, 3)
(200410, 1.7066, 1.07, 8)
(200490, 0.0684, 1.98, 8)
(200510, 77.7522, 20.12, 0)
(200530, 0.049, 13.9, 5)
(200550, 2.5908, 1.59, 8)
(200630, 1.0941, 0.51, 8)
(200670, 1.0088, 5.33, 6)
(200710, 114.5418, 14.12, 2)
(200900, 26.3785, 2.12, 7)
(200910, 7.5931, 2.48, 3)
(200940, 2.9607, 1.12, 8)
(200960, 1.0674, 3.46, 6)
(200980, 0.1994, 2.54, 8)
(200990, 0.1246, 1.93, 8)
(201000, 0.1332, 1.44, 8)
(201010, 0.3731, 2.23, 8)
(201020, 2.9114, 58.83, 9)
(201070, 0.4051, 1.64, 8)
(201190, 2.576, 0.01, 8)
(201210, 1.2896, 0.0, 8)
(201230, 2.0425, 0.02, 8)
(201280, 17.5639, 2.79, 7)
(201290, 10.1975, 10.33, 5)
(201310, 10.6277, 26.65, 5)
(201330, 0.0603, 2.76, 8)
(201420, 0.1989, 1.91, 8)
(201480, 3.5107, 0.26, 8)
(201490, 2.7673, 4.44, 6)
(201510, 2.3725, 0.77, 8)
(201570, 2.2232, 0.93, 8)
(201700, 9.766, 3.73, 3)
(201760, 10.3162, 9.16, 3)
(201790, 51.4161, 7.91, 0)
(201830, 2.7427, 2.6, 8)
(201870, 19.1105, 12.73, 7)
(201930, 0.0002, 0.59, 8)
(20200, 0.2389, 0.29, 8)
(202070, 1.3718, 1.8, 8)
(202090, 0.018, 1.29, 8)
(202110, 0.002, 2.73, 8)
(202130, 3.9757, 5.17, 6)
(202170, 45.0954, 9.94, 0)
(202200, 11.2607, 8.82, 7)
(202270, 2.7151, 1.72, 8)
(202310, 3.0025, 3.36, 6)
(202370, 0.3474, 1.49, 8)
(202410, 1.4003, 0.56, 8)
(202530, 3.1413, 2.26, 8)
(202570, 0.1467, 1.65, 8)
(202670, 0.1476, 4.41, 6)
(202690, 0.6894, 12.08, 5)
(202710, 5.8658, 3.82, 3)
(202730, 3.0612, 0.45, 8)
(202750, 12.3453, 1.08, 3)
(202860, 0.3602, 2.61, 8)
(202900, 0.0001, 0.13, 8)
(202970, 97.2789, 4.59, 0)
(202990, 103.6318, 39.55, 2)
(20300, 0.0001, 1.98, 8)
(203140, 58.2211, 10.05, 0)
(203160, 51.6013, 9.2, 0)
(203210, 2.3329, 1.69, 8)
(203250, 1.218, 4.43, 6)
(203350, 3.6255, 38.4, 9)
(203510, 2.5571, 3.93, 6)
(203560, 1.387, 1.06, 8)
(203630, 7.3347, 14.8, 5)
(203650, 1.4844, 1.96, 8)
(203680, 0.8572, 3.89, 6)
(203730, 6.937, 1.55, 3)
(203750, 5.9356, 3.67, 3)
(203770, 24.6142, 40.81, 9)
(203810, 25.1831, 0.78, 7)
(203830, 1.5932, 5.03, 6)
(203850, 1.8945, 0.1, 8)
(203990, 0.2957, 0.44, 8)
(20400, 0.0023, 0.26, 8)
(204030, 13.4258, 5.17, 7)
(204060, 22.5707, 0.7, 7)
(204080, 5.9404, 0.5, 3)
(204100, 39.559, 8.18, 0)
(204120, 0.9108, 9.11, 6)
(204140, 2.8444, 1.67, 8)
(204180, 1.7516, 0.81, 8)
(204220, 6.6929, 0.43, 3)
(204240, 1.1296, 1.43, 8)
(204300, 37.7607, 5.54, 0)
(204340, 4.9832, 1.78, 3)
(204360, 39.1891, 4.88, 0)
(204390, 0.776, 1.09, 8)
(204440, 0.4211, 4.7, 6)
(204450, 6.4526, 4.54, 3)
(204510, 0.1816, 1.1, 8)
(204530, 0.1928, 3.32, 6)
(204560, 2.0442, 1.59, 8)
(204580, 0.115, 1.43, 8)
(204630, 3.3129, 1.74, 8)
(204760, 0.179, 1.7, 8)
(204840, 1.2925, 0.76, 8)
(204860, 1.4153, 5.68, 6)
(204880, 21.4161, 19.51, 7)
(204940, 0.8984, 3.79, 6)
(204960, 0.6547, 1.45, 8)
(20500, 23.2097, 6.06, 7)
(205060, 0.6311, 0.29, 8)
(205070, 0.3682, 0.33, 8)
(205080, 0.0835, 0.28, 8)
(20510, 11.1346, 9.02, 7)
(205100, 54.2729, 10.24, 0)
(205190, 7.8083, 13.54, 5)
(205230, 3.092, 2.09, 8)
(205250, 0.5414, 1.34, 8)
(205270, 0.9544, 2.13, 8)
(20530, 7.7214, 1.25, 3)
(205330, 0.2477, 3.48, 6)
(205350, 2.7104, 2.01, 8)
(20540, 38.953, 16.11, 0)
(20550, 3.8935, 0.5, 3)
(205530, 1.8018, 1.41, 8)
(205550, 1.8053, 0.95, 8)
(205590, 2.3491, 5.0, 6)
(205610, 4.161, 9.74, 5)
(205650, 2.3489, 4.86, 6)
(205690, 1.0056, 1.05, 8)
(20570, 69.715, 13.69, 0)
(205710, 0.3794, 0.0, 8)
(205730, 3.6961, 1.68, 3)
(205790, 49.0372, 0.14, 0)
(205810, 1.3446, 11.67, 5)
(205830, 0.3506, 6.9, 6)
(205840, 1.0212, 2.78, 8)
(205870, 1.6946, 0.8, 8)
(20590, 0.6904, 187.41, 1)
(205910, 5.3263, 0.89, 3)
(205930, 19.1195, 1.01, 7)
(205950, 3.7679, 1.67, 3)
(206020, 0.6666, 5.19, 6)
(206040, 0.1309, 2.63, 8)
(206060, 0.4249, 4.13, 6)
(206180, 0.0001, 0.0, 8)
(206190, 4.8758, 2.3, 3)
(206210, 6.427, 0.03, 3)
(206230, 0.0481, 11.66, 5)
(206250, 0.6791, 5.0, 6)
(206270, 0.1503, 0.9, 8)
(206370, 0.8134, 1.56, 8)
(206410, 0.433, 1.75, 8)
(206420, 4.8898, 11.49, 5)
(206440, 9.0172, 1.58, 3)
(206480, 1.9123, 0.02, 8)
(206500, 2.2561, 0.01, 8)
(206610, 0.1267, 3.01, 6)
(206690, 2.5534, 4.03, 6)
(206740, 0.5069, 1.25, 8)
(206760, 0.981, 1.27, 8)
(206940, 0.0001, 0.44, 8)
(206950, 0.0001, 0.0, 8)
(206960, 0.0001, 0.0, 8)
(206970, 0.0001, 0.01, 8)
(206980, 3.6915, 1.55, 3)
(20700, 0.8763, 3.75, 6)
(207000, 0.0879, 1.1, 8)
(207020, 0.8146, 1.36, 8)
(207040, 3.6764, 0.89, 8)
(207060, 0.946, 33.7, 9)
(207080, 5.9982, 1.35, 3)
(20710, 1.9699, 1.53, 8)
(207140, 0.0089, 2.13, 8)
(207150, 3.1848, 4.66, 6)
(207170, 33.51, 4.89, 7)
(207190, 0.5849, 0.53, 8)
(207210, 3.5316, 2.84, 3)
(207230, 2.8451, 0.0, 8)
(207250, 7.4944, 0.98, 3)
(207320, 4.1195, 3.97, 3)
(207350, 5.1064, 5.52, 3)
(207370, 0.4879, 0.41, 8)
(207380, 0.2982, 0.85, 8)
(207400, 0.3513, 1.17, 8)
(207420, 6.7288, 0.79, 3)
(207430, 3.5057, 2.74, 3)
(207490, 6.5817, 4.43, 3)
(207530, 1.84, 0.54, 8)
(207570, 2.5239, 0.29, 8)
(207610, 60.2479, 6.57, 0)
(207650, 1.6024, 0.42, 8)
(207670, 0.6105, 0.43, 8)
(207690, 9.3209, 1.22, 3)
(207710, 0.1499, 0.68, 8)
(207730, 0.236, 0.67, 8)
(207750, 3.513, 2.4, 3)
(207790, 0.3944, 2.8, 8)
(207890, 88.8466, 128.88, 1)
(207930, 1.728, 0.68, 8)
(208030, 1.5986, 0.0, 8)
(208090, 13.9187, 3.54, 7)
(208110, 0.8811, 2.52, 8)
(208140, 28.1568, 16.33, 7)
(20820, 14.5893, 1.1, 7)
(208200, 9.0011, 4.41, 3)
(20840, 1.3792, 21.29, 5)
(208400, 1.6435, 11.48, 5)
(208460, 0.3984, 1.43, 8)
(208480, 17.9432, 24.63, 5)
(208500, 13.4646, 23.78, 5)
(208520, 5.1996, 8.21, 6)
(208580, 16.2756, 7.45, 7)
(208600, 2.5895, 1.32, 8)
(208610, 0.9448, 2.54, 8)
(208620, 0.3071, 2.77, 8)
(208630, 0.2378, 3.03, 6)
(208640, 0.2285, 3.08, 6)
(208670, 3.5864, 2.51, 3)
(208710, 0.3994, 1.06, 8)
(208730, 4.5307, 5.89, 6)
(208860, 0.693, 1.17, 8)
(20900, 50.2567, 8.67, 0)
(209000, 0.1036, 5.84, 6)
(209060, 0.1551, 1.51, 8)
(209080, 16.0237, 4.57, 7)
(209100, 3.1268, 4.66, 6)
(209120, 4.4685, 6.35, 6)
(209160, 0.0005, 4.75, 6)
(209190, 2.7791, 1.11, 8)
(20920, 54.9995, 9.62, 0)
(209230, 0.2816, 2.83, 8)
(209270, 6.7608, 12.32, 5)
(209330, 3.4509, 2.26, 3)
(209340, 0.0749, 2.31, 8)
(209360, 0.6307, 1.08, 8)
(209370, 2.7798, 2.08, 8)
(209390, 0.4088, 2.46, 8)
(209520, 0.6972, 1.36, 8)
(209540, 5.0052, 2.22, 3)
(209610, 0.4749, 0.84, 8)
(209630, 0.1353, 2.67, 8)
(209670, 3.5313, 2.96, 3)
(209690, 2.4145, 2.77, 8)
(209710, 1.0663, 0.01, 8)
(209730, 1.8391, 2.27, 8)
(209750, 0.231, 2.05, 8)
(209790, 5.8, 0.61, 3)
(209830, 16.1339, 0.53, 7)
(209850, 0.4974, 2.39, 8)
(209870, 10.5708, 0.11, 3)
(209890, 0.0339, 0.37, 8)
(209950, 1.5052, 11.78, 5)
(2100, 19.8188, 3.82, 7)
(21000, 2.4567, 8.24, 6)
(21010, 0.619, 1.9, 8)
(210150, 0.8793, 4.79, 6)
(210170, 1.5844, 0.29, 8)
(210230, 0.1249, 5.66, 6)
(21030, 0.2002, 1.49, 8)
(210350, 0.4605, 2.11, 8)
(210390, 0.1952, 1.24, 8)
(210410, 0.4062, 2.8, 8)
(210430, 0.0407, 2.38, 8)
(210490, 0.3487, 1.12, 8)
(210500, 0.0062, 0.0, 8)
(210550, 1.5093, 2.63, 8)
(21070, 0.2008, 3.15, 6)
(210770, 4.93, 4.29, 3)
(21080, 0.2955, 2.94, 8)
(210870, 0.1754, 3.12, 6)
(21090, 16.1027, 3.36, 7)
(210950, 0.9432, 2.83, 8)
(210990, 1.0619, 28.72, 9)
(211, 16.5477, 0.29, 7)
(21100, 32.5842, 5.72, 7)
(211010, 0.309, 1.25, 8)
(211050, 0.7315, 1.62, 8)
(211070, 0.4267, 1.68, 8)
(21110, 5.4879, 1.81, 3)
(211120, 2.7039, 2.9, 6)
(211140, 0.463, 46.13, 9)
(211160, 4.4077, 1.81, 3)
(211180, 1.748, 1.41, 8)
(21120, 4.0177, 2.13, 3)
(211260, 4.5968, 1.86, 3)
(211280, 0.4672, 0.99, 8)
(21130, 2.071, 9.89, 5)
(211340, 0.9277, 4.63, 6)
(211360, 5.2894, 0.58, 3)
(211380, 0.3604, 0.83, 8)
(21140, 0.5469, 16.55, 5)
(211400, 15.6538, 1.89, 7)
(211420, 37.5714, 24.29, 0)
(211440, 1.3879, 1.01, 8)
(211500, 2.9086, 0.0, 8)
(211580, 4.8665, 2.46, 3)
(211600, 5.5625, 1.75, 3)
(211670, 0.8107, 6.65, 6)
(21170, 8.7839, 4.5, 3)
(211740, 2.2591, 1.87, 8)
(211780, 0.1371, 2.9, 8)
(21180, 0.0014, 1.76, 8)
(211800, 0.2345, 1.06, 8)
(211880, 1.9703, 0.0, 8)
(211900, 0.9873, 6.61, 6)
(211970, 0.1917, 5.64, 6)
(212010, 3.1091, 6.1, 6)
(212030, 2.1719, 1.92, 8)
(212050, 1.3995, 2.88, 8)
(212070, 1.5439, 0.01, 8)
(212090, 0.0114, 11.99, 5)
(212110, 0.4743, 0.41, 8)
(212160, 1.3752, 0.04, 8)
(212180, 1.8586, 0.01, 8)
(212200, 0.3697, 0.01, 8)
(212220, 0.4072, 0.0, 8)
(212240, 0.1409, 0.0, 8)
(212370, 2.2177, 0.0, 8)
(212390, 1.5511, 0.01, 8)
(212410, 0.6834, 3.19, 6)
(212480, 5.5708, 5.3, 3)
(212500, 3.8283, 0.07, 8)
(212542, 0.0001, 0.0, 8)
(212580, 3.8493, 6.79, 6)
(212630, 7.839, 9.75, 5)
(212680, 66.1828, 10.78, 0)
(212700, 0.6078, 0.64, 8)
(212740, 0.0729, 16.68, 5)
(212780, 0.6986, 6.92, 6)
(212800, 2.4603, 0.0, 8)
(212840, 0.0828, 0.0, 8)
(212910, 87.6432, 6.45, 0)
(2130, 11.7999, 2.72, 3)
(21300, 0.6047, 0.53, 8)
(213030, 6.4701, 2.3, 3)
(213120, 4.637, 12.6, 5)
(213330, 2.471, 10.0, 5)
(213350, 0.1515, 1.37, 8)
(213610, 6.0665, 4.63, 3)
(213630, 0.4807, 0.28, 8)
(213650, 1.998, 0.0, 8)
(213850, 7.4886, 12.42, 5)
(21400, 0.3149, 0.26, 8)
(214050, 0.0129, 0.48, 8)
(214100, 0.8269, 1.28, 8)
(214130, 0.448, 2.98, 6)
(214150, 1.1832, 2.31, 8)
(214170, 3.7267, 4.85, 6)
(214210, 0.2528, 3.82, 6)
(214230, 0.2664, 3.84, 6)
(214250, 11.5419, 2.25, 3)
(214270, 0.1598, 2.15, 8)
(214310, 0.1726, 1.04, 8)
(214320, 0.1681, 0.63, 8)
(214340, 5.4545, 3.22, 3)
(214360, 7.422, 3.83, 3)
(214400, 0.0767, 2.03, 8)
(214420, 1.3486, 0.0, 8)
(214510, 7.6964, 6.44, 3)
(214560, 28.2931, 3.53, 7)
(214570, 0.2678, 0.68, 8)
(214590, 1.2337, 1.12, 8)
(214610, 0.6299, 2.1, 8)
(214630, 0.8071, 5.16, 6)
(214640, 0.5883, 12.8, 5)
(214700, 3.6918, 0.37, 8)
(214730, 1.1691, 18.55, 5)
(214770, 0.199, 2.81, 8)
(214790, 12.6033, 1.19, 3)
(214830, 8.2133, 1.45, 3)
(214850, 1.0602, 0.0, 8)
(214870, 6.338, 1.89, 3)
(214910, 1.063, 4.31, 6)
(214950, 5.3086, 16.06, 5)
(214970, 6.3837, 0.74, 3)
(21500, 0.1643, 0.67, 8)
(215060, 0.4758, 0.52, 8)
(215120, 0.6118, 0.0, 8)
(215160, 1.9848, 4.94, 6)
(215280, 7.4863, 21.05, 5)
(215390, 0.2106, 5.0, 6)
(215450, 0.431, 1.41, 8)
(215470, 8.3719, 4.79, 3)
(215490, 0.0009, 36.5, 9)
(215510, 1.2329, 0.54, 8)
(215530, 6.4542, 5.4, 3)
(215590, 0.0016, 70.81, 9)
(215630, 0.0015, 3.17, 6)
(215670, 6.4058, 0.56, 3)
(215690, 0.745, 2.09, 8)
(215710, 1.4995, 11.29, 5)
(215770, 0.4525, 1.77, 8)
(215790, 0.405, 0.81, 8)
(215870, 0.621, 0.0, 8)
(215930, 0.245, 6.43, 6)
(21600, 0.2838, 2.63, 8)
(216090, 0.5537, 2.65, 8)
(21610, 0.378, 7.52, 6)
(216110, 0.7848, 1.74, 8)
(216130, 1.0278, 3.05, 6)
(216150, 1.5096, 0.03, 8)
(21620, 0.0037, 0.72, 8)
(216210, 0.1864, 4.82, 6)
(216250, 12.9391, 4.9, 7)
(216290, 0.6518, 1.21, 8)
(216370, 0.3134, 0.06, 8)
(216390, 5.4966, 15.77, 5)
(21640, 0.5212, 1.21, 8)
(216570, 0.835, 157.18, 1)
(21660, 7.3784, 15.41, 5)
(216610, 1.5059, 128.62, 1)
(216670, 0.5972, 6.53, 6)
(21670, 1.0384, 3.24, 6)
(21680, 1.9182, 1.89, 8)
(216890, 6.2995, 19.37, 5)
(21690, 15.6914, 8.35, 7)
(216910, 3.0015, 3.18, 6)
(216930, 0.0593, 15.76, 5)
(217060, 2.0239, 1.1, 8)
(217080, 0.8095, 2.78, 8)
(217140, 0.4187, 1.86, 8)
(217200, 2.3106, 2.99, 6)
(217270, 0.6884, 0.65, 8)
(217290, 0.6624, 7.32, 6)
(21730, 0.3259, 6.02, 6)
(217490, 9.2666, 23.36, 5)
(21750, 0.1743, 3.37, 6)
(21760, 0.7997, 1.55, 8)
(217690, 2.8842, 1.27, 8)
(217750, 0.508, 0.0, 8)
(217790, 1.2103, 2.58, 8)
(21780, 0.6852, 4.51, 6)
(217860, 0.9859, 2.35, 8)
(217920, 0.0328, 11.8, 5)
(217980, 5.6471, 10.24, 5)
(21800, 2.2472, 3.58, 6)
(218020, 0.3668, 1.45, 8)
(218040, 1.7455, 2.21, 8)
(218060, 3.0719, 2.95, 6)
(218090, 1.7339, 7.04, 6)
(218130, 6.2489, 2.23, 3)
(218170, 0.4082, 0.0, 8)
(218210, 0.499, 0.0, 8)
(218230, 10.5544, 0.16, 3)
(218310, 0.8839, 0.0, 8)
(218330, 0.0043, 0.21, 8)
(218350, 0.0371, 0.0, 8)
(218410, 2.4942, 9.68, 5)
(218450, 0.3538, 0.0, 8)
(218510, 0.7501, 1.19, 8)
(218620, 11.2246, 13.32, 5)
(218640, 2.2941, 2.59, 8)
(218660, 0.4886, 1.7, 8)
(218680, 21.9266, 4.43, 7)
(218700, 0.1349, 2.16, 8)
(218740, 0.9614, 1.14, 8)
(218820, 0.6156, 3.41, 6)
(218860, 0.303, 2.09, 8)
(218980, 0.5353, 2.71, 8)
(21900, 3.66, 5.66, 6)
(219030, 0.105, 0.0, 8)
(219070, 0.1249, 0.18, 8)
(21910, 6.6191, 9.59, 5)
(219150, 35.3803, 2.48, 0)
(219190, 0.6162, 1.24, 8)
(21920, 0.144, 4.67, 6)
(219200, 0.9017, 1.2, 8)
(219340, 1.1972, 0.0, 8)
(21950, 0.0465, 1.71, 8)
(219540, 15.0287, 1.65, 7)
(219600, 4.4304, 42.13, 9)
(219640, 79.0935, 9.01, 0)
(219680, 7.5222, 0.32, 3)
(21970, 30.6621, 21.96, 7)
(219740, 56.3545, 8.37, 0)
(219760, 0.474, 1.71, 8)
(219780, 2.6301, 4.64, 6)
(21980, 9.3418, 3.77, 3)
(219800, 0.4146, 18.23, 5)
(219870, 0.8233, 0.0, 8)
(219890, 14.5584, 2.66, 7)
(21990, 0.1077, 4.27, 6)
(219910, 1.0408, 2.47, 8)
(219950, 0.5118, 1.07, 8)
(220, 315.5464, 6.43, 4)
(2200, 5.6785, 1.37, 3)
(22000, 36.4853, 2.0, 0)
(220050, 1.2879, 4.65, 6)
(220090, 0.8445, 0.69, 8)
(220160, 7.2055, 9.02, 3)
(220200, 20.9466, 14.17, 7)
(220240, 45.0746, 20.49, 0)
(220260, 13.6331, 25.44, 5)
(220420, 0.0836, 6.62, 6)
(220440, 9.9801, 7.97, 3)
(220460, 1.658, 1.49, 8)
(220660, 4.9435, 8.92, 6)
(220680, 0.0501, 8.02, 6)
(220700, 3.1407, 14.94, 5)
(220740, 2.0587, 4.14, 6)
(220780, 13.4118, 1.01, 7)
(220820, 2.2729, 1.72, 8)
(220823, 0.001, 0.0, 8)
(220860, 9.5511, 0.91, 3)
(220900, 0.117, 0.83, 8)
(220960, 0.0753, 14.55, 5)
(2210, 4.1095, 1.79, 3)
(22100, 20.4222, 14.09, 7)
(221020, 10.8046, 10.67, 7)
(221040, 12.3897, 12.65, 7)
(221080, 1.8544, 0.01, 8)
(221120, 0.0503, 0.0, 8)
(22120, 6.7387, 2.05, 3)
(221200, 0.0343, 0.0, 8)
(221220, 0.0025, 0.0, 8)
(221260, 16.8955, 2.18, 7)
(22130, 1.756, 16.46, 5)
(221300, 0.7996, 5.64, 6)
(221340, 0.0109, 1.29, 8)
(221360, 0.4913, 0.0, 8)
(221380, 30.7853, 9.39, 7)
(22140, 3.4063, 0.83, 8)
(221410, 0.002, 0.0, 8)
(221430, 0.9671, 21.31, 5)
(221560, 0.0001, 0.16, 8)
(221640, 10.5001, 2.2, 3)
(221680, 0.0151, 6.68, 6)
(221790, 0.5322, 0.0, 8)
(22180, 10.9283, 1.63, 3)
(221810, 7.3871, 2.76, 3)
(221830, 0.4114, 3.16, 6)
(221910, 0.1501, 1.76, 8)
(22200, 14.0538, 1.63, 7)
(222140, 2.6746, 0.85, 8)
(222160, 0.4754, 0.8, 8)
(22230, 14.1279, 1.3, 7)
(222300, 0.0004, 0.64, 8)
(222320, 0.3664, 153.6, 1)
(222480, 2.4104, 8.11, 6)
(222520, 0.8822, 0.0, 8)
(222640, 0.0269, 4.06, 6)
(222660, 0.1577, 1.34, 8)
(222710, 0.4626, 3.46, 6)
(222730, 9.2883, 2.84, 3)
(222750, 5.4893, 14.57, 5)
(222820, 0.5159, 4.95, 6)
(222880, 1.1073, 4.61, 6)
(222940, 0.1642, 6.35, 6)
(222980, 5.626, 1.26, 3)
(22300, 14.8913, 16.55, 7)
(223000, 0.2085, 12.57, 5)
(22310, 2.2234, 1.91, 8)
(223140, 0.0027, 14.2, 5)
(22320, 22.9083, 6.6, 7)
(223220, 3.8423, 1.67, 3)
(223280, 0.1897, 1.56, 8)
(22330, 51.9454, 16.7, 0)
(223330, 0.6619, 50.36, 9)
(223390, 10.5103, 0.04, 3)
(22340, 3.4698, 2.59, 3)
(223430, 2.6364, 1.38, 8)
(223450, 0.2709, 0.59, 8)
(223470, 6.6536, 2.48, 3)
(22350, 40.567, 6.55, 0)
(223510, 2.7571, 1.77, 8)
(223530, 3.2589, 0.04, 8)
(223630, 1.8932, 1.67, 8)
(223670, 0.16, 7.0, 6)
(22370, 43.6089, 11.38, 0)
(223710, 2.3729, 0.0, 8)
(223730, 1.3287, 1.67, 8)
(223750, 0.0271, 0.0, 8)
(22380, 137.2996, 37.71, 2)
(223810, 1.5136, 2.13, 8)
(223830, 0.5606, 6.61, 6)
(223850, 1.4456, 1.88, 8)
(223870, 0.5183, 1.51, 8)
(224060, 2.1855, 4.54, 6)
(224220, 0.1619, 0.79, 8)
(224300, 0.665, 1.0, 8)
(224320, 0.3571, 0.0, 8)
(224340, 0.1022, 2.1, 8)
(224360, 0.0106, 0.66, 8)
(224380, 0.1046, 3.07, 6)
(224420, 1.1953, 1.48, 8)
(224440, 0.9395, 1.54, 8)
(224460, 0.0021, 0.12, 8)
(224480, 0.0001, 0.04, 8)
(22450, 3.1386, 3.41, 6)
(224500, 3.1592, 9.45, 6)
(224540, 44.0183, 5.04, 0)
(224580, 40.1207, 2.56, 0)
(224600, 10.1728, 23.51, 5)
(224640, 0.0455, 0.0, 8)
(224700, 0.1201, 0.81, 8)
(224760, 9.0925, 1.7, 3)
(224780, 1.119, 0.2, 8)
(224820, 1.9671, 2.76, 8)
(224860, 0.0356, 1.16, 8)
(22490, 16.2023, 32.97, 9)
(224900, 0.0795, 2.83, 8)
(224920, 1.348, 1.33, 8)
(224940, 0.5044, 0.94, 8)
(224960, 3.0489, 1.05, 8)
(224980, 0.7126, 0.77, 8)
(22500, 1.2188, 14.8, 5)
(225000, 0.5674, 0.41, 8)
(225020, 0.9034, 0.44, 8)
(225080, 0.0825, 1.47, 8)
(225140, 3.8626, 1.79, 3)
(225160, 0.4559, 0.43, 8)
(225180, 0.0484, 1.6, 8)
(225200, 0.6358, 0.46, 8)
(225220, 0.3359, 6.99, 6)
(225260, 10.3343, 2.73, 3)
(225280, 0.0419, 1.51, 8)
(225300, 1.3701, 0.99, 8)
(225320, 0.9138, 0.64, 8)
(225360, 0.5044, 2.75, 8)
(225420, 3.6053, 8.34, 6)
(225600, 0.5816, 4.22, 6)
(225640, 3.1413, 1.93, 8)
(225760, 0.4021, 0.0, 8)
(22600, 36.4875, 7.27, 0)
(22610, 5.4324, 1.99, 3)
(226120, 0.6553, 1.19, 8)
(226240, 0.0839, 0.0, 8)
(226320, 2.7219, 0.02, 8)
(22650, 8.4853, 0.82, 3)
(22670, 1.305, 1.08, 8)
(226700, 25.9509, 17.59, 7)
(226720, 0.132, 5.21, 6)
(226740, 2.347, 1.12, 8)
(226760, 0.0451, 8.88, 6)
(226780, 0.1538, 2.26, 8)
(226820, 0.1091, 4.46, 6)
(226960, 0.0271, 3.24, 6)
(226980, 0.632, 0.0, 8)
(2270, 3.4462, 0.64, 8)
(22700, 0.0041, 1.18, 8)
(227000, 0.9589, 2.38, 8)
(227020, 0.0162, 7.87, 6)
(227080, 0.5833, 1.44, 8)
(227100, 11.9768, 3.32, 3)
(227160, 2.0289, 1.41, 8)
(227180, 2.6941, 7.84, 6)
(227200, 1.8021, 1.46, 8)
(227220, 2.1309, 2.59, 8)
(227240, 0.4213, 0.0, 8)
(227260, 0.0011, 0.0, 8)
(227280, 2.3865, 0.91, 8)
(227300, 11.0233, 15.61, 5)
(227320, 1.4643, 12.42, 5)
(227380, 0.6805, 0.4, 8)
(227400, 0.3435, 34.01, 9)
(227480, 5.6151, 2.76, 3)
(227580, 4.5537, 4.14, 3)
(227600, 0.06, 2.26, 8)
(227680, 8.0936, 1.09, 3)
(227720, 2.0998, 0.89, 8)
(227760, 1.5058, 7.63, 6)
(227800, 0.4125, 0.12, 8)
(227860, 0.6549, 1.93, 8)
(227900, 0.0264, 1.38, 8)
(227920, 0.2441, 2.46, 8)
(227980, 0.0914, 35.64, 9)
(2280, 4.0547, 0.74, 3)
(228000, 0.0035, 10.87, 5)
(228200, 17.9293, 4.07, 7)
(228260, 2.615, 17.31, 5)
(228280, 9.2261, 7.63, 3)
(228300, 2.7694, 4.78, 6)
(228320, 1.9469, 0.65, 8)
(228400, 2.9799, 3.82, 6)
(228440, 1.4739, 1.44, 8)
(228560, 0.2885, 2.46, 8)
(228760, 3.454, 4.65, 6)
(228960, 0.2858, 2.92, 8)
(2290, 1.762, 0.49, 8)
(229480, 0.6929, 1.62, 8)
(229520, 1.3387, 0.91, 8)
(229580, 0.1339, 0.81, 8)
(229600, 0.4446, 0.7, 8)
(229870, 2.0912, 8.72, 6)
(229890, 0.1669, 0.93, 8)
(229970, 0.6106, 6.34, 6)
(2300, 3.0338, 0.63, 8)
(230050, 8.1547, 1.08, 3)
(230150, 0.8903, 1.0, 8)
(230170, 0.4266, 0.78, 8)
(230190, 1.3068, 0.64, 8)
(230310, 0.3348, 1.69, 8)
(230330, 0.1236, 7.98, 6)
(230350, 0.0428, 5.01, 6)
(230410, 7.9448, 0.18, 3)
(230650, 0.8693, 3.57, 6)
(230700, 0.8843, 4.32, 6)
(230760, 0.0456, 0.3, 8)
(230780, 0.1138, 16.32, 5)
(230820, 0.3423, 4.65, 6)
(230860, 0.2168, 2.75, 8)
(230980, 0.9372, 1.09, 8)
(2310, 8.0834, 1.04, 3)
(23100, 0.775, 1.47, 8)
(231020, 0.0684, 0.72, 8)
(231040, 0.049, 1.25, 8)
(231060, 2.0415, 0.03, 8)
(231140, 4.2678, 5.29, 6)
(231160, 1.5496, 1.76, 8)
(231180, 0.2565, 7.99, 6)
(23120, 5.0851, 1.52, 3)
(231200, 1.2154, 0.93, 8)
(23130, 0.1262, 0.47, 8)
(231310, 0.0318, 0.78, 8)
(23140, 0.2912, 0.58, 8)
(231430, 13.4419, 12.24, 7)
(23150, 0.1716, 0.41, 8)
(231670, 0.0341, 12.55, 5)
(231720, 0.0016, 0.19, 8)
(231740, 1.1997, 4.24, 6)
(231910, 0.4045, 2.36, 8)
(2320, 7.063, 1.6, 3)
(23200, 1.6879, 0.75, 8)
(232010, 1.578, 2.79, 8)
(232050, 2.9802, 18.17, 5)
(232210, 2.2043, 0.06, 8)
(232430, 0.4713, 1.51, 8)
(232450, 0.4099, 0.0, 8)
(232670, 0.0001, 0.01, 8)
(232750, 3.0082, 3.87, 6)
(232770, 0.3401, 0.48, 8)
(232810, 0.3892, 5.77, 6)
(232910, 3.0396, 6.21, 6)
(232950, 0.9679, 2.57, 8)
(232970, 0.2115, 1.4, 8)
(2330, 0.071, 0.04, 8)
(23300, 0.7835, 2.68, 8)
(23310, 16.2865, 19.97, 7)
(233110, 0.0009, 3.17, 6)
(233130, 0.0586, 2.5, 8)
(233190, 0.0002, 36.48, 9)
(233210, 0.0079, 0.74, 8)
(233230, 0.635, 1.16, 8)
(233250, 0.684, 2.82, 8)
(233270, 10.1695, 4.41, 3)
(233310, 0.0002, 9.52, 6)
(233370, 0.1791, 2.74, 8)
(233390, 1.0068, 1.01, 8)
(233410, 0.3071, 0.41, 8)
(233450, 7.4591, 7.17, 3)
(233470, 7.6527, 1.87, 3)
(233510, 0.3163, 0.34, 8)
(233530, 0.3254, 0.41, 8)
(233550, 0.3826, 0.72, 8)
(233570, 0.1132, 0.0, 8)
(23360, 0.3202, 4.06, 6)
(233680, 0.0624, 2.19, 8)
(233700, 3.2872, 6.87, 6)
(233720, 19.2275, 1.71, 7)
(233740, 6.8352, 1.84, 3)
(23380, 2.0335, 5.35, 6)
(233840, 0.2561, 3.2, 6)
(233860, 3.1827, 6.43, 6)
(23390, 1.2568, 10.62, 5)
(233980, 3.0109, 6.82, 6)
(2340, 0.0858, 0.04, 8)
(23400, 1.2762, 3.41, 6)
(234000, 0.0089, 0.47, 8)
(234060, 0.0036, 2.86, 8)
(234080, 0.3082, 5.08, 6)
(234100, 0.0241, 5.42, 6)
(234160, 2.1287, 1.09, 8)
(234190, 2.7317, 1.1, 8)
(23420, 1.804, 8.96, 6)
(234290, 0.2779, 1.06, 8)
(234310, 0.9679, 0.0, 8)
(234350, 0.0499, 6.08, 6)
(234370, 0.2171, 0.39, 8)
(234390, 0.1439, 1.89, 8)
(23440, 0.1526, 0.96, 8)
(234490, 0.5221, 0.95, 8)
(23450, 3.5787, 7.22, 6)
(234530, 0.029, 0.26, 8)
(23460, 0.7221, 2.1, 8)
(234630, 0.1285, 5.1, 6)
(234650, 2.9285, 8.64, 6)
(234670, 0.0308, 8.8, 6)
(234710, 15.5194, 3.36, 7)
(234740, 0.0129, 0.01, 8)
(23490, 10.1636, 7.93, 3)
(234900, 1.3113, 1.73, 8)
(234940, 0.0985, 0.43, 8)
(234980, 0.4443, 2.5, 8)
(2350, 0.95, 0.28, 8)
(23500, 0.6665, 4.13, 6)
(235070, 0.0894, 0.86, 8)
(23510, 0.1978, 0.3, 8)
(235250, 0.9248, 1.67, 8)
(23530, 2.6572, 5.32, 6)
(235360, 1.5276, 8.64, 6)
(235600, 0.9225, 11.64, 5)
(235660, 0.3068, 5.42, 6)
(235700, 0.4109, 2.31, 8)
(235720, 0.0342, 1.27, 8)
(235780, 0.0667, 0.0, 8)
(235800, 0.0396, 1.18, 8)
(235820, 0.4659, 1.58, 8)
(235980, 0.0018, 1.19, 8)
(2360, 0.9585, 0.33, 8)
(23600, 1.0126, 3.73, 6)
(236090, 5.7837, 4.36, 3)
(236130, 0.1397, 4.27, 6)
(236150, 0.0509, 0.8, 8)
(236290, 0.0707, 1.39, 8)
(236370, 1.2626, 0.52, 8)
(236390, 0.6998, 0.0, 8)
(236450, 0.0386, 1.44, 8)
(236490, 0.044, 2.1, 8)
(236510, 0.0624, 3.32, 6)
(236530, 0.0036, 2.01, 8)
(236730, 0.7421, 2.06, 8)
(236790, 0.381, 3.33, 6)
(236830, 2.0436, 0.19, 8)
(236850, 1.1375, 22.17, 5)
(236890, 0.0001, 0.15, 8)
(236970, 0.0342, 3.99, 6)
(2370, 0.3233, 0.12, 8)
(23700, 1.6406, 7.0, 6)
(237110, 4.1719, 7.73, 6)
(237310, 0.6859, 0.0, 8)
(237370, 0.0084, 3.65, 6)
(237430, 0.7779, 6.62, 6)
(237530, 0.0001, 0.0, 8)
(237550, 0.095, 3.16, 6)
(237570, 0.8462, 2.52, 8)
(237590, 0.1033, 1.28, 8)
(237630, 0.4412, 2.96, 6)
(237740, 0.1002, 1.84, 8)
(237890, 0.0965, 4.46, 6)
(238010, 0.0068, 1.57, 8)
(238050, 0.2472, 0.81, 8)
(238070, 0.1752, 0.0, 8)
(238110, 0.2784, 0.0, 8)
(238130, 0.0048, 2.64, 8)
(238170, 0.3135, 0.16, 8)
(238210, 4.8036, 1.57, 3)
(238240, 0.528, 2.28, 8)
(238280, 0.1031, 1.92, 8)
(238320, 1.1523, 2.46, 8)
(238430, 0.0137, 1.63, 8)
(238530, 0.5418, 2.23, 8)
(238630, 0.1867, 1.63, 8)
(238710, 0.0149, 4.43, 6)
(238750, 0.1751, 2.69, 8)
(238870, 0.2701, 2.7, 8)
(238890, 1.0774, 1.16, 8)
(238910, 0.0026, 3.83, 6)
(238930, 0.4856, 4.15, 6)
(2390, 1.2602, 0.54, 8)
(239030, 1.8775, 2.92, 6)
(239070, 0.8307, 2.59, 8)
(239200, 0.9707, 1.68, 8)
(239350, 0.9753, 6.71, 6)
(239410, 0.0568, 5.41, 6)
(239450, 0.2603, 0.01, 8)
(239660, 0.567, 0.0, 8)
(239700, 0.0498, 2.27, 8)
(239800, 1.0091, 1.34, 8)
(239820, 1.7205, 3.21, 6)
(240, 705.6871, 81.31, 4)
(2400, 17.5634, 2.27, 7)
(24010, 27.5699, 32.89, 9)
(240160, 0.1285, 0.39, 8)
(240180, 0.085, 0.16, 8)
(240200, 0.0256, 0.19, 8)
(240220, 0.0231, 12.54, 5)
(240340, 0.0072, 0.21, 8)
(240360, 0.0001, 0.01, 8)
(240600, 0.2, 8.66, 6)
(241100, 0.0001, 0.0, 8)
(24120, 0.3209, 17.66, 5)
(241240, 0.0372, 0.88, 8)
(24130, 0.4145, 29.16, 9)
(241320, 0.1312, 1.46, 8)
(24140, 0.1489, 14.03, 5)
(241410, 0.4829, 3.95, 6)
(24150, 0.0074, 0.03, 8)
(241540, 0.4067, 4.98, 6)
(241600, 7.8965, 7.72, 3)
(241620, 0.1042, 2.99, 6)
(24170, 1.4578, 16.82, 5)
(241720, 0.579, 2.99, 6)
(241790, 0.0034, 0.22, 8)
(24180, 0.1563, 71.33, 9)
(241910, 0.0077, 2.64, 8)
(2420, 10.2719, 1.08, 3)
(24200, 7.8637, 0.21, 3)
(24210, 0.0389, 67.42, 9)
(242110, 0.1413, 0.79, 8)
(24220, 0.1238, 80.3, 9)
(242320, 0.0001, 0.01, 8)
(24240, 68.7216, 7.65, 0)
(242460, 0.0026, 0.15, 8)
(242480, 0.0001, 0.0, 8)
(242530, 0.0145, 1.34, 8)
(242550, 0.2253, 7.55, 6)
(242570, 0.2707, 3.19, 6)
(242590, 0.5876, 0.0, 8)
(242680, 0.0056, 1.74, 8)
(242780, 0.0136, 1.42, 8)
(242800, 0.0271, 0.6, 8)
(242820, 0.0071, 0.78, 8)
(242860, 0.0402, 1.78, 8)
(242880, 0.2498, 1.39, 8)
(242940, 0.0003, 0.29, 8)
(242960, 0.0042, 0.36, 8)
(242980, 0.0005, 0.17, 8)
(2430, 6.4085, 0.15, 3)
(243000, 0.0008, 0.12, 8)
(243020, 0.0007, 0.05, 8)
(243040, 0.0019, 0.75, 8)
(243060, 0.0005, 0.13, 8)
(243120, 0.0464, 0.74, 8)
(243140, 0.0015, 1.53, 8)
(243180, 0.0005, 0.43, 8)
(243200, 0.0403, 3.49, 6)
(243360, 0.4329, 3.31, 6)
(243380, 0.0945, 0.91, 8)
(243450, 0.0279, 1.26, 8)
(243780, 0.0233, 4.51, 6)
(243800, 0.0082, 2.12, 8)
(243950, 0.573, 4.78, 6)
(24400, 16.1289, 8.26, 7)
(244030, 0.2865, 2.19, 8)
(244050, 0.0195, 2.58, 8)
(244070, 0.038, 2.36, 8)
(24410, 0.8897, 1.36, 8)
(24420, 7.9579, 1.38, 3)
(24460, 1.057, 0.75, 8)
(244690, 0.0003, 0.31, 8)
(24470, 3.9431, 6.86, 6)
(244710, 0.1114, 0.83, 8)
(244730, 0.2116, 2.02, 8)
(24480, 4.2418, 5.5, 6)
(244810, 0.0224, 1.03, 8)
(244850, 0.028, 2.5, 8)
(244870, 0.1529, 1.7, 8)
(244930, 0.0089, 1.95, 8)
(2450, 5.6666, 4.38, 3)
(24500, 0.6377, 2.61, 8)
(245010, 0.0004, 0.02, 8)
(245130, 0.0761, 0.81, 8)
(245170, 0.6479, 2.59, 8)
(245280, 0.0018, 27.69, 5)
(245350, 0.0121, 5.72, 6)
(245390, 0.0019, 0.26, 8)
(245410, 0.0118, 1.49, 8)
(245430, 0.01, 0.55, 8)
(245450, 0.0143, 3.49, 6)
(245470, 0.0277, 3.0, 6)
(245730, 0.0127, 1.54, 8)
(24600, 0.2037, 15.13, 5)
(246090, 0.0138, 2.84, 8)
(24610, 0.0503, 4.38, 6)
(24620, 0.0285, 7.78, 6)
(246210, 1.0407, 7.06, 6)
(24630, 0.2041, 19.38, 5)
(246300, 0.0597, 0.66, 8)
(246360, 0.0285, 0.12, 8)
(24640, 0.1042, 1.5, 8)
(24650, 0.0705, 1.46, 8)
(246580, 0.0019, 1.11, 8)
(24660, 0.0648, 4.0, 6)
(246600, 0.0053, 3.07, 6)
(24670, 1.0612, 10.0, 5)
(246740, 0.0169, 0.69, 8)
(246760, 0.0111, 2.94, 8)
(246960, 0.0121, 0.42, 8)
(246980, 0.0178, 0.51, 8)
(24700, 0.0888, 5.52, 6)
(247000, 0.003, 2.72, 8)
(247020, 0.0148, 3.12, 6)
(247120, 0.0348, 0.02, 8)
(247140, 0.0064, 1.6, 8)
(24720, 4.264, 12.38, 5)
(247240, 0.0639, 3.62, 6)
(247310, 0.0009, 4.93, 6)
(247350, 0.0095, 0.81, 8)
(24740, 24.491, 2.93, 7)
(247580, 0.0004, 0.13, 8)
(24760, 0.3669, 15.62, 5)
(247660, 0.0004, 0.3, 8)
(247730, 0.0042, 2.76, 8)
(24780, 39.964, 9.31, 0)
(247830, 0.0003, 0.03, 8)
(24790, 10.6027, 10.42, 7)
(247910, 0.0026, 0.93, 8)
(24800, 7.3552, 4.27, 3)
(24810, 4.5304, 11.91, 5)
(248190, 0.0004, 0.65, 8)
(24820, 0.0698, 12.66, 5)
(24830, 0.0499, 12.82, 5)
(248350, 0.0198, 1.07, 8)
(24840, 3.9062, 6.03, 6)
(248410, 0.0175, 2.28, 8)
(248450, 0.0054, 1.54, 8)
(248470, 0.022, 0.52, 8)
(248490, 0.008, 0.24, 8)
(24850, 0.6339, 49.26, 9)
(248510, 0.0071, 2.36, 8)
(248550, 0.0022, 1.32, 8)
(24860, 18.8748, 12.83, 7)
(248610, 0.0608, 1.38, 8)
(24870, 4.8519, 7.77, 6)
(248710, 0.0034, 0.62, 8)
(248800, 0.0121, 0.62, 8)
(249130, 0.0094, 3.42, 6)
(249150, 0.0062, 0.0, 8)
(24920, 0.003, 0.0, 8)
(249330, 0.0263, 2.9, 8)
(249360, 0.0584, 2.19, 8)
(24950, 0.0003, 2.46, 8)
(24960, 86.0224, 48.43, 0)
(249630, 0.0397, 0.96, 8)
(249680, 0.0034, 1.19, 8)
(24980, 42.8861, 27.32, 0)
(249870, 0.109, 3.96, 6)
(249930, 0.0012, 0.85, 8)
(249990, 0.0457, 1.12, 8)
(2500, 8.1235, 0.86, 3)
(250030, 0.0002, 1.35, 8)
(25010, 3.6745, 0.55, 8)
(250110, 0.0106, 1.07, 8)
(250200, 0.0002, 0.26, 8)
(250320, 0.0679, 1.72, 8)
(250380, 0.0177, 1.57, 8)
(250400, 0.0549, 2.65, 8)
(250460, 0.0063, 1.17, 8)
(250500, 0.0115, 0.49, 8)
(250520, 0.0139, 2.58, 8)
(250580, 0.088, 0.72, 8)
(250660, 0.0067, 0.98, 8)
(250720, 0.0035, 0.22, 8)
(251170, 0.0577, 1.41, 8)
(251310, 0.0011, 0.63, 8)
(251370, 0.0094, 1.21, 8)
(251410, 0.0014, 0.71, 8)
(251430, 0.0096, 1.86, 8)
(251710, 0.0024, 0.48, 8)
(251770, 0.0007, 0.33, 8)
(251790, 0.0001, 0.0, 8)
(251850, 0.0001, 0.03, 8)
(251910, 0.0001, 0.02, 8)
(2520, 0.9893, 0.24, 8)
(252030, 0.0002, 1.54, 8)
(252210, 0.0009, 1.3, 8)
(252310, 0.0002, 0.13, 8)
(252330, 0.0041, 0.41, 8)
(2525, 0.3872, 0.12, 8)
(252630, 0.0023, 2.24, 8)
(252670, 0.0012, 1.65, 8)
(252910, 0.0017, 0.48, 8)
(253630, 0.0001, 0.36, 8)
(253650, 0.0044, 1.13, 8)
(253880, 0.0002, 0.07, 8)
(253900, 0.0056, 1.4, 8)
(253920, 0.0094, 0.23, 8)
(253940, 0.013, 0.38, 8)
(253960, 0.0036, 0.48, 8)
(253980, 0.0237, 0.53, 8)
(2540, 1.0785, 0.22, 8)
(254000, 0.0014, 0.05, 8)
(254020, 0.0009, 0.0, 8)
(254040, 0.0005, 0.02, 8)
(254060, 0.0068, 0.4, 8)
(254080, 0.0107, 0.38, 8)
(254100, 0.0065, 0.22, 8)
(254440, 0.0039, 2.1, 8)
(2545, 0.5034, 0.17, 8)
(254960, 0.0067, 3.52, 6)
(254980, 0.0033, 0.98, 8)
(2550, 0.7883, 0.35, 8)
(25500, 1.2056, 5.17, 6)
(255320, 0.0004, 0.58, 8)
(255480, 0.0855, 10.14, 5)
(255520, 0.0061, 0.09, 8)
(255920, 0.0016, 0.88, 8)
(255940, 0.0002, 0.0, 8)
(25600, 1.02, 7.24, 6)
(256070, 0.0002, 0.08, 8)
(25620, 0.7719, 6.9, 6)
(256330, 0.0016, 5.25, 6)
(2570, 0.6728, 0.12, 8)
(25700, 5.5053, 2.7, 3)
(257220, 0.0012, 1.04, 8)
(25730, 0.0021, 16.69, 5)
(25800, 13.2235, 34.57, 9)
(258200, 0.0035, 1.24, 8)
(25830, 1.6942, 6.87, 6)
(25840, 0.4332, 1.8, 8)
(25850, 1.7156, 2.75, 8)
(25860, 0.9426, 42.38, 9)
(25870, 0.1146, 0.72, 8)
(25890, 11.0609, 28.87, 9)
(2590, 2.1842, 1.5, 8)
(25900, 8.6312, 11.28, 5)
(25910, 0.6805, 25.48, 5)
(259170, 0.0001, 0.01, 8)
(259190, 0.0004, 0.08, 8)
(25930, 1.9752, 3.71, 6)
(259300, 0.0001, 0.0, 8)
(259320, 0.0001, 2.11, 8)
(25940, 0.4996, 0.38, 8)
(25980, 4.7083, 10.51, 5)
(25990, 1.8844, 2.87, 8)
(260, 60.2306, 5.09, 0)
(2600, 12.8082, 8.63, 7)
(26000, 1.957, 1.11, 8)
(260250, 0.0002, 4.55, 6)
(260270, 0.0005, 0.67, 8)
(2610, 0.757, 2.96, 6)
(2620, 4.7241, 4.63, 3)
(2630, 7.2485, 8.17, 3)
(26300, 0.5385, 0.43, 8)
(2640, 2.6972, 4.58, 6)
(26500, 23.2319, 0.83, 7)
(26700, 0.0001, 0.09, 8)
(26710, 0.046, 1.38, 8)
(2680, 0.0713, 0.6, 8)
(26800, 44.4868, 2.12, 0)
(2690, 0.1282, 19.16, 5)
(26900, 22.5908, 0.63, 7)
(2700, 11.6999, 7.9, 7)
(27000, 4.1783, 1.14, 3)
(27020, 0.5527, 2.42, 8)
(27040, 0.0395, 0.0, 8)
(27050, 0.3582, 0.14, 8)
(2710, 0.2523, 2.71, 8)
(2720, 0.1194, 3.34, 6)
(27200, 0.1103, 2.94, 8)
(27220, 0.6977, 16.01, 5)
(27240, 0.0001, 0.12, 8)
(27300, 0.4196, 2.6, 8)
(27330, 3.1446, 2.45, 8)
(27400, 1.1607, 1.05, 8)
(2760, 14.16, 20.08, 5)
(27600, 0.1226, 0.44, 8)
(2780, 1.1626, 7.8, 6)
(27800, 0.6122, 0.15, 8)
(27810, 1.1958, 0.34, 8)
(2790, 0.383, 0.91, 8)
(27900, 1.3398, 1.07, 8)
(27920, 1.4077, 0.85, 8)
(27940, 4.1248, 0.9, 3)
(280, 32.2271, 2.44, 7)
(2800, 2.5785, 3.95, 6)
(28000, 17.4587, 2.65, 7)
(28050, 122.2852, 14.21, 2)
(2810, 7.261, 5.6, 3)
(2820, 15.6616, 22.7, 5)
(2840, 2.4027, 2.36, 8)
(2850, 1.108, 0.71, 8)
(2900, 0.4167, 1.71, 8)
(2910, 0.6168, 6.3, 6)
(29100, 0.0002, 0.03, 8)
(29110, 0.003, 0.0, 8)
(29120, 0.1102, 0.2, 8)
(29130, 0.2027, 0.32, 8)
(29140, 0.0801, 0.0, 8)
(29150, 0.0315, 0.0, 8)
(29160, 2.2968, 0.61, 8)
(29180, 23.3713, 1.25, 7)
(2920, 0.4387, 2.14, 8)
(2930, 0.4106, 1.86, 8)
(29500, 0.5598, 21.66, 5)
(29520, 0.0368, 2.77, 8)
(29530, 0.1562, 1.65, 8)
(29550, 0.3198, 14.01, 5)
(29590, 0.1202, 2.3, 8)
(29640, 0.8883, 15.75, 5)
(29650, 1.1002, 24.84, 5)
(29660, 0.7166, 8.12, 6)
(29670, 0.6154, 13.87, 5)
(29680, 0.4853, 13.46, 5)
(29690, 0.1786, 5.48, 6)
(29720, 8.5193, 16.45, 5)
(29800, 0.9357, 1.09, 8)
(2990, 9.2771, 7.03, 3)
(29900, 0.6784, 3.65, 6)
(30, 107.9726, 8.14, 2)
(300, 199.3804, 17.13, 2)
(3000, 1.158, 3.45, 6)
(30000, 0.0001, 0.0, 8)
(3010, 1.2108, 3.15, 6)
(3020, 0.8956, 4.34, 6)
(3030, 0.0006, 0.18, 8)
(3040, 0.0001, 0.01, 8)
(3050, 0.1751, 3.2, 6)
(31100, 1.7211, 0.67, 8)
(31110, 0.4805, 0.39, 8)
(31120, 0.3505, 0.28, 8)
(31130, 0.306, 0.28, 8)
(31170, 7.8052, 2.12, 3)
(31180, 4.5841, 2.26, 3)
(31190, 3.6989, 2.42, 3)
(31200, 3.4037, 2.82, 3)
(31210, 2.9625, 2.47, 8)
(31220, 4.2015, 1.24, 3)
(31230, 2.1173, 1.02, 8)
(31240, 1.8199, 0.92, 8)
(31250, 1.6142, 0.82, 8)
(31260, 1.5295, 0.71, 8)
(31270, 6.9737, 1.37, 3)
(31280, 37.6229, 2.81, 0)
(31290, 8.7357, 1.4, 3)
(3130, 2.8813, 4.37, 6)
(31300, 0.0439, 1.44, 8)
(31400, 0.001, 0.32, 8)
(31410, 13.057, 1.58, 7)
(3150, 0.4782, 0.48, 8)
(31500, 0.0623, 0.0, 8)
(3160, 0.4938, 1.54, 8)
(3170, 4.175, 7.99, 6)
(31700, 3.7262, 2.21, 3)
(31740, 1.8818, 0.0, 8)
(31800, 0.0786, 3.77, 6)
(31810, 0.0794, 2.95, 8)
(31820, 0.1573, 2.8, 8)
(31830, 0.2586, 3.33, 6)
(31840, 0.1042, 3.57, 6)
(31850, 0.1614, 2.7, 8)
(31860, 0.1022, 3.93, 6)
(31870, 0.0595, 2.16, 8)
(31880, 0.0705, 2.96, 8)
(31890, 0.0789, 3.38, 6)
(31900, 0.0737, 2.83, 8)
(31910, 0.206, 4.75, 6)
(31920, 0.1026, 4.71, 6)
(31930, 0.0961, 4.58, 6)
(31980, 0.1287, 4.85, 6)
(320, 242.5772, 5.46, 2)
(3200, 2.1535, 1.87, 8)
(32000, 0.3699, 0.11, 8)
(32110, 0.4508, 6.78, 6)
(32120, 0.2268, 4.9, 6)
(32130, 0.1275, 4.49, 6)
(32140, 0.6176, 2.49, 8)
(32150, 0.9889, 23.85, 5)
(32160, 1.3724, 3.06, 6)
(3220, 1.0781, 1.9, 8)
(32200, 1.524, 1.83, 8)
(3230, 0.5135, 1.52, 8)
(32310, 2.2018, 0.98, 8)
(32330, 0.486, 12.26, 5)
(32340, 2.71, 1.19, 8)
(32350, 2.9824, 0.96, 8)
(32360, 23.6466, 3.03, 7)
(32370, 61.6751, 7.62, 0)
(32380, 7.2262, 1.28, 3)
(32390, 4.0104, 0.68, 3)
(32400, 8.6581, 1.16, 3)
(32410, 1.1572, 0.93, 8)
(32420, 1.4239, 1.58, 8)
(32430, 11.9502, 5.25, 7)
(32440, 3.436, 11.23, 5)
(32450, 0.3771, 16.96, 5)
(32460, 10.9328, 3.17, 3)
(32470, 14.5115, 10.11, 7)
(32500, 7.1431, 3.89, 3)
(32510, 1.277, 21.52, 5)
(3260, 0.9366, 0.95, 8)
(32610, 0.2914, 12.07, 5)
(32620, 0.3598, 0.55, 8)
(32630, 0.4913, 0.78, 8)
(32640, 0.2017, 5.3, 6)
(32650, 0.1367, 3.13, 6)
(32660, 0.1318, 4.39, 6)
(32670, 0.3444, 4.88, 6)
(32680, 0.3699, 12.3, 5)
(32690, 0.1713, 5.82, 6)
(3270, 2.9724, 1.02, 8)
(32700, 0.1271, 8.15, 6)
(32710, 0.3544, 0.24, 8)
(32720, 0.3803, 0.39, 8)
(32730, 0.5324, 0.52, 8)
(32740, 0.3022, 0.18, 8)
(32750, 0.539, 2.61, 8)
(32760, 0.4739, 1.28, 8)
(32770, 0.1427, 9.48, 6)
(32800, 18.4283, 9.17, 7)
(3290, 0.0002, 0.7, 8)
(32900, 0.5349, 9.02, 6)
(3300, 3.0946, 8.39, 6)
(3310, 1.5135, 7.02, 6)
(33100, 1.6551, 0.75, 8)
(33110, 1.0685, 0.75, 8)
(33120, 2.5796, 3.07, 6)
(33130, 2.9489, 1.05, 8)
(33180, 3.2552, 1.68, 8)
(3320, 2.3273, 3.04, 6)
(33210, 0.9629, 27.85, 5)
(33220, 21.7874, 7.53, 7)
(33230, 33.8618, 15.09, 7)
(33250, 1.246, 26.12, 5)
(33260, 0.2252, 4.6, 6)
(33270, 0.0331, 4.2, 6)
(33280, 1.385, 7.3, 6)
(3330, 3.0114, 12.13, 5)
(33320, 4.3821, 3.8, 3)
(33340, 1.5412, 27.64, 5)
(33350, 0.8223, 26.35, 5)
(33390, 0.4143, 0.77, 8)
(3340, 1.1099, 1.99, 8)
(33420, 8.2021, 4.99, 3)
(33440, 7.5592, 7.57, 3)
(33460, 27.1111, 3.03, 7)
(3350, 1.2856, 2.18, 8)
(33500, 0.1379, 10.11, 5)
(33510, 0.1942, 8.01, 6)
(33520, 2.4776, 3.7, 6)
(33530, 1.9286, 3.42, 6)
(33540, 0.2724, 1.59, 8)
(33550, 0.13, 1.17, 8)
(33570, 1.9236, 5.52, 6)
(33580, 0.8605, 1.14, 8)
(3360, 1.1547, 1.93, 8)
(33600, 1.2179, 1.75, 8)
(33610, 1.7024, 1.92, 8)
(33620, 0.5287, 4.9, 6)
(33650, 0.5962, 8.32, 6)
(33660, 0.2073, 1.24, 8)
(33670, 3.163, 12.75, 5)
(33680, 1.5565, 0.97, 8)
(3370, 1.0986, 8.09, 6)
(33700, 0.0565, 0.06, 8)
(33710, 0.0475, 0.08, 8)
(33720, 0.0004, 0.13, 8)
(33730, 1.0447, 2.88, 8)
(33740, 0.4703, 1.92, 8)
(33750, 0.7714, 1.84, 8)
(33760, 0.0301, 2.38, 8)
(33770, 0.6742, 10.35, 5)
(33780, 0.1036, 9.45, 6)
(33790, 0.0935, 2.45, 8)
(3380, 0.9202, 3.67, 6)
(3390, 1.3447, 1.78, 8)
(33900, 46.0016, 3.33, 0)
(33910, 61.4107, 2.65, 0)
(33930, 131.7687, 13.5, 2)
(33950, 0.0908, 2.94, 8)
(33970, 1.2504, 0.0, 8)
(33980, 0.6019, 1.38, 8)
(33990, 0.4047, 2.73, 8)
(340, 175.7495, 0.45, 2)
(3400, 0.7776, 0.86, 8)
(34000, 41.704, 153.03, 1)
(34010, 12.4639, 5.22, 7)
(34030, 95.5595, 35.16, 0)
(3410, 1.9249, 0.58, 8)
(34180, 0.2109, 1.19, 8)
(34190, 2.1249, 2.47, 8)
(3420, 0.7394, 0.8, 8)
(34220, 44.168, 186.25, 1)
(34250, 0.0299, 260.68, 1)
(34270, 16.5152, 2.09, 7)
(3430, 1.172, 0.5, 8)
(34330, 133.4942, 41.86, 2)
(3440, 0.7346, 1.27, 8)
(34410, 0.5023, 0.84, 8)
(34420, 0.4888, 0.77, 8)
(34440, 5.3171, 5.46, 3)
(34450, 1.2875, 2.16, 8)
(34460, 2.9682, 12.75, 5)
(34470, 0.2398, 0.21, 8)
(3450, 0.7718, 5.43, 6)
(34500, 0.5633, 2.58, 8)
(3460, 0.7924, 1.1, 8)
(34600, 9.3673, 8.65, 3)
(34630, 0.1513, 0.25, 8)
(34640, 0.1319, 1.33, 8)
(34650, 0.0605, 11.49, 5)
(34670, 1.948, 4.34, 6)
(3470, 1.2619, 7.81, 6)
(3480, 11.6066, 9.97, 7)
(34800, 0.1694, 2.23, 8)
(34810, 0.4657, 1.33, 8)
(34820, 1.7073, 2.71, 8)
(3483, 0.5077, 0.0, 8)
(34830, 48.8326, 8.29, 0)
(34860, 0.4197, 5.11, 6)
(34870, 11.799, 5.4, 3)
(3490, 0.508, 5.44, 6)
(34900, 1.9909, 0.51, 8)
(34920, 0.7814, 0.4, 8)
(34930, 0.0052, 0.0, 8)
(3500, 0.8163, 1.92, 8)
(35000, 3.471, 2.88, 3)
(35010, 7.6822, 10.94, 5)
(35030, 1.4038, 29.49, 9)
(35070, 0.974, 1.07, 8)
(3510, 0.4923, 6.2, 6)
(35130, 16.3848, 3.19, 7)
(35140, 44.8603, 6.92, 0)
(3520, 0.4305, 5.75, 6)
(3530, 0.6984, 7.05, 6)
(35300, 0.1419, 5.59, 6)
(35310, 0.2833, 3.02, 6)
(35320, 0.5427, 3.55, 6)
(3540, 6.0117, 12.84, 5)
(35420, 29.6477, 0.23, 7)
(35450, 51.3733, 9.69, 0)
(35460, 9.5699, 1.3, 3)
(35470, 0.016, 2.62, 8)
(35480, 7.5835, 1.94, 3)
(35500, 2.7049, 8.97, 6)
(35510, 1.5339, 8.65, 6)
(3560, 0.9658, 20.62, 5)
(35600, 0.8321, 1.39, 8)
(3570, 0.3565, 5.4, 6)
(35700, 43.4481, 2.58, 0)
(35720, 46.137, 3.25, 0)
(3580, 0.5213, 1.23, 8)
(35800, 1.0076, 0.23, 8)
(3590, 60.981, 21.63, 0)
(360, 15.7773, 0.88, 7)
(3600, 0.7877, 6.98, 6)
(36000, 4.3896, 1.02, 3)
(3610, 0.2883, 8.06, 6)
(36100, 0.124, 2.25, 8)
(36110, 0.1303, 3.0, 6)
(36120, 0.1161, 4.11, 6)
(36130, 0.0417, 2.45, 8)
(36140, 0.0429, 3.5, 6)
(36150, 0.0856, 4.38, 6)
(36160, 0.0522, 4.71, 6)
(36170, 0.0681, 7.21, 6)
(36180, 0.1354, 5.39, 6)
(36190, 0.0809, 5.13, 6)
(3620, 1.4713, 34.04, 9)
(36200, 0.114, 10.0, 6)
(36210, 0.1412, 5.17, 6)
(36240, 0.0902, 3.54, 6)
(36270, 0.0338, 16.02, 5)
(36280, 0.0269, 16.87, 5)
(36290, 0.0247, 15.95, 5)
(3630, 0.6614, 9.71, 6)
(36300, 0.0992, 9.78, 6)
(36310, 0.1525, 9.06, 6)
(36320, 0.0246, 1.7, 8)
(3650, 0.1902, 29.38, 9)
(36620, 3.4079, 0.08, 8)
(36630, 2.8811, 0.04, 8)
(36700, 1.9061, 1.58, 8)
(36900, 0.0319, 0.23, 8)
(36910, 0.0596, 0.88, 8)
(3700, 11.3998, 3.9, 3)
(37000, 3.5981, 1.9, 3)
(37010, 0.3358, 2.95, 8)
(37030, 2.1167, 14.43, 5)
(3710, 0.7079, 1.66, 8)
(37100, 0.591, 0.58, 8)
(3720, 6.7233, 7.33, 3)
(37200, 0.5657, 5.81, 6)
(37210, 0.1497, 5.68, 6)
(37220, 0.2245, 7.99, 6)
(37230, 0.1211, 3.75, 6)
(37240, 0.3069, 4.68, 6)
(37250, 0.176, 2.46, 8)
(37260, 0.1831, 2.93, 8)
(37270, 0.0819, 5.13, 6)
(37280, 0.1467, 9.43, 6)
(37290, 0.0632, 8.61, 6)
(3730, 7.9838, 1.71, 3)
(37300, 0.2172, 3.39, 6)
(37310, 0.1271, 2.44, 8)
(37320, 0.1969, 3.29, 6)
(37330, 0.1005, 3.74, 6)
(37340, 0.0972, 5.73, 6)
(37350, 0.1132, 2.92, 8)
(37360, 0.1094, 6.38, 6)
(37370, 0.0586, 4.75, 6)
(37380, 0.1301, 2.6, 8)
(37390, 0.0801, 3.92, 6)
(37400, 2.2449, 0.74, 8)
(37420, 4.0809, 0.61, 3)
(37500, 0.54, 0.74, 8)
(37600, 3.1671, 0.82, 8)
(37700, 1.1028, 3.38, 6)
(37800, 2.2781, 0.9, 8)
(37900, 0.1739, 1.89, 8)
(37910, 0.2601, 0.25, 8)
(37920, 0.1943, 0.19, 8)
(37930, 0.1344, 0.13, 8)
(37940, 0.1388, 0.24, 8)
(37950, 0.1857, 0.14, 8)
(37960, 0.3131, 4.7, 6)
(37970, 0.2148, 9.76, 6)
(37980, 0.2771, 5.69, 6)
(37990, 0.2334, 2.18, 8)
(380, 142.47, 2.67, 2)
(3800, 1.0464, 1.97, 8)
(38000, 0.3426, 4.42, 6)
(38010, 0.1813, 4.22, 6)
(38020, 0.2209, 4.17, 6)
(38030, 0.063, 0.13, 8)
(38040, 0.0559, 0.12, 8)
(38050, 0.2613, 1.63, 8)
(38060, 0.7535, 3.59, 6)
(38070, 0.098, 0.42, 8)
(38080, 0.2573, 5.62, 6)
(38090, 0.1651, 5.24, 6)
(3810, 0.7726, 0.53, 8)
(38100, 0.1358, 6.63, 6)
(38110, 0.2403, 7.56, 6)
(38120, 0.2661, 6.2, 6)
(38130, 0.2667, 12.26, 5)
(38140, 0.2024, 8.25, 6)
(38150, 0.2249, 10.89, 5)
(38160, 0.1472, 10.74, 5)
(38170, 0.145, 43.44, 9)
(38180, 0.1221, 29.11, 9)
(38190, 0.1177, 3.78, 6)
(3820, 1.2492, 0.97, 8)
(38200, 0.1096, 1.41, 8)
(38210, 0.1332, 0.53, 8)
(38220, 4.0351, 2.92, 3)
(38230, 1.1834, 3.45, 6)
(38240, 0.0951, 1.29, 8)
(3830, 35.2018, 3.3, 0)
(38400, 10.0374, 2.24, 3)
(38410, 6.3451, 3.57, 3)
(38420, 4.7436, 2.68, 3)
(38430, 0.3648, 0.49, 8)
(38440, 0.6477, 1.31, 8)
(38450, 0.3663, 0.82, 8)
(38460, 0.315, 1.89, 8)
(38480, 0.3757, 0.32, 8)
(38490, 0.2155, 0.3, 8)
(38530, 0.4656, 1.38, 8)
(38600, 6.6583, 5.0, 3)
(38700, 13.159, 1.56, 7)
(38720, 8.4032, 1.51, 3)
(38740, 8.2438, 0.75, 3)
(38800, 0.147, 12.94, 5)
(38810, 0.0217, 6.17, 6)
(38820, 0.1099, 9.13, 6)
(38830, 4.9781, 0.04, 3)
(38900, 3.0377, 1.99, 8)
(3900, 24.1632, 11.43, 7)
(39000, 2.3167, 0.0, 8)
(3910, 11.0801, 19.27, 5)
(39110, 0.7305, 2.32, 8)
(39120, 16.9398, 72.52, 9)
(39140, 5.9216, 8.6, 3)
(39160, 25.5043, 7.5, 7)
(39190, 4.7039, 2.55, 3)
(3920, 7.1814, 8.35, 3)
(39200, 4.3034, 4.11, 3)
(39250, 1.0441, 6.63, 6)
(39260, 0.2832, 4.55, 6)
(39300, 0.0194, 9.04, 6)
(39310, 0.0118, 4.88, 6)
(39320, 0.0112, 1.11, 8)
(39330, 0.0197, 2.85, 8)
(39350, 0.0086, 3.13, 6)
(39360, 0.0196, 4.65, 6)
(39370, 0.0178, 4.38, 6)
(39380, 0.0091, 0.29, 8)
(39500, 4.7027, 6.16, 6)
(39510, 3.546, 5.96, 6)
(39530, 6.1294, 2.4, 3)
(39540, 2.8998, 12.98, 5)
(39550, 4.1095, 6.55, 6)
(39560, 1.4204, 0.83, 8)
(3960, 0.8863, 2.36, 8)
(39600, 0.066, 3.66, 6)
(39610, 0.0448, 4.77, 6)
(39620, 0.066, 4.32, 6)
(39630, 0.4007, 0.96, 8)
(39640, 0.3492, 1.45, 8)
(39650, 3.1278, 3.49, 6)
(39660, 1.9669, 4.44, 6)
(39670, 0.8129, 3.44, 6)
(39680, 3.3863, 11.44, 5)
(39690, 4.7475, 6.65, 6)
(3970, 2.2542, 1.89, 8)
(39710, 0.1281, 2.1, 8)
(3980, 1.7341, 6.63, 6)
(39800, 15.0332, 3.32, 7)
(3990, 6.9257, 5.78, 3)
(39900, 0.1523, 0.95, 8)
(40, 44.3263, 0.31, 0)
(400, 397.0516, 2.93, 4)
(4000, 224.819, 51.89, 2)
(40000, 1.5125, 34.1, 9)
(4010, 1.7924, 5.14, 6)
(40100, 48.3564, 23.39, 0)
(40120, 0.0049, 18.29, 5)
(40200, 0.1767, 1.07, 8)
(40210, 0.1251, 10.23, 5)
(40300, 6.2605, 7.51, 3)
(40320, 0.3311, 6.55, 6)
(40330, 0.4024, 5.76, 6)
(40340, 0.2769, 6.7, 6)
(40350, 0.5698, 5.69, 6)
(40370, 0.7544, 7.55, 6)
(40380, 0.4764, 1.78, 8)
(40390, 15.7689, 11.95, 7)
(40400, 7.2848, 5.32, 3)
(40420, 2.2132, 1.21, 8)
(40500, 0.4874, 0.34, 8)
(40700, 25.008, 2.03, 7)
(40720, 4.1395, 0.51, 3)
(40800, 79.3541, 3.14, 0)
(40920, 1.3011, 45.42, 9)
(40930, 7.8917, 0.87, 3)
(40950, 9.1883, 2.52, 3)
(40960, 6.8844, 5.93, 3)
(40970, 5.3464, 4.88, 3)
(40980, 4.8776, 3.77, 3)
(40990, 5.0038, 4.41, 3)
(4100, 0.3062, 1.89, 8)
(41000, 31.4544, 2.95, 7)
(41010, 21.2803, 0.22, 7)
(41030, 0.0001, 0.14, 8)
(41050, 5.2331, 0.82, 3)
(41060, 2.7386, 0.79, 8)
(41070, 38.5606, 6.08, 0)
(41100, 9.851, 0.89, 3)
(41210, 11.3237, 4.63, 3)
(41300, 9.3282, 7.83, 3)
(41400, 0.1819, 0.09, 8)
(41500, 83.5732, 9.54, 0)
(41600, 0.2355, 0.3, 8)
(41610, 0.0004, 0.0, 8)
(41660, 0.1665, 4.08, 6)
(41680, 0.043, 0.26, 8)
(41700, 22.5249, 11.61, 7)
(41730, 1.0672, 1.14, 8)
(41740, 1.7341, 1.68, 8)
(41760, 0.0501, 0.0, 8)
(41800, 20.0904, 2.87, 7)
(41900, 2.7564, 2.79, 8)
(420, 130.1679, 4.01, 2)
(42000, 0.2546, 0.72, 8)
(42120, 16.6393, 3.37, 7)
(42140, 1.2732, 0.73, 8)
(42160, 15.4323, 0.28, 7)
(42170, 6.7775, 2.29, 3)
(42190, 0.0176, 0.0, 8)
(42200, 0.1022, 4.06, 6)
(42210, 0.2138, 2.25, 8)
(42220, 0.1284, 5.49, 6)
(42230, 0.1845, 3.73, 6)
(4230, 9.9727, 1.66, 3)
(42500, 9.0349, 1.1, 3)
(42640, 6.6164, 4.76, 3)
(42650, 9.5654, 5.59, 3)
(42660, 0.0511, 4.31, 6)
(42670, 3.7008, 4.85, 6)
(42680, 190.5216, 12.56, 2)
(42690, 178.9125, 62.31, 2)
(42700, 230.2923, 14.04, 2)
(42710, 202.5545, 47.64, 2)
(42730, 0.8507, 5.12, 6)
(42800, 0.4919, 0.35, 8)
(42810, 0.4297, 11.54, 5)
(42820, 0.1702, 0.04, 8)
(42830, 0.0457, 0.4, 8)
(42850, 0.9674, 33.63, 9)
(42870, 0.2286, 3.67, 6)
(42890, 3.0849, 18.62, 5)
(4290, 0.1666, 0.05, 8)
(42910, 148.2281, 6.18, 2)
(42920, 2.6666, 4.46, 6)
(42930, 0.239, 1.53, 8)
(42940, 0.1751, 2.2, 8)
(42950, 0.2034, 2.61, 8)
(42960, 5.8337, 30.43, 9)
(42980, 1.0348, 5.11, 6)
(42990, 5.2876, 17.93, 5)
(4300, 0.5994, 0.8, 8)
(43000, 7.1878, 5.25, 3)
(43100, 0.8403, 3.37, 6)
(43110, 159.2066, 4.12, 2)
(43160, 17.1678, 6.83, 7)
(43190, 2.8128, 3.31, 6)
(4320, 4.2644, 1.04, 3)
(43500, 1.226, 3.06, 6)
(43600, 0.1408, 4.57, 6)
(440, 411.9407, 50.11, 4)
(4400, 0.0221, 1.11, 8)
(44000, 0.1221, 2.11, 8)
(4410, 0.1206, 3.5, 6)
(44100, 2.1901, 0.76, 8)
(4420, 0.6929, 3.76, 6)
(44200, 4.3185, 2.73, 3)
(44310, 5.2287, 20.79, 5)
(44320, 30.8075, 5.6, 7)
(44340, 3.9216, 5.05, 6)
(44350, 6.2589, 8.4, 3)
(44360, 3.7842, 19.06, 5)
(4460, 0.7693, 4.99, 6)
(44600, 0.3257, 1.03, 8)
(44620, 0.0204, 0.0, 8)
(44630, 0.0404, 0.0, 8)
(44650, 0.0276, 0.0, 8)
(44660, 0.0163, 0.0, 8)
(44670, 0.0165, 0.0, 8)
(44680, 0.0239, 0.0, 8)
(44690, 0.436, 1.01, 8)
(4470, 0.4476, 3.0, 6)
(4500, 36.9222, 5.77, 0)
(45000, 4.2034, 3.08, 3)
(45100, 3.227, 2.35, 8)
(4520, 1.5797, 0.69, 8)
(4530, 0.7911, 1.1, 8)
(45300, 9.752, 11.6, 5)
(4540, 39.3527, 2.96, 0)
(45400, 2.4879, 1.0, 8)
(45410, 0.4169, 0.71, 8)
(45450, 2.0924, 1.84, 8)
(4550, 24.4884, 15.86, 7)
(45500, 0.2553, 3.93, 6)
(4560, 72.3491, 8.5, 0)
(4570, 24.9747, 2.3, 7)
(45700, 6.1534, 4.35, 3)
(45710, 0.3038, 2.89, 8)
(45720, 0.6941, 4.05, 6)
(45730, 0.6104, 0.73, 8)
(45740, 12.0021, 7.08, 7)
(45750, 2.9929, 6.45, 6)
(45760, 10.9752, 24.18, 5)
(45770, 3.0421, 5.58, 6)
(4580, 14.6118, 10.34, 7)
(45900, 0.24, 0.46, 8)
(4600, 0.2864, 1.49, 8)
(46000, 3.289, 1.15, 8)
(46200, 0.4268, 0.22, 8)
(46210, 0.632, 1.08, 8)
(46220, 0.3083, 0.25, 8)
(46230, 0.4124, 0.16, 8)
(46250, 0.6027, 1.2, 8)
(46260, 1.0321, 4.57, 6)
(46270, 0.6815, 4.39, 6)
(46280, 0.3871, 0.92, 8)
(46290, 1.4473, 2.6, 8)
(46320, 0.7164, 1.26, 8)
(46330, 1.2535, 5.85, 6)
(46340, 1.3109, 2.61, 8)
(46350, 0.2452, 0.58, 8)
(46360, 1.018, 5.23, 6)
(46370, 1.3048, 4.37, 6)
(46380, 0.5304, 1.16, 8)
(46400, 1.9463, 1.05, 8)
(46410, 1.643, 2.44, 8)
(46420, 1.4598, 0.99, 8)
(46430, 1.2137, 0.77, 8)
(46440, 1.0118, 0.5, 8)
(46450, 4.7793, 2.23, 3)
(46460, 1.6388, 1.71, 8)
(46470, 0.0001, 8.43, 6)
(46480, 1.2145, 2.97, 6)
(46490, 0.5868, 2.78, 8)
(46500, 2.2769, 2.19, 8)
(46510, 0.7839, 1.81, 8)
(46520, 1.2123, 0.43, 8)
(46540, 4.2858, 0.92, 3)
(46550, 0.5139, 1.01, 8)
(46560, 0.9691, 1.49, 8)
(46570, 1.2501, 2.07, 8)
(46600, 1.3678, 0.85, 8)
(46700, 0.2807, 0.53, 8)
(46710, 0.21, 0.62, 8)
(46720, 0.3077, 1.47, 8)
(46730, 0.5817, 1.46, 8)
(46740, 0.4451, 1.15, 8)
(46750, 1.0252, 1.54, 8)
(46760, 0.1052, 0.27, 8)
(46770, 0.3971, 38.2, 9)
(46790, 0.7419, 6.21, 6)
(46830, 0.1598, 0.48, 8)
(46840, 0.0708, 0.19, 8)
(46850, 0.2204, 0.85, 8)
(4700, 31.1998, 29.16, 7)
(47000, 0.7897, 8.33, 6)
(47110, 0.0745, 0.29, 8)
(47120, 0.0544, 0.26, 8)
(47130, 0.1118, 0.26, 8)
(4720, 0.8871, 1.37, 8)
(4730, 0.1698, 0.28, 8)
(47400, 28.9539, 5.83, 7)
(47410, 5.5322, 0.27, 3)
(47500, 0.1852, 4.52, 6)
(47520, 0.1196, 3.46, 6)
(47540, 3.6586, 16.67, 5)
(47570, 0.0695, 3.73, 6)
(4760, 39.69, 19.15, 0)
(4770, 12.0457, 2.42, 3)
(47700, 11.8725, 4.04, 3)
(47730, 0.4565, 0.07, 8)
(47780, 24.9331, 6.18, 7)
(47790, 15.2114, 1.67, 7)
(4780, 20.5743, 30.57, 9)
(47800, 2.6298, 7.05, 6)
(47810, 22.7247, 21.62, 7)
(47830, 14.0246, 3.92, 7)
(47850, 0.7598, 33.66, 9)
(47870, 19.6684, 6.07, 7)
(47890, 26.7135, 30.52, 9)
(4790, 0.0222, 0.46, 8)
(47900, 10.1947, 30.36, 9)
(47920, 4.1187, 7.88, 6)
(480, 0.7534, 0.0, 8)
(4800, 0.4389, 7.63, 6)
(48000, 69.841, 1.93, 0)
(48110, 3.1582, 15.0, 5)
(48120, 3.7632, 17.97, 5)
(48150, 0.0516, 1.92, 8)
(48160, 1.8265, 4.68, 6)
(48180, 3.7724, 3.83, 3)
(48190, 22.7112, 13.7, 7)
(48210, 4.5671, 13.11, 5)
(48220, 19.5217, 30.32, 9)
(48240, 28.5139, 22.15, 7)
(48260, 0.0132, 1.77, 8)
(4830, 1.174, 7.33, 6)
(4850, 2.5732, 11.75, 5)
(4870, 0.665, 4.55, 6)
(48700, 66.205, 55.82, 0)
(48720, 34.4304, 14.41, 0)
(4880, 0.7579, 3.44, 6)
(48800, 5.1376, 8.92, 6)
(4890, 1.3954, 5.47, 6)
(48900, 1.3594, 0.51, 8)
(48950, 9.102, 1.82, 3)
(4900, 0.4088, 5.9, 6)
(49000, 0.2536, 6.37, 6)
(4920, 36.4144, 9.09, 0)
(49300, 2.8181, 8.65, 6)
(49320, 0.9393, 0.36, 8)
(49330, 1.9617, 3.39, 6)
(49400, 13.9867, 16.67, 7)
(49470, 27.0424, 20.86, 7)
(49520, 155.6047, 34.84, 2)
(49540, 11.2079, 6.4, 3)
(49600, 27.5657, 3.33, 7)
(49700, 0.7766, 3.48, 6)
(49800, 2.564, 0.59, 8)
(49810, 0.53, 1.07, 8)
(49900, 8.6576, 0.96, 3)
(50, 35.8299, 2.51, 0)
(500, 201.4483, 25.49, 2)
(50000, 2.5607, 1.75, 8)
(50120, 1.1783, 19.19, 5)
(50130, 83.1661, 18.55, 0)
(50300, 25.9871, 4.32, 7)
(50310, 0.7143, 26.36, 5)
(50400, 0.4867, 11.75, 5)
(50510, 3.2857, 0.64, 8)
(50620, 67.5062, 5.07, 0)
(50640, 2.9261, 11.26, 5)
(50650, 34.786, 9.4, 0)
(50800, 0.0686, 0.94, 8)
(50820, 1.6582, 2.04, 8)
(50900, 0.0252, 2.35, 8)
(50910, 0.0256, 2.51, 8)
(50920, 0.0766, 7.75, 6)
(50930, 0.0546, 9.14, 6)
(50940, 0.0822, 4.91, 6)
(50950, 0.0973, 72.95, 9)
(50960, 0.0983, 5.86, 6)
(50970, 0.0659, 10.1, 5)
(50980, 0.0642, 9.69, 6)
(50990, 0.1, 7.28, 6)
(51000, 0.116, 6.06, 6)
(51010, 0.1071, 8.88, 6)
(51020, 0.0253, 28.65, 5)
(51030, 0.0291, 5.97, 6)
(51040, 0.0515, 35.62, 9)
(51060, 0.4167, 3.86, 6)
(520, 7.4848, 2.23, 3)
(52003, 0.0009, 0.16, 8)
(550, 412.0726, 30.09, 4)
(55000, 3.8087, 1.07, 3)
(55020, 0.4659, 0.18, 8)
(55040, 20.1553, 1.94, 7)
(55050, 0.114, 0.0, 8)
(55100, 42.6394, 6.66, 0)
(55110, 33.2636, 2.56, 7)
(55130, 0.6555, 0.0, 8)
(55140, 7.1554, 7.33, 3)
(55150, 50.1639, 9.98, 0)
(55180, 0.0055, 53.42, 9)
(55190, 0.1, 8.42, 6)
(55210, 0.0786, 3.59, 6)
(55230, 133.0927, 14.59, 2)
(55370, 1.2923, 0.0, 8)
(56400, 68.6368, 22.66, 0)
(570, 694.4724, 93.6, 4)
(57000, 1.3233, 0.99, 8)
(57200, 3.1376, 0.98, 8)
(57210, 0.019, 0.0, 8)
(57300, 74.9287, 2.72, 0)
(57400, 37.0864, 13.43, 0)
(57500, 1.6378, 6.44, 6)
(57510, 1.4072, 5.81, 6)
(57600, 12.1233, 10.2, 7)
(57610, 0.0238, 0.0, 8)
(57620, 3.4269, 7.24, 6)
(57640, 3.6657, 2.87, 3)
(57650, 7.2567, 4.31, 3)
(57680, 1.1242, 3.34, 6)
(57690, 31.2346, 14.97, 7)
(57700, 0.9048, 0.83, 8)
(57730, 1.4662, 11.33, 5)
(57740, 8.1766, 28.44, 9)
(57800, 3.5053, 0.63, 8)
(57900, 46.4045, 6.41, 0)
(57970, 4.3416, 6.47, 6)
(58200, 2.8536, 0.99, 8)
(58230, 0.5357, 2.34, 8)
(58300, 0.932, 1.38, 8)
(58400, 1.7383, 0.39, 8)
(58510, 6.6725, 10.01, 5)
(58520, 10.8913, 13.15, 5)
(58540, 7.604, 13.52, 5)
(58550, 8.9206, 2.97, 3)
(58560, 0.6188, 3.76, 6)
(58570, 1.3322, 3.16, 6)
(58610, 19.5232, 14.17, 7)
(60, 34.6851, 0.16, 7)
(6000, 10.4999, 3.23, 3)
(6010, 4.2846, 3.0, 3)
(6020, 16.5684, 5.93, 7)
(6030, 11.2653, 3.01, 3)
(60310, 0.0001, 0.11, 8)
(60320, 0.0001, 0.16, 8)
(60330, 0.0001, 0.42, 8)
(60340, 0.4565, 9.53, 6)
(60350, 0.4797, 1.91, 8)
(6040, 3.487, 2.74, 3)
(6060, 37.4802, 5.18, 0)
(60600, 0.6113, 0.72, 8)
(60610, 0.004, 0.0, 8)
(60700, 0.4161, 1.09, 8)
(6080, 0.2209, 3.77, 6)
(60800, 1.6903, 1.6, 8)
(6090, 0.4807, 1.79, 8)
(6100, 7.6363, 0.52, 3)
(61000, 1.4633, 4.17, 6)
(61010, 0.3645, 0.36, 8)
(61100, 2.5235, 1.78, 8)
(6120, 14.513, 1.12, 7)
(61220, 0.7047, 1.1, 8)
(61230, 0.1086, 1.79, 8)
(61310, 3.0202, 0.71, 8)
(61500, 1.0025, 6.94, 6)
(61510, 1.0609, 8.48, 6)
(61520, 1.4641, 13.79, 5)
(61530, 0.1037, 0.57, 8)
(61600, 5.0724, 0.61, 3)
(61700, 5.7917, 14.06, 5)
(61730, 0.8421, 2.04, 8)
(61800, 0.0014, 0.0, 8)
(61810, 0.0019, 0.0, 8)
(61820, 0.0008, 0.0, 8)
(620, 288.6422, 9.48, 2)
(6200, 3.5217, 1.58, 8)
(62000, 6.6493, 2.03, 3)
(6210, 1.2152, 0.64, 8)
(62100, 7.0133, 3.3, 3)
(6220, 3.735, 1.97, 3)
(6250, 1.0763, 5.97, 6)
(6270, 1.0415, 0.62, 8)
(6290, 0.4984, 0.86, 8)
(630, 8.6831, 0.04, 3)
(6300, 2.2697, 2.46, 8)
(63000, 9.7249, 1.47, 3)
(6310, 5.9163, 2.93, 3)
(63110, 0.3001, 0.74, 8)
(63200, 19.4453, 6.11, 7)
(63230, 0.002, 87.78, 9)
(6330, 0.4915, 23.52, 5)
(63380, 27.4887, 10.41, 7)
(6340, 0.356, 26.49, 5)
(6350, 0.211, 29.01, 9)
(63500, 9.6279, 1.65, 3)
(63510, 0.0005, 0.22, 8)
(6360, 0.2174, 36.77, 9)
(63600, 3.0143, 1.48, 8)
(63610, 2.0405, 1.9, 8)
(63620, 0.501, 0.31, 8)
(63630, 0.3159, 0.2, 8)
(63640, 0.5213, 0.16, 8)
(63650, 0.878, 2.38, 8)
(63660, 2.3277, 1.18, 8)
(6370, 2.0096, 0.01, 8)
(63700, 15.09, 0.76, 7)
(63710, 29.1095, 1.02, 7)
(63800, 3.282, 1.35, 8)
(63900, 0.7766, 3.86, 6)
(63910, 4.2949, 14.79, 5)
(63930, 0.0004, 0.18, 8)
(63940, 3.2288, 3.89, 6)
(63950, 10.3693, 10.48, 5)
(63960, 0.7511, 3.34, 6)
(6400, 0.7376, 1.82, 8)
(64000, 8.2115, 36.99, 9)
(6420, 2.0795, 5.58, 6)
(644, 0.1417, 0.01, 8)
(65070, 0.0002, 0.2, 8)
(65080, 0.3679, 1.48, 8)
(6510, 17.427, 3.14, 7)
(65100, 0.8534, 4.82, 6)
(6520, 0.0029, 3.09, 6)
(65200, 0.3714, 1.86, 8)
(65260, 0.0787, 3.69, 6)
(65270, 0.9359, 5.91, 6)
(65300, 10.9088, 2.07, 3)
(65400, 0.4665, 1.77, 8)
(6550, 2.1365, 1.92, 8)
(65500, 0.3761, 1.5, 8)
(65530, 2.2264, 4.97, 6)
(65540, 2.5085, 2.51, 8)
(65560, 1.9349, 1.14, 8)
(65600, 2.1754, 2.92, 6)
(65610, 0.8103, 1.24, 8)
(6570, 0.162, 2.74, 8)
(65700, 2.2616, 0.53, 8)
(65710, 0.1524, 2.16, 8)
(65720, 2.8568, 0.55, 8)
(65730, 1.7988, 5.37, 6)
(65740, 1.9756, 8.7, 6)
(65780, 0.7072, 1.79, 8)
(65790, 2.0365, 1.81, 8)
(6580, 0.1269, 0.0, 8)
(65800, 95.4126, 26.41, 0)
(6590, 0.0001, 0.0, 8)
(65930, 0.7203, 5.12, 6)
(65950, 1.7102, 56.24, 9)
(6600, 1.903, 0.2, 8)
(6700, 0.0001, 12.09, 5)
(67000, 9.1887, 0.39, 3)
(67370, 14.8047, 4.57, 7)
(6800, 4.5123, 1.59, 3)
(6810, 2.152, 0.7, 8)
(6820, 0.0762, 2.57, 8)
(6830, 4.8948, 2.19, 3)
(6840, 4.008, 0.84, 3)
(6850, 10.202, 1.77, 3)
(6860, 23.6918, 4.69, 7)
(6870, 1.5228, 3.58, 6)
(6880, 5.1748, 1.82, 3)
(6900, 8.4874, 0.69, 3)
(6910, 28.855, 3.82, 7)
(6920, 7.6953, 0.42, 3)
(6980, 12.9375, 2.31, 7)
(70, 105.3477, 3.6, 0)
(7000, 5.319, 2.14, 3)
(70000, 6.7609, 3.05, 3)
(7010, 0.6256, 1.19, 8)
(70100, 3.3015, 1.05, 8)
(70110, 1.4356, 0.65, 8)
(70120, 2.7626, 0.48, 8)
(7020, 0.6988, 1.97, 8)
(70200, 0.2619, 14.53, 5)
(70210, 0.5121, 17.34, 5)
(70300, 27.2037, 1.17, 7)
(70400, 17.6382, 8.0, 7)
(70420, 4.2632, 1.59, 3)
(70500, 0.8262, 0.87, 8)
(7060, 0.7501, 1.2, 8)
(70600, 6.0886, 3.21, 3)
(70620, 2.3332, 1.2, 8)
(70640, 0.4604, 0.36, 8)
(70650, 0.471, 0.24, 8)
(70660, 0.6038, 0.74, 8)
(70900, 3.6112, 6.91, 6)
(71000, 5.8152, 3.56, 3)
(7110, 6.572, 4.21, 3)
(71230, 1.8603, 0.5, 8)
(71240, 0.8341, 0.96, 8)
(71250, 4.4165, 2.24, 3)
(71260, 0.8957, 1.06, 8)
(71270, 90.7603, 193.44, 1)
(71300, 0.0316, 106.23, 9)
(71310, 0.4707, 257.95, 1)
(71320, 1.188, 156.92, 1)
(71340, 18.3712, 5.25, 7)
(71390, 1.7669, 7.93, 6)
(71420, 1.8385, 6.25, 6)
(7200, 5.8271, 27.76, 5)
(72000, 6.7642, 0.42, 3)
(7203, 0.0001, 0.0, 8)
(7210, 1.5749, 2.35, 8)
(7220, 0.7525, 2.42, 8)
(72200, 31.7024, 2.29, 7)
(72300, 5.247, 3.36, 3)
(7240, 0.0001, 0.0, 8)
(72400, 0.5491, 2.58, 8)
(7250, 0.0864, 2.88, 8)
(72500, 0.4769, 1.37, 8)
(72520, 0.0001, 1.5, 8)
(72530, 0.0001, 0.13, 8)
(7260, 0.663, 2.03, 8)
(72850, 333.8912, 69.51, 4)
(72900, 0.9894, 1.99, 8)
(72910, 0.0118, 0.0, 8)
(730, 237.6838, 23.59, 2)
(73000, 0.0001, 0.03, 8)
(73010, 12.1196, 13.66, 5)
(73020, 3.2145, 11.4, 5)
(73060, 1.1606, 1.44, 8)
(73170, 1.5768, 27.99, 5)
(73190, 1.1094, 10.64, 5)
(73210, 1.2726, 4.3, 6)
(73220, 0.7904, 24.57, 5)
(73230, 1.128, 2.23, 8)
(7340, 0.089, 4.09, 6)
(7400, 0.0933, 7.37, 6)
(7420, 0.0523, 1.74, 8)
(7440, 0.0343, 19.63, 5)
(7450, 0.1377, 18.53, 5)
(7470, 0.2013, 12.11, 5)
(7500, 2.0024, 6.65, 6)
(7510, 0.8385, 1.01, 8)
(7520, 12.1865, 9.97, 7)
(7530, 0.5108, 0.82, 8)
(7600, 3.4025, 11.81, 5)
(7610, 2.835, 10.74, 5)
(7620, 3.1939, 9.94, 5)
(7650, 4.9551, 6.42, 3)
(7660, 5.0962, 5.64, 3)
(7670, 65.8906, 4.45, 0)
(7730, 2.5672, 0.55, 8)
(7740, 10.2666, 24.82, 5)
(7760, 14.5569, 10.05, 7)
(7770, 2.9321, 0.45, 8)
(7780, 2.5917, 8.46, 6)
(7800, 0.8929, 2.28, 8)
(78000, 5.3008, 38.03, 9)
(7810, 0.2534, 6.35, 6)
(7830, 8.4191, 12.28, 5)
(7840, 0.7372, 0.51, 8)
(7850, 2.7215, 1.18, 8)
(7860, 1.8254, 2.23, 8)
(7870, 0.7328, 9.26, 6)
(7880, 0.5013, 11.07, 5)
(7900, 0.2861, 3.92, 6)
(7910, 0.1832, 6.07, 6)
(7940, 41.6889, 14.55, 0)
(7970, 0.6264, 2.21, 8)
(7980, 0.2942, 3.07, 6)
(7990, 0.1305, 4.52, 6)
(80, 238.8167, 19.84, 2)
(8000, 8.734, 3.17, 3)
(80000, 1.8453, 2.32, 8)
(8010, 0.0122, 3.99, 6)
(80200, 4.9146, 2.75, 3)
(80300, 0.6183, 1.23, 8)
(80310, 3.2588, 1.72, 8)
(80330, 0.9486, 1.6, 8)
(80340, 0.5486, 1.36, 8)
(80350, 0.4732, 1.39, 8)
(80360, 0.428, 1.82, 8)
(8040, 0.067, 13.97, 5)
(8060, 0.1495, 28.61, 5)
(8080, 3.3488, 1.88, 8)
(8100, 0.8053, 1.93, 8)
(8130, 0.0002, 0.61, 8)
(8140, 8.5806, 2.73, 3)
(8160, 0.6008, 0.96, 8)
(8170, 2.6262, 9.23, 6)
(8190, 104.8988, 12.65, 0)
(8200, 4.8448, 1.42, 3)
(8210, 2.7681, 1.34, 8)
(8220, 2.0585, 1.05, 8)
(8230, 2.1048, 0.0, 8)
(8240, 1.697, 1.52, 8)
(8250, 1.5058, 1.41, 8)
(8260, 2.109, 1.67, 8)
(8270, 1.5698, 1.54, 8)
(8280, 1.4251, 1.74, 8)
(8290, 1.2505, 1.7, 8)
(8300, 1.2216, 1.82, 8)
(8310, 0.2431, 0.9, 8)
(8320, 0.0951, 1.14, 8)
(8330, 0.2921, 1.34, 8)
(8340, 1.5956, 1.15, 8)
(8350, 0.6403, 1.35, 8)
(8360, 0.4949, 1.11, 8)
(8370, 0.426, 0.88, 8)
(8380, 0.3399, 0.84, 8)
(8400, 6.4878, 1.05, 3)
(8500, 11.7455, 71.35, 9)
(852, 0.0017, 2.57, 8)
(8600, 19.838, 20.72, 7)
(8620, 1.2295, 1.62, 8)
(8640, 0.2082, 0.03, 8)
(8650, 0.086, 0.09, 8)
(8660, 2.2498, 0.3, 8)
(8690, 0.2742, 0.13, 8)
(8740, 0.0216, 2.32, 8)
(8790, 0.3475, 1.0, 8)
(8800, 17.3808, 35.15, 9)
(8840, 0.3178, 13.17, 5)
(8850, 37.1052, 4.49, 0)
(8870, 69.2765, 8.75, 0)
(8880, 7.5938, 1.76, 3)
(8890, 2.6792, 1.88, 8)
(8930, 313.3303, 77.27, 4)
(8955, 0.0008, 3.56, 6)
(8970, 0.4688, 1.39, 8)
(8980, 128.0176, 20.72, 2)
(9000, 0.8047, 0.41, 8)
(9010, 5.0968, 2.62, 3)
(90100, 0.9824, 8.54, 6)
(90200, 5.2866, 37.02, 9)
(9030, 0.7421, 0.37, 8)
(9040, 1.1036, 0.42, 8)
(90400, 0.289, 1.2, 8)
(9050, 13.2181, 2.79, 7)
(90500, 2.4346, 1.76, 8)
(90530, 2.6425, 0.01, 8)
(9060, 2.7369, 0.45, 8)
(9070, 5.0341, 0.89, 3)
(90800, 0.3713, 1.99, 8)
(91100, 2.9765, 1.74, 8)
(91200, 14.1345, 1.26, 7)
(91310, 113.8462, 12.63, 2)
(91330, 3.7343, 7.89, 6)
(9160, 1.2026, 0.27, 8)
(91600, 40.0388, 3.85, 0)
(91700, 16.5854, 3.79, 7)
(9180, 3.1938, 0.75, 8)
(91800, 0.5208, 1.66, 8)
(91810, 0.4103, 5.61, 6)
(91830, 0.0463, 0.0, 8)
(91900, 5.775, 1.77, 3)
(92, 0.1695, 0.0, 8)
(9200, 56.6962, 9.64, 0)
(92000, 7.4308, 1.34, 3)
(92100, 0.6474, 0.47, 8)
(92200, 1.2665, 0.86, 8)
(92210, 1.0571, 0.92, 8)
(92220, 1.3009, 0.77, 8)
(92230, 0.0372, 0.0, 8)
(92250, 0.0409, 0.0, 8)
(92300, 5.1441, 1.06, 3)
(92400, 0.2823, 0.83, 8)
(92500, 0.2055, 0.0, 8)
(92600, 2.0948, 0.62, 8)
(92700, 1.4331, 1.67, 8)
(92800, 14.8581, 3.93, 7)
(92900, 1.3334, 2.73, 8)
(9310, 9.992, 2.31, 3)
(93200, 16.4555, 1.59, 7)
(9340, 35.5119, 6.79, 0)
(9350, 6.1182, 3.07, 3)
(9400, 1.9044, 2.22, 8)
(94000, 1.2748, 0.68, 8)
(9420, 10.0959, 10.33, 5)
(94200, 24.8453, 0.89, 7)
(94300, 0.8866, 2.33, 8)
(9450, 14.9853, 14.13, 7)
(94500, 4.48, 1.11, 3)
(94510, 3.427, 1.07, 8)
(94520, 3.0747, 1.16, 8)
(94530, 2.7699, 0.98, 8)
(94590, 2.4533, 1.03, 8)
(9460, 8.8814, 3.61, 3)
(94600, 1.9868, 0.6, 8)
(94610, 0.6639, 0.56, 8)
(94620, 0.4708, 0.43, 8)
(9480, 46.4334, 10.36, 0)
(9500, 10.5359, 0.35, 3)
(95000, 0.1081, 1.51, 8)
(95300, 9.872, 0.58, 3)
(95500, 1.6068, 0.97, 8)
(95700, 0.0856, 0.0, 8)
(95900, 1.8948, 3.1, 6)
(96000, 2.8121, 3.32, 6)
(96100, 0.6921, 0.6, 8)
(96200, 8.9581, 0.5, 3)
(96300, 7.6554, 1.3, 3)
(96400, 6.3922, 5.21, 3)
(96800, 7.8283, 0.54, 3)
(96900, 0.305, 0.21, 8)
(97000, 15.5647, 2.3, 7)
(9710, 0.1438, 3.22, 6)
(97100, 13.5419, 4.33, 7)
(97110, 0.4336, 3.49, 6)
(97120, 0.2359, 4.53, 6)
(97130, 0.699, 4.93, 6)
(9730, 0.3044, 3.54, 6)
(97330, 29.0591, 20.9, 7)
(9740, 2.3983, 2.86, 6)
(9760, 0.3905, 6.12, 6)
(9800, 0.5797, 0.84, 8)
(98100, 6.4978, 0.41, 3)
(98200, 28.4731, 2.5, 7)
(98300, 8.8215, 3.28, 3)
(98400, 8.4741, 2.5, 3)
(9850, 0.2692, 5.77, 6)
(98500, 0.6434, 0.89, 8)
(98510, 1.4311, 6.16, 6)
(9860, 7.0558, 3.72, 3)
(98600, 5.4794, 1.22, 3)
(9870, 5.3577, 3.77, 3)
(9880, 7.0859, 0.38, 3)
(98800, 24.9476, 9.35, 7)
(98810, 0.0093, 8.13, 6)
(98900, 0.5718, 1.55, 8)
(9900, 8.7575, 0.99, 3)
(99100, 7.9688, 4.7, 3)
(99120, 0.1446, 0.66, 8)
(99200, 0.9459, 2.7, 8)
(9930, 14.1909, 19.25, 5)
(99300, 7.3165, 2.17, 3)
(9940, 1.0287, 3.1, 6)
(99400, 1.2559, 0.49, 8)
(99410, 0.2577, 0.29, 8)
(9960, 0.1958, 1.0, 8)
(9970, 0.3632, 0.8, 8)
(99700, 13.1954, 0.56, 3)
(9980, 0.5237, 1.68, 8)
(99810, 10.9077, 4.95, 3)
(99830, 8.8978, 15.47, 5)
(99870, 0.6595, 0.0, 8)
(99890, 5.3545, 11.33, 5)
(9990, 0.5637, 1.04, 8)
(99900, 13.589, 0.21, 7)
(99910, 1.4138, 0.0, 8)
(99920, 0.0248, 0.0, 8)
(99930, 0.0001, 0.11, 8)
