{
	"response": {
		"game_count": 243,
		"games": [
			{
				"appid": 8290
			},
			{
				"appid": 23490,
				"playtime_forever": 2743
			},
			{
				"appid": 20510,
				"playtime_forever": 990
			},
			{
				"appid": 33520,
				"playtime_forever": 543
			},
			{
				"appid": 33530,
				"playtime_forever": 85
			},
			{
				"appid": 17450,
				"playtime_forever": 1737
			},
			{
				"appid": 8980,
				"playtime_forever": 734
			},
			{
				"appid": 4780
			},
			{
				"appid": 2100,
				"playtime_forever": 381
			},
			{
				"appid": 2130
			},
			{
				"appid": 500,
				"playtime_forever": 545
			},
			{
				"appid": 6300,
				"playtime_forever": 2
			},
			{
				"appid": 6310,
				"playtime_forever": 363
			},
			{
				"appid": 22120,
				"playtime_forever": 230
			},
			{
				"appid": 22140,
				"playtime_forever": 33
			},
			{
				"appid": 22180,
				"playtime_forever": 208
			},
			{
				"appid": 6910,
				"playtime_forever": 128
			},
			{
				"appid": 3900,
				"playtime_forever": 187
			},
			{
				"appid": 8800,
				"playtime_forever": 37
			},
			{
				"appid": 34440
			},
			{
				"appid": 34450
			},
			{
				"appid": 3990
			},
			{
				"appid": 34460
			},
			{
				"appid": 34470
			},
			{
				"appid": 16810
			},
			{
				"appid": 4760,
				"playtime_forever": 984
			},
			{
				"appid": 4770
			},
			{
				"appid": 22320,
				"playtime_forever": 3350
			},
			{
				"appid": 22330,
				"playtime_forever": 0
			},
			{
				"appid": 20900,
				"playtime_forever": 1730
			},
			{
				"appid": 41700,
				"playtime_forever": 1592
			},
			{
				"appid": 24980,
				"playtime_forever": 954
			},
			{
				"appid": 8300,
				"playtime_forever": 20
			},
			{
				"appid": 43110,
				"playtime_forever": 595
			},
			{
				"appid": 4920,
				"playtime_forever": 8040
			},
			{
				"appid": 10530
			},
			{
				"appid": 34010,
				"playtime_forever": 1901
			},
			{
				"appid": 7850,
				"playtime_forever": 43
			},
			{
				"appid": 25600,
				"playtime_forever": 904
			},
			{
				"appid": 48700,
				"playtime_forever": 1748
			},
			{
				"appid": 49400,
				"playtime_forever": 493
			},
			{
				"appid": 11190,
				"playtime_forever": 213
			},
			{
				"appid": 57600,
				"playtime_forever": 1220
			},
			{
				"appid": 50130,
				"playtime_forever": 1207
			},
			{
				"appid": 34030,
				"playtime_forever": 278
			},
			{
				"appid": 57300,
				"playtime_forever": 9
			},
			{
				"appid": 10500,
				"playtime_forever": 0
			},
			{
				"appid": 25800,
				"playtime_forever": 1099
			},
			{
				"appid": 22130,
				"playtime_forever": 2
			},
			{
				"appid": 42960,
				"playtime_forever": 0
			},
			{
				"appid": 22380,
				"playtime_forever": 7298
			},
			{
				"appid": 72900,
				"playtime_forever": 711
			},
			{
				"appid": 20920,
				"playtime_forever": 1461
			},
			{
				"appid": 47730,
				"playtime_forever": 0
			},
			{
				"appid": 70400,
				"playtime_forever": 66
			},
			{
				"appid": 18700,
				"playtime_forever": 24
			},
			{
				"appid": 9500,
				"playtime_forever": 6
			},
			{
				"appid": 31270
			},
			{
				"appid": 58200,
				"playtime_forever": 0
			},
			{
				"appid": 28000,
				"playtime_forever": 145
			},
			{
				"appid": 25620,
				"playtime_forever": 466
			},
			{
				"appid": 12900,
				"playtime_forever": 87
			},
			{
				"appid": 38900
			},
			{
				"appid": 49600,
				"playtime_forever": 18
			},
			{
				"appid": 63700,
				"playtime_forever": 25
			},
			{
				"appid": 67000,
				"playtime_forever": 10
			},
			{
				"appid": 41300,
				"playtime_forever": 64
			},
			{
				"appid": 41800,
				"playtime_forever": 0
			},
			{
				"appid": 42500,
				"playtime_forever": 5
			},
			{
				"appid": 49900,
				"playtime_forever": 56
			},
			{
				"appid": 55000
			},
			{
				"appid": 24780,
				"playtime_forever": 5
			},
			{
				"appid": 550,
				"playtime_forever": 321
			},
			{
				"appid": 223530
			},
			{
				"appid": 40800,
				"playtime_forever": 370
			},
			{
				"appid": 6850
			},
			{
				"appid": 6860,
				"playtime_forever": 59
			},
			{
				"appid": 6900
			},
			{
				"appid": 27020,
				"playtime_forever": 18
			},
			{
				"appid": 39680,
				"playtime_forever": 136
			},
			{
				"appid": 39650,
				"playtime_forever": 61
			},
			{
				"appid": 39660
			},
			{
				"appid": 2600,
				"playtime_forever": 1163
			},
			{
				"appid": 39510,
				"playtime_forever": 11
			},
			{
				"appid": 40300,
				"playtime_forever": 2545
			},
			{
				"appid": 10,
				"playtime_forever": 71
			},
			{
				"appid": 20,
				"playtime_forever": 55
			},
			{
				"appid": 30
			},
			{
				"appid": 40
			},
			{
				"appid": 50
			},
			{
				"appid": 60
			},
			{
				"appid": 70,
				"playtime_forever": 102
			},
			{
				"appid": 130,
				"playtime_forever": 150
			},
			{
				"appid": 80
			},
			{
				"appid": 100
			},
			{
				"appid": 220
			},
			{
				"appid": 240,
				"playtime_forever": 1725
			},
			{
				"appid": 260
			},
			{
				"appid": 280
			},
			{
				"appid": 300,
				"playtime_forever": 5
			},
			{
				"appid": 320
			},
			{
				"appid": 340
			},
			{
				"appid": 360
			},
			{
				"appid": 380
			},
			{
				"appid": 4700
			},
			{
				"appid": 7110
			},
			{
				"appid": 2310
			},
			{
				"appid": 9040
			},
			{
				"appid": 9030
			},
			{
				"appid": 7670
			},
			{
				"appid": 520
			},
			{
				"appid": 400,
				"playtime_forever": 108
			},
			{
				"appid": 420
			},
			{
				"appid": 440,
				"playtime_forever": 146
			},
			{
				"appid": 2280
			},
			{
				"appid": 28050,
				"playtime_forever": 1488
			},
			{
				"appid": 4500,
				"playtime_forever": 313
			},
			{
				"appid": 42910,
				"playtime_forever": 137
			},
			{
				"appid": 2760,
				"playtime_forever": 918
			},
			{
				"appid": 12140
			},
			{
				"appid": 12150,
				"playtime_forever": 33
			},
			{
				"appid": 107100,
				"playtime_forever": 336
			},
			{
				"appid": 113200,
				"playtime_forever": 205
			},
			{
				"appid": 99700
			},
			{
				"appid": 63710,
				"playtime_forever": 13
			},
			{
				"appid": 6120
			},
			{
				"appid": 94200,
				"playtime_forever": 143
			},
			{
				"appid": 200900,
				"playtime_forever": 35
			},
			{
				"appid": 26500
			},
			{
				"appid": 26900
			},
			{
				"appid": 41100
			},
			{
				"appid": 70300
			},
			{
				"appid": 99400
			},
			{
				"appid": 102600,
				"playtime_forever": 1294
			},
			{
				"appid": 8190
			},
			{
				"appid": 7760,
				"playtime_forever": 37
			},
			{
				"appid": 65800,
				"playtime_forever": 55
			},
			{
				"appid": 71340,
				"playtime_forever": 302
			},
			{
				"appid": 104700
			},
			{
				"appid": 72850,
				"playtime_forever": 111
			},
			{
				"appid": 24740,
				"playtime_forever": 418
			},
			{
				"appid": 57690,
				"playtime_forever": 1476
			},
			{
				"appid": 98400
			},
			{
				"appid": 102400
			},
			{
				"appid": 201280,
				"playtime_forever": 11
			},
			{
				"appid": 39190
			},
			{
				"appid": 39200
			},
			{
				"appid": 39160,
				"playtime_forever": 7
			},
			{
				"appid": 35700
			},
			{
				"appid": 38600
			},
			{
				"appid": 46440
			},
			{
				"appid": 46400
			},
			{
				"appid": 46540
			},
			{
				"appid": 46450
			},
			{
				"appid": 27900,
				"playtime_forever": 79
			},
			{
				"appid": 6220,
				"playtime_forever": 19
			},
			{
				"appid": 207170,
				"playtime_forever": 503
			},
			{
				"appid": 48720,
				"playtime_forever": 1484
			},
			{
				"appid": 22100,
				"playtime_forever": 8
			},
			{
				"appid": 10170,
				"playtime_forever": 543
			},
			{
				"appid": 620,
				"playtime_forever": 52
			},
			{
				"appid": 644
			},
			{
				"appid": 112100,
				"playtime_forever": 92
			},
			{
				"appid": 209830
			},
			{
				"appid": 26800
			},
			{
				"appid": 204060,
				"playtime_forever": 3
			},
			{
				"appid": 48000
			},
			{
				"appid": 3830
			},
			{
				"appid": 203770,
				"playtime_forever": 69
			},
			{
				"appid": 15700
			},
			{
				"appid": 15710
			},
			{
				"appid": 206020
			},
			{
				"appid": 206040
			},
			{
				"appid": 206060
			},
			{
				"appid": 42140
			},
			{
				"appid": 1200
			},
			{
				"appid": 1230
			},
			{
				"appid": 1280
			},
			{
				"appid": 201070,
				"playtime_forever": 3
			},
			{
				"appid": 203750,
				"playtime_forever": 43
			},
			{
				"appid": 201790,
				"playtime_forever": 1373
			},
			{
				"appid": 47870,
				"playtime_forever": 23
			},
			{
				"appid": 207320,
				"playtime_forever": 303
			},
			{
				"appid": 105600
			},
			{
				"appid": 46370
			},
			{
				"appid": 46320
			},
			{
				"appid": 46380
			},
			{
				"appid": 46340
			},
			{
				"appid": 9800
			},
			{
				"appid": 34410
			},
			{
				"appid": 3170
			},
			{
				"appid": 7500
			},
			{
				"appid": 46270
			},
			{
				"appid": 211420,
				"playtime_forever": 22573
			},
			{
				"appid": 92800
			},
			{
				"appid": 205100,
				"playtime_forever": 439
			},
			{
				"appid": 1700
			},
			{
				"appid": 200510,
				"playtime_forever": 512
			},
			{
				"appid": 8930
			},
			{
				"appid": 25900
			},
			{
				"appid": 7510
			},
			{
				"appid": 212030
			},
			{
				"appid": 219150,
				"playtime_forever": 273
			},
			{
				"appid": 25980
			},
			{
				"appid": 25930
			},
			{
				"appid": 42120
			},
			{
				"appid": 23420
			},
			{
				"appid": 23440
			},
			{
				"appid": 25830
			},
			{
				"appid": 25850
			},
			{
				"appid": 42920
			},
			{
				"appid": 31240
			},
			{
				"appid": 31250
			},
			{
				"appid": 31260
			},
			{
				"appid": 31220
			},
			{
				"appid": 31230
			},
			{
				"appid": 215670
			},
			{
				"appid": 58230
			},
			{
				"appid": 205950,
				"playtime_forever": 145
			},
			{
				"appid": 9200,
				"playtime_forever": 125
			},
			{
				"appid": 207210,
				"playtime_forever": 409
			},
			{
				"appid": 34330,
				"playtime_forever": 91
			},
			{
				"appid": 17410,
				"playtime_forever": 9
			},
			{
				"appid": 108710,
				"playtime_forever": 195
			},
			{
				"appid": 202750
			},
			{
				"appid": 4560
			},
			{
				"appid": 9340
			},
			{
				"appid": 20540
			},
			{
				"appid": 50620
			},
			{
				"appid": 55110
			},
			{
				"appid": 228200
			},
			{
				"appid": 23460
			},
			{
				"appid": 1930
			},
			{
				"appid": 1900
			},
			{
				"appid": 22600,
				"playtime_forever": 26
			},
			{
				"appid": 204860
			},
			{
				"appid": 17330,
				"playtime_forever": 20
			},
			{
				"appid": 17340
			},
			{
				"appid": 41900
			},
			{
				"appid": 570
			},
			{
				"appid": 205790
			},
			{
				"appid": 212680,
				"playtime_forever": 293
			},
			{
				"appid": 207250
			}
		]
		
	}
}