{
	"response": {
		"game_count": 8,
		"games": [
			{
				"appid": 10,
				"playtime_forever": 2140
			},
			{
				"appid": 20
			},
			{
				"appid": 30
			},
			{
				"appid": 40
			},
			{
				"appid": 50
			},
			{
				"appid": 60
			},
			{
				"appid": 70
			},
			{
				"appid": 130
			}
		]
		
	}
}