{
	"response": {
		"game_count": 18,
		"games": [
			{
				"appid": 10
			},
			{
				"appid": 20
			},
			{
				"appid": 30
			},
			{
				"appid": 40
			},
			{
				"appid": 50
			},
			{
				"appid": 60
			},
			{
				"appid": 70
			},
			{
				"appid": 130
			},
			{
				"appid": 80
			},
			{
				"appid": 100
			},
			{
				"appid": 220
			},
			{
				"appid": 240,
				"playtime_forever": 103
			},
			{
				"appid": 260
			},
			{
				"appid": 280
			},
			{
				"appid": 300
			},
			{
				"appid": 320
			},
			{
				"appid": 340
			},
			{
				"appid": 360
			}
		]
		
	}
}