{
	"response": {
		"game_count": 2189,
		"games": [
			{
				"appid": 10
			},
			{
				"appid": 20
			},
			{
				"appid": 30
			},
			{
				"appid": 40
			},
			{
				"appid": 50
			},
			{
				"appid": 60
			},
			{
				"appid": 70
			},
			{
				"appid": 130
			},
			{
				"appid": 80
			},
			{
				"appid": 100
			},
			{
				"appid": 300
			},
			{
				"appid": 220
			},
			{
				"appid": 240,
				"playtime_forever": 23
			},
			{
				"appid": 260
			},
			{
				"appid": 280
			},
			{
				"appid": 320
			},
			{
				"appid": 340
			},
			{
				"appid": 360
			},
			{
				"appid": 380
			},
			{
				"appid": 400
			},
			{
				"appid": 420
			},
			{
				"appid": 440,
				"playtime_forever": 213
			},
			{
				"appid": 500,
				"playtime_forever": 120
			},
			{
				"appid": 520
			},
			{
				"appid": 550,
				"playtime_forever": 144
			},
			{
				"appid": 570,
				"playtime_forever": 7104
			},
			{
				"appid": 620,
				"playtime_forever": 38
			},
			{
				"appid": 644
			},
			{
				"appid": 730
			},
			{
				"appid": 1002
			},
			{
				"appid": 1200
			},
			{
				"appid": 1230
			},
			{
				"appid": 1250,
				"playtime_forever": 39
			},
			{
				"appid": 1280
			},
			{
				"appid": 1300
			},
			{
				"appid": 1309
			},
			{
				"appid": 1313
			},
			{
				"appid": 1500
			},
			{
				"appid": 1510
			},
			{
				"appid": 1520
			},
			{
				"appid": 1530
			},
			{
				"appid": 1600
			},
			{
				"appid": 1610
			},
			{
				"appid": 1630
			},
			{
				"appid": 1640
			},
			{
				"appid": 1670
			},
			{
				"appid": 1690
			},
			{
				"appid": 1700
			},
			{
				"appid": 1840
			},
			{
				"appid": 1900
			},
			{
				"appid": 1920
			},
			{
				"appid": 1930
			},
			{
				"appid": 2100
			},
			{
				"appid": 2130
			},
			{
				"appid": 2200
			},
			{
				"appid": 2210
			},
			{
				"appid": 2270
			},
			{
				"appid": 2280
			},
			{
				"appid": 2290
			},
			{
				"appid": 2300
			},
			{
				"appid": 2310
			},
			{
				"appid": 2320
			},
			{
				"appid": 2330
			},
			{
				"appid": 2340
			},
			{
				"appid": 2350
			},
			{
				"appid": 2360
			},
			{
				"appid": 2370
			},
			{
				"appid": 2390
			},
			{
				"appid": 2400
			},
			{
				"appid": 2420
			},
			{
				"appid": 2430
			},
			{
				"appid": 2450
			},
			{
				"appid": 2500
			},
			{
				"appid": 2520
			},
			{
				"appid": 2525
			},
			{
				"appid": 2540
			},
			{
				"appid": 2545
			},
			{
				"appid": 2550
			},
			{
				"appid": 2570
			},
			{
				"appid": 2590
			},
			{
				"appid": 2600
			},
			{
				"appid": 2610
			},
			{
				"appid": 2620
			},
			{
				"appid": 2630
			},
			{
				"appid": 2640
			},
			{
				"appid": 2680
			},
			{
				"appid": 2690
			},
			{
				"appid": 2700
			},
			{
				"appid": 2710
			},
			{
				"appid": 2720
			},
			{
				"appid": 2760
			},
			{
				"appid": 2780
			},
			{
				"appid": 2790,
				"playtime_forever": 1
			},
			{
				"appid": 2800
			},
			{
				"appid": 2810
			},
			{
				"appid": 2820
			},
			{
				"appid": 2840
			},
			{
				"appid": 2850
			},
			{
				"appid": 2900
			},
			{
				"appid": 2910
			},
			{
				"appid": 2920
			},
			{
				"appid": 2930
			},
			{
				"appid": 2990
			},
			{
				"appid": 3000
			},
			{
				"appid": 3010
			},
			{
				"appid": 3020
			},
			{
				"appid": 3050
			},
			{
				"appid": 3130
			},
			{
				"appid": 3150
			},
			{
				"appid": 3160
			},
			{
				"appid": 3170,
				"playtime_forever": 5
			},
			{
				"appid": 3200
			},
			{
				"appid": 3220
			},
			{
				"appid": 3230
			},
			{
				"appid": 3260
			},
			{
				"appid": 3270
			},
			{
				"appid": 3300
			},
			{
				"appid": 3310
			},
			{
				"appid": 3320
			},
			{
				"appid": 3330
			},
			{
				"appid": 3340
			},
			{
				"appid": 3350
			},
			{
				"appid": 3360
			},
			{
				"appid": 3370
			},
			{
				"appid": 3380
			},
			{
				"appid": 3390
			},
			{
				"appid": 3400
			},
			{
				"appid": 3410
			},
			{
				"appid": 3420
			},
			{
				"appid": 3430
			},
			{
				"appid": 3440
			},
			{
				"appid": 3450
			},
			{
				"appid": 3460
			},
			{
				"appid": 3470
			},
			{
				"appid": 3480,
				"playtime_forever": 0
			},
			{
				"appid": 3490
			},
			{
				"appid": 3500
			},
			{
				"appid": 3510
			},
			{
				"appid": 3520
			},
			{
				"appid": 3530
			},
			{
				"appid": 3540
			},
			{
				"appid": 3560
			},
			{
				"appid": 3570
			},
			{
				"appid": 3580
			},
			{
				"appid": 3590,
				"playtime_forever": 224
			},
			{
				"appid": 3600
			},
			{
				"appid": 3610
			},
			{
				"appid": 3620
			},
			{
				"appid": 3630
			},
			{
				"appid": 3650
			},
			{
				"appid": 3700
			},
			{
				"appid": 3710
			},
			{
				"appid": 3720
			},
			{
				"appid": 3730
			},
			{
				"appid": 3800
			},
			{
				"appid": 3810
			},
			{
				"appid": 3820
			},
			{
				"appid": 3830
			},
			{
				"appid": 3900
			},
			{
				"appid": 3910
			},
			{
				"appid": 3920
			},
			{
				"appid": 3960
			},
			{
				"appid": 3970
			},
			{
				"appid": 3980
			},
			{
				"appid": 3990
			},
			{
				"appid": 4000
			},
			{
				"appid": 4010
			},
			{
				"appid": 4100
			},
			{
				"appid": 4230
			},
			{
				"appid": 4290
			},
			{
				"appid": 4300
			},
			{
				"appid": 4320
			},
			{
				"appid": 4400
			},
			{
				"appid": 4410
			},
			{
				"appid": 4420
			},
			{
				"appid": 4460
			},
			{
				"appid": 4470
			},
			{
				"appid": 4500
			},
			{
				"appid": 4520
			},
			{
				"appid": 4530
			},
			{
				"appid": 4540
			},
			{
				"appid": 4550
			},
			{
				"appid": 4560
			},
			{
				"appid": 4570
			},
			{
				"appid": 4580
			},
			{
				"appid": 4600
			},
			{
				"appid": 4700
			},
			{
				"appid": 4720
			},
			{
				"appid": 4730
			},
			{
				"appid": 4760
			},
			{
				"appid": 4770
			},
			{
				"appid": 4780
			},
			{
				"appid": 4790
			},
			{
				"appid": 4800
			},
			{
				"appid": 4850
			},
			{
				"appid": 4870
			},
			{
				"appid": 4880
			},
			{
				"appid": 4890
			},
			{
				"appid": 4900
			},
			{
				"appid": 4920
			},
			{
				"appid": 6000
			},
			{
				"appid": 6010
			},
			{
				"appid": 6020
			},
			{
				"appid": 6030
			},
			{
				"appid": 6040
			},
			{
				"appid": 6060
			},
			{
				"appid": 6080
			},
			{
				"appid": 6090
			},
			{
				"appid": 6100
			},
			{
				"appid": 6120
			},
			{
				"appid": 6200
			},
			{
				"appid": 6210
			},
			{
				"appid": 6220
			},
			{
				"appid": 6250
			},
			{
				"appid": 6270
			},
			{
				"appid": 6290
			},
			{
				"appid": 6300
			},
			{
				"appid": 6310
			},
			{
				"appid": 6330
			},
			{
				"appid": 6350
			},
			{
				"appid": 6400
			},
			{
				"appid": 6420
			},
			{
				"appid": 6510
			},
			{
				"appid": 6550
			},
			{
				"appid": 6570
			},
			{
				"appid": 6600
			},
			{
				"appid": 6800
			},
			{
				"appid": 6810
			},
			{
				"appid": 6820
			},
			{
				"appid": 6830
			},
			{
				"appid": 6840
			},
			{
				"appid": 6850
			},
			{
				"appid": 6860
			},
			{
				"appid": 6870
			},
			{
				"appid": 6880
			},
			{
				"appid": 6900
			},
			{
				"appid": 6910
			},
			{
				"appid": 6920
			},
			{
				"appid": 6980
			},
			{
				"appid": 7000
			},
			{
				"appid": 7010
			},
			{
				"appid": 7020
			},
			{
				"appid": 7060
			},
			{
				"appid": 7110
			},
			{
				"appid": 7200
			},
			{
				"appid": 7210
			},
			{
				"appid": 7220
			},
			{
				"appid": 7250
			},
			{
				"appid": 7260
			},
			{
				"appid": 7340
			},
			{
				"appid": 7400
			},
			{
				"appid": 7420
			},
			{
				"appid": 7440
			},
			{
				"appid": 7450
			},
			{
				"appid": 7470
			},
			{
				"appid": 7500
			},
			{
				"appid": 7510
			},
			{
				"appid": 7520
			},
			{
				"appid": 7530
			},
			{
				"appid": 7600
			},
			{
				"appid": 7610
			},
			{
				"appid": 7620
			},
			{
				"appid": 7650
			},
			{
				"appid": 7660
			},
			{
				"appid": 7670
			},
			{
				"appid": 7730
			},
			{
				"appid": 7740
			},
			{
				"appid": 7760
			},
			{
				"appid": 7770
			},
			{
				"appid": 7780
			},
			{
				"appid": 7800
			},
			{
				"appid": 7810
			},
			{
				"appid": 7830,
				"playtime_forever": 34
			},
			{
				"appid": 7840
			},
			{
				"appid": 7850
			},
			{
				"appid": 7860
			},
			{
				"appid": 7870
			},
			{
				"appid": 7880
			},
			{
				"appid": 7900
			},
			{
				"appid": 7910
			},
			{
				"appid": 7940,
				"playtime_forever": 16
			},
			{
				"appid": 7970
			},
			{
				"appid": 7980
			},
			{
				"appid": 7990
			},
			{
				"appid": 8000
			},
			{
				"appid": 8010
			},
			{
				"appid": 8040
			},
			{
				"appid": 8060
			},
			{
				"appid": 8080
			},
			{
				"appid": 8100
			},
			{
				"appid": 8140
			},
			{
				"appid": 8160
			},
			{
				"appid": 8170
			},
			{
				"appid": 8190
			},
			{
				"appid": 8200
			},
			{
				"appid": 8210
			},
			{
				"appid": 8220
			},
			{
				"appid": 8230
			},
			{
				"appid": 8240
			},
			{
				"appid": 8250
			},
			{
				"appid": 8260
			},
			{
				"appid": 8270
			},
			{
				"appid": 8280
			},
			{
				"appid": 8290
			},
			{
				"appid": 8300
			},
			{
				"appid": 8310
			},
			{
				"appid": 8320
			},
			{
				"appid": 8330
			},
			{
				"appid": 8340
			},
			{
				"appid": 8350
			},
			{
				"appid": 8360
			},
			{
				"appid": 8370
			},
			{
				"appid": 8380
			},
			{
				"appid": 8400
			},
			{
				"appid": 8500
			},
			{
				"appid": 8600
			},
			{
				"appid": 8620
			},
			{
				"appid": 8640
			},
			{
				"appid": 8650
			},
			{
				"appid": 8660
			},
			{
				"appid": 8690
			},
			{
				"appid": 8740
			},
			{
				"appid": 8790
			},
			{
				"appid": 8800
			},
			{
				"appid": 8840
			},
			{
				"appid": 8850
			},
			{
				"appid": 8870
			},
			{
				"appid": 8880
			},
			{
				"appid": 8890
			},
			{
				"appid": 8930,
				"playtime_forever": 5274
			},
			{
				"appid": 8970
			},
			{
				"appid": 8980
			},
			{
				"appid": 9000
			},
			{
				"appid": 9010
			},
			{
				"appid": 9030
			},
			{
				"appid": 9040
			},
			{
				"appid": 9050
			},
			{
				"appid": 9060
			},
			{
				"appid": 9070
			},
			{
				"appid": 9160
			},
			{
				"appid": 9180
			},
			{
				"appid": 9200
			},
			{
				"appid": 9310
			},
			{
				"appid": 9340
			},
			{
				"appid": 9350
			},
			{
				"appid": 9400
			},
			{
				"appid": 9420
			},
			{
				"appid": 9450
			},
			{
				"appid": 9460
			},
			{
				"appid": 9480
			},
			{
				"appid": 9500
			},
			{
				"appid": 9710
			},
			{
				"appid": 9730
			},
			{
				"appid": 9740
			},
			{
				"appid": 9760
			},
			{
				"appid": 9800
			},
			{
				"appid": 9850
			},
			{
				"appid": 9860
			},
			{
				"appid": 9870
			},
			{
				"appid": 9880
			},
			{
				"appid": 9900
			},
			{
				"appid": 9930
			},
			{
				"appid": 9940
			},
			{
				"appid": 9960
			},
			{
				"appid": 9970
			},
			{
				"appid": 9980
			},
			{
				"appid": 9990
			},
			{
				"appid": 10000
			},
			{
				"appid": 10040
			},
			{
				"appid": 10080
			},
			{
				"appid": 10090
			},
			{
				"appid": 10100
			},
			{
				"appid": 10110
			},
			{
				"appid": 10120
			},
			{
				"appid": 10130
			},
			{
				"appid": 10140
			},
			{
				"appid": 10150
			},
			{
				"appid": 10170
			},
			{
				"appid": 10180,
				"playtime_forever": 315
			},
			{
				"appid": 10190,
				"playtime_forever": 459
			},
			{
				"appid": 10220
			},
			{
				"appid": 10230
			},
			{
				"appid": 10240
			},
			{
				"appid": 10250
			},
			{
				"appid": 10260
			},
			{
				"appid": 10400
			},
			{
				"appid": 10410
			},
			{
				"appid": 10420
			},
			{
				"appid": 10430
			},
			{
				"appid": 10440
			},
			{
				"appid": 10460
			},
			{
				"appid": 10470
			},
			{
				"appid": 10480
			},
			{
				"appid": 10490
			},
			{
				"appid": 10500,
				"playtime_forever": 2371
			},
			{
				"appid": 10510
			},
			{
				"appid": 10520
			},
			{
				"appid": 10530
			},
			{
				"appid": 10540
			},
			{
				"appid": 10545
			},
			{
				"appid": 10560
			},
			{
				"appid": 10630
			},
			{
				"appid": 10650
			},
			{
				"appid": 10680
			},
			{
				"appid": 10690
			},
			{
				"appid": 10700
			},
			{
				"appid": 11040
			},
			{
				"appid": 11050
			},
			{
				"appid": 11060
			},
			{
				"appid": 11120
			},
			{
				"appid": 11130
			},
			{
				"appid": 11140
			},
			{
				"appid": 11150
			},
			{
				"appid": 11170
			},
			{
				"appid": 11180
			},
			{
				"appid": 11190
			},
			{
				"appid": 11200
			},
			{
				"appid": 11230
			},
			{
				"appid": 11240
			},
			{
				"appid": 11250
			},
			{
				"appid": 11260
			},
			{
				"appid": 11280
			},
			{
				"appid": 11330
			},
			{
				"appid": 11340
			},
			{
				"appid": 11360
			},
			{
				"appid": 11370
			},
			{
				"appid": 11390
			},
			{
				"appid": 11420
			},
			{
				"appid": 11440
			},
			{
				"appid": 11450
			},
			{
				"appid": 11480
			},
			{
				"appid": 11500
			},
			{
				"appid": 11520
			},
			{
				"appid": 11550
			},
			{
				"appid": 11560
			},
			{
				"appid": 11590
			},
			{
				"appid": 11900,
				"playtime_forever": 0
			},
			{
				"appid": 11920,
				"playtime_forever": 3
			},
			{
				"appid": 12100
			},
			{
				"appid": 12110
			},
			{
				"appid": 12120
			},
			{
				"appid": 12130
			},
			{
				"appid": 12140
			},
			{
				"appid": 12150
			},
			{
				"appid": 12160
			},
			{
				"appid": 12170
			},
			{
				"appid": 12180
			},
			{
				"appid": 12190
			},
			{
				"appid": 12200
			},
			{
				"appid": 12210
			},
			{
				"appid": 12220
			},
			{
				"appid": 12230
			},
			{
				"appid": 12240
			},
			{
				"appid": 12250
			},
			{
				"appid": 12300
			},
			{
				"appid": 12310
			},
			{
				"appid": 12320
			},
			{
				"appid": 12330
			},
			{
				"appid": 12340
			},
			{
				"appid": 12360
			},
			{
				"appid": 12370
			},
			{
				"appid": 12380
			},
			{
				"appid": 12390
			},
			{
				"appid": 12400
			},
			{
				"appid": 12420
			},
			{
				"appid": 12430
			},
			{
				"appid": 12440
			},
			{
				"appid": 12450
			},
			{
				"appid": 12460
			},
			{
				"appid": 12470
			},
			{
				"appid": 12480
			},
			{
				"appid": 12500
			},
			{
				"appid": 12510
			},
			{
				"appid": 12520
			},
			{
				"appid": 12530
			},
			{
				"appid": 12540
			},
			{
				"appid": 12550
			},
			{
				"appid": 12560
			},
			{
				"appid": 12570
			},
			{
				"appid": 12580
			},
			{
				"appid": 12590
			},
			{
				"appid": 12600
			},
			{
				"appid": 12630
			},
			{
				"appid": 12640
			},
			{
				"appid": 12650
			},
			{
				"appid": 12660
			},
			{
				"appid": 12670
			},
			{
				"appid": 12690
			},
			{
				"appid": 12710
			},
			{
				"appid": 12720
			},
			{
				"appid": 12750
			},
			{
				"appid": 12770
			},
			{
				"appid": 12790
			},
			{
				"appid": 12800
			},
			{
				"appid": 12810,
				"playtime_forever": 99
			},
			{
				"appid": 12830
			},
			{
				"appid": 12840
			},
			{
				"appid": 12860
			},
			{
				"appid": 12900
			},
			{
				"appid": 13000
			},
			{
				"appid": 13200
			},
			{
				"appid": 13210
			},
			{
				"appid": 13230
			},
			{
				"appid": 13240
			},
			{
				"appid": 13250
			},
			{
				"appid": 13500
			},
			{
				"appid": 13510
			},
			{
				"appid": 13520
			},
			{
				"appid": 13530
			},
			{
				"appid": 13540
			},
			{
				"appid": 13560
			},
			{
				"appid": 13570
			},
			{
				"appid": 13580
			},
			{
				"appid": 13600
			},
			{
				"appid": 13620
			},
			{
				"appid": 13630
			},
			{
				"appid": 13640
			},
			{
				"appid": 13660
			},
			{
				"appid": 13700
			},
			{
				"appid": 15000
			},
			{
				"appid": 15060
			},
			{
				"appid": 15080
			},
			{
				"appid": 15100
			},
			{
				"appid": 15120
			},
			{
				"appid": 15130
			},
			{
				"appid": 15140
			},
			{
				"appid": 15150
			},
			{
				"appid": 15160
			},
			{
				"appid": 15170
			},
			{
				"appid": 15190
			},
			{
				"appid": 15200
			},
			{
				"appid": 15210
			},
			{
				"appid": 15220
			},
			{
				"appid": 15230
			},
			{
				"appid": 15240
			},
			{
				"appid": 15260
			},
			{
				"appid": 15270
			},
			{
				"appid": 15280
			},
			{
				"appid": 15290
			},
			{
				"appid": 15300
			},
			{
				"appid": 15310
			},
			{
				"appid": 15320
			},
			{
				"appid": 15330
			},
			{
				"appid": 15350
			},
			{
				"appid": 15370
			},
			{
				"appid": 15380
			},
			{
				"appid": 15390
			},
			{
				"appid": 15400
			},
			{
				"appid": 15500
			},
			{
				"appid": 15520
			},
			{
				"appid": 15540
			},
			{
				"appid": 15560
			},
			{
				"appid": 15620
			},
			{
				"appid": 15700
			},
			{
				"appid": 15710
			},
			{
				"appid": 15740
			},
			{
				"appid": 15750
			},
			{
				"appid": 15800
			},
			{
				"appid": 15900
			},
			{
				"appid": 15910
			},
			{
				"appid": 15920
			},
			{
				"appid": 15930
			},
			{
				"appid": 15940,
				"playtime_forever": 6
			},
			{
				"appid": 15950
			},
			{
				"appid": 15960
			},
			{
				"appid": 15970
			},
			{
				"appid": 15980
			},
			{
				"appid": 15990
			},
			{
				"appid": 16000
			},
			{
				"appid": 16020
			},
			{
				"appid": 16030
			},
			{
				"appid": 16040
			},
			{
				"appid": 16060
			},
			{
				"appid": 16090
			},
			{
				"appid": 16100
			},
			{
				"appid": 16110
			},
			{
				"appid": 16120
			},
			{
				"appid": 16130
			},
			{
				"appid": 16180
			},
			{
				"appid": 16200
			},
			{
				"appid": 16300,
				"playtime_forever": 8
			},
			{
				"appid": 16410
			},
			{
				"appid": 16450
			},
			{
				"appid": 16500
			},
			{
				"appid": 16600
			},
			{
				"appid": 16620
			},
			{
				"appid": 16700
			},
			{
				"appid": 16710
			},
			{
				"appid": 16720
			},
			{
				"appid": 16730
			},
			{
				"appid": 16810
			},
			{
				"appid": 17020
			},
			{
				"appid": 17100
			},
			{
				"appid": 17120
			},
			{
				"appid": 17140,
				"playtime_forever": 221
			},
			{
				"appid": 17180
			},
			{
				"appid": 17300
			},
			{
				"appid": 17330
			},
			{
				"appid": 17340
			},
			{
				"appid": 17390
			},
			{
				"appid": 17400
			},
			{
				"appid": 17410
			},
			{
				"appid": 17420
			},
			{
				"appid": 17430
			},
			{
				"appid": 17440
			},
			{
				"appid": 17450
			},
			{
				"appid": 17460
			},
			{
				"appid": 17470
			},
			{
				"appid": 17480
			},
			{
				"appid": 17550
			},
			{
				"appid": 17580
			},
			{
				"appid": 17600
			},
			{
				"appid": 17710
			},
			{
				"appid": 17800
			},
			{
				"appid": 17810
			},
			{
				"appid": 18000
			},
			{
				"appid": 18020
			},
			{
				"appid": 18040
			},
			{
				"appid": 18050
			},
			{
				"appid": 18070
			},
			{
				"appid": 18100
			},
			{
				"appid": 18110
			},
			{
				"appid": 18120
			},
			{
				"appid": 18300
			},
			{
				"appid": 18400
			},
			{
				"appid": 18420
			},
			{
				"appid": 18450
			},
			{
				"appid": 18460
			},
			{
				"appid": 18470
			},
			{
				"appid": 18480
			},
			{
				"appid": 18490
			},
			{
				"appid": 18500,
				"playtime_forever": 950
			},
			{
				"appid": 18600
			},
			{
				"appid": 18700,
				"playtime_forever": 6
			},
			{
				"appid": 18820,
				"playtime_forever": 1
			},
			{
				"appid": 19000
			},
			{
				"appid": 19020
			},
			{
				"appid": 19030
			},
			{
				"appid": 19080
			},
			{
				"appid": 19090
			},
			{
				"appid": 19200
			},
			{
				"appid": 19320
			},
			{
				"appid": 19500
			},
			{
				"appid": 19680
			},
			{
				"appid": 19800
			},
			{
				"appid": 19810
			},
			{
				"appid": 19830
			},
			{
				"appid": 19840
			},
			{
				"appid": 19900
			},
			{
				"appid": 19930
			},
			{
				"appid": 19980
			},
			{
				"appid": 19990
			},
			{
				"appid": 20200
			},
			{
				"appid": 20400
			},
			{
				"appid": 20500
			},
			{
				"appid": 20510
			},
			{
				"appid": 20530
			},
			{
				"appid": 20540
			},
			{
				"appid": 20550
			},
			{
				"appid": 20570
			},
			{
				"appid": 20590
			},
			{
				"appid": 20700
			},
			{
				"appid": 20710,
				"playtime_forever": 18
			},
			{
				"appid": 20820
			},
			{
				"appid": 20840
			},
			{
				"appid": 20900
			},
			{
				"appid": 20920,
				"playtime_forever": 211
			},
			{
				"appid": 21000
			},
			{
				"appid": 21010
			},
			{
				"appid": 21030
			},
			{
				"appid": 21070
			},
			{
				"appid": 21080
			},
			{
				"appid": 21090
			},
			{
				"appid": 21100
			},
			{
				"appid": 21110
			},
			{
				"appid": 21120
			},
			{
				"appid": 21130
			},
			{
				"appid": 21140
			},
			{
				"appid": 21170
			},
			{
				"appid": 21300
			},
			{
				"appid": 21400
			},
			{
				"appid": 21500
			},
			{
				"appid": 21600
			},
			{
				"appid": 21610
			},
			{
				"appid": 21620
			},
			{
				"appid": 21640
			},
			{
				"appid": 21660
			},
			{
				"appid": 21670
			},
			{
				"appid": 21680
			},
			{
				"appid": 21690
			},
			{
				"appid": 21730
			},
			{
				"appid": 21750
			},
			{
				"appid": 21760
			},
			{
				"appid": 21780
			},
			{
				"appid": 21800
			},
			{
				"appid": 21900
			},
			{
				"appid": 21910
			},
			{
				"appid": 21920
			},
			{
				"appid": 21950,
				"playtime_forever": 3
			},
			{
				"appid": 21970,
				"playtime_forever": 6
			},
			{
				"appid": 21980
			},
			{
				"appid": 21989
			},
			{
				"appid": 21990
			},
			{
				"appid": 22000
			},
			{
				"appid": 22100,
				"playtime_forever": 8
			},
			{
				"appid": 22120
			},
			{
				"appid": 22130
			},
			{
				"appid": 22140
			},
			{
				"appid": 22180
			},
			{
				"appid": 22200
			},
			{
				"appid": 22230
			},
			{
				"appid": 22300
			},
			{
				"appid": 22310
			},
			{
				"appid": 22320
			},
			{
				"appid": 22330
			},
			{
				"appid": 22340
			},
			{
				"appid": 22350
			},
			{
				"appid": 22370
			},
			{
				"appid": 22380
			},
			{
				"appid": 22450
			},
			{
				"appid": 22500
			},
			{
				"appid": 22600,
				"playtime_forever": 43
			},
			{
				"appid": 22610
			},
			{
				"appid": 22650
			},
			{
				"appid": 22670
			},
			{
				"appid": 22700
			},
			{
				"appid": 23100
			},
			{
				"appid": 23120
			},
			{
				"appid": 23130
			},
			{
				"appid": 23140
			},
			{
				"appid": 23150
			},
			{
				"appid": 23200
			},
			{
				"appid": 23300
			},
			{
				"appid": 23310
			},
			{
				"appid": 23360
			},
			{
				"appid": 23380
			},
			{
				"appid": 23390
			},
			{
				"appid": 23400,
				"playtime_forever": 2
			},
			{
				"appid": 23420,
				"playtime_forever": 155
			},
			{
				"appid": 23440
			},
			{
				"appid": 23450
			},
			{
				"appid": 23460
			},
			{
				"appid": 23490,
				"playtime_forever": 27
			},
			{
				"appid": 23500
			},
			{
				"appid": 23510
			},
			{
				"appid": 23530
			},
			{
				"appid": 23600
			},
			{
				"appid": 23700
			},
			{
				"appid": 24010
			},
			{
				"appid": 24120
			},
			{
				"appid": 24130
			},
			{
				"appid": 24140
			},
			{
				"appid": 24150
			},
			{
				"appid": 24170
			},
			{
				"appid": 24180
			},
			{
				"appid": 24210
			},
			{
				"appid": 24220
			},
			{
				"appid": 24240
			},
			{
				"appid": 24400
			},
			{
				"appid": 24410
			},
			{
				"appid": 24420
			},
			{
				"appid": 24460
			},
			{
				"appid": 24470
			},
			{
				"appid": 24480
			},
			{
				"appid": 24500
			},
			{
				"appid": 24600
			},
			{
				"appid": 24610
			},
			{
				"appid": 24620
			},
			{
				"appid": 24630
			},
			{
				"appid": 24640
			},
			{
				"appid": 24650
			},
			{
				"appid": 24660
			},
			{
				"appid": 24670
			},
			{
				"appid": 24720
			},
			{
				"appid": 24740
			},
			{
				"appid": 24760
			},
			{
				"appid": 24780
			},
			{
				"appid": 24790
			},
			{
				"appid": 24800
			},
			{
				"appid": 24810
			},
			{
				"appid": 24820
			},
			{
				"appid": 24830
			},
			{
				"appid": 24840
			},
			{
				"appid": 24850
			},
			{
				"appid": 24860
			},
			{
				"appid": 24870
			},
			{
				"appid": 24960
			},
			{
				"appid": 24980
			},
			{
				"appid": 25010
			},
			{
				"appid": 25500
			},
			{
				"appid": 25600
			},
			{
				"appid": 25620
			},
			{
				"appid": 25700
			},
			{
				"appid": 25800
			},
			{
				"appid": 25830
			},
			{
				"appid": 25840
			},
			{
				"appid": 25850,
				"playtime_forever": 18
			},
			{
				"appid": 25860
			},
			{
				"appid": 25870
			},
			{
				"appid": 25890,
				"playtime_forever": 21
			},
			{
				"appid": 25900,
				"playtime_forever": 1115
			},
			{
				"appid": 25910
			},
			{
				"appid": 25920
			},
			{
				"appid": 25930
			},
			{
				"appid": 25940
			},
			{
				"appid": 25980,
				"playtime_forever": 1015
			},
			{
				"appid": 25990,
				"playtime_forever": 74
			},
			{
				"appid": 26000
			},
			{
				"appid": 26300
			},
			{
				"appid": 26500
			},
			{
				"appid": 26710
			},
			{
				"appid": 26800,
				"playtime_forever": 21
			},
			{
				"appid": 26900
			},
			{
				"appid": 27000
			},
			{
				"appid": 27020
			},
			{
				"appid": 27050
			},
			{
				"appid": 27200
			},
			{
				"appid": 27220
			},
			{
				"appid": 27300
			},
			{
				"appid": 27330
			},
			{
				"appid": 27400
			},
			{
				"appid": 27600
			},
			{
				"appid": 27800
			},
			{
				"appid": 27810
			},
			{
				"appid": 27900
			},
			{
				"appid": 27920
			},
			{
				"appid": 27940
			},
			{
				"appid": 28000
			},
			{
				"appid": 28050
			},
			{
				"appid": 29120
			},
			{
				"appid": 29130
			},
			{
				"appid": 29160,
				"playtime_forever": 18
			},
			{
				"appid": 29180
			},
			{
				"appid": 29500
			},
			{
				"appid": 29520
			},
			{
				"appid": 29530
			},
			{
				"appid": 29650
			},
			{
				"appid": 29680
			},
			{
				"appid": 29720
			},
			{
				"appid": 29800
			},
			{
				"appid": 29900
			},
			{
				"appid": 30000
			},
			{
				"appid": 31100
			},
			{
				"appid": 31110
			},
			{
				"appid": 31120
			},
			{
				"appid": 31130
			},
			{
				"appid": 31170
			},
			{
				"appid": 31180
			},
			{
				"appid": 31190
			},
			{
				"appid": 31200
			},
			{
				"appid": 31210
			},
			{
				"appid": 31220
			},
			{
				"appid": 31230
			},
			{
				"appid": 31240
			},
			{
				"appid": 31250
			},
			{
				"appid": 31260
			},
			{
				"appid": 31270,
				"playtime_forever": 133
			},
			{
				"appid": 31280
			},
			{
				"appid": 31290
			},
			{
				"appid": 31300
			},
			{
				"appid": 31410
			},
			{
				"appid": 31700
			},
			{
				"appid": 31800
			},
			{
				"appid": 31810
			},
			{
				"appid": 31820
			},
			{
				"appid": 31830
			},
			{
				"appid": 31840
			},
			{
				"appid": 31850
			},
			{
				"appid": 31860
			},
			{
				"appid": 31870
			},
			{
				"appid": 31880
			},
			{
				"appid": 31890
			},
			{
				"appid": 31900
			},
			{
				"appid": 31910
			},
			{
				"appid": 31920
			},
			{
				"appid": 31930
			},
			{
				"appid": 31980
			},
			{
				"appid": 32000
			},
			{
				"appid": 32110
			},
			{
				"appid": 32120
			},
			{
				"appid": 32130
			},
			{
				"appid": 32140
			},
			{
				"appid": 32150
			},
			{
				"appid": 32160
			},
			{
				"appid": 32200
			},
			{
				"appid": 32310
			},
			{
				"appid": 32330
			},
			{
				"appid": 32340
			},
			{
				"appid": 32350
			},
			{
				"appid": 32360
			},
			{
				"appid": 32370
			},
			{
				"appid": 32380
			},
			{
				"appid": 32390
			},
			{
				"appid": 32400
			},
			{
				"appid": 32410
			},
			{
				"appid": 32420
			},
			{
				"appid": 32430
			},
			{
				"appid": 32440
			},
			{
				"appid": 32450
			},
			{
				"appid": 32460
			},
			{
				"appid": 32470
			},
			{
				"appid": 32500
			},
			{
				"appid": 32510
			},
			{
				"appid": 32610
			},
			{
				"appid": 32620
			},
			{
				"appid": 32630
			},
			{
				"appid": 32640
			},
			{
				"appid": 32650
			},
			{
				"appid": 32660
			},
			{
				"appid": 32670
			},
			{
				"appid": 32680
			},
			{
				"appid": 32690
			},
			{
				"appid": 32700
			},
			{
				"appid": 32710
			},
			{
				"appid": 32720
			},
			{
				"appid": 32730
			},
			{
				"appid": 32740
			},
			{
				"appid": 32750
			},
			{
				"appid": 32760
			},
			{
				"appid": 32770
			},
			{
				"appid": 32800
			},
			{
				"appid": 32900
			},
			{
				"appid": 33100
			},
			{
				"appid": 33110
			},
			{
				"appid": 33120,
				"playtime_forever": 17
			},
			{
				"appid": 33130
			},
			{
				"appid": 33180
			},
			{
				"appid": 33210,
				"playtime_forever": 1
			},
			{
				"appid": 33220
			},
			{
				"appid": 33230
			},
			{
				"appid": 33250
			},
			{
				"appid": 33260
			},
			{
				"appid": 33270
			},
			{
				"appid": 33280
			},
			{
				"appid": 33320
			},
			{
				"appid": 33340
			},
			{
				"appid": 33350
			},
			{
				"appid": 33390
			},
			{
				"appid": 33420
			},
			{
				"appid": 33440
			},
			{
				"appid": 33460
			},
			{
				"appid": 33500
			},
			{
				"appid": 33510
			},
			{
				"appid": 33520
			},
			{
				"appid": 33530
			},
			{
				"appid": 33540
			},
			{
				"appid": 33550
			},
			{
				"appid": 33570
			},
			{
				"appid": 33580
			},
			{
				"appid": 33600
			},
			{
				"appid": 33610
			},
			{
				"appid": 33620
			},
			{
				"appid": 33650
			},
			{
				"appid": 33660
			},
			{
				"appid": 33670
			},
			{
				"appid": 33680
			},
			{
				"appid": 33700
			},
			{
				"appid": 33710
			},
			{
				"appid": 33720
			},
			{
				"appid": 33730
			},
			{
				"appid": 33740
			},
			{
				"appid": 33750
			},
			{
				"appid": 33760
			},
			{
				"appid": 33770
			},
			{
				"appid": 33780
			},
			{
				"appid": 33790
			},
			{
				"appid": 33900
			},
			{
				"appid": 33930
			},
			{
				"appid": 33950
			},
			{
				"appid": 33970
			},
			{
				"appid": 33980
			},
			{
				"appid": 33990
			},
			{
				"appid": 34000
			},
			{
				"appid": 34010
			},
			{
				"appid": 34030,
				"playtime_forever": 60
			},
			{
				"appid": 34180
			},
			{
				"appid": 34190
			},
			{
				"appid": 34220
			},
			{
				"appid": 34270
			},
			{
				"appid": 34330,
				"playtime_forever": 2640
			},
			{
				"appid": 34410
			},
			{
				"appid": 34420
			},
			{
				"appid": 34440
			},
			{
				"appid": 34450
			},
			{
				"appid": 34460
			},
			{
				"appid": 34470
			},
			{
				"appid": 34500,
				"playtime_forever": 7
			},
			{
				"appid": 34600
			},
			{
				"appid": 34630
			},
			{
				"appid": 34640
			},
			{
				"appid": 34650
			},
			{
				"appid": 34670
			},
			{
				"appid": 34800
			},
			{
				"appid": 34810
			},
			{
				"appid": 34820
			},
			{
				"appid": 34830
			},
			{
				"appid": 34860
			},
			{
				"appid": 34870
			},
			{
				"appid": 34900
			},
			{
				"appid": 34920
			},
			{
				"appid": 35000
			},
			{
				"appid": 35010
			},
			{
				"appid": 35030
			},
			{
				"appid": 35070
			},
			{
				"appid": 35130,
				"playtime_forever": 2
			},
			{
				"appid": 35140
			},
			{
				"appid": 35300
			},
			{
				"appid": 35310
			},
			{
				"appid": 35320
			},
			{
				"appid": 35420
			},
			{
				"appid": 35450
			},
			{
				"appid": 35460
			},
			{
				"appid": 35480
			},
			{
				"appid": 35500
			},
			{
				"appid": 35600
			},
			{
				"appid": 35700
			},
			{
				"appid": 35720
			},
			{
				"appid": 35800
			},
			{
				"appid": 36000
			},
			{
				"appid": 36100
			},
			{
				"appid": 36110
			},
			{
				"appid": 36120
			},
			{
				"appid": 36130
			},
			{
				"appid": 36140
			},
			{
				"appid": 36150
			},
			{
				"appid": 36160
			},
			{
				"appid": 36170
			},
			{
				"appid": 36180
			},
			{
				"appid": 36190
			},
			{
				"appid": 36200
			},
			{
				"appid": 36210
			},
			{
				"appid": 36240
			},
			{
				"appid": 36270
			},
			{
				"appid": 36280
			},
			{
				"appid": 36290
			},
			{
				"appid": 36300
			},
			{
				"appid": 36310
			},
			{
				"appid": 36320
			},
			{
				"appid": 36340
			},
			{
				"appid": 36350
			},
			{
				"appid": 36360
			},
			{
				"appid": 36370
			},
			{
				"appid": 36700
			},
			{
				"appid": 36900
			},
			{
				"appid": 36910
			},
			{
				"appid": 37000
			},
			{
				"appid": 37010
			},
			{
				"appid": 37030
			},
			{
				"appid": 37100
			},
			{
				"appid": 37200
			},
			{
				"appid": 37210
			},
			{
				"appid": 37220
			},
			{
				"appid": 37230
			},
			{
				"appid": 37240
			},
			{
				"appid": 37250
			},
			{
				"appid": 37260
			},
			{
				"appid": 37270
			},
			{
				"appid": 37280
			},
			{
				"appid": 37290
			},
			{
				"appid": 37300
			},
			{
				"appid": 37310
			},
			{
				"appid": 37320
			},
			{
				"appid": 37330
			},
			{
				"appid": 37340
			},
			{
				"appid": 37350
			},
			{
				"appid": 37360
			},
			{
				"appid": 37370
			},
			{
				"appid": 37380
			},
			{
				"appid": 37390
			},
			{
				"appid": 37400
			},
			{
				"appid": 37420
			},
			{
				"appid": 37500
			},
			{
				"appid": 37600
			},
			{
				"appid": 37700
			},
			{
				"appid": 37800
			},
			{
				"appid": 37900
			},
			{
				"appid": 37910
			},
			{
				"appid": 37920
			},
			{
				"appid": 37930
			},
			{
				"appid": 37940
			},
			{
				"appid": 37950
			},
			{
				"appid": 37960
			},
			{
				"appid": 37970
			},
			{
				"appid": 37980
			},
			{
				"appid": 37990
			},
			{
				"appid": 38000
			},
			{
				"appid": 38010
			},
			{
				"appid": 38020
			},
			{
				"appid": 38030
			},
			{
				"appid": 38040
			},
			{
				"appid": 38050
			},
			{
				"appid": 38060
			},
			{
				"appid": 38070
			},
			{
				"appid": 38080
			},
			{
				"appid": 38090
			},
			{
				"appid": 38100
			},
			{
				"appid": 38110
			},
			{
				"appid": 38120
			},
			{
				"appid": 38130
			},
			{
				"appid": 38140
			},
			{
				"appid": 38150
			},
			{
				"appid": 38160
			},
			{
				"appid": 38170
			},
			{
				"appid": 38180
			},
			{
				"appid": 38190
			},
			{
				"appid": 38200
			},
			{
				"appid": 38210
			},
			{
				"appid": 38220
			},
			{
				"appid": 38230
			},
			{
				"appid": 38240
			},
			{
				"appid": 38400
			},
			{
				"appid": 38410
			},
			{
				"appid": 38420
			},
			{
				"appid": 38430
			},
			{
				"appid": 38440
			},
			{
				"appid": 38450
			},
			{
				"appid": 38460
			},
			{
				"appid": 38480
			},
			{
				"appid": 38490
			},
			{
				"appid": 38530
			},
			{
				"appid": 38600
			},
			{
				"appid": 38700
			},
			{
				"appid": 38720
			},
			{
				"appid": 38740
			},
			{
				"appid": 38800
			},
			{
				"appid": 38810
			},
			{
				"appid": 38820
			},
			{
				"appid": 38900
			},
			{
				"appid": 39110
			},
			{
				"appid": 39120
			},
			{
				"appid": 39160
			},
			{
				"appid": 39190
			},
			{
				"appid": 39200
			},
			{
				"appid": 39250
			},
			{
				"appid": 39300
			},
			{
				"appid": 39310
			},
			{
				"appid": 39320
			},
			{
				"appid": 39330
			},
			{
				"appid": 39350
			},
			{
				"appid": 39360
			},
			{
				"appid": 39370
			},
			{
				"appid": 39380
			},
			{
				"appid": 39500
			},
			{
				"appid": 39510
			},
			{
				"appid": 39530
			},
			{
				"appid": 39540
			},
			{
				"appid": 39550
			},
			{
				"appid": 39560
			},
			{
				"appid": 39600
			},
			{
				"appid": 39610
			},
			{
				"appid": 39620
			},
			{
				"appid": 39630
			},
			{
				"appid": 39640
			},
			{
				"appid": 39650
			},
			{
				"appid": 39660
			},
			{
				"appid": 39670
			},
			{
				"appid": 39680
			},
			{
				"appid": 39690
			},
			{
				"appid": 39710
			},
			{
				"appid": 39800
			},
			{
				"appid": 39900
			},
			{
				"appid": 40000
			},
			{
				"appid": 40100
			},
			{
				"appid": 40200
			},
			{
				"appid": 40210
			},
			{
				"appid": 40300,
				"playtime_forever": 0
			},
			{
				"appid": 40320
			},
			{
				"appid": 40330
			},
			{
				"appid": 40340
			},
			{
				"appid": 40350
			},
			{
				"appid": 40370
			},
			{
				"appid": 40380
			},
			{
				"appid": 40390
			},
			{
				"appid": 40400
			},
			{
				"appid": 40420
			},
			{
				"appid": 40500
			},
			{
				"appid": 40700,
				"playtime_forever": 18
			},
			{
				"appid": 40720
			},
			{
				"appid": 40800
			},
			{
				"appid": 40920
			},
			{
				"appid": 40930
			},
			{
				"appid": 40950
			},
			{
				"appid": 40960
			},
			{
				"appid": 40970
			},
			{
				"appid": 40980
			},
			{
				"appid": 40990
			},
			{
				"appid": 41000
			},
			{
				"appid": 41010
			},
			{
				"appid": 41050
			},
			{
				"appid": 41060
			},
			{
				"appid": 41070
			},
			{
				"appid": 41100
			},
			{
				"appid": 41210,
				"playtime_forever": 212
			},
			{
				"appid": 41300
			},
			{
				"appid": 41400
			},
			{
				"appid": 41500,
				"playtime_forever": 782
			},
			{
				"appid": 41600
			},
			{
				"appid": 41610
			},
			{
				"appid": 41660
			},
			{
				"appid": 41680
			},
			{
				"appid": 41700
			},
			{
				"appid": 41730
			},
			{
				"appid": 41740
			},
			{
				"appid": 41800,
				"playtime_forever": 6
			},
			{
				"appid": 41900
			},
			{
				"appid": 42000
			},
			{
				"appid": 42120
			},
			{
				"appid": 42140
			},
			{
				"appid": 42160
			},
			{
				"appid": 42170
			},
			{
				"appid": 42179
			},
			{
				"appid": 42200
			},
			{
				"appid": 42210
			},
			{
				"appid": 42220
			},
			{
				"appid": 42230
			},
			{
				"appid": 42500
			},
			{
				"appid": 42640
			},
			{
				"appid": 42650
			},
			{
				"appid": 42660
			},
			{
				"appid": 42670
			},
			{
				"appid": 42680
			},
			{
				"appid": 42690
			},
			{
				"appid": 42700,
				"playtime_forever": 12
			},
			{
				"appid": 42710,
				"playtime_forever": 103
			},
			{
				"appid": 42730
			},
			{
				"appid": 42800
			},
			{
				"appid": 42810
			},
			{
				"appid": 42820
			},
			{
				"appid": 42830
			},
			{
				"appid": 42850
			},
			{
				"appid": 42870
			},
			{
				"appid": 42890
			},
			{
				"appid": 42910
			},
			{
				"appid": 42920
			},
			{
				"appid": 42930
			},
			{
				"appid": 42940
			},
			{
				"appid": 42950
			},
			{
				"appid": 42960
			},
			{
				"appid": 42980
			},
			{
				"appid": 42990
			},
			{
				"appid": 43000,
				"playtime_forever": 12
			},
			{
				"appid": 43100
			},
			{
				"appid": 43110
			},
			{
				"appid": 43190
			},
			{
				"appid": 43500
			},
			{
				"appid": 43600
			},
			{
				"appid": 44000
			},
			{
				"appid": 44100
			},
			{
				"appid": 44200
			},
			{
				"appid": 44310
			},
			{
				"appid": 44320
			},
			{
				"appid": 44340
			},
			{
				"appid": 44360
			},
			{
				"appid": 44600
			},
			{
				"appid": 44620
			},
			{
				"appid": 44630
			},
			{
				"appid": 44650
			},
			{
				"appid": 44660
			},
			{
				"appid": 44670
			},
			{
				"appid": 44680
			},
			{
				"appid": 44690
			},
			{
				"appid": 45000,
				"playtime_forever": 35
			},
			{
				"appid": 45100
			},
			{
				"appid": 45300
			},
			{
				"appid": 45400
			},
			{
				"appid": 45410
			},
			{
				"appid": 45450
			},
			{
				"appid": 45500
			},
			{
				"appid": 45700
			},
			{
				"appid": 45710
			},
			{
				"appid": 45720
			},
			{
				"appid": 45730
			},
			{
				"appid": 45740
			},
			{
				"appid": 45750
			},
			{
				"appid": 45760
			},
			{
				"appid": 45770
			},
			{
				"appid": 45900
			},
			{
				"appid": 46000
			},
			{
				"appid": 46200
			},
			{
				"appid": 46210
			},
			{
				"appid": 46220
			},
			{
				"appid": 46230
			},
			{
				"appid": 46250
			},
			{
				"appid": 46260
			},
			{
				"appid": 46270
			},
			{
				"appid": 46280
			},
			{
				"appid": 46290
			},
			{
				"appid": 46320
			},
			{
				"appid": 46330
			},
			{
				"appid": 46340
			},
			{
				"appid": 46350
			},
			{
				"appid": 46360
			},
			{
				"appid": 46370
			},
			{
				"appid": 46380
			},
			{
				"appid": 46400
			},
			{
				"appid": 46410
			},
			{
				"appid": 46420
			},
			{
				"appid": 46430
			},
			{
				"appid": 46440,
				"playtime_forever": 8
			},
			{
				"appid": 46450
			},
			{
				"appid": 46460
			},
			{
				"appid": 46480
			},
			{
				"appid": 46490
			},
			{
				"appid": 46500
			},
			{
				"appid": 46510
			},
			{
				"appid": 46520
			},
			{
				"appid": 46540
			},
			{
				"appid": 46550
			},
			{
				"appid": 46560
			},
			{
				"appid": 46570
			},
			{
				"appid": 46600
			},
			{
				"appid": 46700
			},
			{
				"appid": 46710
			},
			{
				"appid": 46720
			},
			{
				"appid": 46730
			},
			{
				"appid": 46740
			},
			{
				"appid": 46750
			},
			{
				"appid": 46760
			},
			{
				"appid": 46770
			},
			{
				"appid": 46790,
				"playtime_forever": 60
			},
			{
				"appid": 46830
			},
			{
				"appid": 46840
			},
			{
				"appid": 46850
			},
			{
				"appid": 47000
			},
			{
				"appid": 47110
			},
			{
				"appid": 47120
			},
			{
				"appid": 47130
			},
			{
				"appid": 47400
			},
			{
				"appid": 47500
			},
			{
				"appid": 47520
			},
			{
				"appid": 47540
			},
			{
				"appid": 47570
			},
			{
				"appid": 47700
			},
			{
				"appid": 47730
			},
			{
				"appid": 47780
			},
			{
				"appid": 47790
			},
			{
				"appid": 47800
			},
			{
				"appid": 47810
			},
			{
				"appid": 47830
			},
			{
				"appid": 47850
			},
			{
				"appid": 47870
			},
			{
				"appid": 47890
			},
			{
				"appid": 47900
			},
			{
				"appid": 47920
			},
			{
				"appid": 48000
			},
			{
				"appid": 48110
			},
			{
				"appid": 48120,
				"playtime_forever": 9
			},
			{
				"appid": 48150
			},
			{
				"appid": 48160
			},
			{
				"appid": 48180
			},
			{
				"appid": 48190
			},
			{
				"appid": 48210
			},
			{
				"appid": 48220
			},
			{
				"appid": 48240
			},
			{
				"appid": 48700,
				"playtime_forever": 8676
			},
			{
				"appid": 48720,
				"playtime_forever": 3408
			},
			{
				"appid": 48800
			},
			{
				"appid": 48900
			},
			{
				"appid": 48950,
				"playtime_forever": 27
			},
			{
				"appid": 49000
			},
			{
				"appid": 49300
			},
			{
				"appid": 49320
			},
			{
				"appid": 49330
			},
			{
				"appid": 49400
			},
			{
				"appid": 49470
			},
			{
				"appid": 49520
			},
			{
				"appid": 49540
			},
			{
				"appid": 49600
			},
			{
				"appid": 49700
			},
			{
				"appid": 49800
			},
			{
				"appid": 49810
			},
			{
				"appid": 49900
			},
			{
				"appid": 50000
			},
			{
				"appid": 50120
			},
			{
				"appid": 50130
			},
			{
				"appid": 50300
			},
			{
				"appid": 50310
			},
			{
				"appid": 50510
			},
			{
				"appid": 50620
			},
			{
				"appid": 50650
			},
			{
				"appid": 50800
			},
			{
				"appid": 50820
			},
			{
				"appid": 50900
			},
			{
				"appid": 50910
			},
			{
				"appid": 50920
			},
			{
				"appid": 50930
			},
			{
				"appid": 50940
			},
			{
				"appid": 50950
			},
			{
				"appid": 50960
			},
			{
				"appid": 50970
			},
			{
				"appid": 50980
			},
			{
				"appid": 50990
			},
			{
				"appid": 51000
			},
			{
				"appid": 51010
			},
			{
				"appid": 51020
			},
			{
				"appid": 51030
			},
			{
				"appid": 51040
			},
			{
				"appid": 51060
			},
			{
				"appid": 52003
			},
			{
				"appid": 55000
			},
			{
				"appid": 55020
			},
			{
				"appid": 55040
			},
			{
				"appid": 55100
			},
			{
				"appid": 55110
			},
			{
				"appid": 55140
			},
			{
				"appid": 55150
			},
			{
				"appid": 55230
			},
			{
				"appid": 56400
			},
			{
				"appid": 57000
			},
			{
				"appid": 57200
			},
			{
				"appid": 57300
			},
			{
				"appid": 57400,
				"playtime_forever": 22
			},
			{
				"appid": 57500
			},
			{
				"appid": 57600
			},
			{
				"appid": 57620,
				"playtime_forever": 0
			},
			{
				"appid": 57640
			},
			{
				"appid": 57650
			},
			{
				"appid": 57680
			},
			{
				"appid": 57690
			},
			{
				"appid": 57700
			},
			{
				"appid": 57730
			},
			{
				"appid": 57740
			},
			{
				"appid": 57800
			},
			{
				"appid": 57900
			},
			{
				"appid": 58200
			},
			{
				"appid": 58230
			},
			{
				"appid": 58300
			},
			{
				"appid": 58400
			},
			{
				"appid": 58510
			},
			{
				"appid": 58520
			},
			{
				"appid": 58540
			},
			{
				"appid": 58550
			},
			{
				"appid": 58560
			},
			{
				"appid": 58570
			},
			{
				"appid": 58610
			},
			{
				"appid": 60340
			},
			{
				"appid": 60350
			},
			{
				"appid": 60600
			},
			{
				"appid": 60700
			},
			{
				"appid": 60800
			},
			{
				"appid": 61000
			},
			{
				"appid": 61010
			},
			{
				"appid": 61100
			},
			{
				"appid": 61220
			},
			{
				"appid": 61230
			},
			{
				"appid": 61310
			},
			{
				"appid": 61500
			},
			{
				"appid": 61510
			},
			{
				"appid": 61520
			},
			{
				"appid": 61530
			},
			{
				"appid": 61600
			},
			{
				"appid": 61700
			},
			{
				"appid": 61730
			},
			{
				"appid": 62000
			},
			{
				"appid": 62100
			},
			{
				"appid": 63000
			},
			{
				"appid": 63110
			},
			{
				"appid": 63200
			},
			{
				"appid": 63380
			},
			{
				"appid": 63500
			},
			{
				"appid": 63600
			},
			{
				"appid": 63610
			},
			{
				"appid": 63620
			},
			{
				"appid": 63630
			},
			{
				"appid": 63640
			},
			{
				"appid": 63650
			},
			{
				"appid": 63660
			},
			{
				"appid": 63700
			},
			{
				"appid": 63710
			},
			{
				"appid": 63800
			},
			{
				"appid": 63900
			},
			{
				"appid": 63910
			},
			{
				"appid": 63930
			},
			{
				"appid": 63940
			},
			{
				"appid": 63950
			},
			{
				"appid": 63960
			},
			{
				"appid": 64000
			},
			{
				"appid": 65080
			},
			{
				"appid": 65100
			},
			{
				"appid": 65200
			},
			{
				"appid": 65260
			},
			{
				"appid": 65270
			},
			{
				"appid": 65300
			},
			{
				"appid": 65400
			},
			{
				"appid": 65500
			},
			{
				"appid": 65530
			},
			{
				"appid": 65540
			},
			{
				"appid": 65560
			},
			{
				"appid": 65600
			},
			{
				"appid": 65610
			},
			{
				"appid": 65700
			},
			{
				"appid": 65710
			},
			{
				"appid": 65720
			},
			{
				"appid": 65730
			},
			{
				"appid": 65740
			},
			{
				"appid": 65780
			},
			{
				"appid": 65790
			},
			{
				"appid": 65800
			},
			{
				"appid": 65950
			},
			{
				"appid": 67000
			},
			{
				"appid": 67370
			},
			{
				"appid": 70000
			},
			{
				"appid": 70100
			},
			{
				"appid": 70110
			},
			{
				"appid": 70120
			},
			{
				"appid": 70200
			},
			{
				"appid": 70210
			},
			{
				"appid": 70300
			},
			{
				"appid": 70400
			},
			{
				"appid": 70420
			},
			{
				"appid": 70500
			},
			{
				"appid": 70600
			},
			{
				"appid": 70620
			},
			{
				"appid": 70640
			},
			{
				"appid": 70650
			},
			{
				"appid": 70660
			},
			{
				"appid": 70900
			},
			{
				"appid": 71000
			},
			{
				"appid": 71230
			},
			{
				"appid": 71240
			},
			{
				"appid": 71250
			},
			{
				"appid": 71260
			},
			{
				"appid": 71270
			},
			{
				"appid": 71340
			},
			{
				"appid": 71390
			},
			{
				"appid": 71420
			},
			{
				"appid": 72000
			},
			{
				"appid": 72200
			},
			{
				"appid": 72300
			},
			{
				"appid": 72400
			},
			{
				"appid": 72500
			},
			{
				"appid": 72850,
				"playtime_forever": 2464
			},
			{
				"appid": 72900
			},
			{
				"appid": 73010
			},
			{
				"appid": 73020
			},
			{
				"appid": 73060
			},
			{
				"appid": 73170
			},
			{
				"appid": 73190
			},
			{
				"appid": 73210
			},
			{
				"appid": 73220
			},
			{
				"appid": 73230
			},
			{
				"appid": 78000,
				"playtime_forever": 13
			},
			{
				"appid": 80000
			},
			{
				"appid": 80200
			},
			{
				"appid": 80300
			},
			{
				"appid": 80310
			},
			{
				"appid": 80330
			},
			{
				"appid": 80340
			},
			{
				"appid": 80350
			},
			{
				"appid": 80360
			},
			{
				"appid": 90100
			},
			{
				"appid": 90200
			},
			{
				"appid": 90400
			},
			{
				"appid": 90500
			},
			{
				"appid": 90800
			},
			{
				"appid": 91100
			},
			{
				"appid": 91200
			},
			{
				"appid": 91310,
				"playtime_forever": 30
			},
			{
				"appid": 91330
			},
			{
				"appid": 91600
			},
			{
				"appid": 91700
			},
			{
				"appid": 91800
			},
			{
				"appid": 91810
			},
			{
				"appid": 91900
			},
			{
				"appid": 92000
			},
			{
				"appid": 92100
			},
			{
				"appid": 92200,
				"playtime_forever": 18
			},
			{
				"appid": 92210
			},
			{
				"appid": 92220
			},
			{
				"appid": 92300
			},
			{
				"appid": 92400
			},
			{
				"appid": 92600
			},
			{
				"appid": 92700
			},
			{
				"appid": 92800,
				"playtime_forever": 27
			},
			{
				"appid": 92900
			},
			{
				"appid": 93200
			},
			{
				"appid": 94000
			},
			{
				"appid": 94200
			},
			{
				"appid": 94300
			},
			{
				"appid": 94500
			},
			{
				"appid": 94510
			},
			{
				"appid": 94520
			},
			{
				"appid": 94530
			},
			{
				"appid": 94590
			},
			{
				"appid": 94600
			},
			{
				"appid": 94610
			},
			{
				"appid": 94620
			},
			{
				"appid": 95300,
				"playtime_forever": 6
			},
			{
				"appid": 95500
			},
			{
				"appid": 95700
			},
			{
				"appid": 95900
			},
			{
				"appid": 96000
			},
			{
				"appid": 96100
			},
			{
				"appid": 96200
			},
			{
				"appid": 96300
			},
			{
				"appid": 96400
			},
			{
				"appid": 96800
			},
			{
				"appid": 96900
			},
			{
				"appid": 97000
			},
			{
				"appid": 97100
			},
			{
				"appid": 97110
			},
			{
				"appid": 97120
			},
			{
				"appid": 97130
			},
			{
				"appid": 97330
			},
			{
				"appid": 98100
			},
			{
				"appid": 98200
			},
			{
				"appid": 98300
			},
			{
				"appid": 98400
			},
			{
				"appid": 98500
			},
			{
				"appid": 98510
			},
			{
				"appid": 98600
			},
			{
				"appid": 98800
			},
			{
				"appid": 98900
			},
			{
				"appid": 99100
			},
			{
				"appid": 99120
			},
			{
				"appid": 99200
			},
			{
				"appid": 99300
			},
			{
				"appid": 99400
			},
			{
				"appid": 99410
			},
			{
				"appid": 99700
			},
			{
				"appid": 99810
			},
			{
				"appid": 99830
			},
			{
				"appid": 99890
			},
			{
				"appid": 100400
			},
			{
				"appid": 100410
			},
			{
				"appid": 100970
			},
			{
				"appid": 100980
			},
			{
				"appid": 102200
			},
			{
				"appid": 102400
			},
			{
				"appid": 102500
			},
			{
				"appid": 102600
			},
			{
				"appid": 102810
			},
			{
				"appid": 102820
			},
			{
				"appid": 102840
			},
			{
				"appid": 102850
			},
			{
				"appid": 104000
			},
			{
				"appid": 104020
			},
			{
				"appid": 104100
			},
			{
				"appid": 104200
			},
			{
				"appid": 104320
			},
			{
				"appid": 104600
			},
			{
				"appid": 104700
			},
			{
				"appid": 104900,
				"playtime_forever": 53
			},
			{
				"appid": 105000
			},
			{
				"appid": 105100
			},
			{
				"appid": 105300
			},
			{
				"appid": 105400
			},
			{
				"appid": 105420
			},
			{
				"appid": 105450
			},
			{
				"appid": 105600,
				"playtime_forever": 7
			},
			{
				"appid": 105700
			},
			{
				"appid": 105800
			},
			{
				"appid": 106000
			},
			{
				"appid": 107000
			},
			{
				"appid": 107100,
				"playtime_forever": 80
			},
			{
				"appid": 107200
			},
			{
				"appid": 107300
			},
			{
				"appid": 107310
			},
			{
				"appid": 107410
			},
			{
				"appid": 107430
			},
			{
				"appid": 107600
			},
			{
				"appid": 107800
			},
			{
				"appid": 108100
			},
			{
				"appid": 108110
			},
			{
				"appid": 108200
			},
			{
				"appid": 108500
			},
			{
				"appid": 108700
			},
			{
				"appid": 108710
			},
			{
				"appid": 108800
			},
			{
				"appid": 109200
			},
			{
				"appid": 109500
			},
			{
				"appid": 109700
			},
			{
				"appid": 110400
			},
			{
				"appid": 110500
			},
			{
				"appid": 110600
			},
			{
				"appid": 110610
			},
			{
				"appid": 110630
			},
			{
				"appid": 110800
			},
			{
				"appid": 111000
			},
			{
				"appid": 111010
			},
			{
				"appid": 111100
			},
			{
				"appid": 111300
			},
			{
				"appid": 111400
			},
			{
				"appid": 111600
			},
			{
				"appid": 111800
			},
			{
				"appid": 112100
			},
			{
				"appid": 113020
			},
			{
				"appid": 113200
			},
			{
				"appid": 115100
			},
			{
				"appid": 115110
			},
			{
				"appid": 115120
			},
			{
				"appid": 115200
			},
			{
				"appid": 115210
			},
			{
				"appid": 115220
			},
			{
				"appid": 115320
			},
			{
				"appid": 116120
			},
			{
				"appid": 200010
			},
			{
				"appid": 200020
			},
			{
				"appid": 200050
			},
			{
				"appid": 200060
			},
			{
				"appid": 200080
			},
			{
				"appid": 200130
			},
			{
				"appid": 200170
			},
			{
				"appid": 200190
			},
			{
				"appid": 200230
			},
			{
				"appid": 200260
			},
			{
				"appid": 200350
			},
			{
				"appid": 200370
			},
			{
				"appid": 200390
			},
			{
				"appid": 200410
			},
			{
				"appid": 200490
			},
			{
				"appid": 200510,
				"playtime_forever": 1738
			},
			{
				"appid": 200530
			},
			{
				"appid": 200550
			},
			{
				"appid": 200630
			},
			{
				"appid": 200670
			},
			{
				"appid": 200710
			},
			{
				"appid": 200900
			},
			{
				"appid": 200910
			},
			{
				"appid": 200940
			},
			{
				"appid": 200960
			},
			{
				"appid": 200980
			},
			{
				"appid": 200990
			},
			{
				"appid": 201000
			},
			{
				"appid": 201010
			},
			{
				"appid": 201020
			},
			{
				"appid": 201070
			},
			{
				"appid": 201280
			},
			{
				"appid": 201290
			},
			{
				"appid": 201310
			},
			{
				"appid": 201480
			},
			{
				"appid": 201490
			},
			{
				"appid": 201510
			},
			{
				"appid": 201570
			},
			{
				"appid": 201700
			},
			{
				"appid": 201760
			},
			{
				"appid": 201790,
				"playtime_forever": 419
			},
			{
				"appid": 201830
			},
			{
				"appid": 201870
			},
			{
				"appid": 202070
			},
			{
				"appid": 202130
			},
			{
				"appid": 202170
			},
			{
				"appid": 202200
			},
			{
				"appid": 202270
			},
			{
				"appid": 202310
			},
			{
				"appid": 202370
			},
			{
				"appid": 202410
			},
			{
				"appid": 202530
			},
			{
				"appid": 202670
			},
			{
				"appid": 202690
			},
			{
				"appid": 202710
			},
			{
				"appid": 202730
			},
			{
				"appid": 202750
			},
			{
				"appid": 202860
			},
			{
				"appid": 202970
			},
			{
				"appid": 202990
			},
			{
				"appid": 203140
			},
			{
				"appid": 203160
			},
			{
				"appid": 203210
			},
			{
				"appid": 203250
			},
			{
				"appid": 203350
			},
			{
				"appid": 203510
			},
			{
				"appid": 203560
			},
			{
				"appid": 203630
			},
			{
				"appid": 203650
			},
			{
				"appid": 203680
			},
			{
				"appid": 203730
			},
			{
				"appid": 203750
			},
			{
				"appid": 203770
			},
			{
				"appid": 203810
			},
			{
				"appid": 203830
			},
			{
				"appid": 203990
			},
			{
				"appid": 204030
			},
			{
				"appid": 204060
			},
			{
				"appid": 204080
			},
			{
				"appid": 204100
			},
			{
				"appid": 204120
			},
			{
				"appid": 204140
			},
			{
				"appid": 204180
			},
			{
				"appid": 204220
			},
			{
				"appid": 204240
			},
			{
				"appid": 204300
			},
			{
				"appid": 204340
			},
			{
				"appid": 204360
			},
			{
				"appid": 204390
			},
			{
				"appid": 204440
			},
			{
				"appid": 204510
			},
			{
				"appid": 204560
			},
			{
				"appid": 204580
			},
			{
				"appid": 204630
			},
			{
				"appid": 204760
			},
			{
				"appid": 204840
			},
			{
				"appid": 204860
			},
			{
				"appid": 204880
			},
			{
				"appid": 204940
			},
			{
				"appid": 204960
			},
			{
				"appid": 205060
			},
			{
				"appid": 205070
			},
			{
				"appid": 205100
			},
			{
				"appid": 205190
			},
			{
				"appid": 205230
			},
			{
				"appid": 205250
			},
			{
				"appid": 205270
			},
			{
				"appid": 205330
			},
			{
				"appid": 205350
			},
			{
				"appid": 205530
			},
			{
				"appid": 205550
			},
			{
				"appid": 205590
			},
			{
				"appid": 205610
			},
			{
				"appid": 205650
			},
			{
				"appid": 205690
			},
			{
				"appid": 205730
			},
			{
				"appid": 205790
			},
			{
				"appid": 205810
			},
			{
				"appid": 205830
			},
			{
				"appid": 205840
			},
			{
				"appid": 205870
			},
			{
				"appid": 205910
			},
			{
				"appid": 205930
			},
			{
				"appid": 205950
			},
			{
				"appid": 206020
			},
			{
				"appid": 206040
			},
			{
				"appid": 206060
			},
			{
				"appid": 206180
			},
			{
				"appid": 206230
			},
			{
				"appid": 206250
			},
			{
				"appid": 206370
			},
			{
				"appid": 206410
			},
			{
				"appid": 206440
			},
			{
				"appid": 206500
			},
			{
				"appid": 206610
			},
			{
				"appid": 206690
			},
			{
				"appid": 206740
			},
			{
				"appid": 206760
			},
			{
				"appid": 206940
			},
			{
				"appid": 206950
			},
			{
				"appid": 206960
			},
			{
				"appid": 206970
			},
			{
				"appid": 207000
			},
			{
				"appid": 207020
			},
			{
				"appid": 207040
			},
			{
				"appid": 207060
			},
			{
				"appid": 207080
			},
			{
				"appid": 207150
			},
			{
				"appid": 207170
			},
			{
				"appid": 207190
			},
			{
				"appid": 207210
			},
			{
				"appid": 207250
			},
			{
				"appid": 207320
			},
			{
				"appid": 207350
			},
			{
				"appid": 207370
			},
			{
				"appid": 207380
			},
			{
				"appid": 207400
			},
			{
				"appid": 207420
			},
			{
				"appid": 207430
			},
			{
				"appid": 207490
			},
			{
				"appid": 207530
			},
			{
				"appid": 207570
			},
			{
				"appid": 207610
			},
			{
				"appid": 207650
			},
			{
				"appid": 207670
			},
			{
				"appid": 207690
			},
			{
				"appid": 207710
			},
			{
				"appid": 207730
			},
			{
				"appid": 207750
			},
			{
				"appid": 207790
			},
			{
				"appid": 207890
			},
			{
				"appid": 207899
			},
			{
				"appid": 207930
			},
			{
				"appid": 208090
			},
			{
				"appid": 208110
			},
			{
				"appid": 208140,
				"playtime_forever": 206
			},
			{
				"appid": 208200
			},
			{
				"appid": 208400
			},
			{
				"appid": 208460
			},
			{
				"appid": 208480
			},
			{
				"appid": 208500
			},
			{
				"appid": 208520
			},
			{
				"appid": 208580
			},
			{
				"appid": 208600
			},
			{
				"appid": 208620
			},
			{
				"appid": 208630
			},
			{
				"appid": 208640
			},
			{
				"appid": 208670
			},
			{
				"appid": 208710
			},
			{
				"appid": 208730
			},
			{
				"appid": 208860
			},
			{
				"appid": 209080
			},
			{
				"appid": 209100
			},
			{
				"appid": 209120
			},
			{
				"appid": 209190
			},
			{
				"appid": 209230
			},
			{
				"appid": 209270
			},
			{
				"appid": 209330
			},
			{
				"appid": 209360
			},
			{
				"appid": 209370
			},
			{
				"appid": 209390
			},
			{
				"appid": 209520
			},
			{
				"appid": 209540
			},
			{
				"appid": 209610
			},
			{
				"appid": 209670
			},
			{
				"appid": 209690
			},
			{
				"appid": 209730
			},
			{
				"appid": 209750
			},
			{
				"appid": 209790
			},
			{
				"appid": 209830
			},
			{
				"appid": 209850
			},
			{
				"appid": 209950
			},
			{
				"appid": 210150
			},
			{
				"appid": 210170
			},
			{
				"appid": 210230
			},
			{
				"appid": 210390
			},
			{
				"appid": 210490
			},
			{
				"appid": 210550
			},
			{
				"appid": 210950
			},
			{
				"appid": 210990
			},
			{
				"appid": 211010
			},
			{
				"appid": 211050
			},
			{
				"appid": 211070
			},
			{
				"appid": 211120
			},
			{
				"appid": 211160
			},
			{
				"appid": 211180
			},
			{
				"appid": 211260
			},
			{
				"appid": 211280
			},
			{
				"appid": 211340
			},
			{
				"appid": 211360
			},
			{
				"appid": 211400,
				"playtime_forever": 27
			},
			{
				"appid": 211420,
				"playtime_forever": 1565
			},
			{
				"appid": 211440
			},
			{
				"appid": 211580
			},
			{
				"appid": 211600
			},
			{
				"appid": 211670
			},
			{
				"appid": 211740
			},
			{
				"appid": 211780
			},
			{
				"appid": 211800
			},
			{
				"appid": 211900
			},
			{
				"appid": 212010
			},
			{
				"appid": 212030
			},
			{
				"appid": 212050
			},
			{
				"appid": 212110
			},
			{
				"appid": 212410
			},
			{
				"appid": 212480
			},
			{
				"appid": 212580
			},
			{
				"appid": 212630
			},
			{
				"appid": 212680,
				"playtime_forever": 88
			},
			{
				"appid": 212700
			},
			{
				"appid": 212780
			},
			{
				"appid": 212910
			},
			{
				"appid": 213030
			},
			{
				"appid": 213120
			},
			{
				"appid": 213330
			},
			{
				"appid": 213350
			},
			{
				"appid": 213610
			},
			{
				"appid": 214100
			},
			{
				"appid": 214130
			},
			{
				"appid": 214150
			},
			{
				"appid": 214170
			},
			{
				"appid": 214210
			},
			{
				"appid": 214230
			},
			{
				"appid": 214250
			},
			{
				"appid": 214270
			},
			{
				"appid": 214310
			},
			{
				"appid": 214320
			},
			{
				"appid": 214340
			},
			{
				"appid": 214360
			},
			{
				"appid": 214400
			},
			{
				"appid": 214420
			},
			{
				"appid": 214510
			},
			{
				"appid": 214560
			},
			{
				"appid": 214570
			},
			{
				"appid": 214590
			},
			{
				"appid": 214610
			},
			{
				"appid": 214630
			},
			{
				"appid": 214640
			},
			{
				"appid": 214700
			},
			{
				"appid": 214790
			},
			{
				"appid": 214830,
				"playtime_forever": 12
			},
			{
				"appid": 214850
			},
			{
				"appid": 214870
			},
			{
				"appid": 214910
			},
			{
				"appid": 214970,
				"playtime_forever": 7
			},
			{
				"appid": 215060
			},
			{
				"appid": 215160
			},
			{
				"appid": 215280
			},
			{
				"appid": 215390
			},
			{
				"appid": 215450
			},
			{
				"appid": 215470
			},
			{
				"appid": 215510
			},
			{
				"appid": 215670
			},
			{
				"appid": 215690
			},
			{
				"appid": 215710
			},
			{
				"appid": 215770
			},
			{
				"appid": 215790
			},
			{
				"appid": 215930
			},
			{
				"appid": 216090
			},
			{
				"appid": 216110
			},
			{
				"appid": 216130
			},
			{
				"appid": 216210
			},
			{
				"appid": 216250
			},
			{
				"appid": 216290
			},
			{
				"appid": 216370
			},
			{
				"appid": 216390
			},
			{
				"appid": 216570
			},
			{
				"appid": 216610
			},
			{
				"appid": 216670
			},
			{
				"appid": 216890
			},
			{
				"appid": 216910
			},
			{
				"appid": 216930
			},
			{
				"appid": 217060
			},
			{
				"appid": 217080
			},
			{
				"appid": 217200
			},
			{
				"appid": 217270
			},
			{
				"appid": 217290
			},
			{
				"appid": 217490
			},
			{
				"appid": 217690
			},
			{
				"appid": 217790
			},
			{
				"appid": 217860
			},
			{
				"appid": 218020
			},
			{
				"appid": 218040
			},
			{
				"appid": 218060
			},
			{
				"appid": 218090
			},
			{
				"appid": 218130
			},
			{
				"appid": 218410
			},
			{
				"appid": 218510
			},
			{
				"appid": 218640
			},
			{
				"appid": 218660
			},
			{
				"appid": 218680
			},
			{
				"appid": 218700
			},
			{
				"appid": 218740
			},
			{
				"appid": 218860
			},
			{
				"appid": 219070
			},
			{
				"appid": 219150
			},
			{
				"appid": 219190
			},
			{
				"appid": 219200
			},
			{
				"appid": 219540
			},
			{
				"appid": 219600
			},
			{
				"appid": 219640
			},
			{
				"appid": 219680
			},
			{
				"appid": 219740
			},
			{
				"appid": 219760
			},
			{
				"appid": 219780
			},
			{
				"appid": 219890
			},
			{
				"appid": 219910
			},
			{
				"appid": 219950
			},
			{
				"appid": 220050
			},
			{
				"appid": 220090
			},
			{
				"appid": 220160
			},
			{
				"appid": 220200
			},
			{
				"appid": 220240,
				"playtime_forever": 531
			},
			{
				"appid": 220260
			},
			{
				"appid": 220420
			},
			{
				"appid": 220440
			},
			{
				"appid": 220460
			},
			{
				"appid": 220660,
				"playtime_2weeks": 132,
				"playtime_forever": 132
			},
			{
				"appid": 220680
			},
			{
				"appid": 220700
			},
			{
				"appid": 220740
			},
			{
				"appid": 220780
			},
			{
				"appid": 220820
			},
			{
				"appid": 220823
			},
			{
				"appid": 220860
			},
			{
				"appid": 220960
			},
			{
				"appid": 221020
			},
			{
				"appid": 221040
			},
			{
				"appid": 221200
			},
			{
				"appid": 221220
			},
			{
				"appid": 221260
			},
			{
				"appid": 221300
			},
			{
				"appid": 221380
			},
			{
				"appid": 221430
			},
			{
				"appid": 221640
			},
			{
				"appid": 221810
			},
			{
				"appid": 221830
			},
			{
				"appid": 222140
			},
			{
				"appid": 222160
			},
			{
				"appid": 222660
			},
			{
				"appid": 222820
			},
			{
				"appid": 222880
			},
			{
				"appid": 222980
			},
			{
				"appid": 223000
			},
			{
				"appid": 223220
			},
			{
				"appid": 223280
			},
			{
				"appid": 223330
			},
			{
				"appid": 223390
			},
			{
				"appid": 223430
			},
			{
				"appid": 223450
			},
			{
				"appid": 223470
			},
			{
				"appid": 223510
			},
			{
				"appid": 223530
			},
			{
				"appid": 223630
			},
			{
				"appid": 223710
			},
			{
				"appid": 223730
			},
			{
				"appid": 223810
			},
			{
				"appid": 223850
			},
			{
				"appid": 223870
			},
			{
				"appid": 224220
			},
			{
				"appid": 224300
			},
			{
				"appid": 224360
			},
			{
				"appid": 224380
			},
			{
				"appid": 224420
			},
			{
				"appid": 224500
			},
			{
				"appid": 224540
			},
			{
				"appid": 224600
			},
			{
				"appid": 224700
			},
			{
				"appid": 224760
			},
			{
				"appid": 224820
			},
			{
				"appid": 224920
			},
			{
				"appid": 224940
			},
			{
				"appid": 224960
			},
			{
				"appid": 224980
			},
			{
				"appid": 225000
			},
			{
				"appid": 225020
			},
			{
				"appid": 225140
			},
			{
				"appid": 225260
			},
			{
				"appid": 225300
			},
			{
				"appid": 225320
			},
			{
				"appid": 225420
			},
			{
				"appid": 225600
			},
			{
				"appid": 225640
			},
			{
				"appid": 225760
			},
			{
				"appid": 226120
			},
			{
				"appid": 226700
			},
			{
				"appid": 226740
			},
			{
				"appid": 226780
			},
			{
				"appid": 227000
			},
			{
				"appid": 227080
			},
			{
				"appid": 227100
			},
			{
				"appid": 227160
			},
			{
				"appid": 227180
			},
			{
				"appid": 227200
			},
			{
				"appid": 227220
			},
			{
				"appid": 227260
			},
			{
				"appid": 227280
			},
			{
				"appid": 227300
			},
			{
				"appid": 227320
			},
			{
				"appid": 227480
			},
			{
				"appid": 227580
			},
			{
				"appid": 227680
			},
			{
				"appid": 227720
			},
			{
				"appid": 227760
			},
			{
				"appid": 227800
			},
			{
				"appid": 227900
			},
			{
				"appid": 227920
			},
			{
				"appid": 228000
			},
			{
				"appid": 228200
			},
			{
				"appid": 228280
			},
			{
				"appid": 228320
			},
			{
				"appid": 228400
			},
			{
				"appid": 228440
			},
			{
				"appid": 228760
			},
			{
				"appid": 229520
			},
			{
				"appid": 229600
			},
			{
				"appid": 229660
			},
			{
				"appid": 229870
			},
			{
				"appid": 230050
			},
			{
				"appid": 230150
			},
			{
				"appid": 230650
			},
			{
				"appid": 230700
			},
			{
				"appid": 230760
			},
			{
				"appid": 230780
			},
			{
				"appid": 230980
			},
			{
				"appid": 231140
			},
			{
				"appid": 231200
			},
			{
				"appid": 232010
			},
			{
				"appid": 232050
			},
			{
				"appid": 232750
			},
			{
				"appid": 232770
			},
			{
				"appid": 232910
			},
			{
				"appid": 232950
			},
			{
				"appid": 233230
			},
			{
				"appid": 233270
			},
			{
				"appid": 233390
			},
			{
				"appid": 233410
			},
			{
				"appid": 233450
			},
			{
				"appid": 233470
			},
			{
				"appid": 233550
			},
			{
				"appid": 233700
			},
			{
				"appid": 233720
			},
			{
				"appid": 233740
			},
			{
				"appid": 233860
			},
			{
				"appid": 234190
			},
			{
				"appid": 234290
			},
			{
				"appid": 234370
			},
			{
				"appid": 234710
			},
			{
				"appid": 234740
			},
			{
				"appid": 234900
			},
			{
				"appid": 234940
			},
			{
				"appid": 235360
			},
			{
				"appid": 202351
			}
		]
		
	}
}