10000 481
100 106856
1002 736
100400 36
10040 47
100410 212
10080 208
10090 8367
100970 138
100980 38
10100 346
10110 360
10120 61
10130 210
10140 78
10 142611
10150 4775
10170 571
10180 67372
10190 67372
102200 1597
10220 708
10230 147
102400 744
10240 136
102410 22763
102500 3198
10250 106
102600 18342
10260 107
102700 22764
102810 657
102820 593
102840 8807
102850 807
104000 2010
10400 124
104020 214
104100 389
10410 16
104200 604
10420 17
10430 1825
104320 19647
10440 31
104600 1833
10460 379
104700 25563
10470 23
10480 24
104900 9823
10490 43
105000 463
10500 24608
105100 942
10510 15
105200 33
10520 31
105300 1133
10530 824
105310 22763
105400 8025
10540 2105
105420 56
105430 22763
105450 8761
10545 2128
105600 66621
10560 54
105700 877
105800 720
10590 10
106000 548
106010 22763
10630 32
10650 276
10660 172
10680 12604
10690 273
107000 93
10700 1991
107100 29940
107200 14065
107300 7138
107310 7212
107400 22763
107410 8907
107430 674
107600 1005
107800 6743
107900 22763
108100 248
108110 207
108200 1208
108210 22763
108500 6889
108700 1278
108710 19024
108800 16320
109200 162
109400 22763
109410 22763
109500 96
109700 171
110400 932
11040 1740
110500 462
11050 1490
110600 394
11060 1230
110610 398
110630 300
110800 15010
111000 96
111010 54
111100 1589
11120 87
111300 104
11130 1704
111400 3647
11140 1912
11150 1715
111600 3497
11170 1049
111800 4581
11180 553
111900 75
11190 799
11200 7427
112100 3468
11230 1336
11240 1693
11250 1710
11260 1573
11280 1512
113020 3217
113200 33654
11330 1723
113400 22763
11340 1586
113420 22763
11360 1777
11370 2117
113900 22763
11390 1606
11420 973
11440 1556
11450 7767
11480 425
11490 4
11500 1108
115100 5137
115110 4648
115120 1201
115200 436
11520 135
115210 430
115220 365
115320 2851
11550 263
11560 142
11590 441
11610 22763
116120 511
11900 584
11920 358
1200 12566
12100 15180
1210 12
12110 17866
12120 21945
12130 1254
12140 6588
12150 6825
12160 3556
12170 13026
12180 13026
12190 754
12200 5579
12210 42291
12220 29776
12230 15180
12240 17866
12250 21133
12260 204
12300 44
1230 12555
12310 240
12320 1143
12330 1143
12340 234
12360 3137
12370 755
12380 755
12390 146
12400 39
12420 208
12430 226
12440 186
12450 174
12460 202
12470 815
12480 157
12500 1504
1250 49000
12510 361
12520 1735
12530 277
12540 26
12550 27
12560 1399
12570 26
12580 29
12590 1367
12600 210
12630 1197
12640 1801
12650 1157
12660 1157
12670 1184
12690 1483
12710 6140
12720 22
12750 6130
12770 216
12790 237
12800 1863
1280 12555
12810 7724
12830 3908
12840 6737
12860 119
12900 21423
13000 335
1300 2375
130 62157
1309 3522
13120 7
1313 3522
13140 22763
13200 4105
1320 116
13210 10031
13230 5091
13240 4649
13250 4139
13500 3705
13510 2961
13520 7388
13530 3748
13540 1443
13560 2528
13570 3456
13580 2685
13600 4207
13620 1484
13630 1489
13640 1917
13650 10
13660 13
13700 301
15000 533
1500 8356
15060 118
15080 37
15100 10443
1510 8600
15110 10
15120 5781
15130 2822
15140 56
15150 55
15160 62
15170 3464
15190 1023
15200 537
1520 9369
15210 933
15220 261
15230 247
15240 330
1525 3
15260 87
15270 142
15280 37
15290 49
15300 1586
1530 7106
15310 155
15320 2091
15330 67
15340 10
15350 22
15370 2675
15380 2491
15390 1186
15400 2055
15500 2208
1550 2
15520 2915
15540 1957
15560 1434
15620 33575
15700 5915
15710 5665
15740 2341
15750 2647
15800 1177
15900 121
15910 1296
15920 1362
15930 1407
15940 1227
15950 1379
15960 112
15970 1294
15980 52
15990 1286
16000 84
1600 1704
16020 107
16030 1271
16040 148
16060 117
16090 34
16100 1268
1610 1915
16110 1251
16120 1264
16130 1280
16180 1269
16200 1193
16300 1013
1630 2252
1640 2288
16410 144
16450 9999
16480 15
16500 1212
16600 2249
16620 371
16700 79
1670 1503
16710 431
16720 1615
16730 1369
16800 2
16810 8154
16900 2
1690 1936
1700 2838
17020 25796
17030 15
17080 22763
17100 445
17120 293
17130 2
17140 598
17180 102
17300 13787
17330 12119
17340 12119
17390 5013
17400 70
17410 21911
17420 264
17430 2136
17440 1900
17450 5965
17460 17167
17470 20295
17480 6248
17500 22764
17510 22763
17520 22764
17530 22765
17550 22767
17570 22763
17580 22767
17600 1179
17700 22764
17710 4179
17730 22764
17740 22764
17790 1
17800 231
17810 183
18000 3557
18020 3421
18040 1106
18050 580
18070 1464
18100 91
18110 4447
18120 1079
18300 1912
18400 1910
1840 25413
18420 1533
18450 1515
18460 1515
18470 1335
18480 1345
18490 1487
18500 9963
18600 1208
18700 10815
18820 1710
19000 745
1900 1011
19020 182
19030 138
19080 19
19090 44
19200 1657
1920 154
1930 916
19320 63
19500 134
19680 4490
19800 967
19810 21
19830 1076
19840 1076
19860 10
19900 13649
19910 10
19920 10
19930 315
19980 4728
19990 91
200010 3659
200020 63
200050 488
200060 625
200080 43
200130 114
200170 6548
200190 914
200210 22763
200230 335
200260 10198
200269 3
200350 342
200370 1434
200390 4466
200410 878
200490 58
200510 23584
200530 21
200550 1924
200630 632
200670 671
200710 36844
200900 13383
200910 2633
200940 1356
200960 847
200980 847
200990 847
201000 847
201010 847
201020 687
201070 240
201190 22763
201210 22763
201230 22763
201280 13211
201290 3381
201310 4394
201330 24
201420 75
201480 3452
201490 593
201510 1076
201570 992
201700 2828
201760 2621
201790 19689
201830 953
201870 7908
20200 1176
202070 441
202090 5
202130 1242
202170 13653
202200 3903
202270 1315
202310 597
202351 131
202370 139
202410 674
202530 1413
202570 44
202670 57
202690 183
202710 2614
202730 2664
202750 14753
202860 274
202970 27994
202990 34676
203140 16577
203160 14006
203210 800
203250 281
203350 571
203510 1506
203560 672
203630 2766
203650 1041
203680 182
203730 2553
203750 1745
203770 6086
203810 12916
203830 306
203850 5560
203990 168
20400 21
204030 6392
204060 14091
204080 5706
204100 12442
204120 486
204140 1213
204180 988
204220 6810
204240 389
204300 21665
204340 3781
204360 14491
204390 332
204440 115
204450 1694
204510 47
204530 69
204560 624
204580 41
204630 1226
204760 108
204840 419
204860 697
204880 6276
204940 490
204960 218
20500 10439
205060 438
205070 219
205080 66
205100 16125
20510 5371
205190 1424
205230 1215
205250 195
205270 259
20530 7639
205330 103
205350 784
20540 31743
20550 7333
205530 705
205550 604
205590 482
205610 958
205650 663
205669 2
205690 421
20570 25432
205710 22763
205730 1929
205790 223036
205810 312
205830 106
205840 508
205870 663
20590 242
205910 4332
205930 12080
205950 1449
206020 698
206040 689
206060 721
206180 3
206190 1688
206210 22765
206230 20
20 62501
206250 240
206270 813
206370 369
206410 288
206420 1566
206440 4217
206480 22763
206500 22766
206610 39
206630 7
206690 1054
206740 70
206760 905
206940 3
206950 3
206960 3
206970 3
206980 6544
207000 49
20700 353
207020 280
207040 1392
207060 220
207080 6242
20710 848
207140 3
207150 1395
207170 14177
207190 413
207210 1022
207230 22993
207241 13
207250 2808
207320 2082
207350 2395
207370 266
207380 240
207400 236
207420 4695
207430 1273
207490 2376
207530 876
207570 3180
207610 20196
207650 1074
207670 491
207690 4392
207710 72
207730 85
207750 1375
207790 110
207890 5336
207899 3
207930 2009
208030 22763
208090 4512
208110 369
208140 7278
208200 2306
20820 7386
208400 684
20840 142
208460 161
208480 5473
208500 2020
208520 1226
208580 9571
208600 1014
208610 426
208620 134
208630 131
208640 135
208670 1204
208710 200
208730 1270
208860 238
209000 32
20900 18292
209060 31
209080 6180
209100 944
209120 1296
209160 2
209190 1663
20920 21430
209230 152
209270 2061
209330 1820
209340 10
209360 482
209370 1030
209390 139
209520 253
209540 1839
209610 131
209630 47
209670 1599
209690 1737
209710 22764
209730 512
209750 88
209790 3886
209830 10493
209850 141
209870 22764
209890 12
209950 396
21000 857
2100 11021
21010 220
210150 154
210170 1595
210230 41
21030 147
210350 209
210390 186
210410 160
210430 24
210490 142
210500 22763
210550 409
21070 77
210770 1913
21080 95
210870 66
21090 6735
210950 330
210990 155
21100 9256
211010 285
211050 229
211070 118
211 103217
21110 6737
211120 683
211140 7
211160 2373
211180 942
21120 6737
211260 1754
211280 305
21130 664
211340 311
211360 4888
211380 149
211400 5930
21140 140
211420 12896
211440 769
211500 22763
211580 1869
211600 3938
211670 116
21170 3505
211740 3766
211780 41
211800 111
21180 1
211880 22763
211900 404
211970 34
212010 824
212030 1087
212050 857
212070 22763
212090 2
212110 400
212160 22770
212180 22772
212200 22763
212220 22763
212240 22763
212370 22763
212390 22763
212410 235
212480 3754
212500 22763
212542 22763
212580 654
212630 2339
212680 22129
212700 515
212740 53
212780 156
212800 22763
212840 22763
212910 27994
21300 315
2130 11022
213030 4162
213120 1153
213330 867
213350 61
213610 2438
213650 22763
213850 2392
21400 1335
214050 6
214100 284
214130 78
214150 1169
214170 1467
214210 62
214230 79
214250 3918
214270 28
214310 198
214320 58
214340 2459
214360 2636
214400 18
214420 23089
214510 2589
214560 11248
214570 125
214590 744
214610 225
214630 140
214640 140
214700 1616
214730 250
214770 75
214790 7441
214830 3022
214850 22766
214870 2104
214910 209
214950 1003
214970 4542
21500 63
215060 281
215120 22763
215160 640
215280 2484
215350 22763
215360 22763
215390 52
215450 168
215470 4648
215490 1
215510 866
215530 2049
215590 1
215670 3203
215690 283
215710 430
215770 336
215790 260
215870 22765
215930 131
21600 86
216090 167
21610 98
216110 263
216130 273
216150 22763
21620 3
216210 37
216250 6876
216280 22763
216290 305
216370 6481
216390 1557
21640 149
216570 29
21660 1897
216610 156
216670 211
21670 394
21680 686
216890 1795
21690 5155
216910 859
216930 12
217060 1497
217080 230
217140 134
217200 996
217270 496
217290 188
21730 99
217490 4396
21750 52
21760 1902
217690 1293
217750 22764
217790 267
21780 198
217860 311
217920 12
217980 1293
21800 865
218020 367
218040 440
218060 923
218090 442
218130 2726
218170 22764
218210 22763
218230 22763
218310 22763
218330 1
218350 22763
218410 834
218450 22763
218461 11
218510 670
218620 4577
218640 799
218660 249
218680 6795
218700 80
218740 660
218800 15051
218820 221
218860 88
218900 3
218980 144
21900 1268
219030 22763
219070 274
21910 1841
219150 13215
219190 263
219200 358
21920 58
219340 22940
21950 32
219540 46749
219600 1042
219640 29694
219680 4911
21970 6466
219740 17764
219760 530
219780 3411
219800 62
21980 3249
219870 22763
219890 5062
21989 3
21990 53
219910 787
219950 217
22000 14483
2200 4487
220050 356
220090 614
220 112227
220160 2282
220200 6768
220240 13252
220260 3044
220420 20
220440 2754
220460 969
220660 1798
220680 16
220700 1148
220740 999
220780 7864
220820 924
220823 307
220824 5
220860 4063
220900 66
220960 30
22100 10324
221020 3755
2210 2155
221040 3136
221080 22763
221120 22763
221200 22766
22120 4897
221220 22766
221260 8429
221300 168
22130 2026
221340 4
221360 22763
221380 9496
22140 4897
221410 23857
221430 175
221640 4653
221680 3
221790 22764
22180 7428
221810 2332
221830 219
221910 53
22200 5301
222140 957
222160 331
222300 1
22230 4771
222320 20
222480 572
222520 22764
222640 3
222660 82
222710 177
222730 3362
222750 1366
222820 102
222880 289
222940 43
222980 2111
223000 36
22300 4338
22310 1246
22320 9339
223220 1417
223280 84
22330 18149
223330 81
223390 25995
22340 1836
223430 1148
223450 114
223470 2278
22350 10974
223510 1012
223530 127007
223630 891
223670 18
22370 16193
223710 22767
223730 571
223750 22763
22380 35718
223810 779
223830 169
223850 360
223870 779
223910 22766
224060 746
224220 145
224300 762
224320 22763
224340 32
224360 22
224380 67
224420 509
224440 230
224460 1
224500 1227
22450 1908
224540 14462
224580 16397
224600 4474
224640 22763
224700 43
224760 3811
224780 5655
224820 724
224860 6
224900 22
22490 2604
224920 791
224940 750
224960 1992
224980 1905
225000 1893
22500 486
225020 1938
225080 18
225140 1446
225160 393
225180 15
225200 307
225220 65
225260 4758
225280 12
225300 1956
225320 1941
225360 149
225420 765
225600 186
225640 3757
225760 6481
22600 9500
22610 1844
226120 329
226240 22763
226320 28619
22650 4753
226700 8655
22670 1381
226720 43
226740 756
226760 4
226780 62
226820 30
226960 6
226980 22844
227000 602
22700 18
2270 4524
227080 272
227100 3974
227160 727
227180 806
227200 1503
227220 768
227240 22763
227260 140
227280 873
227300 2752
227320 481
227380 242
227400 88
227480 1977
227580 1359
227600 14
227680 2855
227720 778
227760 342
227800 1635
227860 234
227900 7
227920 54
227980 36
228000 3
2280 5913
228200 43524
228260 671
228280 3055
228300 773
228320 1820
228400 841
228440 472
228560 88
228760 1055
228960 81
2290 5572
229480 254
229520 703
229580 47
229600 198
229660 706
229870 615
229890 69
229970 120
230050 3018
2300 5963
230150 368
230170 330
230190 428
230310 106
230330 62
230350 36
230410 22764
230650 174
230700 314
230760 21
230780 47
230820 120
230860 68
230980 313
23100 1359
231020 30
231040 13
2310 5727
231060 22763
231140 1251
231160 547
231180 92
231200 421
23120 1788
23130 1186
231310 9
23140 1219
231430 19991
23150 1183
231670 3
231720 1
231740 384
231910 76
23200 685
232010 468
232050 686
2320 5572
232210 26436
232430 89
232450 22828
232670 1
232750 820
232770 208
232810 89
232910 940
232950 210
232970 55
23300 728
2330 5332
23310 4661
233130 22
233210 1
233230 212
233250 224
233270 3744
233370 27
233390 386
233410 164
233450 2368
233470 2952
233510 247
233530 247
233550 150
233570 22763
23360 439
233680 28
233700 1065
233720 6320
233740 3148
23380 1035
233840 113
233860 968
23390 918
233980 1017
234000 5
23400 1732
2340 5332
234080 77
234100 5
234160 1112
234190 965
23420 848
234290 127
234310 22763
234350 13
234370 206
234390 38
23440 848
234490 222
23450 1164
234530 113
23460 506
234630 21
234650 737
234670 6
234710 4358
234740 2636
234900 519
23490 6193
234940 80
234980 105
23500 1323
2350 4487
235070 48
23510 1183
235250 513
23530 949
235360 444
235600 270
235660 143
235700 144
235720 8
235780 22763
235800 15
235820 149
235980 1
23600 571
2360 4084
236090 2311
236130 17
236150 11
236290 18
236370 427
236390 22763
236450 15
236490 18
236510 25
236530 2
236730 259
236790 67
236830 11772
236850 208
236970 3
23700 748
2370 4024
237110 1161
237310 22763
237370 3
237430 173
237530 75
237550 6
237570 551
237590 34
237630 124
237740 30
237890 34
238010 3
238050 123
238070 22790
238110 22763
238130 10
238170 144
238210 2535
238240 183
238280 30
238320 348
238430 5
238530 200
238630 92
238690 22763
238710 3
238750 41
238870 50
238890 367
238930 108
239030 524
2390 4052
239070 331
239200 357
239350 327
239410 13
239450 3083
239660 22763
239700 11
239800 393
239820 633
2400 8155
24010 3661
240160 73
240180 71
240 184251
240200 68
240220 4
240340 2
240600 40
241100 22764
24120 222
241240 8
24130 218
241320 56
24140 144
241410 146
24150 88
241540 116
241600 2762
241620 31
24170 742
241720 210
241790 1
24180 61
241910 3
24200 22763
2420 6383
24210 15
242110 75
24220 51
242320 1
24240 22315
242460 2
242480 2
242530 4
242550 66
242570 80
242590 15053
242680 2
242780 9
242800 6
242820 3
242860 17
242880 76
242960 4
242980 1
243040 1
2430 8243
243120 13
243200 6
243360 142
243380 41
243450 13
243780 6
243800 1
243950 122
24400 5081
244030 82
244050 3
244070 4
24410 1530
24420 7006
24460 1239
24470 1768
244710 45
244730 78
24480 1527
244810 8
244850 5
244870 47
24500 214
245010 1
2450 1794
245130 29
245170 272
245390 2
245410 5
245430 5
245450 6
245470 2
245730 3
24600 49
246090 2
24610 27
24620 23
246210 1025
246300 19
24630 48
246360 15
24640 20
24650 46
246580 3
246600 1
24660 18
24670 327
246740 11
246760 4
246960 8
246980 4
247000 1
24700 161
247020 3
247120 73
247140 2
24720 1965
247240 23
247350 10
24740 12561
24760 151
24780 11349
24790 3760
247910 1
24800 5903
24810 2272
24820 23
24830 17
248350 5
24840 1118
248410 3
248470 6
248490 16
24850 128
248510 1
248550 1
24860 5244
248610 11
24870 1488
248710 2
248800 8
249130 2
249150 22763
24920 22768
249330 7
249360 17
24960 23993
249630 8
249680 5
24980 16642
249870 24
249990 17
2500 7587
25010 3248
250110 5
250200 1
250320 11
250380 3
250400 14
250460 5
250500 12
250520 4
250580 50
250660 3
250720 1
251170 29
251310 2
251370 3
251410 1
251430 3
251710 1
2520 1754
252330 4
2525 1754
252630 1
252670 1
252910 1
253650 1
253900 3
253920 8
253940 20
253960 1
253980 13
254000 4
2540 1869
254020 4
254040 4
254060 4
254080 5
254100 6
254440 3
2545 1869
254960 1
254980 1
25500 1374
2550 1869
255480 16
255520 9
25600 410
25620 607
25700 2814
2570 1697
25730 3
25800 4513
258200 2
25830 1909
25840 1379
25850 2097
25860 398
25870 44
25890 3060
25900 5304
2590 1684
25910 274
259190 1
25920 353
25930 1997
25940 1576
25980 1810
25990 2201
26000 1944
2600 5241
260 151694
260270 1
2610 387
2620 1724
26300 1210
2630 2412
2640 1500
26500 13129
26710 15
26800 19032
2680 65
26900 12625
2690 54
27000 3026
2700 3360
27020 1364
27040 22763
27050 1334
2710 152
27200 27
2720 91
27220 204
27300 130
27330 825
27400 1604
27600 1169
2760 4649
27800 1444
2780 328
27810 619
27900 1085
2790 129
27920 493
27940 1578
28000 4425
2800 3648
280 27724
28050 36563
2810 5575
2820 6181
2840 2193
2850 2142
2900 341
2910 341
29110 22763
29120 1224
29130 1276
29140 22763
29150 22763
29160 990
29180 9797
2920 341
2930 237
29500 186
29520 19
29530 77
29550 123
29590 53
29640 677
29650 587
29660 538
29670 332
29680 228
29690 72
29720 3212
29800 406
29900 215
2990 3773
30000 3
3000 284
300 89003
3010 329
3020 337
3030 10
3040 5
3050 54
30 99435
31100 3551
31110 3391
31120 3391
31130 3391
31170 2761
31180 2761
31190 2761
31200 2761
31210 2761
31220 5169
31230 5169
31240 5169
31250 5169
31260 5169
31270 5592
31280 11262
31290 5339
31300 46
3130 3030
31400 1
31410 4957
31500 22763
3150 1221
3160 1297
31700 1954
3170 5088
31740 22763
31800 40
31810 38
31820 54
31830 112
31840 36
31850 85
31860 51
31870 42
31880 38
31890 37
31900 43
31910 72
31920 49
31930 47
31980 71
32000 1244
3200 1625
320 146453
32110 1301
32120 1238
32130 68
32140 217
32150 251
32160 425
32200 1824
3220 1398
3230 213
32310 1318
32330 129
32340 1455
32350 2003
32360 7161
32370 21811
32380 5552
32390 5324
32400 5415
32410 482
32420 1470
32430 4499
32440 1032
32450 128
32460 5505
32470 5018
32500 3482
32510 337
3260 1441
32610 110
32620 1260
32630 1294
32640 117
32650 102
32660 92
32670 186
32680 141
32690 123
32700 101
3270 3198
32710 1275
32720 1274
32730 1298
32740 1280
32750 177
32760 1357
32770 37
32800 3774
32900 139
3300 1676
33100 1906
3310 1496
33110 1710
33120 2135
33130 2624
33180 2641
3320 1757
33210 571
33220 8027
33230 12926
33250 465
33260 88
33270 36
33280 328
3330 1668
33320 3842
33340 372
33350 230
33390 130
3340 1451
33420 1241
33440 2525
33460 9723
33500 50
3350 1543
33510 42
33520 1481
33530 1481
33540 141
33550 128
33570 1062
33580 770
33600 1705
3360 1443
33610 1688
33620 162
33650 156
33660 115
33670 1165
33680 523
33700 1162
3370 1501
33710 1161
33720 14
33730 306
33740 152
33750 202
33760 11
33770 227
33780 93
33790 17
3380 1458
33900 20792
3390 1480
33910 26226
33930 46749
33950 33
33970 22768
33980 218
33990 151
34000 2178
3400 1445
34010 4809
340 173817
34030 15387
3410 1648
34180 192
34190 1217
3420 1439
34220 2447
34250 8
34270 5601
3430 1451
34330 26597
3440 1448
34410 1754
34420 483
34440 10457
34450 8358
34460 8534
34470 8154
34500 1272
3450 1467
34600 1310
3460 1442
34630 1187
34640 1189
34650 43
34670 1138
3470 452
34800 77
3480 3981
34810 210
34820 426
34830 7008
3483 22763
34860 109
34870 2670
34900 2265
3490 289
34920 516
34930 22763
35000 1711
3500 1426
35010 1829
35030 110
35070 1042
3510 287
35130 6940
35140 16243
3520 277
35300 46
3530 262
35310 99
35320 118
3540 1728
35420 48964
35450 19654
35460 4161
35470 6
35480 3167
35500 780
35510 425
35600 325
3560 316
35700 17893
3570 248
35720 19249
35800 670
3580 244
3590 16967
36000 1089
3600 290
360 39462
36100 59
3610 138
36110 59
36120 59
36130 33
36140 33
36150 36
36160 36
36170 36
36180 45
36190 45
36200 45
3620 393
36210 69
36240 27
36270 28
36280 28
36290 28
36300 35
3630 264
36310 45
36320 28
36340 3
36350 3
36360 3
36370 3
3650 33
36620 22764
36630 22764
36700 944
36900 42
36910 45
37000 2100
3700 4161
37010 114
37030 587
37100 1474
3710 355
37200 162
3720 2754
37210 89
37220 106
37230 88
37240 135
37250 114
37260 122
37270 89
37280 96
37290 73
37300 94
3730 2316
37310 77
37320 89
37330 67
37340 65
37350 74
37360 67
37370 54
37380 81
37390 66
37400 4219
37420 4219
37500 235
37600 2561
37700 1378
37800 762
37900 1203
37910 1203
37920 1210
37930 1210
37940 1210
37950 1210
37960 1217
37970 1217
37980 1217
37990 1217
38000 1237
3800 1314
38010 1237
38020 1237
38030 1181
38040 1181
38050 1223
38060 1310
38070 1186
380 71406
38080 97
38090 91
38100 90
3810 1232
38110 110
38120 85
38130 98
38140 80
38150 78
38160 69
38170 42
38180 34
38190 37
38200 31
3820 1262
38210 125
38220 1475
38230 358
38240 50
3830 20620
38400 5855
38410 5830
38420 5493
38430 1243
38440 1335
38450 157
38460 158
38480 204
38490 204
38530 123
38600 2536
38700 5367
38720 3520
38740 4678
38800 48
38810 8
38820 38
38830 22877
38900 1218
39000 22763
3900 10457
3910 4186
39110 727
39120 5558
39140 2154
39160 6427
39190 3645
39200 3677
3920 2296
39250 796
39260 338
39300 29
39310 27
39320 27
39330 29
39350 27
39360 29
39370 29
39380 27
39500 3666
39510 2323
39530 2941
39540 1431
39550 1797
39560 2821
39600 30
3960 777
39610 27
39620 33
39630 365
39640 350
39650 1417
39660 1158
39670 332
39680 1265
39690 2120
3970 1234
39710 39
39800 4885
3980 845
39900 65
3990 8358
40000 491
4000 71441
400 114822
40100 12005
4010 281
40120 1
40200 1179
40210 36
40300 3742
40320 70
40330 101
40340 82
40350 170
40370 156
40380 175
40390 5827
40400 2693
40420 1063
40500 306
40700 12935
40720 6189
40800 27367
40920 614
40930 3219
40950 4745
40960 3345
40970 3347
40980 3345
40 98097
40990 2189
41000 10988
4100 1205
41010 31619
41050 6724
41060 6722
41070 11850
41100 10021
41210 5250
41300 3971
41400 1210
41500 28084
41600 204
41610 18
41660 64
41680 53
41700 10092
41730 657
41740 830
41760 22763
41800 11248
41900 1339
42000 113
420 66831
42120 4741
42140 741
42160 27461
42170 2739
42179 3
42190 22766
42200 43
42210 75
42220 46
42230 81
4230 2103
42500 3201
42640 2025
42650 3237
42660 24
42670 1269
42680 43647
42690 43647
42700 44973
42710 44973
42730 225
42800 1560
42810 308
42820 1536
42830 76
42850 422
42870 238
42890 1320
4290 1630
42910 52169
42920 733
42930 597
42940 598
42950 598
42960 2067
42980 843
42990 1667
43000 1929
4300 531
43100 957
43110 58737
43160 4817
43190 780
4320 239
43500 421
43600 50
44000 47
4400 59
440 118531
44100 879
4410 68
44200 1584
4420 348
44310 1045
44320 7823
44340 1490
44350 1705
44360 827
44600 135
4460 298
44620 543
44630 2736
44650 573
44660 564
44670 474
44680 353
44690 358
4470 296
45000 4207
4500 14603
45100 1244
4520 1980
45300 3023
4530 1946
45400 1125
4540 25758
45410 146
45450 871
45500 80
4550 15041
4560 41525
45700 2443
4570 18566
45710 107
45720 250
45730 204
45740 3803
45750 960
45760 3195
45770 1382
4580 9253
45900 127
46000 1207
4600 138
46200 1349
46210 1255
46220 1268
46230 1349
46250 700
46260 1739
46270 434
46280 1531
46290 535
46320 1746
46330 1590
46340 792
46350 260
46360 465
46370 606
46380 610
46400 2354
46410 794
46420 1903
46430 1920
46440 1999
46450 2242
46460 963
46480 742
46490 718
46500 1361
46510 1276
46520 938
46540 1866
46550 528
46560 664
46570 1161
46600 436
46700 549
46710 570
46720 167
46730 271
46740 276
46750 639
46760 537
46770 92
46790 285
46830 536
46840 517
46850 333
47000 209
4700 11105
47110 1182
47120 1181
47130 1180
4720 434
4730 311
47400 4858
47410 22764
47500 61
47520 32
47540 2112
47570 34
4760 13631
47700 4099
4770 6637
47730 1823
47780 11858
47790 10824
47800 752
4780 8156
47810 8245
47830 10824
47850 125
47870 6108
47890 6865
47900 2918
4790 26
47920 1206
48000 27531
4800 186
480 22763
48110 654
48120 999
48150 25
48160 702
48180 1286
48190 9751
48210 1142
48220 5584
48240 7925
48260 3
4830 364
4850 782
48700 18681
4870 363
48720 12384
48800 810
4880 379
48900 1094
4890 494
48950 3376
49000 95
4900 1264
4920 14688
49300 773
49320 537
49330 657
49400 3703
49470 7614
49520 51132
49539 2
49540 2862
49600 9089
49700 211
49800 1104
49810 245
49900 3227
50000 1089
500 58568
50120 607
50130 12814
50300 7714
50310 191
50400 100
50510 2715
50620 35930
50 62297
50640 348
50650 15404
50800 34
50820 1974
50900 11
50910 12
50920 14
50930 10
50940 15
50950 17
50960 19
50970 15
50980 14
50990 19
51000 28
51010 26
51020 10
51030 9
51040 12
51060 86
52003 3
520 44974
55000 2101
550 127006
55020 554
55040 8545
55050 22763
55100 12225
55110 27912
55130 22763
55140 5311
55150 16961
55180 2
55190 23
55210 2
55230 50004
55370 22763
56400 24311
57000 670
570 223004
57200 2485
57210 22763
57300 31181
57400 11977
57500 665
57510 597
57600 3820
57610 22763
57620 1441
57640 2270
57650 2575
57680 568
57690 9130
57700 317
57730 921
57740 1661
57800 1659
57900 9096
57970 527
58200 3142
58230 383
58300 485
58400 1862
58510 1726
58520 4034
58540 2528
58550 1890
58560 656
58570 752
58610 4601
6000 4542
6010 1666
6020 7386
6030 6213
60340 162
60350 197
6040 1550
60600 340
6060 13675
60610 22763
60700 151
60800 1809
6080 96
6090 249
60 98017
61000 479
6100 4047
61010 980
61100 918
6120 8598
61220 164
61230 27
61310 2133
61500 379
61510 391
61520 479
61530 292
61600 2970
61700 1795
61730 278
61800 22763
61810 22763
61820 22763
61830 22763
62000 1679
6200 2699
620 87182
62100 1928
6210 1740
6220 2225
6250 1779
6270 1461
6290 1332
63000 3718
6300 3329
630 22763
6310 4145
63110 1303
63200 5357
63230 1
6330 309
63380 6417
6340 182
63500 4481
6350 75
63510 1
63600 1091
6360 63
63610 964
63620 649
63630 649
63640 649
63650 704
63660 972
63700 6872
6370 22763
63710 13436
63800 2574
63900 637
63910 2861
63930 3
63940 1252
63950 1173
63960 276
64000 2808
6400 1274
6420 681
644 87182
65080 276
65100 157
6510 2941
65200 70
6520 2
65260 27
65270 189
65300 5247
65400 160
65500 235
6550 1131
65530 940
65540 1747
65560 1873
65600 1571
65610 1060
65700 4494
6570 59
65710 59
65720 4512
65730 433
65740 550
65770 1
65780 713
65790 1373
65800 35764
6580 22763
6590 22763
65930 262
65950 656
6600 1961
67000 2976
67370 4421
6800 2907
6810 2846
6820 121
6830 3305
6840 3162
6850 9538
6860 13238
6870 1293
6880 4388
6900 9081
6910 13005
6920 9660
6980 7830
70000 2568
7000 5004
70100 2760
7010 1163
70110 2471
70120 1687
70200 70
7020 1159
70210 118
70300 11732
70400 6347
70420 2309
70500 460
70600 2003
7060 1175
70620 1110
70630 3
70640 832
70650 661
70660 648
70 68797
70900 1648
71000 1892
7110 3081
71230 832
71240 602
71250 2154
71260 649
71270 4373
71300 10
71310 10
71320 88
71340 5585
71390 481
71420 165
72000 7302
7200 1512
7203 3
7210 1992
72200 12322
7220 1869
72300 1072
72400 184
7240 3
72500 235
7250 40
7260 1375
72850 68431
72900 301
72910 22763
73010 2329
73020 1151
73060 592
730 70354
73170 539
73190 350
73210 363
73220 251
73230 2201
7340 19
7400 23
7420 38
742 1
7440 5
7450 32
7470 60
7500 2001
7510 647
7520 4350
7530 602
7600 1201
7610 1161
761 22763
7620 1592
7650 4098
765 22763
7660 4047
7670 26297
7730 3775
7740 819
7760 5154
7770 3765
7780 827
78000 1185
7800 466
7810 73
7830 4128
7840 1611
7850 2388
7860 899
7870 223
7880 223
7900 187
7910 114
7940 11338
7970 171
7980 106
7990 67
80000 557
8000 5474
8010 26
80 106855
80200 1430
80300 485
80310 2059
80330 728
80340 700
80350 697
80360 619
8040 72
8060 91
8080 2125
8100 1157
8140 5917
8160 1060
8170 1519
8190 33581
8200 1982
8210 1950
8220 1952
8230 24594
8240 1908
8250 1906
8260 1847
8270 1827
8280 1839
8290 1833
8300 1831
8310 299
8320 297
8330 284
8340 864
8350 864
8360 864
8370 878
8380 864
8400 3584
8500 3852
852 1
8600 3733
8620 1212
8640 645
8650 306
8660 1236
8690 768
8740 7
8790 250
8800 8534
8840 162
8850 19231
8870 19640
8880 3225
8890 2813
8930 55345
8955 4
8970 421
8980 41198
9000 4132
90100 312
9010 3312
90200 1014
9030 5325
90400 169
9040 5326
90500 802
9050 5832
90530 22763
9060 4116
9070 5161
90800 120
91100 1098
91200 7469
91310 34969
91330 895
91600 20166
9160 5963
91700 8124
91800 334
9180 4502
91810 272
91830 22763
91900 2081
92000 3431
9200 14232
92100 346
92200 677
92210 702
92220 723
92 22763
92230 22763
92250 22763
9 22763
92300 1979
92400 142
92500 22763
92600 1123
92700 401
92800 6255
92900 291
9310 9170
93200 8252
9340 37498
9350 7401
94000 484
9400 1930
94200 12375
9420 7734
94300 361
94304 23
94500 5339
9450 8751
94510 5339
94520 5339
94530 5339
94590 3954
94600 3609
9460 3845
94610 3463
94620 3463
9480 16629
95000 27
9500 7288
95300 7615
95500 2069
95700 22781
95900 756
96000 1241
96100 289
96200 7266
96300 2620
96400 2043
96800 6481
96900 439
97000 6366
97100 4640
9710 56
97110 276
97120 280
97130 379
9730 77
97330 8593
9740 874
9760 151
9800 1571
98100 4523
98200 10658
98300 2947
98400 2839
98500 271
9850 60
98510 346
98600 1755
9860 2490
9870 1784
98800 8340
9880 23667
98810 3
98900 372
9900 24220
99100 1241
99120 71
99200 215
99300 2927
9930 3885
99400 1706
9940 310
99410 164
9960 85
99700 10018
9970 109
9980 159
99810 3581
99830 2241
99870 22763
99890 1790
99900 22763
9990 212
99910 22763
99920 22763
