{
	"response": {
		"players": [
			{
				"steamid": "76561197960330215",
				"communityvisibilitystate": 3,
				"profilestate": 1,
				"personaname": "schOrsch",
				"lastlogoff": 1346460762,
				"profileurl": "http://steamcommunity.com/profiles/76561197960330215/",
				"avatar": "http://media.steampowered.com/steamcommunity/public/images/avatars/fb/fb70c8d700f2f46a1333fc8afef0b32f8c58d09d.jpg",
				"avatarmedium": "http://media.steampowered.com/steamcommunity/public/images/avatars/fb/fb70c8d700f2f46a1333fc8afef0b32f8c58d09d_medium.jpg",
				"avatarfull": "http://media.steampowered.com/steamcommunity/public/images/avatars/fb/fb70c8d700f2f46a1333fc8afef0b32f8c58d09d_full.jpg",
				"personastate": 0,
				"primaryclanid": "103582791429521408",
				"timecreated": 1063370312
			},
			{
				"steamid": "76561197960330161",
				"communityvisibilitystate": 1,
				"personaname": "gilles.pubellier",
				"profileurl": "http://steamcommunity.com/profiles/76561197960330161/",
				"avatar": "http://media.steampowered.com/steamcommunity/public/images/avatars/fe/fef49e7fa7e1997310d705b2a6158ff8dc1cdfeb.jpg",
				"avatarmedium": "http://media.steampowered.com/steamcommunity/public/images/avatars/fe/fef49e7fa7e1997310d705b2a6158ff8dc1cdfeb_medium.jpg",
				"avatarfull": "http://media.steampowered.com/steamcommunity/public/images/avatars/fe/fef49e7fa7e1997310d705b2a6158ff8dc1cdfeb_full.jpg",
				"personastate": 0
			},
			{
				"steamid": "76561197960330279",
				"communityvisibilitystate": 3,
				"profilestate": 1,
				"personaname": "hobe",
				"lastlogoff": 1360961587,
				"commentpermission": 1,
				"profileurl": "http://steamcommunity.com/profiles/76561197960330279/",
				"avatar": "http://media.steampowered.com/steamcommunity/public/images/avatars/35/35d1644de788e30b46959368562becb6682f140c.jpg",
				"avatarmedium": "http://media.steampowered.com/steamcommunity/public/images/avatars/35/35d1644de788e30b46959368562becb6682f140c_medium.jpg",
				"avatarfull": "http://media.steampowered.com/steamcommunity/public/images/avatars/35/35d1644de788e30b46959368562becb6682f140c_full.jpg",
				"personastate": 1,
				"primaryclanid": "103582791433848197",
				"timecreated": 1063370331,
				"loccountrycode": "FI"
			},
			{
				"steamid": "76561197960330155",
				"communityvisibilitystate": 3,
				"profilestate": 1,
				"personaname": "SnakeDoc",
				"lastlogoff": 1360829861,
				"profileurl": "http://steamcommunity.com/id/snakedoc06/",
				"avatar": "http://media.steampowered.com/steamcommunity/public/images/avatars/cd/cd89d2e86584e24db28987c3d093e77efdd0165b.jpg",
				"avatarmedium": "http://media.steampowered.com/steamcommunity/public/images/avatars/cd/cd89d2e86584e24db28987c3d093e77efdd0165b_medium.jpg",
				"avatarfull": "http://media.steampowered.com/steamcommunity/public/images/avatars/cd/cd89d2e86584e24db28987c3d093e77efdd0165b_full.jpg",
				"personastate": 4,
				"primaryclanid": "103582791430276347",
				"timecreated": 1063370298,
				"loccountrycode": "US",
				"locstatecode": "FL",
				"loccityid": 854
			},
			{
				"steamid": "76561197960330273",
				"communityvisibilitystate": 3,
				"profilestate": 1,
				"personaname": "seraxje",
				"lastlogoff": 1360881162,
				"profileurl": "http://steamcommunity.com/id/seraxje/",
				"avatar": "http://media.steampowered.com/steamcommunity/public/images/avatars/fe/fef49e7fa7e1997310d705b2a6158ff8dc1cdfeb.jpg",
				"avatarmedium": "http://media.steampowered.com/steamcommunity/public/images/avatars/fe/fef49e7fa7e1997310d705b2a6158ff8dc1cdfeb_medium.jpg",
				"avatarfull": "http://media.steampowered.com/steamcommunity/public/images/avatars/fe/fef49e7fa7e1997310d705b2a6158ff8dc1cdfeb_full.jpg",
				"personastate": 1,
				"primaryclanid": "103582791429631726",
				"timecreated": 1063370329,
				"gameserverip": "146.66.153.163:27036",
				"gameextrainfo": "Counter-Strike: Global Offensive",
				"gameid": "730",
				"gameserversteamid": "90086066304194562"
			},
			{
				"steamid": "76561197960330195",
				"communityvisibilitystate": 3,
				"profilestate": 1,
				"personaname": "wjcking",
				"lastlogoff": 1190717189,
				"profileurl": "http://steamcommunity.com/profiles/76561197960330195/",
				"avatar": "http://media.steampowered.com/steamcommunity/public/images/avatars/fe/fef49e7fa7e1997310d705b2a6158ff8dc1cdfeb.jpg",
				"avatarmedium": "http://media.steampowered.com/steamcommunity/public/images/avatars/fe/fef49e7fa7e1997310d705b2a6158ff8dc1cdfeb_medium.jpg",
				"avatarfull": "http://media.steampowered.com/steamcommunity/public/images/avatars/fe/fef49e7fa7e1997310d705b2a6158ff8dc1cdfeb_full.jpg",
				"personastate": 0,
				"primaryclanid": "103582791429521408",
				"timecreated": 1063370307
			},
			{
				"steamid": "76561197960330313",
				"communityvisibilitystate": 1,
				"personaname": "muschko",
				"profileurl": "http://steamcommunity.com/profiles/76561197960330313/",
				"avatar": "http://media.steampowered.com/steamcommunity/public/images/avatars/fe/fef49e7fa7e1997310d705b2a6158ff8dc1cdfeb.jpg",
				"avatarmedium": "http://media.steampowered.com/steamcommunity/public/images/avatars/fe/fef49e7fa7e1997310d705b2a6158ff8dc1cdfeb_medium.jpg",
				"avatarfull": "http://media.steampowered.com/steamcommunity/public/images/avatars/fe/fef49e7fa7e1997310d705b2a6158ff8dc1cdfeb_full.jpg",
				"personastate": 0
			},
			{
				"steamid": "76561197960330159",
				"communityvisibilitystate": 3,
				"profilestate": 1,
				"personaname": "Faut",
				"lastlogoff": 1357415992,
				"profileurl": "http://steamcommunity.com/profiles/76561197960330159/",
				"avatar": "http://media.steampowered.com/steamcommunity/public/images/avatars/33/33eb89db579f6d8df389dac6a38ba077afdcb13c.jpg",
				"avatarmedium": "http://media.steampowered.com/steamcommunity/public/images/avatars/33/33eb89db579f6d8df389dac6a38ba077afdcb13c_medium.jpg",
				"avatarfull": "http://media.steampowered.com/steamcommunity/public/images/avatars/33/33eb89db579f6d8df389dac6a38ba077afdcb13c_full.jpg",
				"personastate": 0,
				"primaryclanid": "103582791429687645",
				"timecreated": 1063370299
			},
			{
				"steamid": "76561197960330277",
				"communityvisibilitystate": 3,
				"profilestate": 1,
				"personaname": "Astinoss",
				"lastlogoff": 1360491209,
				"profileurl": "http://steamcommunity.com/profiles/76561197960330277/",
				"avatar": "http://media.steampowered.com/steamcommunity/public/images/avatars/fe/fef49e7fa7e1997310d705b2a6158ff8dc1cdfeb.jpg",
				"avatarmedium": "http://media.steampowered.com/steamcommunity/public/images/avatars/fe/fef49e7fa7e1997310d705b2a6158ff8dc1cdfeb_medium.jpg",
				"avatarfull": "http://media.steampowered.com/steamcommunity/public/images/avatars/fe/fef49e7fa7e1997310d705b2a6158ff8dc1cdfeb_full.jpg",
				"personastate": 0,
				"primaryclanid": "103582791429521408",
				"timecreated": 1063370330
			},
			{
				"steamid": "76561197960330223",
				"communityvisibilitystate": 1,
				"profilestate": 1,
				"personaname": "Iceface",
				"lastlogoff": 1360799611,
				"profileurl": "http://steamcommunity.com/id/iceface/",
				"avatar": "http://media.steampowered.com/steamcommunity/public/images/avatars/77/77a5cb6fc44f848ae0196c7d079082a585622650.jpg",
				"avatarmedium": "http://media.steampowered.com/steamcommunity/public/images/avatars/77/77a5cb6fc44f848ae0196c7d079082a585622650_medium.jpg",
				"avatarfull": "http://media.steampowered.com/steamcommunity/public/images/avatars/77/77a5cb6fc44f848ae0196c7d079082a585622650_full.jpg",
				"personastate": 0
			},
			{
				"steamid": "76561197960330157",
				"communityvisibilitystate": 1,
				"personaname": "absolutejack",
				"profileurl": "http://steamcommunity.com/profiles/76561197960330157/",
				"avatar": "http://media.steampowered.com/steamcommunity/public/images/avatars/fe/fef49e7fa7e1997310d705b2a6158ff8dc1cdfeb.jpg",
				"avatarmedium": "http://media.steampowered.com/steamcommunity/public/images/avatars/fe/fef49e7fa7e1997310d705b2a6158ff8dc1cdfeb_medium.jpg",
				"avatarfull": "http://media.steampowered.com/steamcommunity/public/images/avatars/fe/fef49e7fa7e1997310d705b2a6158ff8dc1cdfeb_full.jpg",
				"personastate": 0
			},
			{
				"steamid": "76561197960330275",
				"communityvisibilitystate": 3,
				"profilestate": 1,
				"personaname": "thorray",
				"lastlogoff": 1321132821,
				"profileurl": "http://steamcommunity.com/profiles/76561197960330275/",
				"avatar": "http://media.steampowered.com/steamcommunity/public/images/avatars/e7/e7ecf0380fedadbb1a16afac1bddbfed5f5b149e.jpg",
				"avatarmedium": "http://media.steampowered.com/steamcommunity/public/images/avatars/e7/e7ecf0380fedadbb1a16afac1bddbfed5f5b149e_medium.jpg",
				"avatarfull": "http://media.steampowered.com/steamcommunity/public/images/avatars/e7/e7ecf0380fedadbb1a16afac1bddbfed5f5b149e_full.jpg",
				"personastate": 0,
				"primaryclanid": "103582791429521408",
				"timecreated": 1063370330,
				"loccountrycode": "DE",
				"locstatecode": "10",
				"loccityid": 13151
			},
			{
				"steamid": "76561197960330165",
				"communityvisibilitystate": 1,
				"personaname": "hitdude",
				"profileurl": "http://steamcommunity.com/profiles/76561197960330165/",
				"avatar": "http://media.steampowered.com/steamcommunity/public/images/avatars/fe/fef49e7fa7e1997310d705b2a6158ff8dc1cdfeb.jpg",
				"avatarmedium": "http://media.steampowered.com/steamcommunity/public/images/avatars/fe/fef49e7fa7e1997310d705b2a6158ff8dc1cdfeb_medium.jpg",
				"avatarfull": "http://media.steampowered.com/steamcommunity/public/images/avatars/fe/fef49e7fa7e1997310d705b2a6158ff8dc1cdfeb_full.jpg",
				"personastate": 0
			},
			{
				"steamid": "76561197960330283",
				"communityvisibilitystate": 3,
				"profilestate": 1,
				"personaname": "Gunni",
				"lastlogoff": 1360695197,
				"profileurl": "http://steamcommunity.com/profiles/76561197960330283/",
				"avatar": "http://media.steampowered.com/steamcommunity/public/images/avatars/e5/e55f56e0228b01a4c16ffd1b33152b4197c83c4d.jpg",
				"avatarmedium": "http://media.steampowered.com/steamcommunity/public/images/avatars/e5/e55f56e0228b01a4c16ffd1b33152b4197c83c4d_medium.jpg",
				"avatarfull": "http://media.steampowered.com/steamcommunity/public/images/avatars/e5/e55f56e0228b01a4c16ffd1b33152b4197c83c4d_full.jpg",
				"personastate": 0,
				"primaryclanid": "103582791429521408",
				"timecreated": 1063370332
			},
			{
				"steamid": "76561197960330133",
				"communityvisibilitystate": 1,
				"personaname": "ana_konda1",
				"profileurl": "http://steamcommunity.com/profiles/76561197960330133/",
				"avatar": "http://media.steampowered.com/steamcommunity/public/images/avatars/fe/fef49e7fa7e1997310d705b2a6158ff8dc1cdfeb.jpg",
				"avatarmedium": "http://media.steampowered.com/steamcommunity/public/images/avatars/fe/fef49e7fa7e1997310d705b2a6158ff8dc1cdfeb_medium.jpg",
				"avatarfull": "http://media.steampowered.com/steamcommunity/public/images/avatars/fe/fef49e7fa7e1997310d705b2a6158ff8dc1cdfeb_full.jpg",
				"personastate": 0
			},
			{
				"steamid": "76561197960330251",
				"communityvisibilitystate": 1,
				"personaname": "martin.tafovski",
				"profileurl": "http://steamcommunity.com/profiles/76561197960330251/",
				"avatar": "http://media.steampowered.com/steamcommunity/public/images/avatars/fe/fef49e7fa7e1997310d705b2a6158ff8dc1cdfeb.jpg",
				"avatarmedium": "http://media.steampowered.com/steamcommunity/public/images/avatars/fe/fef49e7fa7e1997310d705b2a6158ff8dc1cdfeb_medium.jpg",
				"avatarfull": "http://media.steampowered.com/steamcommunity/public/images/avatars/fe/fef49e7fa7e1997310d705b2a6158ff8dc1cdfeb_full.jpg",
				"personastate": 0
			},
			{
				"steamid": "76561197960330233",
				"communityvisibilitystate": 1,
				"personaname": "m10228",
				"profileurl": "http://steamcommunity.com/profiles/76561197960330233/",
				"avatar": "http://media.steampowered.com/steamcommunity/public/images/avatars/fe/fef49e7fa7e1997310d705b2a6158ff8dc1cdfeb.jpg",
				"avatarmedium": "http://media.steampowered.com/steamcommunity/public/images/avatars/fe/fef49e7fa7e1997310d705b2a6158ff8dc1cdfeb_medium.jpg",
				"avatarfull": "http://media.steampowered.com/steamcommunity/public/images/avatars/fe/fef49e7fa7e1997310d705b2a6158ff8dc1cdfeb_full.jpg",
				"personastate": 0
			},
			{
				"steamid": "76561197960330205",
				"communityvisibilitystate": 1,
				"personaname": "soundhill",
				"profileurl": "http://steamcommunity.com/profiles/76561197960330205/",
				"avatar": "http://media.steampowered.com/steamcommunity/public/images/avatars/fe/fef49e7fa7e1997310d705b2a6158ff8dc1cdfeb.jpg",
				"avatarmedium": "http://media.steampowered.com/steamcommunity/public/images/avatars/fe/fef49e7fa7e1997310d705b2a6158ff8dc1cdfeb_medium.jpg",
				"avatarfull": "http://media.steampowered.com/steamcommunity/public/images/avatars/fe/fef49e7fa7e1997310d705b2a6158ff8dc1cdfeb_full.jpg",
				"personastate": 0
			},
			{
				"steamid": "76561197960330323",
				"communityvisibilitystate": 3,
				"personaname": "SmiLe",
				"lastlogoff": 1299513393,
				"profileurl": "http://steamcommunity.com/profiles/76561197960330323/",
				"avatar": "http://media.steampowered.com/steamcommunity/public/images/avatars/fe/fef49e7fa7e1997310d705b2a6158ff8dc1cdfeb.jpg",
				"avatarmedium": "http://media.steampowered.com/steamcommunity/public/images/avatars/fe/fef49e7fa7e1997310d705b2a6158ff8dc1cdfeb_medium.jpg",
				"avatarfull": "http://media.steampowered.com/steamcommunity/public/images/avatars/fe/fef49e7fa7e1997310d705b2a6158ff8dc1cdfeb_full.jpg",
				"personastate": 0,
				"primaryclanid": "103582791429521408",
				"timecreated": 1063370344
			},
			{
				"steamid": "76561197960330221",
				"communityvisibilitystate": 3,
				"personaname": "world",
				"lastlogoff": 1259714661,
				"profileurl": "http://steamcommunity.com/profiles/76561197960330221/",
				"avatar": "http://media.steampowered.com/steamcommunity/public/images/avatars/fe/fef49e7fa7e1997310d705b2a6158ff8dc1cdfeb.jpg",
				"avatarmedium": "http://media.steampowered.com/steamcommunity/public/images/avatars/fe/fef49e7fa7e1997310d705b2a6158ff8dc1cdfeb_medium.jpg",
				"avatarfull": "http://media.steampowered.com/steamcommunity/public/images/avatars/fe/fef49e7fa7e1997310d705b2a6158ff8dc1cdfeb_full.jpg",
				"personastate": 0,
				"primaryclanid": "103582791429521408",
				"timecreated": 1063370313
			},
			{
				"steamid": "76561197960330201",
				"communityvisibilitystate": 1,
				"personaname": "shivaemacs",
				"profileurl": "http://steamcommunity.com/profiles/76561197960330201/",
				"avatar": "http://media.steampowered.com/steamcommunity/public/images/avatars/fe/fef49e7fa7e1997310d705b2a6158ff8dc1cdfeb.jpg",
				"avatarmedium": "http://media.steampowered.com/steamcommunity/public/images/avatars/fe/fef49e7fa7e1997310d705b2a6158ff8dc1cdfeb_medium.jpg",
				"avatarfull": "http://media.steampowered.com/steamcommunity/public/images/avatars/fe/fef49e7fa7e1997310d705b2a6158ff8dc1cdfeb_full.jpg",
				"personastate": 0
			},
			{
				"steamid": "76561197960330319",
				"communityvisibilitystate": 3,
				"profilestate": 1,
				"personaname": "Malte15",
				"lastlogoff": 1339593672,
				"profileurl": "http://steamcommunity.com/profiles/76561197960330319/",
				"avatar": "http://media.steampowered.com/steamcommunity/public/images/avatars/ee/ee1efcd29023692aea34bdda3bd521d90661bf1e.jpg",
				"avatarmedium": "http://media.steampowered.com/steamcommunity/public/images/avatars/ee/ee1efcd29023692aea34bdda3bd521d90661bf1e_medium.jpg",
				"avatarfull": "http://media.steampowered.com/steamcommunity/public/images/avatars/ee/ee1efcd29023692aea34bdda3bd521d90661bf1e_full.jpg",
				"personastate": 0,
				"realname": "Malte Wagenführ",
				"primaryclanid": "103582791429521408",
				"timecreated": 1063370343
			},
			{
				"steamid": "76561197960330169",
				"communityvisibilitystate": 1,
				"personaname": "dsedberry2",
				"profileurl": "http://steamcommunity.com/profiles/76561197960330169/",
				"avatar": "http://media.steampowered.com/steamcommunity/public/images/avatars/fe/fef49e7fa7e1997310d705b2a6158ff8dc1cdfeb.jpg",
				"avatarmedium": "http://media.steampowered.com/steamcommunity/public/images/avatars/fe/fef49e7fa7e1997310d705b2a6158ff8dc1cdfeb_medium.jpg",
				"avatarfull": "http://media.steampowered.com/steamcommunity/public/images/avatars/fe/fef49e7fa7e1997310d705b2a6158ff8dc1cdfeb_full.jpg",
				"personastate": 0
			},
			{
				"steamid": "76561197960330287",
				"communityvisibilitystate": 3,
				"profilestate": 1,
				"personaname": "Damien",
				"lastlogoff": 1354309877,
				"profileurl": "http://steamcommunity.com/profiles/76561197960330287/",
				"avatar": "http://media.steampowered.com/steamcommunity/public/images/avatars/ec/ecd2c15c73cf0923370e272d3da447537be16e71.jpg",
				"avatarmedium": "http://media.steampowered.com/steamcommunity/public/images/avatars/ec/ecd2c15c73cf0923370e272d3da447537be16e71_medium.jpg",
				"avatarfull": "http://media.steampowered.com/steamcommunity/public/images/avatars/ec/ecd2c15c73cf0923370e272d3da447537be16e71_full.jpg",
				"personastate": 0,
				"primaryclanid": "103582791429521408",
				"timecreated": 1063370334
			},
			{
				"steamid": "76561197960330191",
				"communityvisibilitystate": 1,
				"personaname": "psiler",
				"profileurl": "http://steamcommunity.com/profiles/76561197960330191/",
				"avatar": "http://media.steampowered.com/steamcommunity/public/images/avatars/fe/fef49e7fa7e1997310d705b2a6158ff8dc1cdfeb.jpg",
				"avatarmedium": "http://media.steampowered.com/steamcommunity/public/images/avatars/fe/fef49e7fa7e1997310d705b2a6158ff8dc1cdfeb_medium.jpg",
				"avatarfull": "http://media.steampowered.com/steamcommunity/public/images/avatars/fe/fef49e7fa7e1997310d705b2a6158ff8dc1cdfeb_full.jpg",
				"personastate": 0
			},
			{
				"steamid": "76561197960330309",
				"communityvisibilitystate": 3,
				"personaname": "charlieyocum",
				"lastlogoff": 1251236389,
				"profileurl": "http://steamcommunity.com/profiles/76561197960330309/",
				"avatar": "http://media.steampowered.com/steamcommunity/public/images/avatars/fe/fef49e7fa7e1997310d705b2a6158ff8dc1cdfeb.jpg",
				"avatarmedium": "http://media.steampowered.com/steamcommunity/public/images/avatars/fe/fef49e7fa7e1997310d705b2a6158ff8dc1cdfeb_medium.jpg",
				"avatarfull": "http://media.steampowered.com/steamcommunity/public/images/avatars/fe/fef49e7fa7e1997310d705b2a6158ff8dc1cdfeb_full.jpg",
				"personastate": 0,
				"primaryclanid": "103582791429521408",
				"timecreated": 1063370339
			},
			{
				"steamid": "76561197960330179",
				"communityvisibilitystate": 3,
				"personaname": "info",
				"lastlogoff": 1350407509,
				"profileurl": "http://steamcommunity.com/profiles/76561197960330179/",
				"avatar": "http://media.steampowered.com/steamcommunity/public/images/avatars/fe/fef49e7fa7e1997310d705b2a6158ff8dc1cdfeb.jpg",
				"avatarmedium": "http://media.steampowered.com/steamcommunity/public/images/avatars/fe/fef49e7fa7e1997310d705b2a6158ff8dc1cdfeb_medium.jpg",
				"avatarfull": "http://media.steampowered.com/steamcommunity/public/images/avatars/fe/fef49e7fa7e1997310d705b2a6158ff8dc1cdfeb_full.jpg",
				"personastate": 0,
				"primaryclanid": "103582791429521408",
				"timecreated": 1063370302
			},
			{
				"steamid": "76561197960330297",
				"communityvisibilitystate": 3,
				"profilestate": 1,
				"personaname": "Ketchups",
				"lastlogoff": 1344789373,
				"profileurl": "http://steamcommunity.com/profiles/76561197960330297/",
				"avatar": "http://media.steampowered.com/steamcommunity/public/images/avatars/96/9635bce96d2e88bacf226106c56011b29a12e206.jpg",
				"avatarmedium": "http://media.steampowered.com/steamcommunity/public/images/avatars/96/9635bce96d2e88bacf226106c56011b29a12e206_medium.jpg",
				"avatarfull": "http://media.steampowered.com/steamcommunity/public/images/avatars/96/9635bce96d2e88bacf226106c56011b29a12e206_full.jpg",
				"personastate": 0,
				"primaryclanid": "103582791429521408",
				"timecreated": 1063370335
			},
			{
				"steamid": "76561197960330135",
				"communityvisibilitystate": 3,
				"profilestate": 1,
				"personaname": "Azo",
				"lastlogoff": 1252156322,
				"profileurl": "http://steamcommunity.com/profiles/76561197960330135/",
				"avatar": "http://media.steampowered.com/steamcommunity/public/images/avatars/fe/fef49e7fa7e1997310d705b2a6158ff8dc1cdfeb.jpg",
				"avatarmedium": "http://media.steampowered.com/steamcommunity/public/images/avatars/fe/fef49e7fa7e1997310d705b2a6158ff8dc1cdfeb_medium.jpg",
				"avatarfull": "http://media.steampowered.com/steamcommunity/public/images/avatars/fe/fef49e7fa7e1997310d705b2a6158ff8dc1cdfeb_full.jpg",
				"personastate": 0,
				"primaryclanid": "103582791429684265",
				"timecreated": 1063370294
			},
			{
				"steamid": "76561197960330253",
				"communityvisibilitystate": 3,
				"profilestate": 1,
				"personaname": "maraschino - [back 4th March]",
				"lastlogoff": 1360518677,
				"commentpermission": 1,
				"profileurl": "http://steamcommunity.com/id/maraschino/",
				"avatar": "http://media.steampowered.com/steamcommunity/public/images/avatars/d0/d075675742c7aed2eba87d249dfff091b5673bde.jpg",
				"avatarmedium": "http://media.steampowered.com/steamcommunity/public/images/avatars/d0/d075675742c7aed2eba87d249dfff091b5673bde_medium.jpg",
				"avatarfull": "http://media.steampowered.com/steamcommunity/public/images/avatars/d0/d075675742c7aed2eba87d249dfff091b5673bde_full.jpg",
				"personastate": 0,
				"realname": "mike",
				"primaryclanid": "103582791431468196",
				"timecreated": 1063370321,
				"loccountrycode": "GB"
			},
			{
				"steamid": "76561197960330185",
				"communityvisibilitystate": 3,
				"personaname": "jamupjam",
				"lastlogoff": 1352599517,
				"profileurl": "http://steamcommunity.com/profiles/76561197960330185/",
				"avatar": "http://media.steampowered.com/steamcommunity/public/images/avatars/fe/fef49e7fa7e1997310d705b2a6158ff8dc1cdfeb.jpg",
				"avatarmedium": "http://media.steampowered.com/steamcommunity/public/images/avatars/fe/fef49e7fa7e1997310d705b2a6158ff8dc1cdfeb_medium.jpg",
				"avatarfull": "http://media.steampowered.com/steamcommunity/public/images/avatars/fe/fef49e7fa7e1997310d705b2a6158ff8dc1cdfeb_full.jpg",
				"personastate": 0,
				"primaryclanid": "103582791429521408",
				"timecreated": 1063370305
			},
			{
				"steamid": "76561197960330303",
				"communityvisibilitystate": 1,
				"personaname": "andrea_caserini",
				"profileurl": "http://steamcommunity.com/profiles/76561197960330303/",
				"avatar": "http://media.steampowered.com/steamcommunity/public/images/avatars/fe/fef49e7fa7e1997310d705b2a6158ff8dc1cdfeb.jpg",
				"avatarmedium": "http://media.steampowered.com/steamcommunity/public/images/avatars/fe/fef49e7fa7e1997310d705b2a6158ff8dc1cdfeb_medium.jpg",
				"avatarfull": "http://media.steampowered.com/steamcommunity/public/images/avatars/fe/fef49e7fa7e1997310d705b2a6158ff8dc1cdfeb_full.jpg",
				"personastate": 0
			},
			{
				"steamid": "76561197960330209",
				"communityvisibilitystate": 1,
				"profilestate": 1,
				"personaname": "TheMystic",
				"lastlogoff": 1360792725,
				"commentpermission": 2,
				"profileurl": "http://steamcommunity.com/id/lakakakakakakaka/",
				"avatar": "http://media.steampowered.com/steamcommunity/public/images/avatars/31/3123148a2583b3d49ef292bcd412631bfde716fb.jpg",
				"avatarmedium": "http://media.steampowered.com/steamcommunity/public/images/avatars/31/3123148a2583b3d49ef292bcd412631bfde716fb_medium.jpg",
				"avatarfull": "http://media.steampowered.com/steamcommunity/public/images/avatars/31/3123148a2583b3d49ef292bcd412631bfde716fb_full.jpg",
				"personastate": 0
			},
			{
				"steamid": "76561197960330327",
				"communityvisibilitystate": 3,
				"personaname": "babek",
				"lastlogoff": 1248636052,
				"profileurl": "http://steamcommunity.com/profiles/76561197960330327/",
				"avatar": "http://media.steampowered.com/steamcommunity/public/images/avatars/fe/fef49e7fa7e1997310d705b2a6158ff8dc1cdfeb.jpg",
				"avatarmedium": "http://media.steampowered.com/steamcommunity/public/images/avatars/fe/fef49e7fa7e1997310d705b2a6158ff8dc1cdfeb_medium.jpg",
				"avatarfull": "http://media.steampowered.com/steamcommunity/public/images/avatars/fe/fef49e7fa7e1997310d705b2a6158ff8dc1cdfeb_full.jpg",
				"personastate": 0,
				"primaryclanid": "103582791429521408",
				"timecreated": 1063370345
			},
			{
				"steamid": "76561197960330129",
				"communityvisibilitystate": 1,
				"profilestate": 1,
				"personaname": "James Blonde",
				"lastlogoff": 1351225164,
				"profileurl": "http://steamcommunity.com/id/32200/",
				"avatar": "http://media.steampowered.com/steamcommunity/public/images/avatars/ec/ec0b25c6bc8e11be3ec0aff5e56a75e24239b0a8.jpg",
				"avatarmedium": "http://media.steampowered.com/steamcommunity/public/images/avatars/ec/ec0b25c6bc8e11be3ec0aff5e56a75e24239b0a8_medium.jpg",
				"avatarfull": "http://media.steampowered.com/steamcommunity/public/images/avatars/ec/ec0b25c6bc8e11be3ec0aff5e56a75e24239b0a8_full.jpg",
				"personastate": 0
			},
			{
				"steamid": "76561197960330247",
				"communityvisibilitystate": 3,
				"profilestate": 1,
				"personaname": "chenze",
				"lastlogoff": 1352412694,
				"profileurl": "http://steamcommunity.com/profiles/76561197960330247/",
				"avatar": "http://media.steampowered.com/steamcommunity/public/images/avatars/fe/fef49e7fa7e1997310d705b2a6158ff8dc1cdfeb.jpg",
				"avatarmedium": "http://media.steampowered.com/steamcommunity/public/images/avatars/fe/fef49e7fa7e1997310d705b2a6158ff8dc1cdfeb_medium.jpg",
				"avatarfull": "http://media.steampowered.com/steamcommunity/public/images/avatars/fe/fef49e7fa7e1997310d705b2a6158ff8dc1cdfeb_full.jpg",
				"personastate": 0,
				"primaryclanid": "103582791430041014",
				"timecreated": 1063370320
			},
			{
				"steamid": "76561197960330151",
				"communityvisibilitystate": 1,
				"profilestate": 1,
				"personaname": "moffel",
				"lastlogoff": 1360960855,
				"profileurl": "http://steamcommunity.com/profiles/76561197960330151/",
				"avatar": "http://media.steampowered.com/steamcommunity/public/images/avatars/37/37d3ee86f34024b63e8c40e869c62359cfaf90c4.jpg",
				"avatarmedium": "http://media.steampowered.com/steamcommunity/public/images/avatars/37/37d3ee86f34024b63e8c40e869c62359cfaf90c4_medium.jpg",
				"avatarfull": "http://media.steampowered.com/steamcommunity/public/images/avatars/37/37d3ee86f34024b63e8c40e869c62359cfaf90c4_full.jpg",
				"personastate": 0
			},
			{
				"steamid": "76561197960330269",
				"communityvisibilitystate": 3,
				"profilestate": 1,
				"personaname": "Jumping Cucumber",
				"lastlogoff": 1360877173,
				"profileurl": "http://steamcommunity.com/profiles/76561197960330269/",
				"avatar": "http://media.steampowered.com/steamcommunity/public/images/avatars/67/6726d42d0c8dda4552e616030ba59eda3a98096c.jpg",
				"avatarmedium": "http://media.steampowered.com/steamcommunity/public/images/avatars/67/6726d42d0c8dda4552e616030ba59eda3a98096c_medium.jpg",
				"avatarfull": "http://media.steampowered.com/steamcommunity/public/images/avatars/67/6726d42d0c8dda4552e616030ba59eda3a98096c_full.jpg",
				"personastate": 1,
				"realname": "Åsa",
				"primaryclanid": "103582791430186235",
				"timecreated": 1063370328,
				"loccountrycode": "SE",
				"locstatecode": "09",
				"loccityid": 43740
			},
			{
				"steamid": "76561197960330131",
				"communityvisibilitystate": 1,
				"personaname": "placey",
				"profileurl": "http://steamcommunity.com/profiles/76561197960330131/",
				"avatar": "http://media.steampowered.com/steamcommunity/public/images/avatars/fe/fef49e7fa7e1997310d705b2a6158ff8dc1cdfeb.jpg",
				"avatarmedium": "http://media.steampowered.com/steamcommunity/public/images/avatars/fe/fef49e7fa7e1997310d705b2a6158ff8dc1cdfeb_medium.jpg",
				"avatarfull": "http://media.steampowered.com/steamcommunity/public/images/avatars/fe/fef49e7fa7e1997310d705b2a6158ff8dc1cdfeb_full.jpg",
				"personastate": 0
			},
			{
				"steamid": "76561197960330249",
				"communityvisibilitystate": 3,
				"profilestate": 1,
				"personaname": "¥––h'۸ﻺ ––¥",
				"lastlogoff": 1359296885,
				"commentpermission": 1,
				"profileurl": "http://steamcommunity.com/id/hak06/",
				"avatar": "http://media.steampowered.com/steamcommunity/public/images/avatars/e4/e41451ab9c53a6f6c899bad407d4c79f75ac0453.jpg",
				"avatarmedium": "http://media.steampowered.com/steamcommunity/public/images/avatars/e4/e41451ab9c53a6f6c899bad407d4c79f75ac0453_medium.jpg",
				"avatarfull": "http://media.steampowered.com/steamcommunity/public/images/avatars/e4/e41451ab9c53a6f6c899bad407d4c79f75ac0453_full.jpg",
				"personastate": 0,
				"realname": "h' Ak - Miky - DougSmith",
				"primaryclanid": "103582791433486577",
				"timecreated": 1063370320,
				"loccountrycode": "FR",
				"locstatecode": "B8",
				"loccityid": 15709
			},
			{
				"steamid": "76561197960330207",
				"communityvisibilitystate": 3,
				"profilestate": 1,
				"personaname": "LdA // Hisapon",
				"lastlogoff": 1243323645,
				"profileurl": "http://steamcommunity.com/profiles/76561197960330207/",
				"avatar": "http://media.steampowered.com/steamcommunity/public/images/avatars/fe/fef49e7fa7e1997310d705b2a6158ff8dc1cdfeb.jpg",
				"avatarmedium": "http://media.steampowered.com/steamcommunity/public/images/avatars/fe/fef49e7fa7e1997310d705b2a6158ff8dc1cdfeb_medium.jpg",
				"avatarfull": "http://media.steampowered.com/steamcommunity/public/images/avatars/fe/fef49e7fa7e1997310d705b2a6158ff8dc1cdfeb_full.jpg",
				"personastate": 0,
				"primaryclanid": "103582791429521408",
				"timecreated": 1063370310,
				"loccountrycode": "JP"
			},
			{
				"steamid": "76561197960330325",
				"communityvisibilitystate": 3,
				"personaname": "itse me",
				"lastlogoff": 1274464394,
				"profileurl": "http://steamcommunity.com/profiles/76561197960330325/",
				"avatar": "http://media.steampowered.com/steamcommunity/public/images/avatars/fe/fef49e7fa7e1997310d705b2a6158ff8dc1cdfeb.jpg",
				"avatarmedium": "http://media.steampowered.com/steamcommunity/public/images/avatars/fe/fef49e7fa7e1997310d705b2a6158ff8dc1cdfeb_medium.jpg",
				"avatarfull": "http://media.steampowered.com/steamcommunity/public/images/avatars/fe/fef49e7fa7e1997310d705b2a6158ff8dc1cdfeb_full.jpg",
				"personastate": 0,
				"primaryclanid": "103582791429521408",
				"timecreated": 1063370345
			},
			{
				"steamid": "76561197960330153",
				"communityvisibilitystate": 3,
				"profilestate": 1,
				"personaname": "mR_vAiN [FUBAK]",
				"lastlogoff": 1349298142,
				"profileurl": "http://steamcommunity.com/profiles/76561197960330153/",
				"avatar": "http://media.steampowered.com/steamcommunity/public/images/avatars/fe/fef49e7fa7e1997310d705b2a6158ff8dc1cdfeb.jpg",
				"avatarmedium": "http://media.steampowered.com/steamcommunity/public/images/avatars/fe/fef49e7fa7e1997310d705b2a6158ff8dc1cdfeb_medium.jpg",
				"avatarfull": "http://media.steampowered.com/steamcommunity/public/images/avatars/fe/fef49e7fa7e1997310d705b2a6158ff8dc1cdfeb_full.jpg",
				"personastate": 0,
				"primaryclanid": "103582791429521408",
				"timecreated": 1063370297,
				"loccountrycode": "DE",
				"locstatecode": "03"
			},
			{
				"steamid": "76561197960330271",
				"communityvisibilitystate": 3,
				"personaname": "kakadu gibt gas",
				"lastlogoff": 1331741849,
				"profileurl": "http://steamcommunity.com/profiles/76561197960330271/",
				"avatar": "http://media.steampowered.com/steamcommunity/public/images/avatars/fe/fef49e7fa7e1997310d705b2a6158ff8dc1cdfeb.jpg",
				"avatarmedium": "http://media.steampowered.com/steamcommunity/public/images/avatars/fe/fef49e7fa7e1997310d705b2a6158ff8dc1cdfeb_medium.jpg",
				"avatarfull": "http://media.steampowered.com/steamcommunity/public/images/avatars/fe/fef49e7fa7e1997310d705b2a6158ff8dc1cdfeb_full.jpg",
				"personastate": 0,
				"primaryclanid": "103582791429521408",
				"timecreated": 1063370328
			},
			{
				"steamid": "76561197960330193",
				"communityvisibilitystate": 1,
				"personaname": "hulda123",
				"profileurl": "http://steamcommunity.com/profiles/76561197960330193/",
				"avatar": "http://media.steampowered.com/steamcommunity/public/images/avatars/fe/fef49e7fa7e1997310d705b2a6158ff8dc1cdfeb.jpg",
				"avatarmedium": "http://media.steampowered.com/steamcommunity/public/images/avatars/fe/fef49e7fa7e1997310d705b2a6158ff8dc1cdfeb_medium.jpg",
				"avatarfull": "http://media.steampowered.com/steamcommunity/public/images/avatars/fe/fef49e7fa7e1997310d705b2a6158ff8dc1cdfeb_full.jpg",
				"personastate": 0
			},
			{
				"steamid": "76561197960330311",
				"communityvisibilitystate": 1,
				"personaname": "staal89",
				"profileurl": "http://steamcommunity.com/profiles/76561197960330311/",
				"avatar": "http://media.steampowered.com/steamcommunity/public/images/avatars/fe/fef49e7fa7e1997310d705b2a6158ff8dc1cdfeb.jpg",
				"avatarmedium": "http://media.steampowered.com/steamcommunity/public/images/avatars/fe/fef49e7fa7e1997310d705b2a6158ff8dc1cdfeb_medium.jpg",
				"avatarfull": "http://media.steampowered.com/steamcommunity/public/images/avatars/fe/fef49e7fa7e1997310d705b2a6158ff8dc1cdfeb_full.jpg",
				"personastate": 0
			},
			{
				"steamid": "76561197960330227",
				"communityvisibilitystate": 3,
				"personaname": "dArK*Ange3L",
				"lastlogoff": 1162501057,
				"profileurl": "http://steamcommunity.com/profiles/76561197960330227/",
				"avatar": "http://media.steampowered.com/steamcommunity/public/images/avatars/fe/fef49e7fa7e1997310d705b2a6158ff8dc1cdfeb.jpg",
				"avatarmedium": "http://media.steampowered.com/steamcommunity/public/images/avatars/fe/fef49e7fa7e1997310d705b2a6158ff8dc1cdfeb_medium.jpg",
				"avatarfull": "http://media.steampowered.com/steamcommunity/public/images/avatars/fe/fef49e7fa7e1997310d705b2a6158ff8dc1cdfeb_full.jpg",
				"personastate": 0,
				"primaryclanid": "103582791429521408",
				"timecreated": 1063370316
			},
			{
				"steamid": "76561197960330183",
				"communityvisibilitystate": 1,
				"personaname": "jens.zetterstrom",
				"profileurl": "http://steamcommunity.com/profiles/76561197960330183/",
				"avatar": "http://media.steampowered.com/steamcommunity/public/images/avatars/fe/fef49e7fa7e1997310d705b2a6158ff8dc1cdfeb.jpg",
				"avatarmedium": "http://media.steampowered.com/steamcommunity/public/images/avatars/fe/fef49e7fa7e1997310d705b2a6158ff8dc1cdfeb_medium.jpg",
				"avatarfull": "http://media.steampowered.com/steamcommunity/public/images/avatars/fe/fef49e7fa7e1997310d705b2a6158ff8dc1cdfeb_full.jpg",
				"personastate": 0
			},
			{
				"steamid": "76561197960330301",
				"communityvisibilitystate": 3,
				"profilestate": 1,
				"personaname": "mOngo stYle",
				"lastlogoff": 1360872011,
				"profileurl": "http://steamcommunity.com/id/mongostyle/",
				"avatar": "http://media.steampowered.com/steamcommunity/public/images/avatars/ce/ceea189d6d2cd177228acec04cfc9b9ddf00010b.jpg",
				"avatarmedium": "http://media.steampowered.com/steamcommunity/public/images/avatars/ce/ceea189d6d2cd177228acec04cfc9b9ddf00010b_medium.jpg",
				"avatarfull": "http://media.steampowered.com/steamcommunity/public/images/avatars/ce/ceea189d6d2cd177228acec04cfc9b9ddf00010b_full.jpg",
				"personastate": 0,
				"realname": "Tobias Spiel",
				"primaryclanid": "103582791429534593",
				"timecreated": 1063370337,
				"loccountrycode": "DE",
				"locstatecode": "02",
				"loccityid": 13113
			},
			{
				"steamid": "76561197960330213",
				"communityvisibilitystate": 3,
				"profilestate": 1,
				"personaname": "shawn",
				"lastlogoff": 1329663756,
				"profileurl": "http://steamcommunity.com/id/zephyr_/",
				"avatar": "http://media.steampowered.com/steamcommunity/public/images/avatars/9c/9c0bbd59981639d2f8469b160fb2f89a02254dc3.jpg",
				"avatarmedium": "http://media.steampowered.com/steamcommunity/public/images/avatars/9c/9c0bbd59981639d2f8469b160fb2f89a02254dc3_medium.jpg",
				"avatarfull": "http://media.steampowered.com/steamcommunity/public/images/avatars/9c/9c0bbd59981639d2f8469b160fb2f89a02254dc3_full.jpg",
				"personastate": 0,
				"realname": "Shawn Zentner",
				"primaryclanid": "103582791429524891",
				"timecreated": 1063370312,
				"loccountrycode": "CA",
				"locstatecode": "NS",
				"loccityid": 4579
			},
			{
				"steamid": "76561197960330181",
				"communityvisibilitystate": 3,
				"profilestate": 1,
				"personaname": "TUGIS ?D?D?D?D?D?D?D",
				"lastlogoff": 1346249272,
				"profileurl": "http://steamcommunity.com/profiles/76561197960330181/",
				"avatar": "http://media.steampowered.com/steamcommunity/public/images/avatars/29/2996f7c3e4e8c00fd8e20041aaf10af8ff1a45e9.jpg",
				"avatarmedium": "http://media.steampowered.com/steamcommunity/public/images/avatars/29/2996f7c3e4e8c00fd8e20041aaf10af8ff1a45e9_medium.jpg",
				"avatarfull": "http://media.steampowered.com/steamcommunity/public/images/avatars/29/2996f7c3e4e8c00fd8e20041aaf10af8ff1a45e9_full.jpg",
				"personastate": 0,
				"primaryclanid": "103582791430734633",
				"timecreated": 1063370303
			},
			{
				"steamid": "76561197960330299",
				"communityvisibilitystate": 3,
				"profilestate": 1,
				"personaname": "Mati",
				"lastlogoff": 1342443304,
				"profileurl": "http://steamcommunity.com/profiles/76561197960330299/",
				"avatar": "http://media.steampowered.com/steamcommunity/public/images/avatars/27/2788ff44f9dddac6b766c6c3ae2364c27a878339.jpg",
				"avatarmedium": "http://media.steampowered.com/steamcommunity/public/images/avatars/27/2788ff44f9dddac6b766c6c3ae2364c27a878339_medium.jpg",
				"avatarfull": "http://media.steampowered.com/steamcommunity/public/images/avatars/27/2788ff44f9dddac6b766c6c3ae2364c27a878339_full.jpg",
				"personastate": 0,
				"primaryclanid": "103582791429524891",
				"timecreated": 1063370336
			},
			{
				"steamid": "76561197960330171",
				"communityvisibilitystate": 3,
				"profilestate": 1,
				"personaname": "chuckyboy81070",
				"lastlogoff": 1341430878,
				"profileurl": "http://steamcommunity.com/profiles/76561197960330171/",
				"avatar": "http://media.steampowered.com/steamcommunity/public/images/avatars/fe/fef49e7fa7e1997310d705b2a6158ff8dc1cdfeb.jpg",
				"avatarmedium": "http://media.steampowered.com/steamcommunity/public/images/avatars/fe/fef49e7fa7e1997310d705b2a6158ff8dc1cdfeb_medium.jpg",
				"avatarfull": "http://media.steampowered.com/steamcommunity/public/images/avatars/fe/fef49e7fa7e1997310d705b2a6158ff8dc1cdfeb_full.jpg",
				"personastate": 0,
				"primaryclanid": "103582791429521408",
				"timecreated": 1063370301,
				"loccountrycode": "US",
				"locstatecode": "TX",
				"loccityid": 3667
			},
			{
				"steamid": "76561197960330289",
				"communityvisibilitystate": 3,
				"personaname": "qvarnizZ",
				"lastlogoff": 1217528585,
				"profileurl": "http://steamcommunity.com/profiles/76561197960330289/",
				"avatar": "http://media.steampowered.com/steamcommunity/public/images/avatars/fe/fef49e7fa7e1997310d705b2a6158ff8dc1cdfeb.jpg",
				"avatarmedium": "http://media.steampowered.com/steamcommunity/public/images/avatars/fe/fef49e7fa7e1997310d705b2a6158ff8dc1cdfeb_medium.jpg",
				"avatarfull": "http://media.steampowered.com/steamcommunity/public/images/avatars/fe/fef49e7fa7e1997310d705b2a6158ff8dc1cdfeb_full.jpg",
				"personastate": 0,
				"primaryclanid": "103582791429521408",
				"timecreated": 1063370334
			},
			{
				"steamid": "76561197960330141",
				"communityvisibilitystate": 1,
				"personaname": "frankderryberry",
				"profileurl": "http://steamcommunity.com/profiles/76561197960330141/",
				"avatar": "http://media.steampowered.com/steamcommunity/public/images/avatars/fe/fef49e7fa7e1997310d705b2a6158ff8dc1cdfeb.jpg",
				"avatarmedium": "http://media.steampowered.com/steamcommunity/public/images/avatars/fe/fef49e7fa7e1997310d705b2a6158ff8dc1cdfeb_medium.jpg",
				"avatarfull": "http://media.steampowered.com/steamcommunity/public/images/avatars/fe/fef49e7fa7e1997310d705b2a6158ff8dc1cdfeb_full.jpg",
				"personastate": 0
			},
			{
				"steamid": "76561197960330259",
				"communityvisibilitystate": 3,
				"profilestate": 1,
				"personaname": "schart",
				"lastlogoff": 1330868271,
				"profileurl": "http://steamcommunity.com/profiles/76561197960330259/",
				"avatar": "http://media.steampowered.com/steamcommunity/public/images/avatars/fe/fef49e7fa7e1997310d705b2a6158ff8dc1cdfeb.jpg",
				"avatarmedium": "http://media.steampowered.com/steamcommunity/public/images/avatars/fe/fef49e7fa7e1997310d705b2a6158ff8dc1cdfeb_medium.jpg",
				"avatarfull": "http://media.steampowered.com/steamcommunity/public/images/avatars/fe/fef49e7fa7e1997310d705b2a6158ff8dc1cdfeb_full.jpg",
				"personastate": 0,
				"primaryclanid": "103582791429524891",
				"timecreated": 1063370322
			},
			{
				"steamid": "76561197960330219",
				"communityvisibilitystate": 3,
				"personaname": "batzen",
				"lastlogoff": 1261425987,
				"profileurl": "http://steamcommunity.com/profiles/76561197960330219/",
				"avatar": "http://media.steampowered.com/steamcommunity/public/images/avatars/fe/fef49e7fa7e1997310d705b2a6158ff8dc1cdfeb.jpg",
				"avatarmedium": "http://media.steampowered.com/steamcommunity/public/images/avatars/fe/fef49e7fa7e1997310d705b2a6158ff8dc1cdfeb_medium.jpg",
				"avatarfull": "http://media.steampowered.com/steamcommunity/public/images/avatars/fe/fef49e7fa7e1997310d705b2a6158ff8dc1cdfeb_full.jpg",
				"personastate": 0,
				"primaryclanid": "103582791429521408",
				"timecreated": 1063370312
			},
			{
				"steamid": "76561197960330163",
				"communityvisibilitystate": 1,
				"personaname": "sebastianvahle",
				"profileurl": "http://steamcommunity.com/profiles/76561197960330163/",
				"avatar": "http://media.steampowered.com/steamcommunity/public/images/avatars/fe/fef49e7fa7e1997310d705b2a6158ff8dc1cdfeb.jpg",
				"avatarmedium": "http://media.steampowered.com/steamcommunity/public/images/avatars/fe/fef49e7fa7e1997310d705b2a6158ff8dc1cdfeb_medium.jpg",
				"avatarfull": "http://media.steampowered.com/steamcommunity/public/images/avatars/fe/fef49e7fa7e1997310d705b2a6158ff8dc1cdfeb_full.jpg",
				"personastate": 0
			},
			{
				"steamid": "76561197960330281",
				"communityvisibilitystate": 3,
				"profilestate": 1,
				"personaname": "woertz",
				"lastlogoff": 1360887092,
				"profileurl": "http://steamcommunity.com/profiles/76561197960330281/",
				"avatar": "http://media.steampowered.com/steamcommunity/public/images/avatars/77/7714bc5989ce27b66d1cd9e97719b142906ffcde.jpg",
				"avatarmedium": "http://media.steampowered.com/steamcommunity/public/images/avatars/77/7714bc5989ce27b66d1cd9e97719b142906ffcde_medium.jpg",
				"avatarfull": "http://media.steampowered.com/steamcommunity/public/images/avatars/77/7714bc5989ce27b66d1cd9e97719b142906ffcde_full.jpg",
				"personastate": 3,
				"primaryclanid": "103582791429592387",
				"timecreated": 1063370331
			},
			{
				"steamid": "76561197960330199",
				"communityvisibilitystate": 1,
				"personaname": "snakouz",
				"profileurl": "http://steamcommunity.com/profiles/76561197960330199/",
				"avatar": "http://media.steampowered.com/steamcommunity/public/images/avatars/fe/fef49e7fa7e1997310d705b2a6158ff8dc1cdfeb.jpg",
				"avatarmedium": "http://media.steampowered.com/steamcommunity/public/images/avatars/fe/fef49e7fa7e1997310d705b2a6158ff8dc1cdfeb_medium.jpg",
				"avatarfull": "http://media.steampowered.com/steamcommunity/public/images/avatars/fe/fef49e7fa7e1997310d705b2a6158ff8dc1cdfeb_full.jpg",
				"personastate": 0
			},
			{
				"steamid": "76561197960330317",
				"communityvisibilitystate": 3,
				"profilestate": 1,
				"personaname": "Fox Mc Cloude",
				"lastlogoff": 1248535211,
				"profileurl": "http://steamcommunity.com/profiles/76561197960330317/",
				"avatar": "http://media.steampowered.com/steamcommunity/public/images/avatars/fe/fef49e7fa7e1997310d705b2a6158ff8dc1cdfeb.jpg",
				"avatarmedium": "http://media.steampowered.com/steamcommunity/public/images/avatars/fe/fef49e7fa7e1997310d705b2a6158ff8dc1cdfeb_medium.jpg",
				"avatarfull": "http://media.steampowered.com/steamcommunity/public/images/avatars/fe/fef49e7fa7e1997310d705b2a6158ff8dc1cdfeb_full.jpg",
				"personastate": 0,
				"primaryclanid": "103582791429521408",
				"timecreated": 1063370342
			},
			{
				"steamid": "76561197960330187",
				"communityvisibilitystate": 1,
				"profilestate": 1,
				"personaname": "unnamed",
				"lastlogoff": 1359551718,
				"commentpermission": 1,
				"profileurl": "http://steamcommunity.com/id/iWaspro/",
				"avatar": "http://media.steampowered.com/steamcommunity/public/images/avatars/72/72f78b4c8cc1f62323f8a33f6d53e27db57c2252.jpg",
				"avatarmedium": "http://media.steampowered.com/steamcommunity/public/images/avatars/72/72f78b4c8cc1f62323f8a33f6d53e27db57c2252_medium.jpg",
				"avatarfull": "http://media.steampowered.com/steamcommunity/public/images/avatars/72/72f78b4c8cc1f62323f8a33f6d53e27db57c2252_full.jpg",
				"personastate": 0
			},
			{
				"steamid": "76561197960330305",
				"communityvisibilitystate": 1,
				"personaname": "smitty24",
				"lastlogoff": 1315509789,
				"profileurl": "http://steamcommunity.com/profiles/76561197960330305/",
				"avatar": "http://media.steampowered.com/steamcommunity/public/images/avatars/fe/fef49e7fa7e1997310d705b2a6158ff8dc1cdfeb.jpg",
				"avatarmedium": "http://media.steampowered.com/steamcommunity/public/images/avatars/fe/fef49e7fa7e1997310d705b2a6158ff8dc1cdfeb_medium.jpg",
				"avatarfull": "http://media.steampowered.com/steamcommunity/public/images/avatars/fe/fef49e7fa7e1997310d705b2a6158ff8dc1cdfeb_full.jpg",
				"personastate": 0
			},
			{
				"steamid": "76561197960330173",
				"communityvisibilitystate": 1,
				"personaname": "baba3k",
				"profileurl": "http://steamcommunity.com/profiles/76561197960330173/",
				"avatar": "http://media.steampowered.com/steamcommunity/public/images/avatars/fe/fef49e7fa7e1997310d705b2a6158ff8dc1cdfeb.jpg",
				"avatarmedium": "http://media.steampowered.com/steamcommunity/public/images/avatars/fe/fef49e7fa7e1997310d705b2a6158ff8dc1cdfeb_medium.jpg",
				"avatarfull": "http://media.steampowered.com/steamcommunity/public/images/avatars/fe/fef49e7fa7e1997310d705b2a6158ff8dc1cdfeb_full.jpg",
				"personastate": 0
			},
			{
				"steamid": "76561197960330291",
				"communityvisibilitystate": 3,
				"personaname": "Forester",
				"lastlogoff": 1202491033,
				"profileurl": "http://steamcommunity.com/profiles/76561197960330291/",
				"avatar": "http://media.steampowered.com/steamcommunity/public/images/avatars/fe/fef49e7fa7e1997310d705b2a6158ff8dc1cdfeb.jpg",
				"avatarmedium": "http://media.steampowered.com/steamcommunity/public/images/avatars/fe/fef49e7fa7e1997310d705b2a6158ff8dc1cdfeb_medium.jpg",
				"avatarfull": "http://media.steampowered.com/steamcommunity/public/images/avatars/fe/fef49e7fa7e1997310d705b2a6158ff8dc1cdfeb_full.jpg",
				"personastate": 0,
				"primaryclanid": "103582791429521408",
				"timecreated": 1063370334
			},
			{
				"steamid": "76561197960330217",
				"communityvisibilitystate": 1,
				"personaname": "rasmus.kvist",
				"profileurl": "http://steamcommunity.com/profiles/76561197960330217/",
				"avatar": "http://media.steampowered.com/steamcommunity/public/images/avatars/fe/fef49e7fa7e1997310d705b2a6158ff8dc1cdfeb.jpg",
				"avatarmedium": "http://media.steampowered.com/steamcommunity/public/images/avatars/fe/fef49e7fa7e1997310d705b2a6158ff8dc1cdfeb_medium.jpg",
				"avatarfull": "http://media.steampowered.com/steamcommunity/public/images/avatars/fe/fef49e7fa7e1997310d705b2a6158ff8dc1cdfeb_full.jpg",
				"personastate": 0
			},
			{
				"steamid": "76561197960330243",
				"communityvisibilitystate": 1,
				"personaname": "shawarmaking",
				"profileurl": "http://steamcommunity.com/profiles/76561197960330243/",
				"avatar": "http://media.steampowered.com/steamcommunity/public/images/avatars/fe/fef49e7fa7e1997310d705b2a6158ff8dc1cdfeb.jpg",
				"avatarmedium": "http://media.steampowered.com/steamcommunity/public/images/avatars/fe/fef49e7fa7e1997310d705b2a6158ff8dc1cdfeb_medium.jpg",
				"avatarfull": "http://media.steampowered.com/steamcommunity/public/images/avatars/fe/fef49e7fa7e1997310d705b2a6158ff8dc1cdfeb_full.jpg",
				"personastate": 0
			},
			{
				"steamid": "76561197960330189",
				"communityvisibilitystate": 1,
				"personaname": "bugclan",
				"profileurl": "http://steamcommunity.com/profiles/76561197960330189/",
				"avatar": "http://media.steampowered.com/steamcommunity/public/images/avatars/fe/fef49e7fa7e1997310d705b2a6158ff8dc1cdfeb.jpg",
				"avatarmedium": "http://media.steampowered.com/steamcommunity/public/images/avatars/fe/fef49e7fa7e1997310d705b2a6158ff8dc1cdfeb_medium.jpg",
				"avatarfull": "http://media.steampowered.com/steamcommunity/public/images/avatars/fe/fef49e7fa7e1997310d705b2a6158ff8dc1cdfeb_full.jpg",
				"personastate": 0
			},
			{
				"steamid": "76561197960330307",
				"communityvisibilitystate": 1,
				"personaname": "wallace.gamers",
				"profileurl": "http://steamcommunity.com/profiles/76561197960330307/",
				"avatar": "http://media.steampowered.com/steamcommunity/public/images/avatars/fe/fef49e7fa7e1997310d705b2a6158ff8dc1cdfeb.jpg",
				"avatarmedium": "http://media.steampowered.com/steamcommunity/public/images/avatars/fe/fef49e7fa7e1997310d705b2a6158ff8dc1cdfeb_medium.jpg",
				"avatarfull": "http://media.steampowered.com/steamcommunity/public/images/avatars/fe/fef49e7fa7e1997310d705b2a6158ff8dc1cdfeb_full.jpg",
				"personastate": 0
			},
			{
				"steamid": "76561197960330211",
				"communityvisibilitystate": 3,
				"profilestate": 1,
				"personaname": "Effectchef",
				"lastlogoff": 1360931038,
				"profileurl": "http://steamcommunity.com/id/Effectchef/",
				"avatar": "http://media.steampowered.com/steamcommunity/public/images/avatars/81/81c8ede9ef64d34323723b87e57f7406b69d7900.jpg",
				"avatarmedium": "http://media.steampowered.com/steamcommunity/public/images/avatars/81/81c8ede9ef64d34323723b87e57f7406b69d7900_medium.jpg",
				"avatarfull": "http://media.steampowered.com/steamcommunity/public/images/avatars/81/81c8ede9ef64d34323723b87e57f7406b69d7900_full.jpg",
				"personastate": 1,
				"primaryclanid": "103582791429523174",
				"timecreated": 1063370311
			},
			{
				"steamid": "76561197960330237",
				"communityvisibilitystate": 1,
				"personaname": "pc12",
				"profileurl": "http://steamcommunity.com/profiles/76561197960330237/",
				"avatar": "http://media.steampowered.com/steamcommunity/public/images/avatars/fe/fef49e7fa7e1997310d705b2a6158ff8dc1cdfeb.jpg",
				"avatarmedium": "http://media.steampowered.com/steamcommunity/public/images/avatars/fe/fef49e7fa7e1997310d705b2a6158ff8dc1cdfeb_medium.jpg",
				"avatarfull": "http://media.steampowered.com/steamcommunity/public/images/avatars/fe/fef49e7fa7e1997310d705b2a6158ff8dc1cdfeb_full.jpg",
				"personastate": 0
			},
			{
				"steamid": "76561197960330147",
				"communityvisibilitystate": 1,
				"personaname": "mur.kakel",
				"profileurl": "http://steamcommunity.com/profiles/76561197960330147/",
				"avatar": "http://media.steampowered.com/steamcommunity/public/images/avatars/fe/fef49e7fa7e1997310d705b2a6158ff8dc1cdfeb.jpg",
				"avatarmedium": "http://media.steampowered.com/steamcommunity/public/images/avatars/fe/fef49e7fa7e1997310d705b2a6158ff8dc1cdfeb_medium.jpg",
				"avatarfull": "http://media.steampowered.com/steamcommunity/public/images/avatars/fe/fef49e7fa7e1997310d705b2a6158ff8dc1cdfeb_full.jpg",
				"personastate": 0
			},
			{
				"steamid": "76561197960330265",
				"communityvisibilitystate": 3,
				"profilestate": 1,
				"personaname": "Gotcha <OcX>",
				"lastlogoff": 1353357702,
				"profileurl": "http://steamcommunity.com/id/gotcha_/",
				"avatar": "http://media.steampowered.com/steamcommunity/public/images/avatars/7f/7f30db3d749ccc35e60595419fac7aec3ece1b32.jpg",
				"avatarmedium": "http://media.steampowered.com/steamcommunity/public/images/avatars/7f/7f30db3d749ccc35e60595419fac7aec3ece1b32_medium.jpg",
				"avatarfull": "http://media.steampowered.com/steamcommunity/public/images/avatars/7f/7f30db3d749ccc35e60595419fac7aec3ece1b32_full.jpg",
				"personastate": 0,
				"primaryclanid": "103582791429563419",
				"timecreated": 1063370326,
				"loccountrycode": "BE",
				"locstatecode": "07",
				"loccityid": 6365
			},
			{
				"steamid": "76561197960330231",
				"communityvisibilitystate": 1,
				"profilestate": 1,
				"personaname": "jdc",
				"lastlogoff": 1360954332,
				"profileurl": "http://steamcommunity.com/id/jdczk/",
				"avatar": "http://media.steampowered.com/steamcommunity/public/images/avatars/c7/c76f27bfa27f76a24357c7bed692786b0a9148d0.jpg",
				"avatarmedium": "http://media.steampowered.com/steamcommunity/public/images/avatars/c7/c76f27bfa27f76a24357c7bed692786b0a9148d0_medium.jpg",
				"avatarfull": "http://media.steampowered.com/steamcommunity/public/images/avatars/c7/c76f27bfa27f76a24357c7bed692786b0a9148d0_full.jpg",
				"personastate": 0
			},
			{
				"steamid": "76561197960330197",
				"communityvisibilitystate": 3,
				"profilestate": 1,
				"personaname": "blaZe",
				"lastlogoff": 1359757385,
				"profileurl": "http://steamcommunity.com/profiles/76561197960330197/",
				"avatar": "http://media.steampowered.com/steamcommunity/public/images/avatars/55/5523f82b6e2074a0c94828c5c7ffe0ec4d367dbe.jpg",
				"avatarmedium": "http://media.steampowered.com/steamcommunity/public/images/avatars/55/5523f82b6e2074a0c94828c5c7ffe0ec4d367dbe_medium.jpg",
				"avatarfull": "http://media.steampowered.com/steamcommunity/public/images/avatars/55/5523f82b6e2074a0c94828c5c7ffe0ec4d367dbe_full.jpg",
				"personastate": 0,
				"primaryclanid": "103582791430278092",
				"timecreated": 1063370307,
				"loccountrycode": "DE"
			},
			{
				"steamid": "76561197960330315",
				"communityvisibilitystate": 1,
				"personaname": "jadiss_cent",
				"profileurl": "http://steamcommunity.com/profiles/76561197960330315/",
				"avatar": "http://media.steampowered.com/steamcommunity/public/images/avatars/fe/fef49e7fa7e1997310d705b2a6158ff8dc1cdfeb.jpg",
				"avatarmedium": "http://media.steampowered.com/steamcommunity/public/images/avatars/fe/fef49e7fa7e1997310d705b2a6158ff8dc1cdfeb_medium.jpg",
				"avatarfull": "http://media.steampowered.com/steamcommunity/public/images/avatars/fe/fef49e7fa7e1997310d705b2a6158ff8dc1cdfeb_full.jpg",
				"personastate": 0
			},
			{
				"steamid": "76561197960330295",
				"communityvisibilitystate": 3,
				"personaname": "Terpi",
				"lastlogoff": 1162301898,
				"profileurl": "http://steamcommunity.com/profiles/76561197960330295/",
				"avatar": "http://media.steampowered.com/steamcommunity/public/images/avatars/fe/fef49e7fa7e1997310d705b2a6158ff8dc1cdfeb.jpg",
				"avatarmedium": "http://media.steampowered.com/steamcommunity/public/images/avatars/fe/fef49e7fa7e1997310d705b2a6158ff8dc1cdfeb_medium.jpg",
				"avatarfull": "http://media.steampowered.com/steamcommunity/public/images/avatars/fe/fef49e7fa7e1997310d705b2a6158ff8dc1cdfeb_full.jpg",
				"personastate": 0,
				"primaryclanid": "103582791429521408",
				"timecreated": 1063370334
			},
			{
				"steamid": "76561197960330225",
				"communityvisibilitystate": 3,
				"personaname": "general_cool",
				"lastlogoff": 1246834621,
				"profileurl": "http://steamcommunity.com/profiles/76561197960330225/",
				"avatar": "http://media.steampowered.com/steamcommunity/public/images/avatars/fe/fef49e7fa7e1997310d705b2a6158ff8dc1cdfeb.jpg",
				"avatarmedium": "http://media.steampowered.com/steamcommunity/public/images/avatars/fe/fef49e7fa7e1997310d705b2a6158ff8dc1cdfeb_medium.jpg",
				"avatarfull": "http://media.steampowered.com/steamcommunity/public/images/avatars/fe/fef49e7fa7e1997310d705b2a6158ff8dc1cdfeb_full.jpg",
				"personastate": 0,
				"primaryclanid": "103582791429521408",
				"timecreated": 1063370314
			},
			{
				"steamid": "76561197960330285",
				"communityvisibilitystate": 1,
				"personaname": "deaf-deltaforce",
				"profileurl": "http://steamcommunity.com/profiles/76561197960330285/",
				"avatar": "http://media.steampowered.com/steamcommunity/public/images/avatars/fe/fef49e7fa7e1997310d705b2a6158ff8dc1cdfeb.jpg",
				"avatarmedium": "http://media.steampowered.com/steamcommunity/public/images/avatars/fe/fef49e7fa7e1997310d705b2a6158ff8dc1cdfeb_medium.jpg",
				"avatarfull": "http://media.steampowered.com/steamcommunity/public/images/avatars/fe/fef49e7fa7e1997310d705b2a6158ff8dc1cdfeb_full.jpg",
				"personastate": 0
			},
			{
				"steamid": "76561197960330239",
				"communityvisibilitystate": 1,
				"personaname": "pordox",
				"profileurl": "http://steamcommunity.com/profiles/76561197960330239/",
				"avatar": "http://media.steampowered.com/steamcommunity/public/images/avatars/fe/fef49e7fa7e1997310d705b2a6158ff8dc1cdfeb.jpg",
				"avatarmedium": "http://media.steampowered.com/steamcommunity/public/images/avatars/fe/fef49e7fa7e1997310d705b2a6158ff8dc1cdfeb_medium.jpg",
				"avatarfull": "http://media.steampowered.com/steamcommunity/public/images/avatars/fe/fef49e7fa7e1997310d705b2a6158ff8dc1cdfeb_full.jpg",
				"personastate": 0
			},
			{
				"steamid": "76561197960330175",
				"communityvisibilitystate": 1,
				"personaname": "mail",
				"profileurl": "http://steamcommunity.com/profiles/76561197960330175/",
				"avatar": "http://media.steampowered.com/steamcommunity/public/images/avatars/fe/fef49e7fa7e1997310d705b2a6158ff8dc1cdfeb.jpg",
				"avatarmedium": "http://media.steampowered.com/steamcommunity/public/images/avatars/fe/fef49e7fa7e1997310d705b2a6158ff8dc1cdfeb_medium.jpg",
				"avatarfull": "http://media.steampowered.com/steamcommunity/public/images/avatars/fe/fef49e7fa7e1997310d705b2a6158ff8dc1cdfeb_full.jpg",
				"personastate": 0
			},
			{
				"steamid": "76561197960330293",
				"communityvisibilitystate": 3,
				"profilestate": 1,
				"personaname": "edulein 4tw",
				"lastlogoff": 1317214939,
				"profileurl": "http://steamcommunity.com/profiles/76561197960330293/",
				"avatar": "http://media.steampowered.com/steamcommunity/public/images/avatars/7b/7bafff5cd92ae996090b3586e40e227551e8ad91.jpg",
				"avatarmedium": "http://media.steampowered.com/steamcommunity/public/images/avatars/7b/7bafff5cd92ae996090b3586e40e227551e8ad91_medium.jpg",
				"avatarfull": "http://media.steampowered.com/steamcommunity/public/images/avatars/7b/7bafff5cd92ae996090b3586e40e227551e8ad91_full.jpg",
				"personastate": 0,
				"primaryclanid": "103582791429521408",
				"timecreated": 1063370334
			},
			{
				"steamid": "76561197960330145",
				"communityvisibilitystate": 3,
				"personaname": "R`>Chucky",
				"lastlogoff": 1291048499,
				"profileurl": "http://steamcommunity.com/profiles/76561197960330145/",
				"avatar": "http://media.steampowered.com/steamcommunity/public/images/avatars/fe/fef49e7fa7e1997310d705b2a6158ff8dc1cdfeb.jpg",
				"avatarmedium": "http://media.steampowered.com/steamcommunity/public/images/avatars/fe/fef49e7fa7e1997310d705b2a6158ff8dc1cdfeb_medium.jpg",
				"avatarfull": "http://media.steampowered.com/steamcommunity/public/images/avatars/fe/fef49e7fa7e1997310d705b2a6158ff8dc1cdfeb_full.jpg",
				"personastate": 0,
				"primaryclanid": "103582791429521408",
				"timecreated": 1063370297
			},
			{
				"steamid": "76561197960330139",
				"communityvisibilitystate": 3,
				"profilestate": 1,
				"personaname": "reXXin",
				"lastlogoff": 1359334399,
				"profileurl": "http://steamcommunity.com/id/rexxin/",
				"avatar": "http://media.steampowered.com/steamcommunity/public/images/avatars/07/070b5ec20e2ec9925007a872df852b0a5eb9c8f0.jpg",
				"avatarmedium": "http://media.steampowered.com/steamcommunity/public/images/avatars/07/070b5ec20e2ec9925007a872df852b0a5eb9c8f0_medium.jpg",
				"avatarfull": "http://media.steampowered.com/steamcommunity/public/images/avatars/07/070b5ec20e2ec9925007a872df852b0a5eb9c8f0_full.jpg",
				"personastate": 0,
				"realname": "Torben",
				"primaryclanid": "103582791429521408",
				"timecreated": 1063370295,
				"loccountrycode": "DE",
				"locstatecode": "06",
				"loccityid": 12720
			},
			{
				"steamid": "76561197960330235",
				"communityvisibilitystate": 3,
				"profilestate": 1,
				"personaname": "Taspharel",
				"lastlogoff": 1352793312,
				"profileurl": "http://steamcommunity.com/id/Taspharel/",
				"avatar": "http://media.steampowered.com/steamcommunity/public/images/avatars/58/587f1cc0ae764b21e3e478e7bc44b5636d02f65f.jpg",
				"avatarmedium": "http://media.steampowered.com/steamcommunity/public/images/avatars/58/587f1cc0ae764b21e3e478e7bc44b5636d02f65f_medium.jpg",
				"avatarfull": "http://media.steampowered.com/steamcommunity/public/images/avatars/58/587f1cc0ae764b21e3e478e7bc44b5636d02f65f_full.jpg",
				"personastate": 0,
				"primaryclanid": "103582791429543749",
				"timecreated": 1063370317,
				"loccountrycode": "AT",
				"locstatecode": "09",
				"loccityid": 5806
			},
			{
				"steamid": "76561197960330267",
				"communityvisibilitystate": 3,
				"profilestate": 1,
				"personaname": "m p 5 | s@rinma find* Kate",
				"lastlogoff": 1357034065,
				"profileurl": "http://steamcommunity.com/profiles/76561197960330267/",
				"avatar": "http://media.steampowered.com/steamcommunity/public/images/avatars/fe/fef49e7fa7e1997310d705b2a6158ff8dc1cdfeb.jpg",
				"avatarmedium": "http://media.steampowered.com/steamcommunity/public/images/avatars/fe/fef49e7fa7e1997310d705b2a6158ff8dc1cdfeb_medium.jpg",
				"avatarfull": "http://media.steampowered.com/steamcommunity/public/images/avatars/fe/fef49e7fa7e1997310d705b2a6158ff8dc1cdfeb_full.jpg",
				"personastate": 0,
				"primaryclanid": "103582791429521408",
				"timecreated": 1063370328
			},
			{
				"steamid": "76561197960330261",
				"communityvisibilitystate": 3,
				"profilestate": 1,
				"personaname": "Onkel Hotte",
				"lastlogoff": 1360059299,
				"profileurl": "http://steamcommunity.com/profiles/76561197960330261/",
				"avatar": "http://media.steampowered.com/steamcommunity/public/images/avatars/95/953577876afd038b63e6e86e32c627410602a586.jpg",
				"avatarmedium": "http://media.steampowered.com/steamcommunity/public/images/avatars/95/953577876afd038b63e6e86e32c627410602a586_medium.jpg",
				"avatarfull": "http://media.steampowered.com/steamcommunity/public/images/avatars/95/953577876afd038b63e6e86e32c627410602a586_full.jpg",
				"personastate": 0,
				"primaryclanid": "103582791429521408",
				"timecreated": 1063370323,
				"loccountrycode": "DE"
			},
			{
				"steamid": "76561197960330137",
				"communityvisibilitystate": 1,
				"profilestate": 1,
				"personaname": "TiLion",
				"lastlogoff": 1360915279,
				"profileurl": "http://steamcommunity.com/profiles/76561197960330137/",
				"avatar": "http://media.steampowered.com/steamcommunity/public/images/avatars/76/762d4ee5bf8289f9d0236a9a62efbe52cca2849c.jpg",
				"avatarmedium": "http://media.steampowered.com/steamcommunity/public/images/avatars/76/762d4ee5bf8289f9d0236a9a62efbe52cca2849c_medium.jpg",
				"avatarfull": "http://media.steampowered.com/steamcommunity/public/images/avatars/76/762d4ee5bf8289f9d0236a9a62efbe52cca2849c_full.jpg",
				"personastate": 0
			},
			{
				"steamid": "76561197960330245",
				"communityvisibilitystate": 1,
				"personaname": "whitepriest",
				"profileurl": "http://steamcommunity.com/profiles/76561197960330245/",
				"avatar": "http://media.steampowered.com/steamcommunity/public/images/avatars/fe/fef49e7fa7e1997310d705b2a6158ff8dc1cdfeb.jpg",
				"avatarmedium": "http://media.steampowered.com/steamcommunity/public/images/avatars/fe/fef49e7fa7e1997310d705b2a6158ff8dc1cdfeb_medium.jpg",
				"avatarfull": "http://media.steampowered.com/steamcommunity/public/images/avatars/fe/fef49e7fa7e1997310d705b2a6158ff8dc1cdfeb_full.jpg",
				"personastate": 0
			},
			{
				"steamid": "76561197960330203",
				"communityvisibilitystate": 3,
				"profilestate": 1,
				"personaname": "tiger",
				"lastlogoff": 1221747515,
				"profileurl": "http://steamcommunity.com/profiles/76561197960330203/",
				"avatar": "http://media.steampowered.com/steamcommunity/public/images/avatars/fe/fef49e7fa7e1997310d705b2a6158ff8dc1cdfeb.jpg",
				"avatarmedium": "http://media.steampowered.com/steamcommunity/public/images/avatars/fe/fef49e7fa7e1997310d705b2a6158ff8dc1cdfeb_medium.jpg",
				"avatarfull": "http://media.steampowered.com/steamcommunity/public/images/avatars/fe/fef49e7fa7e1997310d705b2a6158ff8dc1cdfeb_full.jpg",
				"personastate": 0,
				"realname": "tomas",
				"primaryclanid": "103582791429521408",
				"timecreated": 1063370308
			}
		]
		
	}
}