{
	"response": {
		"players": [
			{
				"steamid": "76561197960300789",
				"communityvisibilitystate": 1,
				"personaname": "romanpom",
				"profileurl": "http://steamcommunity.com/profiles/76561197960300789/",
				"avatar": "http://media.steampowered.com/steamcommunity/public/images/avatars/fe/fef49e7fa7e1997310d705b2a6158ff8dc1cdfeb.jpg",
				"avatarmedium": "http://media.steampowered.com/steamcommunity/public/images/avatars/fe/fef49e7fa7e1997310d705b2a6158ff8dc1cdfeb_medium.jpg",
				"avatarfull": "http://media.steampowered.com/steamcommunity/public/images/avatars/fe/fef49e7fa7e1997310d705b2a6158ff8dc1cdfeb_full.jpg",
				"personastate": 0
			},
			{
				"steamid": "76561197960300907",
				"communityvisibilitystate": 1,
				"personaname": "pang10",
				"profileurl": "http://steamcommunity.com/profiles/76561197960300907/",
				"avatar": "http://media.steampowered.com/steamcommunity/public/images/avatars/fe/fef49e7fa7e1997310d705b2a6158ff8dc1cdfeb.jpg",
				"avatarmedium": "http://media.steampowered.com/steamcommunity/public/images/avatars/fe/fef49e7fa7e1997310d705b2a6158ff8dc1cdfeb_medium.jpg",
				"avatarfull": "http://media.steampowered.com/steamcommunity/public/images/avatars/fe/fef49e7fa7e1997310d705b2a6158ff8dc1cdfeb_full.jpg",
				"personastate": 0
			},
			{
				"steamid": "76561197960300761",
				"communityvisibilitystate": 3,
				"profilestate": 1,
				"personaname": "bnf",
				"lastlogoff": 1360935887,
				"profileurl": "http://steamcommunity.com/id/bnf/",
				"avatar": "http://media.steampowered.com/steamcommunity/public/images/avatars/cc/cc3426e8d3430c3d71bf01b0e35515300b57e25c.jpg",
				"avatarmedium": "http://media.steampowered.com/steamcommunity/public/images/avatars/cc/cc3426e8d3430c3d71bf01b0e35515300b57e25c_medium.jpg",
				"avatarfull": "http://media.steampowered.com/steamcommunity/public/images/avatars/cc/cc3426e8d3430c3d71bf01b0e35515300b57e25c_full.jpg",
				"personastate": 1,
				"realname": "Bernhard",
				"primaryclanid": "103582791429553507",
				"timecreated": 1063361824,
				"loccountrycode": "DE",
				"locstatecode": "01",
				"loccityid": 13026
			},
			{
				"steamid": "76561197960300879",
				"communityvisibilitystate": 1,
				"personaname": "razsh1",
				"profileurl": "http://steamcommunity.com/profiles/76561197960300879/",
				"avatar": "http://media.steampowered.com/steamcommunity/public/images/avatars/fe/fef49e7fa7e1997310d705b2a6158ff8dc1cdfeb.jpg",
				"avatarmedium": "http://media.steampowered.com/steamcommunity/public/images/avatars/fe/fef49e7fa7e1997310d705b2a6158ff8dc1cdfeb_medium.jpg",
				"avatarfull": "http://media.steampowered.com/steamcommunity/public/images/avatars/fe/fef49e7fa7e1997310d705b2a6158ff8dc1cdfeb_full.jpg",
				"personastate": 0
			},
			{
				"steamid": "76561197960300791",
				"communityvisibilitystate": 3,
				"profilestate": 1,
				"personaname": "Svett - PussY<3",
				"lastlogoff": 1360912504,
				"profileurl": "http://steamcommunity.com/id/sander1881/",
				"avatar": "http://media.steampowered.com/steamcommunity/public/images/avatars/f1/f1e0a1adb17e6efaf8c9f56062a2f46a2da1d591.jpg",
				"avatarmedium": "http://media.steampowered.com/steamcommunity/public/images/avatars/f1/f1e0a1adb17e6efaf8c9f56062a2f46a2da1d591_medium.jpg",
				"avatarfull": "http://media.steampowered.com/steamcommunity/public/images/avatars/f1/f1e0a1adb17e6efaf8c9f56062a2f46a2da1d591_full.jpg",
				"personastate": 0,
				"realname": "Sander",
				"primaryclanid": "103582791429594973",
				"timecreated": 1063361831,
				"loccountrycode": "NO",
				"locstatecode": "17"
			},
			{
				"steamid": "76561197960300909",
				"communityvisibilitystate": 1,
				"personaname": "juusac",
				"profileurl": "http://steamcommunity.com/profiles/76561197960300909/",
				"avatar": "http://media.steampowered.com/steamcommunity/public/images/avatars/fe/fef49e7fa7e1997310d705b2a6158ff8dc1cdfeb.jpg",
				"avatarmedium": "http://media.steampowered.com/steamcommunity/public/images/avatars/fe/fef49e7fa7e1997310d705b2a6158ff8dc1cdfeb_medium.jpg",
				"avatarfull": "http://media.steampowered.com/steamcommunity/public/images/avatars/fe/fef49e7fa7e1997310d705b2a6158ff8dc1cdfeb_full.jpg",
				"personastate": 0
			},
			{
				"steamid": "76561197960300743",
				"communityvisibilitystate": 3,
				"profilestate": 1,
				"personaname": "libi^stfU",
				"lastlogoff": 1360695549,
				"profileurl": "http://steamcommunity.com/profiles/76561197960300743/",
				"avatar": "http://media.steampowered.com/steamcommunity/public/images/avatars/fe/fef49e7fa7e1997310d705b2a6158ff8dc1cdfeb.jpg",
				"avatarmedium": "http://media.steampowered.com/steamcommunity/public/images/avatars/fe/fef49e7fa7e1997310d705b2a6158ff8dc1cdfeb_medium.jpg",
				"avatarfull": "http://media.steampowered.com/steamcommunity/public/images/avatars/fe/fef49e7fa7e1997310d705b2a6158ff8dc1cdfeb_full.jpg",
				"personastate": 0,
				"realname": "Rob",
				"primaryclanid": "103582791432520752",
				"timecreated": 1063361817,
				"loccountrycode": "DE"
			},
			{
				"steamid": "76561197960300861",
				"communityvisibilitystate": 1,
				"profilestate": 1,
				"personaname": "Shughert",
				"lastlogoff": 1357130070,
				"commentpermission": 2,
				"profileurl": "http://steamcommunity.com/profiles/76561197960300861/",
				"avatar": "http://media.steampowered.com/steamcommunity/public/images/avatars/b9/b98e8e5529c564af474feedc562ec834769ee7da.jpg",
				"avatarmedium": "http://media.steampowered.com/steamcommunity/public/images/avatars/b9/b98e8e5529c564af474feedc562ec834769ee7da_medium.jpg",
				"avatarfull": "http://media.steampowered.com/steamcommunity/public/images/avatars/b9/b98e8e5529c564af474feedc562ec834769ee7da_full.jpg",
				"personastate": 0
			},
			{
				"steamid": "76561197960300763",
				"communityvisibilitystate": 3,
				"profilestate": 1,
				"personaname": "[CZR]Psychosis",
				"lastlogoff": 1360956377,
				"profileurl": "http://steamcommunity.com/profiles/76561197960300763/",
				"avatar": "http://media.steampowered.com/steamcommunity/public/images/avatars/91/910a904d63731a32a413af625356f483e7caf7d4.jpg",
				"avatarmedium": "http://media.steampowered.com/steamcommunity/public/images/avatars/91/910a904d63731a32a413af625356f483e7caf7d4_medium.jpg",
				"avatarfull": "http://media.steampowered.com/steamcommunity/public/images/avatars/91/910a904d63731a32a413af625356f483e7caf7d4_full.jpg",
				"personastate": 0,
				"realname": "Gary Ambrose",
				"primaryclanid": "103582791429564959",
				"timecreated": 1063361825,
				"loccountrycode": "GB"
			},
			{
				"steamid": "76561197960300881",
				"communityvisibilitystate": 1,
				"personaname": "thunder",
				"profileurl": "http://steamcommunity.com/profiles/76561197960300881/",
				"avatar": "http://media.steampowered.com/steamcommunity/public/images/avatars/fe/fef49e7fa7e1997310d705b2a6158ff8dc1cdfeb.jpg",
				"avatarmedium": "http://media.steampowered.com/steamcommunity/public/images/avatars/fe/fef49e7fa7e1997310d705b2a6158ff8dc1cdfeb_medium.jpg",
				"avatarfull": "http://media.steampowered.com/steamcommunity/public/images/avatars/fe/fef49e7fa7e1997310d705b2a6158ff8dc1cdfeb_full.jpg",
				"personastate": 0
			},
			{
				"steamid": "76561197960300777",
				"communityvisibilitystate": 3,
				"profilestate": 1,
				"personaname": "Zasbo",
				"lastlogoff": 1312636691,
				"profileurl": "http://steamcommunity.com/profiles/76561197960300777/",
				"avatar": "http://media.steampowered.com/steamcommunity/public/images/avatars/fe/fef49e7fa7e1997310d705b2a6158ff8dc1cdfeb.jpg",
				"avatarmedium": "http://media.steampowered.com/steamcommunity/public/images/avatars/fe/fef49e7fa7e1997310d705b2a6158ff8dc1cdfeb_medium.jpg",
				"avatarfull": "http://media.steampowered.com/steamcommunity/public/images/avatars/fe/fef49e7fa7e1997310d705b2a6158ff8dc1cdfeb_full.jpg",
				"personastate": 0,
				"primaryclanid": "103582791429521408",
				"timecreated": 1063361828
			},
			{
				"steamid": "76561197960300895",
				"communityvisibilitystate": 1,
				"personaname": "supergun12",
				"profileurl": "http://steamcommunity.com/profiles/76561197960300895/",
				"avatar": "http://media.steampowered.com/steamcommunity/public/images/avatars/fe/fef49e7fa7e1997310d705b2a6158ff8dc1cdfeb.jpg",
				"avatarmedium": "http://media.steampowered.com/steamcommunity/public/images/avatars/fe/fef49e7fa7e1997310d705b2a6158ff8dc1cdfeb_medium.jpg",
				"avatarfull": "http://media.steampowered.com/steamcommunity/public/images/avatars/fe/fef49e7fa7e1997310d705b2a6158ff8dc1cdfeb_full.jpg",
				"personastate": 0
			},
			{
				"steamid": "76561197960300829",
				"communityvisibilitystate": 1,
				"personaname": "baalphegor",
				"profileurl": "http://steamcommunity.com/profiles/76561197960300829/",
				"avatar": "http://media.steampowered.com/steamcommunity/public/images/avatars/fe/fef49e7fa7e1997310d705b2a6158ff8dc1cdfeb.jpg",
				"avatarmedium": "http://media.steampowered.com/steamcommunity/public/images/avatars/fe/fef49e7fa7e1997310d705b2a6158ff8dc1cdfeb_medium.jpg",
				"avatarfull": "http://media.steampowered.com/steamcommunity/public/images/avatars/fe/fef49e7fa7e1997310d705b2a6158ff8dc1cdfeb_full.jpg",
				"personastate": 0
			},
			{
				"steamid": "76561197960300837",
				"communityvisibilitystate": 3,
				"profilestate": 1,
				"personaname": "phraid`",
				"lastlogoff": 1287676739,
				"profileurl": "http://steamcommunity.com/profiles/76561197960300837/",
				"avatar": "http://media.steampowered.com/steamcommunity/public/images/avatars/cd/cd4f84f2ec563aaebd9dbce3175d461129d76dfe.jpg",
				"avatarmedium": "http://media.steampowered.com/steamcommunity/public/images/avatars/cd/cd4f84f2ec563aaebd9dbce3175d461129d76dfe_medium.jpg",
				"avatarfull": "http://media.steampowered.com/steamcommunity/public/images/avatars/cd/cd4f84f2ec563aaebd9dbce3175d461129d76dfe_full.jpg",
				"personastate": 0,
				"primaryclanid": "103582791429521408",
				"timecreated": 1063361852
			},
			{
				"steamid": "76561197960300767",
				"communityvisibilitystate": 1,
				"profilestate": 1,
				"personaname": "LUCKY STRIKE",
				"lastlogoff": 1360846319,
				"commentpermission": 2,
				"profileurl": "http://steamcommunity.com/profiles/76561197960300767/",
				"avatar": "http://media.steampowered.com/steamcommunity/public/images/avatars/f5/f5cc19e953ba56481453c277bfebc66f87d031a1.jpg",
				"avatarmedium": "http://media.steampowered.com/steamcommunity/public/images/avatars/f5/f5cc19e953ba56481453c277bfebc66f87d031a1_medium.jpg",
				"avatarfull": "http://media.steampowered.com/steamcommunity/public/images/avatars/f5/f5cc19e953ba56481453c277bfebc66f87d031a1_full.jpg",
				"personastate": 0
			},
			{
				"steamid": "76561197960300885",
				"communityvisibilitystate": 1,
				"personaname": "evd",
				"profileurl": "http://steamcommunity.com/profiles/76561197960300885/",
				"avatar": "http://media.steampowered.com/steamcommunity/public/images/avatars/fe/fef49e7fa7e1997310d705b2a6158ff8dc1cdfeb.jpg",
				"avatarmedium": "http://media.steampowered.com/steamcommunity/public/images/avatars/fe/fef49e7fa7e1997310d705b2a6158ff8dc1cdfeb_medium.jpg",
				"avatarfull": "http://media.steampowered.com/steamcommunity/public/images/avatars/fe/fef49e7fa7e1997310d705b2a6158ff8dc1cdfeb_full.jpg",
				"personastate": 0
			},
			{
				"steamid": "76561197960300843",
				"communityvisibilitystate": 3,
				"personaname": "Kramer",
				"lastlogoff": 1357644872,
				"profileurl": "http://steamcommunity.com/profiles/76561197960300843/",
				"avatar": "http://media.steampowered.com/steamcommunity/public/images/avatars/fe/fef49e7fa7e1997310d705b2a6158ff8dc1cdfeb.jpg",
				"avatarmedium": "http://media.steampowered.com/steamcommunity/public/images/avatars/fe/fef49e7fa7e1997310d705b2a6158ff8dc1cdfeb_medium.jpg",
				"avatarfull": "http://media.steampowered.com/steamcommunity/public/images/avatars/fe/fef49e7fa7e1997310d705b2a6158ff8dc1cdfeb_full.jpg",
				"personastate": 0,
				"primaryclanid": "103582791429521408",
				"timecreated": 1063361855
			},
			{
				"steamid": "76561197960300783",
				"communityvisibilitystate": 3,
				"profilestate": 1,
				"personaname": "Jati",
				"lastlogoff": 1218994577,
				"profileurl": "http://steamcommunity.com/profiles/76561197960300783/",
				"avatar": "http://media.steampowered.com/steamcommunity/public/images/avatars/fe/fef49e7fa7e1997310d705b2a6158ff8dc1cdfeb.jpg",
				"avatarmedium": "http://media.steampowered.com/steamcommunity/public/images/avatars/fe/fef49e7fa7e1997310d705b2a6158ff8dc1cdfeb_medium.jpg",
				"avatarfull": "http://media.steampowered.com/steamcommunity/public/images/avatars/fe/fef49e7fa7e1997310d705b2a6158ff8dc1cdfeb_full.jpg",
				"personastate": 0,
				"primaryclanid": "103582791429521408",
				"timecreated": 1063361830
			},
			{
				"steamid": "76561197960300901",
				"communityvisibilitystate": 1,
				"personaname": "pette87",
				"profileurl": "http://steamcommunity.com/profiles/76561197960300901/",
				"avatar": "http://media.steampowered.com/steamcommunity/public/images/avatars/fe/fef49e7fa7e1997310d705b2a6158ff8dc1cdfeb.jpg",
				"avatarmedium": "http://media.steampowered.com/steamcommunity/public/images/avatars/fe/fef49e7fa7e1997310d705b2a6158ff8dc1cdfeb_medium.jpg",
				"avatarfull": "http://media.steampowered.com/steamcommunity/public/images/avatars/fe/fef49e7fa7e1997310d705b2a6158ff8dc1cdfeb_full.jpg",
				"personastate": 0
			},
			{
				"steamid": "76561197960300781",
				"communityvisibilitystate": 1,
				"personaname": "amdr",
				"profileurl": "http://steamcommunity.com/profiles/76561197960300781/",
				"avatar": "http://media.steampowered.com/steamcommunity/public/images/avatars/fe/fef49e7fa7e1997310d705b2a6158ff8dc1cdfeb.jpg",
				"avatarmedium": "http://media.steampowered.com/steamcommunity/public/images/avatars/fe/fef49e7fa7e1997310d705b2a6158ff8dc1cdfeb_medium.jpg",
				"avatarfull": "http://media.steampowered.com/steamcommunity/public/images/avatars/fe/fef49e7fa7e1997310d705b2a6158ff8dc1cdfeb_full.jpg",
				"personastate": 0
			},
			{
				"steamid": "76561197960300899",
				"communityvisibilitystate": 3,
				"profilestate": 1,
				"personaname": "To0L",
				"lastlogoff": 1322964020,
				"profileurl": "http://steamcommunity.com/profiles/76561197960300899/",
				"avatar": "http://media.steampowered.com/steamcommunity/public/images/avatars/ba/ba8109f760bc588662d244383b88bd9016a54678.jpg",
				"avatarmedium": "http://media.steampowered.com/steamcommunity/public/images/avatars/ba/ba8109f760bc588662d244383b88bd9016a54678_medium.jpg",
				"avatarfull": "http://media.steampowered.com/steamcommunity/public/images/avatars/ba/ba8109f760bc588662d244383b88bd9016a54678_full.jpg",
				"personastate": 0,
				"primaryclanid": "103582791429521408",
				"timecreated": 1063361875
			},
			{
				"steamid": "76561197960300845",
				"communityvisibilitystate": 3,
				"profilestate": 1,
				"personaname": "olsson",
				"lastlogoff": 1360900804,
				"profileurl": "http://steamcommunity.com/id/17558/",
				"avatar": "http://media.steampowered.com/steamcommunity/public/images/avatars/62/629b1ed5b8f53cdbcc2acafccb9b9c50c3899aa1.jpg",
				"avatarmedium": "http://media.steampowered.com/steamcommunity/public/images/avatars/62/629b1ed5b8f53cdbcc2acafccb9b9c50c3899aa1_medium.jpg",
				"avatarfull": "http://media.steampowered.com/steamcommunity/public/images/avatars/62/629b1ed5b8f53cdbcc2acafccb9b9c50c3899aa1_full.jpg",
				"personastate": 1,
				"realname": "Nikolaj",
				"primaryclanid": "103582791433910985",
				"timecreated": 1063361856,
				"gameserverip": "77.66.34.238:28075",
				"gameextrainfo": "Counter-Strike: Source",
				"gameid": "240",
				"gameserversteamid": "90086061493180420",
				"loccountrycode": "DK"
			},
			{
				"steamid": "76561197960300739",
				"communityvisibilitystate": 3,
				"profilestate": 1,
				"personaname": "[MaSteRs] danni",
				"lastlogoff": 1254091924,
				"profileurl": "http://steamcommunity.com/profiles/76561197960300739/",
				"avatar": "http://media.steampowered.com/steamcommunity/public/images/avatars/fe/fef49e7fa7e1997310d705b2a6158ff8dc1cdfeb.jpg",
				"avatarmedium": "http://media.steampowered.com/steamcommunity/public/images/avatars/fe/fef49e7fa7e1997310d705b2a6158ff8dc1cdfeb_medium.jpg",
				"avatarfull": "http://media.steampowered.com/steamcommunity/public/images/avatars/fe/fef49e7fa7e1997310d705b2a6158ff8dc1cdfeb_full.jpg",
				"personastate": 0,
				"primaryclanid": "103582791430134608",
				"timecreated": 1063361815
			},
			{
				"steamid": "76561197960300857",
				"communityvisibilitystate": 3,
				"profilestate": 1,
				"personaname": "Mengy",
				"lastlogoff": 1360114839,
				"profileurl": "http://steamcommunity.com/profiles/76561197960300857/",
				"avatar": "http://media.steampowered.com/steamcommunity/public/images/avatars/ce/ce0e2989b500ccfdd8024682c45cd8f43f9b1f86.jpg",
				"avatarmedium": "http://media.steampowered.com/steamcommunity/public/images/avatars/ce/ce0e2989b500ccfdd8024682c45cd8f43f9b1f86_medium.jpg",
				"avatarfull": "http://media.steampowered.com/steamcommunity/public/images/avatars/ce/ce0e2989b500ccfdd8024682c45cd8f43f9b1f86_full.jpg",
				"personastate": 0,
				"primaryclanid": "103582791429561318",
				"timecreated": 1063361859
			},
			{
				"steamid": "76561197960300835",
				"communityvisibilitystate": 1,
				"personaname": "vkeshish",
				"profileurl": "http://steamcommunity.com/profiles/76561197960300835/",
				"avatar": "http://media.steampowered.com/steamcommunity/public/images/avatars/fe/fef49e7fa7e1997310d705b2a6158ff8dc1cdfeb.jpg",
				"avatarmedium": "http://media.steampowered.com/steamcommunity/public/images/avatars/fe/fef49e7fa7e1997310d705b2a6158ff8dc1cdfeb_medium.jpg",
				"avatarfull": "http://media.steampowered.com/steamcommunity/public/images/avatars/fe/fef49e7fa7e1997310d705b2a6158ff8dc1cdfeb_full.jpg",
				"personastate": 0
			},
			{
				"steamid": "76561197960300831",
				"communityvisibilitystate": 1,
				"personaname": "bertomail",
				"profileurl": "http://steamcommunity.com/profiles/76561197960300831/",
				"avatar": "http://media.steampowered.com/steamcommunity/public/images/avatars/fe/fef49e7fa7e1997310d705b2a6158ff8dc1cdfeb.jpg",
				"avatarmedium": "http://media.steampowered.com/steamcommunity/public/images/avatars/fe/fef49e7fa7e1997310d705b2a6158ff8dc1cdfeb_medium.jpg",
				"avatarfull": "http://media.steampowered.com/steamcommunity/public/images/avatars/fe/fef49e7fa7e1997310d705b2a6158ff8dc1cdfeb_full.jpg",
				"personastate": 0
			},
			{
				"steamid": "76561197960300815",
				"communityvisibilitystate": 3,
				"profilestate": 1,
				"personaname": "Grimjaw",
				"lastlogoff": 1360876626,
				"profileurl": "http://steamcommunity.com/profiles/76561197960300815/",
				"avatar": "http://media.steampowered.com/steamcommunity/public/images/avatars/c5/c5abb184b7089dea4056b3416da77c0416e0975b.jpg",
				"avatarmedium": "http://media.steampowered.com/steamcommunity/public/images/avatars/c5/c5abb184b7089dea4056b3416da77c0416e0975b_medium.jpg",
				"avatarfull": "http://media.steampowered.com/steamcommunity/public/images/avatars/c5/c5abb184b7089dea4056b3416da77c0416e0975b_full.jpg",
				"personastate": 0,
				"primaryclanid": "103582791429694489",
				"timecreated": 1063361841
			},
			{
				"steamid": "76561197960300749",
				"communityvisibilitystate": 3,
				"profilestate": 1,
				"personaname": "Leibnitz",
				"lastlogoff": 1360794945,
				"profileurl": "http://steamcommunity.com/profiles/76561197960300749/",
				"avatar": "http://media.steampowered.com/steamcommunity/public/images/avatars/d2/d27c9aef6817a5db6a9a46090fa03b4dc80ab9cc.jpg",
				"avatarmedium": "http://media.steampowered.com/steamcommunity/public/images/avatars/d2/d27c9aef6817a5db6a9a46090fa03b4dc80ab9cc_medium.jpg",
				"avatarfull": "http://media.steampowered.com/steamcommunity/public/images/avatars/d2/d27c9aef6817a5db6a9a46090fa03b4dc80ab9cc_full.jpg",
				"personastate": 0,
				"primaryclanid": "103582791429529363",
				"timecreated": 1063361818,
				"loccountrycode": "GB"
			},
			{
				"steamid": "76561197960300867",
				"communityvisibilitystate": 1,
				"personaname": "gemini",
				"profileurl": "http://steamcommunity.com/profiles/76561197960300867/",
				"avatar": "http://media.steampowered.com/steamcommunity/public/images/avatars/fe/fef49e7fa7e1997310d705b2a6158ff8dc1cdfeb.jpg",
				"avatarmedium": "http://media.steampowered.com/steamcommunity/public/images/avatars/fe/fef49e7fa7e1997310d705b2a6158ff8dc1cdfeb_medium.jpg",
				"avatarfull": "http://media.steampowered.com/steamcommunity/public/images/avatars/fe/fef49e7fa7e1997310d705b2a6158ff8dc1cdfeb_full.jpg",
				"personastate": 0
			},
			{
				"steamid": "76561197960300759",
				"communityvisibilitystate": 3,
				"personaname": "eXile",
				"lastlogoff": 1293900466,
				"profileurl": "http://steamcommunity.com/profiles/76561197960300759/",
				"avatar": "http://media.steampowered.com/steamcommunity/public/images/avatars/fe/fef49e7fa7e1997310d705b2a6158ff8dc1cdfeb.jpg",
				"avatarmedium": "http://media.steampowered.com/steamcommunity/public/images/avatars/fe/fef49e7fa7e1997310d705b2a6158ff8dc1cdfeb_medium.jpg",
				"avatarfull": "http://media.steampowered.com/steamcommunity/public/images/avatars/fe/fef49e7fa7e1997310d705b2a6158ff8dc1cdfeb_full.jpg",
				"personastate": 0,
				"primaryclanid": "103582791429521408",
				"timecreated": 1063361823
			},
			{
				"steamid": "76561197960300877",
				"communityvisibilitystate": 1,
				"personaname": "klair",
				"profileurl": "http://steamcommunity.com/profiles/76561197960300877/",
				"avatar": "http://media.steampowered.com/steamcommunity/public/images/avatars/fe/fef49e7fa7e1997310d705b2a6158ff8dc1cdfeb.jpg",
				"avatarmedium": "http://media.steampowered.com/steamcommunity/public/images/avatars/fe/fef49e7fa7e1997310d705b2a6158ff8dc1cdfeb_medium.jpg",
				"avatarfull": "http://media.steampowered.com/steamcommunity/public/images/avatars/fe/fef49e7fa7e1997310d705b2a6158ff8dc1cdfeb_full.jpg",
				"personastate": 0
			},
			{
				"steamid": "76561197960300793",
				"communityvisibilitystate": 3,
				"personaname": "dukestar",
				"lastlogoff": 1280682815,
				"profileurl": "http://steamcommunity.com/profiles/76561197960300793/",
				"avatar": "http://media.steampowered.com/steamcommunity/public/images/avatars/fe/fef49e7fa7e1997310d705b2a6158ff8dc1cdfeb.jpg",
				"avatarmedium": "http://media.steampowered.com/steamcommunity/public/images/avatars/fe/fef49e7fa7e1997310d705b2a6158ff8dc1cdfeb_medium.jpg",
				"avatarfull": "http://media.steampowered.com/steamcommunity/public/images/avatars/fe/fef49e7fa7e1997310d705b2a6158ff8dc1cdfeb_full.jpg",
				"personastate": 0,
				"primaryclanid": "103582791429521408",
				"timecreated": 1063361831
			},
			{
				"steamid": "76561197960300911",
				"communityvisibilitystate": 1,
				"profilestate": 1,
				"personaname": "lizzx_x",
				"lastlogoff": 1360943681,
				"profileurl": "http://steamcommunity.com/profiles/76561197960300911/",
				"avatar": "http://media.steampowered.com/steamcommunity/public/images/avatars/83/83e9eaf26b7572f52c9b3ba123453bac62e8a8ce.jpg",
				"avatarmedium": "http://media.steampowered.com/steamcommunity/public/images/avatars/83/83e9eaf26b7572f52c9b3ba123453bac62e8a8ce_medium.jpg",
				"avatarfull": "http://media.steampowered.com/steamcommunity/public/images/avatars/83/83e9eaf26b7572f52c9b3ba123453bac62e8a8ce_full.jpg",
				"personastate": 0
			},
			{
				"steamid": "76561197960300823",
				"communityvisibilitystate": 1,
				"profilestate": 1,
				"personaname": "mnewra7ysfd",
				"lastlogoff": 1360763059,
				"commentpermission": 2,
				"profileurl": "http://steamcommunity.com/id/oppoi/",
				"avatar": "http://media.steampowered.com/steamcommunity/public/images/avatars/72/72f78b4c8cc1f62323f8a33f6d53e27db57c2252.jpg",
				"avatarmedium": "http://media.steampowered.com/steamcommunity/public/images/avatars/72/72f78b4c8cc1f62323f8a33f6d53e27db57c2252_medium.jpg",
				"avatarfull": "http://media.steampowered.com/steamcommunity/public/images/avatars/72/72f78b4c8cc1f62323f8a33f6d53e27db57c2252_full.jpg",
				"personastate": 0
			},
			{
				"steamid": "76561197960300795",
				"communityvisibilitystate": 3,
				"profilestate": 1,
				"personaname": "mh|haltsmaul",
				"lastlogoff": 1348077145,
				"profileurl": "http://steamcommunity.com/profiles/76561197960300795/",
				"avatar": "http://media.steampowered.com/steamcommunity/public/images/avatars/fe/fef49e7fa7e1997310d705b2a6158ff8dc1cdfeb.jpg",
				"avatarmedium": "http://media.steampowered.com/steamcommunity/public/images/avatars/fe/fef49e7fa7e1997310d705b2a6158ff8dc1cdfeb_medium.jpg",
				"avatarfull": "http://media.steampowered.com/steamcommunity/public/images/avatars/fe/fef49e7fa7e1997310d705b2a6158ff8dc1cdfeb_full.jpg",
				"personastate": 0,
				"primaryclanid": "103582791429528756",
				"timecreated": 1063361832,
				"loccountrycode": "DE"
			},
			{
				"steamid": "76561197960300913",
				"communityvisibilitystate": 3,
				"profilestate": 1,
				"personaname": "Kenneth Kiwistone",
				"lastlogoff": 1347100209,
				"profileurl": "http://steamcommunity.com/profiles/76561197960300913/",
				"avatar": "http://media.steampowered.com/steamcommunity/public/images/avatars/2a/2af51df775ccc49dd4ccd863b75ee0ebb98bd469.jpg",
				"avatarmedium": "http://media.steampowered.com/steamcommunity/public/images/avatars/2a/2af51df775ccc49dd4ccd863b75ee0ebb98bd469_medium.jpg",
				"avatarfull": "http://media.steampowered.com/steamcommunity/public/images/avatars/2a/2af51df775ccc49dd4ccd863b75ee0ebb98bd469_full.jpg",
				"personastate": 0,
				"primaryclanid": "103582791429521408",
				"timecreated": 1063361878
			},
			{
				"steamid": "76561197960300757",
				"communityvisibilitystate": 1,
				"personaname": "ludo",
				"lastlogoff": 1329047137,
				"profileurl": "http://steamcommunity.com/profiles/76561197960300757/",
				"avatar": "http://media.steampowered.com/steamcommunity/public/images/avatars/fe/fef49e7fa7e1997310d705b2a6158ff8dc1cdfeb.jpg",
				"avatarmedium": "http://media.steampowered.com/steamcommunity/public/images/avatars/fe/fef49e7fa7e1997310d705b2a6158ff8dc1cdfeb_medium.jpg",
				"avatarfull": "http://media.steampowered.com/steamcommunity/public/images/avatars/fe/fef49e7fa7e1997310d705b2a6158ff8dc1cdfeb_full.jpg",
				"personastate": 0
			},
			{
				"steamid": "76561197960300875",
				"communityvisibilitystate": 3,
				"profilestate": 1,
				"personaname": "[d9t]Dazza420",
				"lastlogoff": 1360959234,
				"profileurl": "http://steamcommunity.com/profiles/76561197960300875/",
				"avatar": "http://media.steampowered.com/steamcommunity/public/images/avatars/fe/fef49e7fa7e1997310d705b2a6158ff8dc1cdfeb.jpg",
				"avatarmedium": "http://media.steampowered.com/steamcommunity/public/images/avatars/fe/fef49e7fa7e1997310d705b2a6158ff8dc1cdfeb_medium.jpg",
				"avatarfull": "http://media.steampowered.com/steamcommunity/public/images/avatars/fe/fef49e7fa7e1997310d705b2a6158ff8dc1cdfeb_full.jpg",
				"personastate": 0,
				"realname": "Darren Aldous",
				"primaryclanid": "103582791429796426",
				"timecreated": 1063361864,
				"loccountrycode": "NZ",
				"locstatecode": "76"
			},
			{
				"steamid": "76561197960300773",
				"communityvisibilitystate": 3,
				"personaname": "ben300001",
				"lastlogoff": 1226534188,
				"profileurl": "http://steamcommunity.com/profiles/76561197960300773/",
				"avatar": "http://media.steampowered.com/steamcommunity/public/images/avatars/fe/fef49e7fa7e1997310d705b2a6158ff8dc1cdfeb.jpg",
				"avatarmedium": "http://media.steampowered.com/steamcommunity/public/images/avatars/fe/fef49e7fa7e1997310d705b2a6158ff8dc1cdfeb_medium.jpg",
				"avatarfull": "http://media.steampowered.com/steamcommunity/public/images/avatars/fe/fef49e7fa7e1997310d705b2a6158ff8dc1cdfeb_full.jpg",
				"personastate": 0,
				"primaryclanid": "103582791429521408",
				"timecreated": 1063361826
			},
			{
				"steamid": "76561197960300891",
				"communityvisibilitystate": 1,
				"personaname": "yoshi",
				"profileurl": "http://steamcommunity.com/profiles/76561197960300891/",
				"avatar": "http://media.steampowered.com/steamcommunity/public/images/avatars/fe/fef49e7fa7e1997310d705b2a6158ff8dc1cdfeb.jpg",
				"avatarmedium": "http://media.steampowered.com/steamcommunity/public/images/avatars/fe/fef49e7fa7e1997310d705b2a6158ff8dc1cdfeb_medium.jpg",
				"avatarfull": "http://media.steampowered.com/steamcommunity/public/images/avatars/fe/fef49e7fa7e1997310d705b2a6158ff8dc1cdfeb_full.jpg",
				"personastate": 0
			},
			{
				"steamid": "76561197960300803",
				"communityvisibilitystate": 1,
				"personaname": "joachim",
				"profileurl": "http://steamcommunity.com/profiles/76561197960300803/",
				"avatar": "http://media.steampowered.com/steamcommunity/public/images/avatars/fe/fef49e7fa7e1997310d705b2a6158ff8dc1cdfeb.jpg",
				"avatarmedium": "http://media.steampowered.com/steamcommunity/public/images/avatars/fe/fef49e7fa7e1997310d705b2a6158ff8dc1cdfeb_medium.jpg",
				"avatarfull": "http://media.steampowered.com/steamcommunity/public/images/avatars/fe/fef49e7fa7e1997310d705b2a6158ff8dc1cdfeb_full.jpg",
				"personastate": 0
			},
			{
				"steamid": "76561197960300921",
				"communityvisibilitystate": 1,
				"personaname": "hornmex",
				"profileurl": "http://steamcommunity.com/profiles/76561197960300921/",
				"avatar": "http://media.steampowered.com/steamcommunity/public/images/avatars/fe/fef49e7fa7e1997310d705b2a6158ff8dc1cdfeb.jpg",
				"avatarmedium": "http://media.steampowered.com/steamcommunity/public/images/avatars/fe/fef49e7fa7e1997310d705b2a6158ff8dc1cdfeb_medium.jpg",
				"avatarfull": "http://media.steampowered.com/steamcommunity/public/images/avatars/fe/fef49e7fa7e1997310d705b2a6158ff8dc1cdfeb_full.jpg",
				"personastate": 0
			},
			{
				"steamid": "76561197960300787",
				"communityvisibilitystate": 1,
				"profilestate": 1,
				"personaname": ".micha.",
				"lastlogoff": 1359402667,
				"profileurl": "http://steamcommunity.com/id/thexsystem/",
				"avatar": "http://media.steampowered.com/steamcommunity/public/images/avatars/bb/bbb6f73e13945a6baa1c21b900aee93ee13c4718.jpg",
				"avatarmedium": "http://media.steampowered.com/steamcommunity/public/images/avatars/bb/bbb6f73e13945a6baa1c21b900aee93ee13c4718_medium.jpg",
				"avatarfull": "http://media.steampowered.com/steamcommunity/public/images/avatars/bb/bbb6f73e13945a6baa1c21b900aee93ee13c4718_full.jpg",
				"personastate": 0
			},
			{
				"steamid": "76561197960300905",
				"communityvisibilitystate": 3,
				"profilestate": 1,
				"personaname": "Mikeh",
				"lastlogoff": 1313190553,
				"profileurl": "http://steamcommunity.com/profiles/76561197960300905/",
				"avatar": "http://media.steampowered.com/steamcommunity/public/images/avatars/fe/fef49e7fa7e1997310d705b2a6158ff8dc1cdfeb.jpg",
				"avatarmedium": "http://media.steampowered.com/steamcommunity/public/images/avatars/fe/fef49e7fa7e1997310d705b2a6158ff8dc1cdfeb_medium.jpg",
				"avatarfull": "http://media.steampowered.com/steamcommunity/public/images/avatars/fe/fef49e7fa7e1997310d705b2a6158ff8dc1cdfeb_full.jpg",
				"personastate": 0,
				"primaryclanid": "103582791429521408",
				"timecreated": 1063361875
			},
			{
				"steamid": "76561197960300779",
				"communityvisibilitystate": 3,
				"personaname": "xonen",
				"lastlogoff": 1358855869,
				"profileurl": "http://steamcommunity.com/profiles/76561197960300779/",
				"avatar": "http://media.steampowered.com/steamcommunity/public/images/avatars/fe/fef49e7fa7e1997310d705b2a6158ff8dc1cdfeb.jpg",
				"avatarmedium": "http://media.steampowered.com/steamcommunity/public/images/avatars/fe/fef49e7fa7e1997310d705b2a6158ff8dc1cdfeb_medium.jpg",
				"avatarfull": "http://media.steampowered.com/steamcommunity/public/images/avatars/fe/fef49e7fa7e1997310d705b2a6158ff8dc1cdfeb_full.jpg",
				"personastate": 0,
				"primaryclanid": "103582791429521408",
				"timecreated": 1063361828
			},
			{
				"steamid": "76561197960300897",
				"communityvisibilitystate": 3,
				"profilestate": 1,
				"personaname": "Drakon",
				"lastlogoff": 1360814043,
				"commentpermission": 2,
				"profileurl": "http://steamcommunity.com/id/Drakonau/",
				"avatar": "http://media.steampowered.com/steamcommunity/public/images/avatars/61/6174ebccfc1b4558f564ad88ad2b1e2d404a86ce.jpg",
				"avatarmedium": "http://media.steampowered.com/steamcommunity/public/images/avatars/61/6174ebccfc1b4558f564ad88ad2b1e2d404a86ce_medium.jpg",
				"avatarfull": "http://media.steampowered.com/steamcommunity/public/images/avatars/61/6174ebccfc1b4558f564ad88ad2b1e2d404a86ce_full.jpg",
				"personastate": 3,
				"primaryclanid": "103582791429521408",
				"timecreated": 1063361875,
				"loccountrycode": "AU"
			},
			{
				"steamid": "76561197960300817",
				"communityvisibilitystate": 1,
				"personaname": "sellingspam",
				"profileurl": "http://steamcommunity.com/profiles/76561197960300817/",
				"avatar": "http://media.steampowered.com/steamcommunity/public/images/avatars/fe/fef49e7fa7e1997310d705b2a6158ff8dc1cdfeb.jpg",
				"avatarmedium": "http://media.steampowered.com/steamcommunity/public/images/avatars/fe/fef49e7fa7e1997310d705b2a6158ff8dc1cdfeb_medium.jpg",
				"avatarfull": "http://media.steampowered.com/steamcommunity/public/images/avatars/fe/fef49e7fa7e1997310d705b2a6158ff8dc1cdfeb_full.jpg",
				"personastate": 0
			},
			{
				"steamid": "76561197960300833",
				"communityvisibilitystate": 3,
				"profilestate": 1,
				"personaname": "Studio 57",
				"lastlogoff": 1286959968,
				"profileurl": "http://steamcommunity.com/profiles/76561197960300833/",
				"avatar": "http://media.steampowered.com/steamcommunity/public/images/avatars/5b/5b3ceec67414f4713fab933b996c42773ff60eb1.jpg",
				"avatarmedium": "http://media.steampowered.com/steamcommunity/public/images/avatars/5b/5b3ceec67414f4713fab933b996c42773ff60eb1_medium.jpg",
				"avatarfull": "http://media.steampowered.com/steamcommunity/public/images/avatars/5b/5b3ceec67414f4713fab933b996c42773ff60eb1_full.jpg",
				"personastate": 0,
				"realname": "Mikko Kuusirati",
				"primaryclanid": "103582791429636547",
				"timecreated": 1063361850,
				"loccountrycode": "FI"
			},
			{
				"steamid": "76561197960300821",
				"communityvisibilitystate": 3,
				"profilestate": 1,
				"personaname": "Xabster",
				"lastlogoff": 1360099751,
				"profileurl": "http://steamcommunity.com/profiles/76561197960300821/",
				"avatar": "http://media.steampowered.com/steamcommunity/public/images/avatars/fe/fef49e7fa7e1997310d705b2a6158ff8dc1cdfeb.jpg",
				"avatarmedium": "http://media.steampowered.com/steamcommunity/public/images/avatars/fe/fef49e7fa7e1997310d705b2a6158ff8dc1cdfeb_medium.jpg",
				"avatarfull": "http://media.steampowered.com/steamcommunity/public/images/avatars/fe/fef49e7fa7e1997310d705b2a6158ff8dc1cdfeb_full.jpg",
				"personastate": 0,
				"primaryclanid": "103582791429521408",
				"timecreated": 1063361844
			},
			{
				"steamid": "76561197960300765",
				"communityvisibilitystate": 3,
				"personaname": "lehackermaster",
				"lastlogoff": 1241614677,
				"profileurl": "http://steamcommunity.com/profiles/76561197960300765/",
				"avatar": "http://media.steampowered.com/steamcommunity/public/images/avatars/fe/fef49e7fa7e1997310d705b2a6158ff8dc1cdfeb.jpg",
				"avatarmedium": "http://media.steampowered.com/steamcommunity/public/images/avatars/fe/fef49e7fa7e1997310d705b2a6158ff8dc1cdfeb_medium.jpg",
				"avatarfull": "http://media.steampowered.com/steamcommunity/public/images/avatars/fe/fef49e7fa7e1997310d705b2a6158ff8dc1cdfeb_full.jpg",
				"personastate": 0,
				"primaryclanid": "103582791429521408",
				"timecreated": 1063361825
			},
			{
				"steamid": "76561197960300883",
				"communityvisibilitystate": 1,
				"profilestate": 1,
				"personaname": "lapiska",
				"lastlogoff": 1360918127,
				"profileurl": "http://steamcommunity.com/profiles/76561197960300883/",
				"avatar": "http://media.steampowered.com/steamcommunity/public/images/avatars/78/78b59f1f971fa2b486006b79600b57abec28bff9.jpg",
				"avatarmedium": "http://media.steampowered.com/steamcommunity/public/images/avatars/78/78b59f1f971fa2b486006b79600b57abec28bff9_medium.jpg",
				"avatarfull": "http://media.steampowered.com/steamcommunity/public/images/avatars/78/78b59f1f971fa2b486006b79600b57abec28bff9_full.jpg",
				"personastate": 0
			},
			{
				"steamid": "76561197960300805",
				"communityvisibilitystate": 3,
				"profilestate": 1,
				"personaname": "Whatever*",
				"lastlogoff": 1348217059,
				"profileurl": "http://steamcommunity.com/profiles/76561197960300805/",
				"avatar": "http://media.steampowered.com/steamcommunity/public/images/avatars/27/27e79164d0806ade2d0584595b857126afa62a58.jpg",
				"avatarmedium": "http://media.steampowered.com/steamcommunity/public/images/avatars/27/27e79164d0806ade2d0584595b857126afa62a58_medium.jpg",
				"avatarfull": "http://media.steampowered.com/steamcommunity/public/images/avatars/27/27e79164d0806ade2d0584595b857126afa62a58_full.jpg",
				"personastate": 0,
				"realname": "sebbe",
				"primaryclanid": "103582791429521408",
				"timecreated": 1063361839,
				"loccountrycode": "SE"
			},
			{
				"steamid": "76561197960300923",
				"communityvisibilitystate": 1,
				"personaname": "anyl",
				"profileurl": "http://steamcommunity.com/profiles/76561197960300923/",
				"avatar": "http://media.steampowered.com/steamcommunity/public/images/avatars/fe/fef49e7fa7e1997310d705b2a6158ff8dc1cdfeb.jpg",
				"avatarmedium": "http://media.steampowered.com/steamcommunity/public/images/avatars/fe/fef49e7fa7e1997310d705b2a6158ff8dc1cdfeb_medium.jpg",
				"avatarfull": "http://media.steampowered.com/steamcommunity/public/images/avatars/fe/fef49e7fa7e1997310d705b2a6158ff8dc1cdfeb_full.jpg",
				"personastate": 0
			},
			{
				"steamid": "76561197960300751",
				"communityvisibilitystate": 3,
				"profilestate": 1,
				"personaname": "jN_BTR",
				"lastlogoff": 1227494186,
				"profileurl": "http://steamcommunity.com/profiles/76561197960300751/",
				"avatar": "http://media.steampowered.com/steamcommunity/public/images/avatars/fe/fef49e7fa7e1997310d705b2a6158ff8dc1cdfeb.jpg",
				"avatarmedium": "http://media.steampowered.com/steamcommunity/public/images/avatars/fe/fef49e7fa7e1997310d705b2a6158ff8dc1cdfeb_medium.jpg",
				"avatarfull": "http://media.steampowered.com/steamcommunity/public/images/avatars/fe/fef49e7fa7e1997310d705b2a6158ff8dc1cdfeb_full.jpg",
				"personastate": 0,
				"realname": "jack",
				"primaryclanid": "103582791429521408",
				"timecreated": 1063361821
			},
			{
				"steamid": "76561197960300869",
				"communityvisibilitystate": 3,
				"personaname": "slondsha",
				"lastlogoff": 1159631496,
				"profileurl": "http://steamcommunity.com/profiles/76561197960300869/",
				"avatar": "http://media.steampowered.com/steamcommunity/public/images/avatars/fe/fef49e7fa7e1997310d705b2a6158ff8dc1cdfeb.jpg",
				"avatarmedium": "http://media.steampowered.com/steamcommunity/public/images/avatars/fe/fef49e7fa7e1997310d705b2a6158ff8dc1cdfeb_medium.jpg",
				"avatarfull": "http://media.steampowered.com/steamcommunity/public/images/avatars/fe/fef49e7fa7e1997310d705b2a6158ff8dc1cdfeb_full.jpg",
				"personastate": 0,
				"primaryclanid": "103582791429521408",
				"timecreated": 1063361862
			},
			{
				"steamid": "76561197960300797",
				"communityvisibilitystate": 3,
				"profilestate": 1,
				"personaname": "Emerton",
				"lastlogoff": 1360955447,
				"profileurl": "http://steamcommunity.com/id/emerton/",
				"avatar": "http://media.steampowered.com/steamcommunity/public/images/avatars/0a/0a0ec40b3b526f4d68d4eda572e5fa91921a5851.jpg",
				"avatarmedium": "http://media.steampowered.com/steamcommunity/public/images/avatars/0a/0a0ec40b3b526f4d68d4eda572e5fa91921a5851_medium.jpg",
				"avatarfull": "http://media.steampowered.com/steamcommunity/public/images/avatars/0a/0a0ec40b3b526f4d68d4eda572e5fa91921a5851_full.jpg",
				"personastate": 1,
				"realname": "Christian Kaas",
				"primaryclanid": "103582791431934946",
				"timecreated": 1063361836,
				"loccountrycode": "DK",
				"locstatecode": "08",
				"loccityid": 13982
			},
			{
				"steamid": "76561197960300915",
				"communityvisibilitystate": 1,
				"personaname": "claudio_defbond",
				"profileurl": "http://steamcommunity.com/profiles/76561197960300915/",
				"avatar": "http://media.steampowered.com/steamcommunity/public/images/avatars/fe/fef49e7fa7e1997310d705b2a6158ff8dc1cdfeb.jpg",
				"avatarmedium": "http://media.steampowered.com/steamcommunity/public/images/avatars/fe/fef49e7fa7e1997310d705b2a6158ff8dc1cdfeb_medium.jpg",
				"avatarfull": "http://media.steampowered.com/steamcommunity/public/images/avatars/fe/fef49e7fa7e1997310d705b2a6158ff8dc1cdfeb_full.jpg",
				"personastate": 0
			},
			{
				"steamid": "76561197960300745",
				"communityvisibilitystate": 3,
				"profilestate": 1,
				"personaname": "FuBu",
				"lastlogoff": 1360091286,
				"profileurl": "http://steamcommunity.com/profiles/76561197960300745/",
				"avatar": "http://media.steampowered.com/steamcommunity/public/images/avatars/fe/fef49e7fa7e1997310d705b2a6158ff8dc1cdfeb.jpg",
				"avatarmedium": "http://media.steampowered.com/steamcommunity/public/images/avatars/fe/fef49e7fa7e1997310d705b2a6158ff8dc1cdfeb_medium.jpg",
				"avatarfull": "http://media.steampowered.com/steamcommunity/public/images/avatars/fe/fef49e7fa7e1997310d705b2a6158ff8dc1cdfeb_full.jpg",
				"personastate": 0,
				"primaryclanid": "103582791429521408",
				"timecreated": 1063361817
			},
			{
				"steamid": "76561197960300863",
				"communityvisibilitystate": 1,
				"profilestate": 1,
				"personaname": "Bot#1 CSPL.RU",
				"lastlogoff": 1360957619,
				"profileurl": "http://steamcommunity.com/profiles/76561197960300863/",
				"avatar": "http://media.steampowered.com/steamcommunity/public/images/avatars/e1/e18dcb7c5db964a2553f71f165664880289bf965.jpg",
				"avatarmedium": "http://media.steampowered.com/steamcommunity/public/images/avatars/e1/e18dcb7c5db964a2553f71f165664880289bf965_medium.jpg",
				"avatarfull": "http://media.steampowered.com/steamcommunity/public/images/avatars/e1/e18dcb7c5db964a2553f71f165664880289bf965_full.jpg",
				"personastate": 0
			},
			{
				"steamid": "76561197960300801",
				"communityvisibilitystate": 1,
				"profilestate": 1,
				"personaname": "29A | Coomsey™",
				"lastlogoff": 1353491398,
				"profileurl": "http://steamcommunity.com/profiles/76561197960300801/",
				"avatar": "http://media.steampowered.com/steamcommunity/public/images/avatars/67/67a7f74d2fcb76681c0beb94c2c92877bce9b64e.jpg",
				"avatarmedium": "http://media.steampowered.com/steamcommunity/public/images/avatars/67/67a7f74d2fcb76681c0beb94c2c92877bce9b64e_medium.jpg",
				"avatarfull": "http://media.steampowered.com/steamcommunity/public/images/avatars/67/67a7f74d2fcb76681c0beb94c2c92877bce9b64e_full.jpg",
				"personastate": 0
			},
			{
				"steamid": "76561197960300919",
				"communityvisibilitystate": 3,
				"personaname": "feock",
				"lastlogoff": 1320825100,
				"profileurl": "http://steamcommunity.com/profiles/76561197960300919/",
				"avatar": "http://media.steampowered.com/steamcommunity/public/images/avatars/fe/fef49e7fa7e1997310d705b2a6158ff8dc1cdfeb.jpg",
				"avatarmedium": "http://media.steampowered.com/steamcommunity/public/images/avatars/fe/fef49e7fa7e1997310d705b2a6158ff8dc1cdfeb_medium.jpg",
				"avatarfull": "http://media.steampowered.com/steamcommunity/public/images/avatars/fe/fef49e7fa7e1997310d705b2a6158ff8dc1cdfeb_full.jpg",
				"personastate": 0,
				"primaryclanid": "103582791429521408",
				"timecreated": 1063361879
			},
			{
				"steamid": "76561197960300841",
				"communityvisibilitystate": 3,
				"profilestate": 1,
				"personaname": "corDy",
				"lastlogoff": 1275621532,
				"profileurl": "http://steamcommunity.com/profiles/76561197960300841/",
				"avatar": "http://media.steampowered.com/steamcommunity/public/images/avatars/b2/b2b9f9b15984f943a5989ada4f87c7e8726a4473.jpg",
				"avatarmedium": "http://media.steampowered.com/steamcommunity/public/images/avatars/b2/b2b9f9b15984f943a5989ada4f87c7e8726a4473_medium.jpg",
				"avatarfull": "http://media.steampowered.com/steamcommunity/public/images/avatars/b2/b2b9f9b15984f943a5989ada4f87c7e8726a4473_full.jpg",
				"personastate": 0,
				"primaryclanid": "103582791429521408",
				"timecreated": 1063361855,
				"loccountrycode": "DE"
			},
			{
				"steamid": "76561197960300827",
				"communityvisibilitystate": 1,
				"personaname": "daewootuner",
				"profileurl": "http://steamcommunity.com/profiles/76561197960300827/",
				"avatar": "http://media.steampowered.com/steamcommunity/public/images/avatars/fe/fef49e7fa7e1997310d705b2a6158ff8dc1cdfeb.jpg",
				"avatarmedium": "http://media.steampowered.com/steamcommunity/public/images/avatars/fe/fef49e7fa7e1997310d705b2a6158ff8dc1cdfeb_medium.jpg",
				"avatarfull": "http://media.steampowered.com/steamcommunity/public/images/avatars/fe/fef49e7fa7e1997310d705b2a6158ff8dc1cdfeb_full.jpg",
				"personastate": 0
			},
			{
				"steamid": "76561197960300771",
				"communityvisibilitystate": 3,
				"profilestate": 1,
				"personaname": "strunner",
				"lastlogoff": 1359850987,
				"profileurl": "http://steamcommunity.com/id/fix0r/",
				"avatar": "http://media.steampowered.com/steamcommunity/public/images/avatars/fe/fef49e7fa7e1997310d705b2a6158ff8dc1cdfeb.jpg",
				"avatarmedium": "http://media.steampowered.com/steamcommunity/public/images/avatars/fe/fef49e7fa7e1997310d705b2a6158ff8dc1cdfeb_medium.jpg",
				"avatarfull": "http://media.steampowered.com/steamcommunity/public/images/avatars/fe/fef49e7fa7e1997310d705b2a6158ff8dc1cdfeb_full.jpg",
				"personastate": 0,
				"realname": "Marcus",
				"primaryclanid": "103582791429551112",
				"timecreated": 1063361826
			},
			{
				"steamid": "76561197960300889",
				"communityvisibilitystate": 3,
				"profilestate": 1,
				"personaname": "Xaero",
				"lastlogoff": 1360942597,
				"profileurl": "http://steamcommunity.com/profiles/76561197960300889/",
				"avatar": "http://media.steampowered.com/steamcommunity/public/images/avatars/9c/9c03599e600fb3fc8e85466ccdf29ed31172c17d.jpg",
				"avatarmedium": "http://media.steampowered.com/steamcommunity/public/images/avatars/9c/9c03599e600fb3fc8e85466ccdf29ed31172c17d_medium.jpg",
				"avatarfull": "http://media.steampowered.com/steamcommunity/public/images/avatars/9c/9c03599e600fb3fc8e85466ccdf29ed31172c17d_full.jpg",
				"personastate": 1,
				"realname": "Oliver",
				"primaryclanid": "103582791429858359",
				"timecreated": 1063361872,
				"loccountrycode": "DE",
				"locstatecode": "07",
				"loccityid": 12475
			},
			{
				"steamid": "76561197960300737",
				"communityvisibilitystate": 3,
				"personaname": "Rikard",
				"lastlogoff": 1225794788,
				"profileurl": "http://steamcommunity.com/profiles/76561197960300737/",
				"avatar": "http://media.steampowered.com/steamcommunity/public/images/avatars/fe/fef49e7fa7e1997310d705b2a6158ff8dc1cdfeb.jpg",
				"avatarmedium": "http://media.steampowered.com/steamcommunity/public/images/avatars/fe/fef49e7fa7e1997310d705b2a6158ff8dc1cdfeb_medium.jpg",
				"avatarfull": "http://media.steampowered.com/steamcommunity/public/images/avatars/fe/fef49e7fa7e1997310d705b2a6158ff8dc1cdfeb_full.jpg",
				"personastate": 0,
				"primaryclanid": "103582791429521408",
				"timecreated": 1063361814
			},
			{
				"steamid": "76561197960300855",
				"communityvisibilitystate": 1,
				"profilestate": 1,
				"personaname": "co-rep",
				"lastlogoff": 1356474995,
				"profileurl": "http://steamcommunity.com/profiles/76561197960300855/",
				"avatar": "http://media.steampowered.com/steamcommunity/public/images/avatars/d1/d14bc279ec5d8d763f08633bed4c5f84b5557a5f.jpg",
				"avatarmedium": "http://media.steampowered.com/steamcommunity/public/images/avatars/d1/d14bc279ec5d8d763f08633bed4c5f84b5557a5f_medium.jpg",
				"avatarfull": "http://media.steampowered.com/steamcommunity/public/images/avatars/d1/d14bc279ec5d8d763f08633bed4c5f84b5557a5f_full.jpg",
				"personastate": 0
			},
			{
				"steamid": "76561197960300755",
				"communityvisibilitystate": 1,
				"profilestate": 1,
				"personaname": "KaI",
				"lastlogoff": 1360948311,
				"profileurl": "http://steamcommunity.com/profiles/76561197960300755/",
				"avatar": "http://media.steampowered.com/steamcommunity/public/images/avatars/e3/e3af06a1e78b1f88543380fec110885ddc4975aa.jpg",
				"avatarmedium": "http://media.steampowered.com/steamcommunity/public/images/avatars/e3/e3af06a1e78b1f88543380fec110885ddc4975aa_medium.jpg",
				"avatarfull": "http://media.steampowered.com/steamcommunity/public/images/avatars/e3/e3af06a1e78b1f88543380fec110885ddc4975aa_full.jpg",
				"personastate": 0
			},
			{
				"steamid": "76561197960300873",
				"communityvisibilitystate": 3,
				"profilestate": 1,
				"personaname": "krown",
				"lastlogoff": 1239498520,
				"profileurl": "http://steamcommunity.com/profiles/76561197960300873/",
				"avatar": "http://media.steampowered.com/steamcommunity/public/images/avatars/cd/cd8e741f69efc060ee910846eb9b5908281c9cc0.jpg",
				"avatarmedium": "http://media.steampowered.com/steamcommunity/public/images/avatars/cd/cd8e741f69efc060ee910846eb9b5908281c9cc0_medium.jpg",
				"avatarfull": "http://media.steampowered.com/steamcommunity/public/images/avatars/cd/cd8e741f69efc060ee910846eb9b5908281c9cc0_full.jpg",
				"personastate": 0,
				"realname": "Kevin R.",
				"primaryclanid": "103582791430079426",
				"timecreated": 1063361863,
				"loccountrycode": "DE",
				"locstatecode": "02",
				"loccityid": 13377
			},
			{
				"steamid": "76561197960300813",
				"communityvisibilitystate": 1,
				"personaname": "thore-hauck",
				"profileurl": "http://steamcommunity.com/profiles/76561197960300813/",
				"avatar": "http://media.steampowered.com/steamcommunity/public/images/avatars/fe/fef49e7fa7e1997310d705b2a6158ff8dc1cdfeb.jpg",
				"avatarmedium": "http://media.steampowered.com/steamcommunity/public/images/avatars/fe/fef49e7fa7e1997310d705b2a6158ff8dc1cdfeb_medium.jpg",
				"avatarfull": "http://media.steampowered.com/steamcommunity/public/images/avatars/fe/fef49e7fa7e1997310d705b2a6158ff8dc1cdfeb_full.jpg",
				"personastate": 0
			},
			{
				"steamid": "76561197960300799",
				"communityvisibilitystate": 1,
				"profilestate": 1,
				"personaname": "le BooDDh4",
				"lastlogoff": 1358974036,
				"profileurl": "http://steamcommunity.com/profiles/76561197960300799/",
				"avatar": "http://media.steampowered.com/steamcommunity/public/images/avatars/1c/1ca6194d4d350612ee4ba6b8d531ca88e81d2b0a.jpg",
				"avatarmedium": "http://media.steampowered.com/steamcommunity/public/images/avatars/1c/1ca6194d4d350612ee4ba6b8d531ca88e81d2b0a_medium.jpg",
				"avatarfull": "http://media.steampowered.com/steamcommunity/public/images/avatars/1c/1ca6194d4d350612ee4ba6b8d531ca88e81d2b0a_full.jpg",
				"personastate": 0
			},
			{
				"steamid": "76561197960300917",
				"communityvisibilitystate": 3,
				"personaname": "sagikaroly",
				"lastlogoff": 1199354088,
				"profileurl": "http://steamcommunity.com/profiles/76561197960300917/",
				"avatar": "http://media.steampowered.com/steamcommunity/public/images/avatars/fe/fef49e7fa7e1997310d705b2a6158ff8dc1cdfeb.jpg",
				"avatarmedium": "http://media.steampowered.com/steamcommunity/public/images/avatars/fe/fef49e7fa7e1997310d705b2a6158ff8dc1cdfeb_medium.jpg",
				"avatarfull": "http://media.steampowered.com/steamcommunity/public/images/avatars/fe/fef49e7fa7e1997310d705b2a6158ff8dc1cdfeb_full.jpg",
				"personastate": 0,
				"primaryclanid": "103582791429521408",
				"timecreated": 1063361878
			},
			{
				"steamid": "76561197960300819",
				"communityvisibilitystate": 3,
				"profilestate": 1,
				"personaname": "SkiLLeD RiDahS",
				"lastlogoff": 1360925897,
				"profileurl": "http://steamcommunity.com/profiles/76561197960300819/",
				"avatar": "http://media.steampowered.com/steamcommunity/public/images/avatars/83/8396ee98f29c01f5fc14bf604fa3145f65a32939.jpg",
				"avatarmedium": "http://media.steampowered.com/steamcommunity/public/images/avatars/83/8396ee98f29c01f5fc14bf604fa3145f65a32939_medium.jpg",
				"avatarfull": "http://media.steampowered.com/steamcommunity/public/images/avatars/83/8396ee98f29c01f5fc14bf604fa3145f65a32939_full.jpg",
				"personastate": 0,
				"primaryclanid": "103582791429521408",
				"timecreated": 1063361843
			},
			{
				"steamid": "76561197960300753",
				"communityvisibilitystate": 3,
				"profilestate": 1,
				"personaname": "LaViOkE",
				"lastlogoff": 1325745253,
				"profileurl": "http://steamcommunity.com/profiles/76561197960300753/",
				"avatar": "http://media.steampowered.com/steamcommunity/public/images/avatars/55/558e9b3ae97626c8dcdd1c6d4695015903e08b02.jpg",
				"avatarmedium": "http://media.steampowered.com/steamcommunity/public/images/avatars/55/558e9b3ae97626c8dcdd1c6d4695015903e08b02_medium.jpg",
				"avatarfull": "http://media.steampowered.com/steamcommunity/public/images/avatars/55/558e9b3ae97626c8dcdd1c6d4695015903e08b02_full.jpg",
				"personastate": 0,
				"realname": "Nosmoth",
				"primaryclanid": "103582791430060520",
				"timecreated": 1063361822,
				"loccountrycode": "FR",
				"locstatecode": "97",
				"loccityid": 15679
			},
			{
				"steamid": "76561197960300871",
				"communityvisibilitystate": 1,
				"personaname": "mb001d8277",
				"profileurl": "http://steamcommunity.com/profiles/76561197960300871/",
				"avatar": "http://media.steampowered.com/steamcommunity/public/images/avatars/fe/fef49e7fa7e1997310d705b2a6158ff8dc1cdfeb.jpg",
				"avatarmedium": "http://media.steampowered.com/steamcommunity/public/images/avatars/fe/fef49e7fa7e1997310d705b2a6158ff8dc1cdfeb_medium.jpg",
				"avatarfull": "http://media.steampowered.com/steamcommunity/public/images/avatars/fe/fef49e7fa7e1997310d705b2a6158ff8dc1cdfeb_full.jpg",
				"personastate": 0
			},
			{
				"steamid": "76561197960300785",
				"communityvisibilitystate": 3,
				"profilestate": 1,
				"personaname": "matze",
				"lastlogoff": 1349272189,
				"profileurl": "http://steamcommunity.com/profiles/76561197960300785/",
				"avatar": "http://media.steampowered.com/steamcommunity/public/images/avatars/70/703dab5f3e52f430e6217d617251596dc997dd3c.jpg",
				"avatarmedium": "http://media.steampowered.com/steamcommunity/public/images/avatars/70/703dab5f3e52f430e6217d617251596dc997dd3c_medium.jpg",
				"avatarfull": "http://media.steampowered.com/steamcommunity/public/images/avatars/70/703dab5f3e52f430e6217d617251596dc997dd3c_full.jpg",
				"personastate": 0,
				"primaryclanid": "103582791429581954",
				"timecreated": 1063361830
			},
			{
				"steamid": "76561197960300903",
				"communityvisibilitystate": 1,
				"profilestate": 1,
				"personaname": "don vaLe",
				"lastlogoff": 1345985677,
				"profileurl": "http://steamcommunity.com/profiles/76561197960300903/",
				"avatar": "http://media.steampowered.com/steamcommunity/public/images/avatars/1b/1b080f3d2fe89b1599a5aed272622749e3fff6ca.jpg",
				"avatarmedium": "http://media.steampowered.com/steamcommunity/public/images/avatars/1b/1b080f3d2fe89b1599a5aed272622749e3fff6ca_medium.jpg",
				"avatarfull": "http://media.steampowered.com/steamcommunity/public/images/avatars/1b/1b080f3d2fe89b1599a5aed272622749e3fff6ca_full.jpg",
				"personastate": 0
			},
			{
				"steamid": "76561197960300729",
				"communityvisibilitystate": 3,
				"profilestate": 1,
				"personaname": "sup",
				"lastlogoff": 1266448646,
				"profileurl": "http://steamcommunity.com/profiles/76561197960300729/",
				"avatar": "http://media.steampowered.com/steamcommunity/public/images/avatars/fe/fef49e7fa7e1997310d705b2a6158ff8dc1cdfeb.jpg",
				"avatarmedium": "http://media.steampowered.com/steamcommunity/public/images/avatars/fe/fef49e7fa7e1997310d705b2a6158ff8dc1cdfeb_medium.jpg",
				"avatarfull": "http://media.steampowered.com/steamcommunity/public/images/avatars/fe/fef49e7fa7e1997310d705b2a6158ff8dc1cdfeb_full.jpg",
				"personastate": 0,
				"primaryclanid": "103582791429521408",
				"timecreated": 1063361811
			},
			{
				"steamid": "76561197960300847",
				"communityvisibilitystate": 3,
				"profilestate": 1,
				"personaname": "Baumwollschaf",
				"lastlogoff": 1360163504,
				"profileurl": "http://steamcommunity.com/profiles/76561197960300847/",
				"avatar": "http://media.steampowered.com/steamcommunity/public/images/avatars/6b/6b529591e1378c7f7c3cb9664d32e1012d4ba930.jpg",
				"avatarmedium": "http://media.steampowered.com/steamcommunity/public/images/avatars/6b/6b529591e1378c7f7c3cb9664d32e1012d4ba930_medium.jpg",
				"avatarfull": "http://media.steampowered.com/steamcommunity/public/images/avatars/6b/6b529591e1378c7f7c3cb9664d32e1012d4ba930_full.jpg",
				"personastate": 0,
				"realname": "gehtdichgarnixan",
				"primaryclanid": "103582791429521408",
				"timecreated": 1063361856
			},
			{
				"steamid": "76561197960300775",
				"communityvisibilitystate": 1,
				"personaname": "verchecker1",
				"profileurl": "http://steamcommunity.com/profiles/76561197960300775/",
				"avatar": "http://media.steampowered.com/steamcommunity/public/images/avatars/fe/fef49e7fa7e1997310d705b2a6158ff8dc1cdfeb.jpg",
				"avatarmedium": "http://media.steampowered.com/steamcommunity/public/images/avatars/fe/fef49e7fa7e1997310d705b2a6158ff8dc1cdfeb_medium.jpg",
				"avatarfull": "http://media.steampowered.com/steamcommunity/public/images/avatars/fe/fef49e7fa7e1997310d705b2a6158ff8dc1cdfeb_full.jpg",
				"personastate": 0
			},
			{
				"steamid": "76561197960300893",
				"communityvisibilitystate": 3,
				"personaname": "cedbecks",
				"lastlogoff": 1179575837,
				"profileurl": "http://steamcommunity.com/profiles/76561197960300893/",
				"avatar": "http://media.steampowered.com/steamcommunity/public/images/avatars/fe/fef49e7fa7e1997310d705b2a6158ff8dc1cdfeb.jpg",
				"avatarmedium": "http://media.steampowered.com/steamcommunity/public/images/avatars/fe/fef49e7fa7e1997310d705b2a6158ff8dc1cdfeb_medium.jpg",
				"avatarfull": "http://media.steampowered.com/steamcommunity/public/images/avatars/fe/fef49e7fa7e1997310d705b2a6158ff8dc1cdfeb_full.jpg",
				"personastate": 0,
				"primaryclanid": "103582791429521408",
				"timecreated": 1063361874
			},
			{
				"steamid": "76561197960300807",
				"communityvisibilitystate": 3,
				"profilestate": 1,
				"personaname": "Vdb",
				"lastlogoff": 1360952869,
				"profileurl": "http://steamcommunity.com/profiles/76561197960300807/",
				"avatar": "http://media.steampowered.com/steamcommunity/public/images/avatars/39/391a0d3db499cd7a39a3c9f653ab566db14e94a4.jpg",
				"avatarmedium": "http://media.steampowered.com/steamcommunity/public/images/avatars/39/391a0d3db499cd7a39a3c9f653ab566db14e94a4_medium.jpg",
				"avatarfull": "http://media.steampowered.com/steamcommunity/public/images/avatars/39/391a0d3db499cd7a39a3c9f653ab566db14e94a4_full.jpg",
				"personastate": 0,
				"realname": "M.Vandenbroecke",
				"primaryclanid": "103582791431312162",
				"timecreated": 1063361839,
				"loccountrycode": "BE",
				"locstatecode": "09",
				"loccityid": 6291
			},
			{
				"steamid": "76561197960300925",
				"communityvisibilitystate": 1,
				"personaname": "optixx_shakal",
				"profileurl": "http://steamcommunity.com/profiles/76561197960300925/",
				"avatar": "http://media.steampowered.com/steamcommunity/public/images/avatars/fe/fef49e7fa7e1997310d705b2a6158ff8dc1cdfeb.jpg",
				"avatarmedium": "http://media.steampowered.com/steamcommunity/public/images/avatars/fe/fef49e7fa7e1997310d705b2a6158ff8dc1cdfeb_medium.jpg",
				"avatarfull": "http://media.steampowered.com/steamcommunity/public/images/avatars/fe/fef49e7fa7e1997310d705b2a6158ff8dc1cdfeb_full.jpg",
				"personastate": 0
			},
			{
				"steamid": "76561197960300825",
				"communityvisibilitystate": 3,
				"profilestate": 1,
				"personaname": "autokill",
				"lastlogoff": 1360820080,
				"profileurl": "http://steamcommunity.com/profiles/76561197960300825/",
				"avatar": "http://media.steampowered.com/steamcommunity/public/images/avatars/fe/fef49e7fa7e1997310d705b2a6158ff8dc1cdfeb.jpg",
				"avatarmedium": "http://media.steampowered.com/steamcommunity/public/images/avatars/fe/fef49e7fa7e1997310d705b2a6158ff8dc1cdfeb_medium.jpg",
				"avatarfull": "http://media.steampowered.com/steamcommunity/public/images/avatars/fe/fef49e7fa7e1997310d705b2a6158ff8dc1cdfeb_full.jpg",
				"personastate": 1,
				"primaryclanid": "103582791429876564",
				"timecreated": 1063361848,
				"gameserverip": "92.246.27.123:1900",
				"gameextrainfo": "Counter-Strike: Condition Zero",
				"gameid": "80",
				"gameserversteamid": "90086054464128002"
			},
			{
				"steamid": "76561197960300811",
				"communityvisibilitystate": 3,
				"personaname": "rgoschmitz",
				"lastlogoff": 1253886287,
				"profileurl": "http://steamcommunity.com/profiles/76561197960300811/",
				"avatar": "http://media.steampowered.com/steamcommunity/public/images/avatars/fe/fef49e7fa7e1997310d705b2a6158ff8dc1cdfeb.jpg",
				"avatarmedium": "http://media.steampowered.com/steamcommunity/public/images/avatars/fe/fef49e7fa7e1997310d705b2a6158ff8dc1cdfeb_medium.jpg",
				"avatarfull": "http://media.steampowered.com/steamcommunity/public/images/avatars/fe/fef49e7fa7e1997310d705b2a6158ff8dc1cdfeb_full.jpg",
				"personastate": 0,
				"primaryclanid": "103582791429521408",
				"timecreated": 1063361840
			},
			{
				"steamid": "76561197960300865",
				"communityvisibilitystate": 3,
				"profilestate": 1,
				"personaname": "cRow",
				"lastlogoff": 1360233745,
				"profileurl": "http://steamcommunity.com/profiles/76561197960300865/",
				"avatar": "http://media.steampowered.com/steamcommunity/public/images/avatars/fe/fef49e7fa7e1997310d705b2a6158ff8dc1cdfeb.jpg",
				"avatarmedium": "http://media.steampowered.com/steamcommunity/public/images/avatars/fe/fef49e7fa7e1997310d705b2a6158ff8dc1cdfeb_medium.jpg",
				"avatarfull": "http://media.steampowered.com/steamcommunity/public/images/avatars/fe/fef49e7fa7e1997310d705b2a6158ff8dc1cdfeb_full.jpg",
				"personastate": 0,
				"primaryclanid": "103582791430274720",
				"timecreated": 1063361861
			},
			{
				"steamid": "76561197960300741",
				"communityvisibilitystate": 1,
				"personaname": "chachele",
				"profileurl": "http://steamcommunity.com/profiles/76561197960300741/",
				"avatar": "http://media.steampowered.com/steamcommunity/public/images/avatars/fe/fef49e7fa7e1997310d705b2a6158ff8dc1cdfeb.jpg",
				"avatarmedium": "http://media.steampowered.com/steamcommunity/public/images/avatars/fe/fef49e7fa7e1997310d705b2a6158ff8dc1cdfeb_medium.jpg",
				"avatarfull": "http://media.steampowered.com/steamcommunity/public/images/avatars/fe/fef49e7fa7e1997310d705b2a6158ff8dc1cdfeb_full.jpg",
				"personastate": 0
			},
			{
				"steamid": "76561197960300731",
				"communityvisibilitystate": 3,
				"profilestate": 1,
				"personaname": "RockaHoliK",
				"lastlogoff": 1360483770,
				"profileurl": "http://steamcommunity.com/profiles/76561197960300731/",
				"avatar": "http://media.steampowered.com/steamcommunity/public/images/avatars/17/17c528b62018d261105269e04db4179ba0243415.jpg",
				"avatarmedium": "http://media.steampowered.com/steamcommunity/public/images/avatars/17/17c528b62018d261105269e04db4179ba0243415_medium.jpg",
				"avatarfull": "http://media.steampowered.com/steamcommunity/public/images/avatars/17/17c528b62018d261105269e04db4179ba0243415_full.jpg",
				"personastate": 0,
				"primaryclanid": "103582791429817757",
				"timecreated": 1063361812,
				"loccountrycode": "DE",
				"locstatecode": "07"
			},
			{
				"steamid": "76561197960300851",
				"communityvisibilitystate": 3,
				"profilestate": 1,
				"personaname": "chuck norris",
				"lastlogoff": 1360889753,
				"profileurl": "http://steamcommunity.com/profiles/76561197960300851/",
				"avatar": "http://media.steampowered.com/steamcommunity/public/images/avatars/fe/fef49e7fa7e1997310d705b2a6158ff8dc1cdfeb.jpg",
				"avatarmedium": "http://media.steampowered.com/steamcommunity/public/images/avatars/fe/fef49e7fa7e1997310d705b2a6158ff8dc1cdfeb_medium.jpg",
				"avatarfull": "http://media.steampowered.com/steamcommunity/public/images/avatars/fe/fef49e7fa7e1997310d705b2a6158ff8dc1cdfeb_full.jpg",
				"personastate": 0,
				"primaryclanid": "103582791429521408",
				"timecreated": 1063361857,
				"loccountrycode": "DE"
			},
			{
				"steamid": "76561197960300809",
				"communityvisibilitystate": 1,
				"profilestate": 1,
				"personaname": "Anah",
				"lastlogoff": 1244418602,
				"profileurl": "http://steamcommunity.com/profiles/76561197960300809/",
				"avatar": "http://media.steampowered.com/steamcommunity/public/images/avatars/1a/1a0ca44cc58de32d3869307e663d83ef138a3a7e.jpg",
				"avatarmedium": "http://media.steampowered.com/steamcommunity/public/images/avatars/1a/1a0ca44cc58de32d3869307e663d83ef138a3a7e_medium.jpg",
				"avatarfull": "http://media.steampowered.com/steamcommunity/public/images/avatars/1a/1a0ca44cc58de32d3869307e663d83ef138a3a7e_full.jpg",
				"personastate": 0
			},
			{
				"steamid": "76561197960300735",
				"communityvisibilitystate": 3,
				"profilestate": 1,
				"personaname": "huxflux",
				"lastlogoff": 1360364832,
				"profileurl": "http://steamcommunity.com/profiles/76561197960300735/",
				"avatar": "http://media.steampowered.com/steamcommunity/public/images/avatars/fe/fef49e7fa7e1997310d705b2a6158ff8dc1cdfeb.jpg",
				"avatarmedium": "http://media.steampowered.com/steamcommunity/public/images/avatars/fe/fef49e7fa7e1997310d705b2a6158ff8dc1cdfeb_medium.jpg",
				"avatarfull": "http://media.steampowered.com/steamcommunity/public/images/avatars/fe/fef49e7fa7e1997310d705b2a6158ff8dc1cdfeb_full.jpg",
				"personastate": 0,
				"primaryclanid": "103582791429521408",
				"timecreated": 1063361813
			},
			{
				"steamid": "76561197960300769",
				"communityvisibilitystate": 3,
				"profilestate": 1,
				"personaname": "Nikodemus",
				"lastlogoff": 1294885121,
				"profileurl": "http://steamcommunity.com/profiles/76561197960300769/",
				"avatar": "http://media.steampowered.com/steamcommunity/public/images/avatars/5d/5d25968171e82e8ba73e44b20844ee6f8faf89e9.jpg",
				"avatarmedium": "http://media.steampowered.com/steamcommunity/public/images/avatars/5d/5d25968171e82e8ba73e44b20844ee6f8faf89e9_medium.jpg",
				"avatarfull": "http://media.steampowered.com/steamcommunity/public/images/avatars/5d/5d25968171e82e8ba73e44b20844ee6f8faf89e9_full.jpg",
				"personastate": 0,
				"primaryclanid": "103582791430041014",
				"timecreated": 1063361826
			},
			{
				"steamid": "76561197960300887",
				"communityvisibilitystate": 1,
				"profilestate": 1,
				"personaname": "Alki*",
				"lastlogoff": 1360883629,
				"profileurl": "http://steamcommunity.com/id/Alkoholiker/",
				"avatar": "http://media.steampowered.com/steamcommunity/public/images/avatars/ff/ff37af72d1c27ae3c9dc6845203ed25b1279d954.jpg",
				"avatarmedium": "http://media.steampowered.com/steamcommunity/public/images/avatars/ff/ff37af72d1c27ae3c9dc6845203ed25b1279d954_medium.jpg",
				"avatarfull": "http://media.steampowered.com/steamcommunity/public/images/avatars/ff/ff37af72d1c27ae3c9dc6845203ed25b1279d954_full.jpg",
				"personastate": 0
			}
		]
		
	}
}