{
	"response": {
		"players": [
			{
				"steamid": "76561197960343627",
				"communityvisibilitystate": 1,
				"personaname": "admin",
				"profileurl": "http://steamcommunity.com/profiles/76561197960343627/",
				"avatar": "http://media.steampowered.com/steamcommunity/public/images/avatars/fe/fef49e7fa7e1997310d705b2a6158ff8dc1cdfeb.jpg",
				"avatarmedium": "http://media.steampowered.com/steamcommunity/public/images/avatars/fe/fef49e7fa7e1997310d705b2a6158ff8dc1cdfeb_medium.jpg",
				"avatarfull": "http://media.steampowered.com/steamcommunity/public/images/avatars/fe/fef49e7fa7e1997310d705b2a6158ff8dc1cdfeb_full.jpg",
				"personastate": 0
			},
			{
				"steamid": "76561197960343559",
				"communityvisibilitystate": 3,
				"profilestate": 1,
				"personaname": "guaneri*",
				"lastlogoff": 1360599642,
				"profileurl": "http://steamcommunity.com/profiles/76561197960343559/",
				"avatar": "http://media.steampowered.com/steamcommunity/public/images/avatars/2a/2a9e4b5cd849f754925dcb083d7b536d324ed30e.jpg",
				"avatarmedium": "http://media.steampowered.com/steamcommunity/public/images/avatars/2a/2a9e4b5cd849f754925dcb083d7b536d324ed30e_medium.jpg",
				"avatarfull": "http://media.steampowered.com/steamcommunity/public/images/avatars/2a/2a9e4b5cd849f754925dcb083d7b536d324ed30e_full.jpg",
				"personastate": 0,
				"realname": "Hannes J.",
				"primaryclanid": "103582791430041014",
				"timecreated": 1063373566,
				"loccountrycode": "AT",
				"locstatecode": "06",
				"loccityid": 5810
			},
			{
				"steamid": "76561197960343677",
				"communityvisibilitystate": 3,
				"personaname": "=Cc=%[OPA]%Spooky",
				"lastlogoff": 1218378495,
				"profileurl": "http://steamcommunity.com/profiles/76561197960343677/",
				"avatar": "http://media.steampowered.com/steamcommunity/public/images/avatars/fe/fef49e7fa7e1997310d705b2a6158ff8dc1cdfeb.jpg",
				"avatarmedium": "http://media.steampowered.com/steamcommunity/public/images/avatars/fe/fef49e7fa7e1997310d705b2a6158ff8dc1cdfeb_medium.jpg",
				"avatarfull": "http://media.steampowered.com/steamcommunity/public/images/avatars/fe/fef49e7fa7e1997310d705b2a6158ff8dc1cdfeb_full.jpg",
				"personastate": 0,
				"primaryclanid": "103582791429521408",
				"timecreated": 1063373593
			},
			{
				"steamid": "76561197960343613",
				"communityvisibilitystate": 1,
				"personaname": "zebra",
				"profileurl": "http://steamcommunity.com/profiles/76561197960343613/",
				"avatar": "http://media.steampowered.com/steamcommunity/public/images/avatars/fe/fef49e7fa7e1997310d705b2a6158ff8dc1cdfeb.jpg",
				"avatarmedium": "http://media.steampowered.com/steamcommunity/public/images/avatars/fe/fef49e7fa7e1997310d705b2a6158ff8dc1cdfeb_medium.jpg",
				"avatarfull": "http://media.steampowered.com/steamcommunity/public/images/avatars/fe/fef49e7fa7e1997310d705b2a6158ff8dc1cdfeb_full.jpg",
				"personastate": 0
			},
			{
				"steamid": "76561197960343589",
				"communityvisibilitystate": 3,
				"personaname": "xerox_lkpg",
				"lastlogoff": 1215607847,
				"profileurl": "http://steamcommunity.com/profiles/76561197960343589/",
				"avatar": "http://media.steampowered.com/steamcommunity/public/images/avatars/fe/fef49e7fa7e1997310d705b2a6158ff8dc1cdfeb.jpg",
				"avatarmedium": "http://media.steampowered.com/steamcommunity/public/images/avatars/fe/fef49e7fa7e1997310d705b2a6158ff8dc1cdfeb_medium.jpg",
				"avatarfull": "http://media.steampowered.com/steamcommunity/public/images/avatars/fe/fef49e7fa7e1997310d705b2a6158ff8dc1cdfeb_full.jpg",
				"personastate": 0,
				"primaryclanid": "103582791429521408",
				"timecreated": 1063373573
			},
			{
				"steamid": "76561197960343707",
				"communityvisibilitystate": 1,
				"profilestate": 1,
				"personaname": "HOBO JONES",
				"lastlogoff": 1360620690,
				"commentpermission": 2,
				"profileurl": "http://steamcommunity.com/id/jonyo/",
				"avatar": "http://media.steampowered.com/steamcommunity/public/images/avatars/57/57384304be9f48be44f0e65e3fa5ce597a703399.jpg",
				"avatarmedium": "http://media.steampowered.com/steamcommunity/public/images/avatars/57/57384304be9f48be44f0e65e3fa5ce597a703399_medium.jpg",
				"avatarfull": "http://media.steampowered.com/steamcommunity/public/images/avatars/57/57384304be9f48be44f0e65e3fa5ce597a703399_full.jpg",
				"personastate": 0
			},
			{
				"steamid": "76561197960343645",
				"communityvisibilitystate": 1,
				"personaname": "aduffman",
				"profileurl": "http://steamcommunity.com/profiles/76561197960343645/",
				"avatar": "http://media.steampowered.com/steamcommunity/public/images/avatars/fe/fef49e7fa7e1997310d705b2a6158ff8dc1cdfeb.jpg",
				"avatarmedium": "http://media.steampowered.com/steamcommunity/public/images/avatars/fe/fef49e7fa7e1997310d705b2a6158ff8dc1cdfeb_medium.jpg",
				"avatarfull": "http://media.steampowered.com/steamcommunity/public/images/avatars/fe/fef49e7fa7e1997310d705b2a6158ff8dc1cdfeb_full.jpg",
				"personastate": 0
			},
			{
				"steamid": "76561197960343565",
				"communityvisibilitystate": 3,
				"profilestate": 1,
				"personaname": "sergio_j_2020",
				"lastlogoff": 1353237416,
				"profileurl": "http://steamcommunity.com/profiles/76561197960343565/",
				"avatar": "http://media.steampowered.com/steamcommunity/public/images/avatars/70/70b2a962dc69764729e86c8a451dfe3e006afe3d.jpg",
				"avatarmedium": "http://media.steampowered.com/steamcommunity/public/images/avatars/70/70b2a962dc69764729e86c8a451dfe3e006afe3d_medium.jpg",
				"avatarfull": "http://media.steampowered.com/steamcommunity/public/images/avatars/70/70b2a962dc69764729e86c8a451dfe3e006afe3d_full.jpg",
				"personastate": 0,
				"primaryclanid": "103582791429521408",
				"timecreated": 1063373566
			},
			{
				"steamid": "76561197960343683",
				"communityvisibilitystate": 1,
				"personaname": "cahit-t",
				"profileurl": "http://steamcommunity.com/profiles/76561197960343683/",
				"avatar": "http://media.steampowered.com/steamcommunity/public/images/avatars/fe/fef49e7fa7e1997310d705b2a6158ff8dc1cdfeb.jpg",
				"avatarmedium": "http://media.steampowered.com/steamcommunity/public/images/avatars/fe/fef49e7fa7e1997310d705b2a6158ff8dc1cdfeb_medium.jpg",
				"avatarfull": "http://media.steampowered.com/steamcommunity/public/images/avatars/fe/fef49e7fa7e1997310d705b2a6158ff8dc1cdfeb_full.jpg",
				"personastate": 0
			},
			{
				"steamid": "76561197960343631",
				"communityvisibilitystate": 1,
				"profilestate": 1,
				"personaname": "<3 BoLiTaRz <3  :$ te kiero :$",
				"lastlogoff": 1360551760,
				"profileurl": "http://steamcommunity.com/profiles/76561197960343631/",
				"avatar": "http://media.steampowered.com/steamcommunity/public/images/avatars/ce/ced89e26333c1e5f949963d912efe814a198758c.jpg",
				"avatarmedium": "http://media.steampowered.com/steamcommunity/public/images/avatars/ce/ced89e26333c1e5f949963d912efe814a198758c_medium.jpg",
				"avatarfull": "http://media.steampowered.com/steamcommunity/public/images/avatars/ce/ced89e26333c1e5f949963d912efe814a198758c_full.jpg",
				"personastate": 0
			},
			{
				"steamid": "76561197960343543",
				"communityvisibilitystate": 3,
				"profilestate": 1,
				"personaname": "the_legion",
				"lastlogoff": 1360960715,
				"profileurl": "http://steamcommunity.com/id/the_legion/",
				"avatar": "http://media.steampowered.com/steamcommunity/public/images/avatars/d7/d731d04d3f389c5b1c8ab8fc63df66ee6118780c.jpg",
				"avatarmedium": "http://media.steampowered.com/steamcommunity/public/images/avatars/d7/d731d04d3f389c5b1c8ab8fc63df66ee6118780c_medium.jpg",
				"avatarfull": "http://media.steampowered.com/steamcommunity/public/images/avatars/d7/d731d04d3f389c5b1c8ab8fc63df66ee6118780c_full.jpg",
				"personastate": 0,
				"realname": "the_legion",
				"primaryclanid": "103582791429578521",
				"timecreated": 1063373563
			},
			{
				"steamid": "76561197960343661",
				"communityvisibilitystate": 3,
				"profilestate": 1,
				"personaname": "Belmont",
				"lastlogoff": 1360915277,
				"profileurl": "http://steamcommunity.com/profiles/76561197960343661/",
				"avatar": "http://media.steampowered.com/steamcommunity/public/images/avatars/fe/fef49e7fa7e1997310d705b2a6158ff8dc1cdfeb.jpg",
				"avatarmedium": "http://media.steampowered.com/steamcommunity/public/images/avatars/fe/fef49e7fa7e1997310d705b2a6158ff8dc1cdfeb_medium.jpg",
				"avatarfull": "http://media.steampowered.com/steamcommunity/public/images/avatars/fe/fef49e7fa7e1997310d705b2a6158ff8dc1cdfeb_full.jpg",
				"personastate": 1,
				"primaryclanid": "103582791429521408",
				"timecreated": 1063373591,
				"loccountrycode": "NO",
				"locstatecode": "06"
			},
			{
				"steamid": "76561197960343617",
				"communityvisibilitystate": 3,
				"personaname": "Ambz",
				"lastlogoff": 1162147220,
				"profileurl": "http://steamcommunity.com/profiles/76561197960343617/",
				"avatar": "http://media.steampowered.com/steamcommunity/public/images/avatars/fe/fef49e7fa7e1997310d705b2a6158ff8dc1cdfeb.jpg",
				"avatarmedium": "http://media.steampowered.com/steamcommunity/public/images/avatars/fe/fef49e7fa7e1997310d705b2a6158ff8dc1cdfeb_medium.jpg",
				"avatarfull": "http://media.steampowered.com/steamcommunity/public/images/avatars/fe/fef49e7fa7e1997310d705b2a6158ff8dc1cdfeb_full.jpg",
				"personastate": 0,
				"primaryclanid": "103582791429521408",
				"timecreated": 1063373576
			},
			{
				"steamid": "76561197960343621",
				"communityvisibilitystate": 3,
				"personaname": "rMx´>thorsten",
				"lastlogoff": 1196099603,
				"profileurl": "http://steamcommunity.com/profiles/76561197960343621/",
				"avatar": "http://media.steampowered.com/steamcommunity/public/images/avatars/fe/fef49e7fa7e1997310d705b2a6158ff8dc1cdfeb.jpg",
				"avatarmedium": "http://media.steampowered.com/steamcommunity/public/images/avatars/fe/fef49e7fa7e1997310d705b2a6158ff8dc1cdfeb_medium.jpg",
				"avatarfull": "http://media.steampowered.com/steamcommunity/public/images/avatars/fe/fef49e7fa7e1997310d705b2a6158ff8dc1cdfeb_full.jpg",
				"personastate": 0,
				"primaryclanid": "103582791429521408",
				"timecreated": 1063373578
			},
			{
				"steamid": "76561197960343577",
				"communityvisibilitystate": 3,
				"profilestate": 1,
				"personaname": "Roster",
				"lastlogoff": 1257001692,
				"profileurl": "http://steamcommunity.com/profiles/76561197960343577/",
				"avatar": "http://media.steampowered.com/steamcommunity/public/images/avatars/fe/fef49e7fa7e1997310d705b2a6158ff8dc1cdfeb.jpg",
				"avatarmedium": "http://media.steampowered.com/steamcommunity/public/images/avatars/fe/fef49e7fa7e1997310d705b2a6158ff8dc1cdfeb_medium.jpg",
				"avatarfull": "http://media.steampowered.com/steamcommunity/public/images/avatars/fe/fef49e7fa7e1997310d705b2a6158ff8dc1cdfeb_full.jpg",
				"personastate": 0,
				"primaryclanid": "103582791429521408",
				"timecreated": 1063373569
			},
			{
				"steamid": "76561197960343695",
				"communityvisibilitystate": 3,
				"personaname": "rch11",
				"lastlogoff": 1266915269,
				"profileurl": "http://steamcommunity.com/profiles/76561197960343695/",
				"avatar": "http://media.steampowered.com/steamcommunity/public/images/avatars/fe/fef49e7fa7e1997310d705b2a6158ff8dc1cdfeb.jpg",
				"avatarmedium": "http://media.steampowered.com/steamcommunity/public/images/avatars/fe/fef49e7fa7e1997310d705b2a6158ff8dc1cdfeb_medium.jpg",
				"avatarfull": "http://media.steampowered.com/steamcommunity/public/images/avatars/fe/fef49e7fa7e1997310d705b2a6158ff8dc1cdfeb_full.jpg",
				"personastate": 0,
				"primaryclanid": "103582791429521408",
				"timecreated": 1063373601
			},
			{
				"steamid": "76561197960343597",
				"communityvisibilitystate": 1,
				"personaname": "midian2062",
				"profileurl": "http://steamcommunity.com/profiles/76561197960343597/",
				"avatar": "http://media.steampowered.com/steamcommunity/public/images/avatars/fe/fef49e7fa7e1997310d705b2a6158ff8dc1cdfeb.jpg",
				"avatarmedium": "http://media.steampowered.com/steamcommunity/public/images/avatars/fe/fef49e7fa7e1997310d705b2a6158ff8dc1cdfeb_medium.jpg",
				"avatarfull": "http://media.steampowered.com/steamcommunity/public/images/avatars/fe/fef49e7fa7e1997310d705b2a6158ff8dc1cdfeb_full.jpg",
				"personastate": 0
			},
			{
				"steamid": "76561197960343715",
				"communityvisibilitystate": 3,
				"personaname": "Niple",
				"lastlogoff": 1254683942,
				"profileurl": "http://steamcommunity.com/profiles/76561197960343715/",
				"avatar": "http://media.steampowered.com/steamcommunity/public/images/avatars/fe/fef49e7fa7e1997310d705b2a6158ff8dc1cdfeb.jpg",
				"avatarmedium": "http://media.steampowered.com/steamcommunity/public/images/avatars/fe/fef49e7fa7e1997310d705b2a6158ff8dc1cdfeb_medium.jpg",
				"avatarfull": "http://media.steampowered.com/steamcommunity/public/images/avatars/fe/fef49e7fa7e1997310d705b2a6158ff8dc1cdfeb_full.jpg",
				"personastate": 0,
				"primaryclanid": "103582791429521408",
				"timecreated": 1063373604
			},
			{
				"steamid": "76561197960343637",
				"communityvisibilitystate": 1,
				"personaname": "wangzheng2873",
				"profileurl": "http://steamcommunity.com/profiles/76561197960343637/",
				"avatar": "http://media.steampowered.com/steamcommunity/public/images/avatars/fe/fef49e7fa7e1997310d705b2a6158ff8dc1cdfeb.jpg",
				"avatarmedium": "http://media.steampowered.com/steamcommunity/public/images/avatars/fe/fef49e7fa7e1997310d705b2a6158ff8dc1cdfeb_medium.jpg",
				"avatarfull": "http://media.steampowered.com/steamcommunity/public/images/avatars/fe/fef49e7fa7e1997310d705b2a6158ff8dc1cdfeb_full.jpg",
				"personastate": 0
			},
			{
				"steamid": "76561197960343611",
				"communityvisibilitystate": 1,
				"personaname": "pio_genius",
				"profileurl": "http://steamcommunity.com/profiles/76561197960343611/",
				"avatar": "http://media.steampowered.com/steamcommunity/public/images/avatars/fe/fef49e7fa7e1997310d705b2a6158ff8dc1cdfeb.jpg",
				"avatarmedium": "http://media.steampowered.com/steamcommunity/public/images/avatars/fe/fef49e7fa7e1997310d705b2a6158ff8dc1cdfeb_medium.jpg",
				"avatarfull": "http://media.steampowered.com/steamcommunity/public/images/avatars/fe/fef49e7fa7e1997310d705b2a6158ff8dc1cdfeb_full.jpg",
				"personastate": 0
			},
			{
				"steamid": "76561197960343563",
				"communityvisibilitystate": 3,
				"personaname": "allerdaags",
				"lastlogoff": 1222675361,
				"profileurl": "http://steamcommunity.com/profiles/76561197960343563/",
				"avatar": "http://media.steampowered.com/steamcommunity/public/images/avatars/fe/fef49e7fa7e1997310d705b2a6158ff8dc1cdfeb.jpg",
				"avatarmedium": "http://media.steampowered.com/steamcommunity/public/images/avatars/fe/fef49e7fa7e1997310d705b2a6158ff8dc1cdfeb_medium.jpg",
				"avatarfull": "http://media.steampowered.com/steamcommunity/public/images/avatars/fe/fef49e7fa7e1997310d705b2a6158ff8dc1cdfeb_full.jpg",
				"personastate": 0,
				"primaryclanid": "103582791429521408",
				"timecreated": 1063373566
			},
			{
				"steamid": "76561197960343681",
				"communityvisibilitystate": 1,
				"profilestate": 1,
				"personaname": "Lucio",
				"lastlogoff": 1358644464,
				"profileurl": "http://steamcommunity.com/profiles/76561197960343681/",
				"avatar": "http://media.steampowered.com/steamcommunity/public/images/avatars/b6/b62360c523d5af1d7e9ba165ce2adbb85d2ae395.jpg",
				"avatarmedium": "http://media.steampowered.com/steamcommunity/public/images/avatars/b6/b62360c523d5af1d7e9ba165ce2adbb85d2ae395_medium.jpg",
				"avatarfull": "http://media.steampowered.com/steamcommunity/public/images/avatars/b6/b62360c523d5af1d7e9ba165ce2adbb85d2ae395_full.jpg",
				"personastate": 0
			},
			{
				"steamid": "76561197960343541",
				"communityvisibilitystate": 3,
				"personaname": "blacksheep0815",
				"lastlogoff": 1286824826,
				"profileurl": "http://steamcommunity.com/profiles/76561197960343541/",
				"avatar": "http://media.steampowered.com/steamcommunity/public/images/avatars/fe/fef49e7fa7e1997310d705b2a6158ff8dc1cdfeb.jpg",
				"avatarmedium": "http://media.steampowered.com/steamcommunity/public/images/avatars/fe/fef49e7fa7e1997310d705b2a6158ff8dc1cdfeb_medium.jpg",
				"avatarfull": "http://media.steampowered.com/steamcommunity/public/images/avatars/fe/fef49e7fa7e1997310d705b2a6158ff8dc1cdfeb_full.jpg",
				"personastate": 0,
				"primaryclanid": "103582791429521408",
				"timecreated": 1063373563
			},
			{
				"steamid": "76561197960343659",
				"communityvisibilitystate": 1,
				"personaname": "hyde1234abcd",
				"profileurl": "http://steamcommunity.com/profiles/76561197960343659/",
				"avatar": "http://media.steampowered.com/steamcommunity/public/images/avatars/fe/fef49e7fa7e1997310d705b2a6158ff8dc1cdfeb.jpg",
				"avatarmedium": "http://media.steampowered.com/steamcommunity/public/images/avatars/fe/fef49e7fa7e1997310d705b2a6158ff8dc1cdfeb_medium.jpg",
				"avatarfull": "http://media.steampowered.com/steamcommunity/public/images/avatars/fe/fef49e7fa7e1997310d705b2a6158ff8dc1cdfeb_full.jpg",
				"personastate": 0
			},
			{
				"steamid": "76561197960343643",
				"communityvisibilitystate": 1,
				"personaname": "dj_biggi",
				"profileurl": "http://steamcommunity.com/profiles/76561197960343643/",
				"avatar": "http://media.steampowered.com/steamcommunity/public/images/avatars/fe/fef49e7fa7e1997310d705b2a6158ff8dc1cdfeb.jpg",
				"avatarmedium": "http://media.steampowered.com/steamcommunity/public/images/avatars/fe/fef49e7fa7e1997310d705b2a6158ff8dc1cdfeb_medium.jpg",
				"avatarfull": "http://media.steampowered.com/steamcommunity/public/images/avatars/fe/fef49e7fa7e1997310d705b2a6158ff8dc1cdfeb_full.jpg",
				"personastate": 0
			},
			{
				"steamid": "76561197960343583",
				"communityvisibilitystate": 1,
				"personaname": "arashflow",
				"profileurl": "http://steamcommunity.com/profiles/76561197960343583/",
				"avatar": "http://media.steampowered.com/steamcommunity/public/images/avatars/fe/fef49e7fa7e1997310d705b2a6158ff8dc1cdfeb.jpg",
				"avatarmedium": "http://media.steampowered.com/steamcommunity/public/images/avatars/fe/fef49e7fa7e1997310d705b2a6158ff8dc1cdfeb_medium.jpg",
				"avatarfull": "http://media.steampowered.com/steamcommunity/public/images/avatars/fe/fef49e7fa7e1997310d705b2a6158ff8dc1cdfeb_full.jpg",
				"personastate": 0
			},
			{
				"steamid": "76561197960343701",
				"communityvisibilitystate": 3,
				"profilestate": 1,
				"personaname": "chrono",
				"lastlogoff": 1351529107,
				"profileurl": "http://steamcommunity.com/id/chrono/",
				"avatar": "http://media.steampowered.com/steamcommunity/public/images/avatars/fe/fef49e7fa7e1997310d705b2a6158ff8dc1cdfeb.jpg",
				"avatarmedium": "http://media.steampowered.com/steamcommunity/public/images/avatars/fe/fef49e7fa7e1997310d705b2a6158ff8dc1cdfeb_medium.jpg",
				"avatarfull": "http://media.steampowered.com/steamcommunity/public/images/avatars/fe/fef49e7fa7e1997310d705b2a6158ff8dc1cdfeb_full.jpg",
				"personastate": 0,
				"primaryclanid": "103582791429521408",
				"timecreated": 1063373601,
				"loccountrycode": "DE",
				"locstatecode": "02",
				"loccityid": 13377
			},
			{
				"steamid": "76561197960343639",
				"communityvisibilitystate": 3,
				"personaname": "xiner0731",
				"lastlogoff": 1157236311,
				"profileurl": "http://steamcommunity.com/profiles/76561197960343639/",
				"avatar": "http://media.steampowered.com/steamcommunity/public/images/avatars/fe/fef49e7fa7e1997310d705b2a6158ff8dc1cdfeb.jpg",
				"avatarmedium": "http://media.steampowered.com/steamcommunity/public/images/avatars/fe/fef49e7fa7e1997310d705b2a6158ff8dc1cdfeb_medium.jpg",
				"avatarfull": "http://media.steampowered.com/steamcommunity/public/images/avatars/fe/fef49e7fa7e1997310d705b2a6158ff8dc1cdfeb_full.jpg",
				"personastate": 0,
				"primaryclanid": "103582791429521408",
				"timecreated": 1063373583
			},
			{
				"steamid": "76561197960343535",
				"communityvisibilitystate": 1,
				"personaname": "mabaer",
				"profileurl": "http://steamcommunity.com/profiles/76561197960343535/",
				"avatar": "http://media.steampowered.com/steamcommunity/public/images/avatars/fe/fef49e7fa7e1997310d705b2a6158ff8dc1cdfeb.jpg",
				"avatarmedium": "http://media.steampowered.com/steamcommunity/public/images/avatars/fe/fef49e7fa7e1997310d705b2a6158ff8dc1cdfeb_medium.jpg",
				"avatarfull": "http://media.steampowered.com/steamcommunity/public/images/avatars/fe/fef49e7fa7e1997310d705b2a6158ff8dc1cdfeb_full.jpg",
				"personastate": 0
			},
			{
				"steamid": "76561197960343653",
				"communityvisibilitystate": 3,
				"personaname": "b.koschi",
				"lastlogoff": 1225982871,
				"profileurl": "http://steamcommunity.com/profiles/76561197960343653/",
				"avatar": "http://media.steampowered.com/steamcommunity/public/images/avatars/fe/fef49e7fa7e1997310d705b2a6158ff8dc1cdfeb.jpg",
				"avatarmedium": "http://media.steampowered.com/steamcommunity/public/images/avatars/fe/fef49e7fa7e1997310d705b2a6158ff8dc1cdfeb_medium.jpg",
				"avatarfull": "http://media.steampowered.com/steamcommunity/public/images/avatars/fe/fef49e7fa7e1997310d705b2a6158ff8dc1cdfeb_full.jpg",
				"personastate": 0,
				"primaryclanid": "103582791429521408",
				"timecreated": 1063373587
			},
			{
				"steamid": "76561197960343591",
				"communityvisibilitystate": 3,
				"profilestate": 1,
				"personaname": "Sevrin",
				"lastlogoff": 1360813820,
				"profileurl": "http://steamcommunity.com/profiles/76561197960343591/",
				"avatar": "http://media.steampowered.com/steamcommunity/public/images/avatars/b1/b13a20c9cccff133c33c028fb0580f143669dcb0.jpg",
				"avatarmedium": "http://media.steampowered.com/steamcommunity/public/images/avatars/b1/b13a20c9cccff133c33c028fb0580f143669dcb0_medium.jpg",
				"avatarfull": "http://media.steampowered.com/steamcommunity/public/images/avatars/b1/b13a20c9cccff133c33c028fb0580f143669dcb0_full.jpg",
				"personastate": 1,
				"realname": "Torin",
				"primaryclanid": "103582791430964883",
				"timecreated": 1063373573,
				"gameid": "72850",
				"loccountrycode": "US",
				"locstatecode": "OH"
			},
			{
				"steamid": "76561197960343709",
				"communityvisibilitystate": 3,
				"profilestate": 1,
				"personaname": "no aim?",
				"lastlogoff": 1283998133,
				"profileurl": "http://steamcommunity.com/profiles/76561197960343709/",
				"avatar": "http://media.steampowered.com/steamcommunity/public/images/avatars/fe/fef49e7fa7e1997310d705b2a6158ff8dc1cdfeb.jpg",
				"avatarmedium": "http://media.steampowered.com/steamcommunity/public/images/avatars/fe/fef49e7fa7e1997310d705b2a6158ff8dc1cdfeb_medium.jpg",
				"avatarfull": "http://media.steampowered.com/steamcommunity/public/images/avatars/fe/fef49e7fa7e1997310d705b2a6158ff8dc1cdfeb_full.jpg",
				"personastate": 0,
				"primaryclanid": "103582791429521408",
				"timecreated": 1063373603
			},
			{
				"steamid": "76561197960343623",
				"communityvisibilitystate": 3,
				"profilestate": 1,
				"personaname": "UnimatriX",
				"lastlogoff": 1360578277,
				"profileurl": "http://steamcommunity.com/profiles/76561197960343623/",
				"avatar": "http://media.steampowered.com/steamcommunity/public/images/avatars/fe/fef49e7fa7e1997310d705b2a6158ff8dc1cdfeb.jpg",
				"avatarmedium": "http://media.steampowered.com/steamcommunity/public/images/avatars/fe/fef49e7fa7e1997310d705b2a6158ff8dc1cdfeb_medium.jpg",
				"avatarfull": "http://media.steampowered.com/steamcommunity/public/images/avatars/fe/fef49e7fa7e1997310d705b2a6158ff8dc1cdfeb_full.jpg",
				"personastate": 0,
				"primaryclanid": "103582791429521408",
				"timecreated": 1063373578
			},
			{
				"steamid": "76561197960343545",
				"communityvisibilitystate": 1,
				"profilestate": 1,
				"personaname": "wuuh",
				"lastlogoff": 1360935093,
				"profileurl": "http://steamcommunity.com/profiles/76561197960343545/",
				"avatar": "http://media.steampowered.com/steamcommunity/public/images/avatars/d2/d2a73882eb0f12951467cde9e207b0424733ce1a.jpg",
				"avatarmedium": "http://media.steampowered.com/steamcommunity/public/images/avatars/d2/d2a73882eb0f12951467cde9e207b0424733ce1a_medium.jpg",
				"avatarfull": "http://media.steampowered.com/steamcommunity/public/images/avatars/d2/d2a73882eb0f12951467cde9e207b0424733ce1a_full.jpg",
				"personastate": 0
			},
			{
				"steamid": "76561197960343663",
				"communityvisibilitystate": 1,
				"personaname": "colonelu",
				"profileurl": "http://steamcommunity.com/profiles/76561197960343663/",
				"avatar": "http://media.steampowered.com/steamcommunity/public/images/avatars/fe/fef49e7fa7e1997310d705b2a6158ff8dc1cdfeb.jpg",
				"avatarmedium": "http://media.steampowered.com/steamcommunity/public/images/avatars/fe/fef49e7fa7e1997310d705b2a6158ff8dc1cdfeb_medium.jpg",
				"avatarfull": "http://media.steampowered.com/steamcommunity/public/images/avatars/fe/fef49e7fa7e1997310d705b2a6158ff8dc1cdfeb_full.jpg",
				"personastate": 0
			},
			{
				"steamid": "76561197960343549",
				"communityvisibilitystate": 1,
				"profilestate": 1,
				"personaname": "Shine2k3. <3",
				"lastlogoff": 1251100440,
				"commentpermission": 1,
				"profileurl": "http://steamcommunity.com/id/shine2k3/",
				"avatar": "http://media.steampowered.com/steamcommunity/public/images/avatars/0b/0b0e4575e95c67bffb02bb0e1c3110ab07eb7a93.jpg",
				"avatarmedium": "http://media.steampowered.com/steamcommunity/public/images/avatars/0b/0b0e4575e95c67bffb02bb0e1c3110ab07eb7a93_medium.jpg",
				"avatarfull": "http://media.steampowered.com/steamcommunity/public/images/avatars/0b/0b0e4575e95c67bffb02bb0e1c3110ab07eb7a93_full.jpg",
				"personastate": 0
			},
			{
				"steamid": "76561197960343667",
				"communityvisibilitystate": 1,
				"profilestate": 1,
				"personaname": "fibak",
				"lastlogoff": 1356746523,
				"profileurl": "http://steamcommunity.com/profiles/76561197960343667/",
				"avatar": "http://media.steampowered.com/steamcommunity/public/images/avatars/fe/fef49e7fa7e1997310d705b2a6158ff8dc1cdfeb.jpg",
				"avatarmedium": "http://media.steampowered.com/steamcommunity/public/images/avatars/fe/fef49e7fa7e1997310d705b2a6158ff8dc1cdfeb_medium.jpg",
				"avatarfull": "http://media.steampowered.com/steamcommunity/public/images/avatars/fe/fef49e7fa7e1997310d705b2a6158ff8dc1cdfeb_full.jpg",
				"personastate": 0
			},
			{
				"steamid": "76561197960343575",
				"communityvisibilitystate": 3,
				"profilestate": 1,
				"personaname": "VanBunk",
				"lastlogoff": 1360937424,
				"profileurl": "http://steamcommunity.com/profiles/76561197960343575/",
				"avatar": "http://media.steampowered.com/steamcommunity/public/images/avatars/99/99a416c8d73eaf2b9eddae2e8469d603ddade079.jpg",
				"avatarmedium": "http://media.steampowered.com/steamcommunity/public/images/avatars/99/99a416c8d73eaf2b9eddae2e8469d603ddade079_medium.jpg",
				"avatarfull": "http://media.steampowered.com/steamcommunity/public/images/avatars/99/99a416c8d73eaf2b9eddae2e8469d603ddade079_full.jpg",
				"personastate": 4,
				"realname": "Rikard",
				"primaryclanid": "103582791431099487",
				"timecreated": 1063373569,
				"loccountrycode": "SE"
			},
			{
				"steamid": "76561197960343693",
				"communityvisibilitystate": 3,
				"profilestate": 1,
				"personaname": "Maze",
				"lastlogoff": 1360534392,
				"profileurl": "http://steamcommunity.com/id/mazedk/",
				"avatar": "http://media.steampowered.com/steamcommunity/public/images/avatars/3a/3a886cffe7f40ace24d2ab0f3a928ebd48b4d920.jpg",
				"avatarmedium": "http://media.steampowered.com/steamcommunity/public/images/avatars/3a/3a886cffe7f40ace24d2ab0f3a928ebd48b4d920_medium.jpg",
				"avatarfull": "http://media.steampowered.com/steamcommunity/public/images/avatars/3a/3a886cffe7f40ace24d2ab0f3a928ebd48b4d920_full.jpg",
				"personastate": 0,
				"primaryclanid": "103582791432531035",
				"timecreated": 1063373600
			},
			{
				"steamid": "76561197960343601",
				"communityvisibilitystate": 3,
				"profilestate": 1,
				"personaname": "Jon",
				"lastlogoff": 1340414776,
				"profileurl": "http://steamcommunity.com/profiles/76561197960343601/",
				"avatar": "http://media.steampowered.com/steamcommunity/public/images/avatars/5d/5dc8ef947564d9a62a7573b6ef6263a5111ff8f0.jpg",
				"avatarmedium": "http://media.steampowered.com/steamcommunity/public/images/avatars/5d/5dc8ef947564d9a62a7573b6ef6263a5111ff8f0_medium.jpg",
				"avatarfull": "http://media.steampowered.com/steamcommunity/public/images/avatars/5d/5dc8ef947564d9a62a7573b6ef6263a5111ff8f0_full.jpg",
				"personastate": 0,
				"primaryclanid": "103582791429521408",
				"timecreated": 1063373575,
				"loccountrycode": "NO"
			},
			{
				"steamid": "76561197960343719",
				"communityvisibilitystate": 3,
				"profilestate": 1,
				"personaname": "Medimatze",
				"lastlogoff": 1311693300,
				"profileurl": "http://steamcommunity.com/profiles/76561197960343719/",
				"avatar": "http://media.steampowered.com/steamcommunity/public/images/avatars/fe/fef49e7fa7e1997310d705b2a6158ff8dc1cdfeb.jpg",
				"avatarmedium": "http://media.steampowered.com/steamcommunity/public/images/avatars/fe/fef49e7fa7e1997310d705b2a6158ff8dc1cdfeb_medium.jpg",
				"avatarfull": "http://media.steampowered.com/steamcommunity/public/images/avatars/fe/fef49e7fa7e1997310d705b2a6158ff8dc1cdfeb_full.jpg",
				"personastate": 0,
				"primaryclanid": "103582791429521408",
				"timecreated": 1063373605
			},
			{
				"steamid": "76561197960343557",
				"communityvisibilitystate": 3,
				"profilestate": 1,
				"personaname": "decoy",
				"lastlogoff": 1342562668,
				"profileurl": "http://steamcommunity.com/profiles/76561197960343557/",
				"avatar": "http://media.steampowered.com/steamcommunity/public/images/avatars/fe/fef49e7fa7e1997310d705b2a6158ff8dc1cdfeb.jpg",
				"avatarmedium": "http://media.steampowered.com/steamcommunity/public/images/avatars/fe/fef49e7fa7e1997310d705b2a6158ff8dc1cdfeb_medium.jpg",
				"avatarfull": "http://media.steampowered.com/steamcommunity/public/images/avatars/fe/fef49e7fa7e1997310d705b2a6158ff8dc1cdfeb_full.jpg",
				"personastate": 0,
				"primaryclanid": "103582791429592387",
				"timecreated": 1063373566
			},
			{
				"steamid": "76561197960343675",
				"communityvisibilitystate": 3,
				"profilestate": 1,
				"personaname": "Proxymus",
				"lastlogoff": 1280221159,
				"profileurl": "http://steamcommunity.com/profiles/76561197960343675/",
				"avatar": "http://media.steampowered.com/steamcommunity/public/images/avatars/fe/fef49e7fa7e1997310d705b2a6158ff8dc1cdfeb.jpg",
				"avatarmedium": "http://media.steampowered.com/steamcommunity/public/images/avatars/fe/fef49e7fa7e1997310d705b2a6158ff8dc1cdfeb_medium.jpg",
				"avatarfull": "http://media.steampowered.com/steamcommunity/public/images/avatars/fe/fef49e7fa7e1997310d705b2a6158ff8dc1cdfeb_full.jpg",
				"personastate": 0,
				"primaryclanid": "103582791429521408",
				"timecreated": 1063373592
			},
			{
				"steamid": "76561197960343573",
				"communityvisibilitystate": 3,
				"profilestate": 1,
				"personaname": "S1sser",
				"lastlogoff": 1359866859,
				"profileurl": "http://steamcommunity.com/id/s1ss3r/",
				"avatar": "http://media.steampowered.com/steamcommunity/public/images/avatars/c9/c9d3396f9d447b43d06ff3e778ab7cea82b8ff52.jpg",
				"avatarmedium": "http://media.steampowered.com/steamcommunity/public/images/avatars/c9/c9d3396f9d447b43d06ff3e778ab7cea82b8ff52_medium.jpg",
				"avatarfull": "http://media.steampowered.com/steamcommunity/public/images/avatars/c9/c9d3396f9d447b43d06ff3e778ab7cea82b8ff52_full.jpg",
				"personastate": 0,
				"realname": "Mathias",
				"primaryclanid": "103582791429752324",
				"timecreated": 1063373568,
				"loccountrycode": "DK",
				"locstatecode": "07",
				"loccityid": 13956
			},
			{
				"steamid": "76561197960343691",
				"communityvisibilitystate": 3,
				"profilestate": 1,
				"personaname": "Peksa",
				"lastlogoff": 1360882511,
				"profileurl": "http://steamcommunity.com/profiles/76561197960343691/",
				"avatar": "http://media.steampowered.com/steamcommunity/public/images/avatars/fe/fef49e7fa7e1997310d705b2a6158ff8dc1cdfeb.jpg",
				"avatarmedium": "http://media.steampowered.com/steamcommunity/public/images/avatars/fe/fef49e7fa7e1997310d705b2a6158ff8dc1cdfeb_medium.jpg",
				"avatarfull": "http://media.steampowered.com/steamcommunity/public/images/avatars/fe/fef49e7fa7e1997310d705b2a6158ff8dc1cdfeb_full.jpg",
				"personastate": 0,
				"primaryclanid": "103582791429521408",
				"timecreated": 1063373599
			},
			{
				"steamid": "76561197960343531",
				"communityvisibilitystate": 3,
				"profilestate": 1,
				"personaname": "hijack",
				"lastlogoff": 1254335055,
				"profileurl": "http://steamcommunity.com/profiles/76561197960343531/",
				"avatar": "http://media.steampowered.com/steamcommunity/public/images/avatars/fe/fef49e7fa7e1997310d705b2a6158ff8dc1cdfeb.jpg",
				"avatarmedium": "http://media.steampowered.com/steamcommunity/public/images/avatars/fe/fef49e7fa7e1997310d705b2a6158ff8dc1cdfeb_medium.jpg",
				"avatarfull": "http://media.steampowered.com/steamcommunity/public/images/avatars/fe/fef49e7fa7e1997310d705b2a6158ff8dc1cdfeb_full.jpg",
				"personastate": 0,
				"primaryclanid": "103582791429521408",
				"timecreated": 1063373560
			},
			{
				"steamid": "76561197960343649",
				"communityvisibilitystate": 3,
				"profilestate": 1,
				"personaname": "mark.slattery",
				"lastlogoff": 1326882853,
				"profileurl": "http://steamcommunity.com/profiles/76561197960343649/",
				"avatar": "http://media.steampowered.com/steamcommunity/public/images/avatars/fe/fef49e7fa7e1997310d705b2a6158ff8dc1cdfeb.jpg",
				"avatarmedium": "http://media.steampowered.com/steamcommunity/public/images/avatars/fe/fef49e7fa7e1997310d705b2a6158ff8dc1cdfeb_medium.jpg",
				"avatarfull": "http://media.steampowered.com/steamcommunity/public/images/avatars/fe/fef49e7fa7e1997310d705b2a6158ff8dc1cdfeb_full.jpg",
				"personastate": 0,
				"primaryclanid": "103582791429521408",
				"timecreated": 1063373586
			},
			{
				"steamid": "76561197960343551",
				"communityvisibilitystate": 1,
				"personaname": "orchid_",
				"profileurl": "http://steamcommunity.com/profiles/76561197960343551/",
				"avatar": "http://media.steampowered.com/steamcommunity/public/images/avatars/fe/fef49e7fa7e1997310d705b2a6158ff8dc1cdfeb.jpg",
				"avatarmedium": "http://media.steampowered.com/steamcommunity/public/images/avatars/fe/fef49e7fa7e1997310d705b2a6158ff8dc1cdfeb_medium.jpg",
				"avatarfull": "http://media.steampowered.com/steamcommunity/public/images/avatars/fe/fef49e7fa7e1997310d705b2a6158ff8dc1cdfeb_full.jpg",
				"personastate": 0
			},
			{
				"steamid": "76561197960343669",
				"communityvisibilitystate": 3,
				"personaname": "scap2002",
				"lastlogoff": 1285427033,
				"profileurl": "http://steamcommunity.com/profiles/76561197960343669/",
				"avatar": "http://media.steampowered.com/steamcommunity/public/images/avatars/fe/fef49e7fa7e1997310d705b2a6158ff8dc1cdfeb.jpg",
				"avatarmedium": "http://media.steampowered.com/steamcommunity/public/images/avatars/fe/fef49e7fa7e1997310d705b2a6158ff8dc1cdfeb_medium.jpg",
				"avatarfull": "http://media.steampowered.com/steamcommunity/public/images/avatars/fe/fef49e7fa7e1997310d705b2a6158ff8dc1cdfeb_full.jpg",
				"personastate": 0,
				"primaryclanid": "103582791429521408",
				"timecreated": 1063373592
			},
			{
				"steamid": "76561197960343569",
				"communityvisibilitystate": 1,
				"personaname": "jimmiemagnusson",
				"profileurl": "http://steamcommunity.com/profiles/76561197960343569/",
				"avatar": "http://media.steampowered.com/steamcommunity/public/images/avatars/fe/fef49e7fa7e1997310d705b2a6158ff8dc1cdfeb.jpg",
				"avatarmedium": "http://media.steampowered.com/steamcommunity/public/images/avatars/fe/fef49e7fa7e1997310d705b2a6158ff8dc1cdfeb_medium.jpg",
				"avatarfull": "http://media.steampowered.com/steamcommunity/public/images/avatars/fe/fef49e7fa7e1997310d705b2a6158ff8dc1cdfeb_full.jpg",
				"personastate": 0
			},
			{
				"steamid": "76561197960343687",
				"communityvisibilitystate": 3,
				"personaname": "malinski",
				"lastlogoff": 1198763361,
				"profileurl": "http://steamcommunity.com/profiles/76561197960343687/",
				"avatar": "http://media.steampowered.com/steamcommunity/public/images/avatars/fe/fef49e7fa7e1997310d705b2a6158ff8dc1cdfeb.jpg",
				"avatarmedium": "http://media.steampowered.com/steamcommunity/public/images/avatars/fe/fef49e7fa7e1997310d705b2a6158ff8dc1cdfeb_medium.jpg",
				"avatarfull": "http://media.steampowered.com/steamcommunity/public/images/avatars/fe/fef49e7fa7e1997310d705b2a6158ff8dc1cdfeb_full.jpg",
				"personastate": 0,
				"primaryclanid": "103582791429521408",
				"timecreated": 1063373598
			},
			{
				"steamid": "76561197960343599",
				"communityvisibilitystate": 1,
				"profilestate": 1,
				"personaname": "teachdaire",
				"lastlogoff": 1360956026,
				"commentpermission": 2,
				"profileurl": "http://steamcommunity.com/profiles/76561197960343599/",
				"avatar": "http://media.steampowered.com/steamcommunity/public/images/avatars/3f/3f05563163dc5df9bde0635d615f0116f265b727.jpg",
				"avatarmedium": "http://media.steampowered.com/steamcommunity/public/images/avatars/3f/3f05563163dc5df9bde0635d615f0116f265b727_medium.jpg",
				"avatarfull": "http://media.steampowered.com/steamcommunity/public/images/avatars/3f/3f05563163dc5df9bde0635d615f0116f265b727_full.jpg",
				"personastate": 0
			},
			{
				"steamid": "76561197960343717",
				"communityvisibilitystate": 3,
				"profilestate": 1,
				"personaname": "TimeL0rd",
				"lastlogoff": 1360811139,
				"profileurl": "http://steamcommunity.com/id/TimeL0rd/",
				"avatar": "http://media.steampowered.com/steamcommunity/public/images/avatars/65/65864227cd1101fe9113e6130effc95d4c3f3425.jpg",
				"avatarmedium": "http://media.steampowered.com/steamcommunity/public/images/avatars/65/65864227cd1101fe9113e6130effc95d4c3f3425_medium.jpg",
				"avatarfull": "http://media.steampowered.com/steamcommunity/public/images/avatars/65/65864227cd1101fe9113e6130effc95d4c3f3425_full.jpg",
				"personastate": 3,
				"realname": "Rick",
				"primaryclanid": "103582791430165418",
				"timecreated": 1063373605,
				"loccountrycode": "US",
				"locstatecode": "IL"
			},
			{
				"steamid": "76561197960343593",
				"communityvisibilitystate": 3,
				"profilestate": 1,
				"personaname": "sankty",
				"lastlogoff": 1360620809,
				"profileurl": "http://steamcommunity.com/profiles/76561197960343593/",
				"avatar": "http://media.steampowered.com/steamcommunity/public/images/avatars/35/350959d31394c9214b949f5aa582830a90c3a550.jpg",
				"avatarmedium": "http://media.steampowered.com/steamcommunity/public/images/avatars/35/350959d31394c9214b949f5aa582830a90c3a550_medium.jpg",
				"avatarfull": "http://media.steampowered.com/steamcommunity/public/images/avatars/35/350959d31394c9214b949f5aa582830a90c3a550_full.jpg",
				"personastate": 0,
				"primaryclanid": "103582791431363437",
				"timecreated": 1063373573
			},
			{
				"steamid": "76561197960343711",
				"communityvisibilitystate": 3,
				"profilestate": 1,
				"personaname": "pdyyy*",
				"lastlogoff": 1348431792,
				"profileurl": "http://steamcommunity.com/id/pdyyy/",
				"avatar": "http://media.steampowered.com/steamcommunity/public/images/avatars/7b/7b80627844242aebbf4e6cb4cd71afee270eb060.jpg",
				"avatarmedium": "http://media.steampowered.com/steamcommunity/public/images/avatars/7b/7b80627844242aebbf4e6cb4cd71afee270eb060_medium.jpg",
				"avatarfull": "http://media.steampowered.com/steamcommunity/public/images/avatars/7b/7b80627844242aebbf4e6cb4cd71afee270eb060_full.jpg",
				"personastate": 0,
				"realname": "Patrick",
				"primaryclanid": "103582791429521408",
				"timecreated": 1063373603,
				"loccountrycode": "DE"
			},
			{
				"steamid": "76561197960343629",
				"communityvisibilitystate": 1,
				"personaname": "tox_weed",
				"profileurl": "http://steamcommunity.com/profiles/76561197960343629/",
				"avatar": "http://media.steampowered.com/steamcommunity/public/images/avatars/fe/fef49e7fa7e1997310d705b2a6158ff8dc1cdfeb.jpg",
				"avatarmedium": "http://media.steampowered.com/steamcommunity/public/images/avatars/fe/fef49e7fa7e1997310d705b2a6158ff8dc1cdfeb_medium.jpg",
				"avatarfull": "http://media.steampowered.com/steamcommunity/public/images/avatars/fe/fef49e7fa7e1997310d705b2a6158ff8dc1cdfeb_full.jpg",
				"personastate": 0
			},
			{
				"steamid": "76561197960343581",
				"communityvisibilitystate": 3,
				"personaname": "reactor.ger | peTruss <spree>",
				"lastlogoff": 1161545382,
				"profileurl": "http://steamcommunity.com/profiles/76561197960343581/",
				"avatar": "http://media.steampowered.com/steamcommunity/public/images/avatars/fe/fef49e7fa7e1997310d705b2a6158ff8dc1cdfeb.jpg",
				"avatarmedium": "http://media.steampowered.com/steamcommunity/public/images/avatars/fe/fef49e7fa7e1997310d705b2a6158ff8dc1cdfeb_medium.jpg",
				"avatarfull": "http://media.steampowered.com/steamcommunity/public/images/avatars/fe/fef49e7fa7e1997310d705b2a6158ff8dc1cdfeb_full.jpg",
				"personastate": 0,
				"primaryclanid": "103582791429521408",
				"timecreated": 1063373571
			},
			{
				"steamid": "76561197960343699",
				"communityvisibilitystate": 1,
				"personaname": "sakutaavitsainen",
				"profileurl": "http://steamcommunity.com/profiles/76561197960343699/",
				"avatar": "http://media.steampowered.com/steamcommunity/public/images/avatars/fe/fef49e7fa7e1997310d705b2a6158ff8dc1cdfeb.jpg",
				"avatarmedium": "http://media.steampowered.com/steamcommunity/public/images/avatars/fe/fef49e7fa7e1997310d705b2a6158ff8dc1cdfeb_medium.jpg",
				"avatarfull": "http://media.steampowered.com/steamcommunity/public/images/avatars/fe/fef49e7fa7e1997310d705b2a6158ff8dc1cdfeb_full.jpg",
				"personastate": 0
			},
			{
				"steamid": "76561197960343547",
				"communityvisibilitystate": 1,
				"personaname": "der_genialste",
				"profileurl": "http://steamcommunity.com/profiles/76561197960343547/",
				"avatar": "http://media.steampowered.com/steamcommunity/public/images/avatars/fe/fef49e7fa7e1997310d705b2a6158ff8dc1cdfeb.jpg",
				"avatarmedium": "http://media.steampowered.com/steamcommunity/public/images/avatars/fe/fef49e7fa7e1997310d705b2a6158ff8dc1cdfeb_medium.jpg",
				"avatarfull": "http://media.steampowered.com/steamcommunity/public/images/avatars/fe/fef49e7fa7e1997310d705b2a6158ff8dc1cdfeb_full.jpg",
				"personastate": 0
			},
			{
				"steamid": "76561197960343665",
				"communityvisibilitystate": 3,
				"profilestate": 1,
				"personaname": "Sonrisa",
				"lastlogoff": 1358543924,
				"profileurl": "http://steamcommunity.com/profiles/76561197960343665/",
				"avatar": "http://media.steampowered.com/steamcommunity/public/images/avatars/fe/fef49e7fa7e1997310d705b2a6158ff8dc1cdfeb.jpg",
				"avatarmedium": "http://media.steampowered.com/steamcommunity/public/images/avatars/fe/fef49e7fa7e1997310d705b2a6158ff8dc1cdfeb_medium.jpg",
				"avatarfull": "http://media.steampowered.com/steamcommunity/public/images/avatars/fe/fef49e7fa7e1997310d705b2a6158ff8dc1cdfeb_full.jpg",
				"personastate": 0,
				"primaryclanid": "103582791431062851",
				"timecreated": 1063373592
			},
			{
				"steamid": "76561197960343595",
				"communityvisibilitystate": 1,
				"profilestate": 1,
				"personaname": "BenSL",
				"lastlogoff": 1360487022,
				"profileurl": "http://steamcommunity.com/id/BenSL/",
				"avatar": "http://media.steampowered.com/steamcommunity/public/images/avatars/d0/d09d7eb90da3e3f8561070aa22aca9eb90ebb858.jpg",
				"avatarmedium": "http://media.steampowered.com/steamcommunity/public/images/avatars/d0/d09d7eb90da3e3f8561070aa22aca9eb90ebb858_medium.jpg",
				"avatarfull": "http://media.steampowered.com/steamcommunity/public/images/avatars/d0/d09d7eb90da3e3f8561070aa22aca9eb90ebb858_full.jpg",
				"personastate": 0
			},
			{
				"steamid": "76561197960343713",
				"communityvisibilitystate": 3,
				"profilestate": 1,
				"personaname": "db",
				"lastlogoff": 1242586720,
				"profileurl": "http://steamcommunity.com/profiles/76561197960343713/",
				"avatar": "http://media.steampowered.com/steamcommunity/public/images/avatars/fe/fef49e7fa7e1997310d705b2a6158ff8dc1cdfeb.jpg",
				"avatarmedium": "http://media.steampowered.com/steamcommunity/public/images/avatars/fe/fef49e7fa7e1997310d705b2a6158ff8dc1cdfeb_medium.jpg",
				"avatarfull": "http://media.steampowered.com/steamcommunity/public/images/avatars/fe/fef49e7fa7e1997310d705b2a6158ff8dc1cdfeb_full.jpg",
				"personastate": 0,
				"primaryclanid": "103582791430224835",
				"timecreated": 1063373603
			},
			{
				"steamid": "76561197960343641",
				"communityvisibilitystate": 1,
				"profilestate": 1,
				"personaname": "cai",
				"lastlogoff": 1360915292,
				"profileurl": "http://steamcommunity.com/id/lpcai/",
				"avatar": "http://media.steampowered.com/steamcommunity/public/images/avatars/e2/e2ec614f44ede36bfa84157f0df339a16b7bcc63.jpg",
				"avatarmedium": "http://media.steampowered.com/steamcommunity/public/images/avatars/e2/e2ec614f44ede36bfa84157f0df339a16b7bcc63_medium.jpg",
				"avatarfull": "http://media.steampowered.com/steamcommunity/public/images/avatars/e2/e2ec614f44ede36bfa84157f0df339a16b7bcc63_full.jpg",
				"personastate": 0
			},
			{
				"steamid": "76561197960343633",
				"communityvisibilitystate": 3,
				"profilestate": 1,
				"personaname": "Joona",
				"lastlogoff": 1360908327,
				"profileurl": "http://steamcommunity.com/profiles/76561197960343633/",
				"avatar": "http://media.steampowered.com/steamcommunity/public/images/avatars/4f/4f9cd804c45153e073d632a8e6f32bfc5edc852e.jpg",
				"avatarmedium": "http://media.steampowered.com/steamcommunity/public/images/avatars/4f/4f9cd804c45153e073d632a8e6f32bfc5edc852e_medium.jpg",
				"avatarfull": "http://media.steampowered.com/steamcommunity/public/images/avatars/4f/4f9cd804c45153e073d632a8e6f32bfc5edc852e_full.jpg",
				"personastate": 1,
				"primaryclanid": "103582791430025641",
				"timecreated": 1063373581,
				"loccountrycode": "US",
				"locstatecode": "CA",
				"loccityid": 527
			},
			{
				"steamid": "76561197960343561",
				"communityvisibilitystate": 1,
				"personaname": "marouen_94",
				"profileurl": "http://steamcommunity.com/profiles/76561197960343561/",
				"avatar": "http://media.steampowered.com/steamcommunity/public/images/avatars/fe/fef49e7fa7e1997310d705b2a6158ff8dc1cdfeb.jpg",
				"avatarmedium": "http://media.steampowered.com/steamcommunity/public/images/avatars/fe/fef49e7fa7e1997310d705b2a6158ff8dc1cdfeb_medium.jpg",
				"avatarfull": "http://media.steampowered.com/steamcommunity/public/images/avatars/fe/fef49e7fa7e1997310d705b2a6158ff8dc1cdfeb_full.jpg",
				"personastate": 0
			},
			{
				"steamid": "76561197960343679",
				"communityvisibilitystate": 3,
				"profilestate": 1,
				"personaname": "WDX | kAlli",
				"lastlogoff": 1360880816,
				"profileurl": "http://steamcommunity.com/profiles/76561197960343679/",
				"avatar": "http://media.steampowered.com/steamcommunity/public/images/avatars/fe/fef49e7fa7e1997310d705b2a6158ff8dc1cdfeb.jpg",
				"avatarmedium": "http://media.steampowered.com/steamcommunity/public/images/avatars/fe/fef49e7fa7e1997310d705b2a6158ff8dc1cdfeb_medium.jpg",
				"avatarfull": "http://media.steampowered.com/steamcommunity/public/images/avatars/fe/fef49e7fa7e1997310d705b2a6158ff8dc1cdfeb_full.jpg",
				"personastate": 1,
				"primaryclanid": "103582791429593124",
				"timecreated": 1063373593,
				"gameserverip": "146.66.153.83:27062",
				"gameextrainfo": "Dota 2",
				"gameid": "570",
				"gameserversteamid": "90086066399149057"
			},
			{
				"steamid": "76561197960343529",
				"communityvisibilitystate": 1,
				"personaname": "agyvelo",
				"profileurl": "http://steamcommunity.com/profiles/76561197960343529/",
				"avatar": "http://media.steampowered.com/steamcommunity/public/images/avatars/fe/fef49e7fa7e1997310d705b2a6158ff8dc1cdfeb.jpg",
				"avatarmedium": "http://media.steampowered.com/steamcommunity/public/images/avatars/fe/fef49e7fa7e1997310d705b2a6158ff8dc1cdfeb_medium.jpg",
				"avatarfull": "http://media.steampowered.com/steamcommunity/public/images/avatars/fe/fef49e7fa7e1997310d705b2a6158ff8dc1cdfeb_full.jpg",
				"personastate": 0
			},
			{
				"steamid": "76561197960343647",
				"communityvisibilitystate": 3,
				"profilestate": 1,
				"personaname": "aG`evolutioN",
				"lastlogoff": 1319405044,
				"profileurl": "http://steamcommunity.com/profiles/76561197960343647/",
				"avatar": "http://media.steampowered.com/steamcommunity/public/images/avatars/fe/fef49e7fa7e1997310d705b2a6158ff8dc1cdfeb.jpg",
				"avatarmedium": "http://media.steampowered.com/steamcommunity/public/images/avatars/fe/fef49e7fa7e1997310d705b2a6158ff8dc1cdfeb_medium.jpg",
				"avatarfull": "http://media.steampowered.com/steamcommunity/public/images/avatars/fe/fef49e7fa7e1997310d705b2a6158ff8dc1cdfeb_full.jpg",
				"personastate": 0,
				"primaryclanid": "103582791429521408",
				"timecreated": 1063373586
			},
			{
				"steamid": "76561197960343579",
				"communityvisibilitystate": 3,
				"profilestate": 1,
				"personaname": "Khiu",
				"lastlogoff": 1358148631,
				"profileurl": "http://steamcommunity.com/profiles/76561197960343579/",
				"avatar": "http://media.steampowered.com/steamcommunity/public/images/avatars/b1/b1d099b2a545b00956de0b5b14e2668d50f5c497.jpg",
				"avatarmedium": "http://media.steampowered.com/steamcommunity/public/images/avatars/b1/b1d099b2a545b00956de0b5b14e2668d50f5c497_medium.jpg",
				"avatarfull": "http://media.steampowered.com/steamcommunity/public/images/avatars/b1/b1d099b2a545b00956de0b5b14e2668d50f5c497_full.jpg",
				"personastate": 0,
				"realname": "Jer",
				"primaryclanid": "103582791429521408",
				"timecreated": 1063373569,
				"loccountrycode": "NL",
				"locstatecode": "11",
				"loccityid": 30052
			},
			{
				"steamid": "76561197960343697",
				"communityvisibilitystate": 3,
				"personaname": "m1ck3y",
				"lastlogoff": 1197501526,
				"profileurl": "http://steamcommunity.com/profiles/76561197960343697/",
				"avatar": "http://media.steampowered.com/steamcommunity/public/images/avatars/fe/fef49e7fa7e1997310d705b2a6158ff8dc1cdfeb.jpg",
				"avatarmedium": "http://media.steampowered.com/steamcommunity/public/images/avatars/fe/fef49e7fa7e1997310d705b2a6158ff8dc1cdfeb_medium.jpg",
				"avatarfull": "http://media.steampowered.com/steamcommunity/public/images/avatars/fe/fef49e7fa7e1997310d705b2a6158ff8dc1cdfeb_full.jpg",
				"personastate": 0,
				"primaryclanid": "103582791429521408",
				"timecreated": 1063373601
			},
			{
				"steamid": "76561197960343567",
				"communityvisibilitystate": 3,
				"profilestate": 1,
				"personaname": "quix asus2k :P",
				"lastlogoff": 1359400571,
				"profileurl": "http://steamcommunity.com/profiles/76561197960343567/",
				"avatar": "http://media.steampowered.com/steamcommunity/public/images/avatars/fe/fef49e7fa7e1997310d705b2a6158ff8dc1cdfeb.jpg",
				"avatarmedium": "http://media.steampowered.com/steamcommunity/public/images/avatars/fe/fef49e7fa7e1997310d705b2a6158ff8dc1cdfeb_medium.jpg",
				"avatarfull": "http://media.steampowered.com/steamcommunity/public/images/avatars/fe/fef49e7fa7e1997310d705b2a6158ff8dc1cdfeb_full.jpg",
				"personastate": 0,
				"primaryclanid": "103582791430241829",
				"timecreated": 1063373568
			},
			{
				"steamid": "76561197960343685",
				"communityvisibilitystate": 3,
				"profilestate": 1,
				"personaname": "CARTMAN",
				"lastlogoff": 1360791839,
				"profileurl": "http://steamcommunity.com/profiles/76561197960343685/",
				"avatar": "http://media.steampowered.com/steamcommunity/public/images/avatars/8c/8c79e3994fb8f6a0eda329ce8d8776910cae648a.jpg",
				"avatarmedium": "http://media.steampowered.com/steamcommunity/public/images/avatars/8c/8c79e3994fb8f6a0eda329ce8d8776910cae648a_medium.jpg",
				"avatarfull": "http://media.steampowered.com/steamcommunity/public/images/avatars/8c/8c79e3994fb8f6a0eda329ce8d8776910cae648a_full.jpg",
				"personastate": 0,
				"primaryclanid": "103582791429701899",
				"timecreated": 1063373597
			},
			{
				"steamid": "76561197960343603",
				"communityvisibilitystate": 3,
				"profilestate": 1,
				"personaname": "Cheese",
				"lastlogoff": 1300851453,
				"profileurl": "http://steamcommunity.com/id/72815472347828349234/",
				"avatar": "http://media.steampowered.com/steamcommunity/public/images/avatars/99/99369cc183a20945bb086bcf9af46a4c95c768a0.jpg",
				"avatarmedium": "http://media.steampowered.com/steamcommunity/public/images/avatars/99/99369cc183a20945bb086bcf9af46a4c95c768a0_medium.jpg",
				"avatarfull": "http://media.steampowered.com/steamcommunity/public/images/avatars/99/99369cc183a20945bb086bcf9af46a4c95c768a0_full.jpg",
				"personastate": 0,
				"primaryclanid": "103582791431780837",
				"timecreated": 1063373575
			},
			{
				"steamid": "76561197960343721",
				"communityvisibilitystate": 3,
				"profilestate": 1,
				"personaname": "Avalanche",
				"lastlogoff": 1360943288,
				"profileurl": "http://steamcommunity.com/profiles/76561197960343721/",
				"avatar": "http://media.steampowered.com/steamcommunity/public/images/avatars/d7/d72f4dc65754c9b3483b2310fd7c0514d28a8a5f.jpg",
				"avatarmedium": "http://media.steampowered.com/steamcommunity/public/images/avatars/d7/d72f4dc65754c9b3483b2310fd7c0514d28a8a5f_medium.jpg",
				"avatarfull": "http://media.steampowered.com/steamcommunity/public/images/avatars/d7/d72f4dc65754c9b3483b2310fd7c0514d28a8a5f_full.jpg",
				"personastate": 0,
				"primaryclanid": "103582791433847001",
				"timecreated": 1063373605
			},
			{
				"steamid": "76561197960343607",
				"communityvisibilitystate": 3,
				"personaname": "visser.sip",
				"lastlogoff": 1224949696,
				"profileurl": "http://steamcommunity.com/profiles/76561197960343607/",
				"avatar": "http://media.steampowered.com/steamcommunity/public/images/avatars/fe/fef49e7fa7e1997310d705b2a6158ff8dc1cdfeb.jpg",
				"avatarmedium": "http://media.steampowered.com/steamcommunity/public/images/avatars/fe/fef49e7fa7e1997310d705b2a6158ff8dc1cdfeb_medium.jpg",
				"avatarfull": "http://media.steampowered.com/steamcommunity/public/images/avatars/fe/fef49e7fa7e1997310d705b2a6158ff8dc1cdfeb_full.jpg",
				"personastate": 0,
				"primaryclanid": "103582791429521408",
				"timecreated": 1063373575
			},
			{
				"steamid": "76561197960343533",
				"communityvisibilitystate": 3,
				"profilestate": 1,
				"personaname": "Worthy*",
				"lastlogoff": 1360961490,
				"profileurl": "http://steamcommunity.com/id/worthy82/",
				"avatar": "http://media.steampowered.com/steamcommunity/public/images/avatars/34/345f38367df07f818331bd6da322e49274d0cee1.jpg",
				"avatarmedium": "http://media.steampowered.com/steamcommunity/public/images/avatars/34/345f38367df07f818331bd6da322e49274d0cee1_medium.jpg",
				"avatarfull": "http://media.steampowered.com/steamcommunity/public/images/avatars/34/345f38367df07f818331bd6da322e49274d0cee1_full.jpg",
				"personastate": 3,
				"primaryclanid": "103582791429554486",
				"timecreated": 1063373561,
				"loccountrycode": "GB"
			},
			{
				"steamid": "76561197960343651",
				"communityvisibilitystate": 3,
				"profilestate": 1,
				"personaname": "max-_-",
				"lastlogoff": 1329090614,
				"profileurl": "http://steamcommunity.com/profiles/76561197960343651/",
				"avatar": "http://media.steampowered.com/steamcommunity/public/images/avatars/fe/fef49e7fa7e1997310d705b2a6158ff8dc1cdfeb.jpg",
				"avatarmedium": "http://media.steampowered.com/steamcommunity/public/images/avatars/fe/fef49e7fa7e1997310d705b2a6158ff8dc1cdfeb_medium.jpg",
				"avatarfull": "http://media.steampowered.com/steamcommunity/public/images/avatars/fe/fef49e7fa7e1997310d705b2a6158ff8dc1cdfeb_full.jpg",
				"personastate": 0,
				"primaryclanid": "103582791429521408",
				"timecreated": 1063373586
			},
			{
				"steamid": "76561197960343585",
				"communityvisibilitystate": 1,
				"personaname": "zeusmanga",
				"profileurl": "http://steamcommunity.com/profiles/76561197960343585/",
				"avatar": "http://media.steampowered.com/steamcommunity/public/images/avatars/fe/fef49e7fa7e1997310d705b2a6158ff8dc1cdfeb.jpg",
				"avatarmedium": "http://media.steampowered.com/steamcommunity/public/images/avatars/fe/fef49e7fa7e1997310d705b2a6158ff8dc1cdfeb_medium.jpg",
				"avatarfull": "http://media.steampowered.com/steamcommunity/public/images/avatars/fe/fef49e7fa7e1997310d705b2a6158ff8dc1cdfeb_full.jpg",
				"personastate": 0
			},
			{
				"steamid": "76561197960343703",
				"communityvisibilitystate": 1,
				"personaname": "farnold1",
				"profileurl": "http://steamcommunity.com/profiles/76561197960343703/",
				"avatar": "http://media.steampowered.com/steamcommunity/public/images/avatars/fe/fef49e7fa7e1997310d705b2a6158ff8dc1cdfeb.jpg",
				"avatarmedium": "http://media.steampowered.com/steamcommunity/public/images/avatars/fe/fef49e7fa7e1997310d705b2a6158ff8dc1cdfeb_medium.jpg",
				"avatarfull": "http://media.steampowered.com/steamcommunity/public/images/avatars/fe/fef49e7fa7e1997310d705b2a6158ff8dc1cdfeb_full.jpg",
				"personastate": 0
			},
			{
				"steamid": "76561197960343553",
				"communityvisibilitystate": 1,
				"personaname": "pa_nu",
				"profileurl": "http://steamcommunity.com/profiles/76561197960343553/",
				"avatar": "http://media.steampowered.com/steamcommunity/public/images/avatars/fe/fef49e7fa7e1997310d705b2a6158ff8dc1cdfeb.jpg",
				"avatarmedium": "http://media.steampowered.com/steamcommunity/public/images/avatars/fe/fef49e7fa7e1997310d705b2a6158ff8dc1cdfeb_medium.jpg",
				"avatarfull": "http://media.steampowered.com/steamcommunity/public/images/avatars/fe/fef49e7fa7e1997310d705b2a6158ff8dc1cdfeb_full.jpg",
				"personastate": 0
			},
			{
				"steamid": "76561197960343539",
				"communityvisibilitystate": 3,
				"personaname": "vinske03",
				"lastlogoff": 1159918002,
				"profileurl": "http://steamcommunity.com/profiles/76561197960343539/",
				"avatar": "http://media.steampowered.com/steamcommunity/public/images/avatars/fe/fef49e7fa7e1997310d705b2a6158ff8dc1cdfeb.jpg",
				"avatarmedium": "http://media.steampowered.com/steamcommunity/public/images/avatars/fe/fef49e7fa7e1997310d705b2a6158ff8dc1cdfeb_medium.jpg",
				"avatarfull": "http://media.steampowered.com/steamcommunity/public/images/avatars/fe/fef49e7fa7e1997310d705b2a6158ff8dc1cdfeb_full.jpg",
				"personastate": 0,
				"primaryclanid": "103582791429521408",
				"timecreated": 1063373562
			},
			{
				"steamid": "76561197960343727",
				"communityvisibilitystate": 3,
				"personaname": "pilsk",
				"lastlogoff": 1196084072,
				"profileurl": "http://steamcommunity.com/profiles/76561197960343727/",
				"avatar": "http://media.steampowered.com/steamcommunity/public/images/avatars/fe/fef49e7fa7e1997310d705b2a6158ff8dc1cdfeb.jpg",
				"avatarmedium": "http://media.steampowered.com/steamcommunity/public/images/avatars/fe/fef49e7fa7e1997310d705b2a6158ff8dc1cdfeb_medium.jpg",
				"avatarfull": "http://media.steampowered.com/steamcommunity/public/images/avatars/fe/fef49e7fa7e1997310d705b2a6158ff8dc1cdfeb_full.jpg",
				"personastate": 0,
				"primaryclanid": "103582791429521408",
				"timecreated": 1063373606
			},
			{
				"steamid": "76561197960343689",
				"communityvisibilitystate": 3,
				"profilestate": 1,
				"personaname": "Saynono",
				"lastlogoff": 1220552707,
				"profileurl": "http://steamcommunity.com/id/saynono/",
				"avatar": "http://media.steampowered.com/steamcommunity/public/images/avatars/46/46b2dd67f8935ceb73cf8fb9344f25a55972a41e.jpg",
				"avatarmedium": "http://media.steampowered.com/steamcommunity/public/images/avatars/46/46b2dd67f8935ceb73cf8fb9344f25a55972a41e_medium.jpg",
				"avatarfull": "http://media.steampowered.com/steamcommunity/public/images/avatars/46/46b2dd67f8935ceb73cf8fb9344f25a55972a41e_full.jpg",
				"personastate": 0,
				"realname": "Renaud Guinot",
				"primaryclanid": "103582791429521408",
				"timecreated": 1063373599,
				"loccountrycode": "FR",
				"locstatecode": "A8",
				"loccityid": 15774
			},
			{
				"steamid": "76561197960343605",
				"communityvisibilitystate": 3,
				"profilestate": 1,
				"personaname": "routerhead",
				"lastlogoff": 1354149789,
				"profileurl": "http://steamcommunity.com/profiles/76561197960343605/",
				"avatar": "http://media.steampowered.com/steamcommunity/public/images/avatars/fe/fef49e7fa7e1997310d705b2a6158ff8dc1cdfeb.jpg",
				"avatarmedium": "http://media.steampowered.com/steamcommunity/public/images/avatars/fe/fef49e7fa7e1997310d705b2a6158ff8dc1cdfeb_medium.jpg",
				"avatarfull": "http://media.steampowered.com/steamcommunity/public/images/avatars/fe/fef49e7fa7e1997310d705b2a6158ff8dc1cdfeb_full.jpg",
				"personastate": 0,
				"primaryclanid": "103582791429521408",
				"timecreated": 1063373575
			},
			{
				"steamid": "76561197960343723",
				"communityvisibilitystate": 1,
				"personaname": "breakleet",
				"profileurl": "http://steamcommunity.com/profiles/76561197960343723/",
				"avatar": "http://media.steampowered.com/steamcommunity/public/images/avatars/fe/fef49e7fa7e1997310d705b2a6158ff8dc1cdfeb.jpg",
				"avatarmedium": "http://media.steampowered.com/steamcommunity/public/images/avatars/fe/fef49e7fa7e1997310d705b2a6158ff8dc1cdfeb_medium.jpg",
				"avatarfull": "http://media.steampowered.com/steamcommunity/public/images/avatars/fe/fef49e7fa7e1997310d705b2a6158ff8dc1cdfeb_full.jpg",
				"personastate": 0
			},
			{
				"steamid": "76561197960343655",
				"communityvisibilitystate": 3,
				"profilestate": 1,
				"personaname": "Unmercy",
				"lastlogoff": 1360873368,
				"profileurl": "http://steamcommunity.com/id/Unmercey/",
				"avatar": "http://media.steampowered.com/steamcommunity/public/images/avatars/47/4733c3713023f492126f7806f6cbc275bad077de.jpg",
				"avatarmedium": "http://media.steampowered.com/steamcommunity/public/images/avatars/47/4733c3713023f492126f7806f6cbc275bad077de_medium.jpg",
				"avatarfull": "http://media.steampowered.com/steamcommunity/public/images/avatars/47/4733c3713023f492126f7806f6cbc275bad077de_full.jpg",
				"personastate": 0,
				"realname": "jesu",
				"primaryclanid": "103582791430041014",
				"timecreated": 1063373588,
				"loccountrycode": "ES",
				"locstatecode": "51",
				"loccityid": 15257
			},
			{
				"steamid": "76561197960343673",
				"communityvisibilitystate": 1,
				"profilestate": 1,
				"personaname": "DannyLicious",
				"lastlogoff": 1360949010,
				"profileurl": "http://steamcommunity.com/profiles/76561197960343673/",
				"avatar": "http://media.steampowered.com/steamcommunity/public/images/avatars/5b/5b236567b015a66095882ddbfea49c28904457e7.jpg",
				"avatarmedium": "http://media.steampowered.com/steamcommunity/public/images/avatars/5b/5b236567b015a66095882ddbfea49c28904457e7_medium.jpg",
				"avatarfull": "http://media.steampowered.com/steamcommunity/public/images/avatars/5b/5b236567b015a66095882ddbfea49c28904457e7_full.jpg",
				"personastate": 0
			},
			{
				"steamid": "76561197960343705",
				"communityvisibilitystate": 3,
				"profilestate": 1,
				"personaname": "xoom",
				"lastlogoff": 1347130372,
				"profileurl": "http://steamcommunity.com/profiles/76561197960343705/",
				"avatar": "http://media.steampowered.com/steamcommunity/public/images/avatars/38/386e55bf0d596269d45dcc56a9b196c96d71b8f4.jpg",
				"avatarmedium": "http://media.steampowered.com/steamcommunity/public/images/avatars/38/386e55bf0d596269d45dcc56a9b196c96d71b8f4_medium.jpg",
				"avatarfull": "http://media.steampowered.com/steamcommunity/public/images/avatars/38/386e55bf0d596269d45dcc56a9b196c96d71b8f4_full.jpg",
				"personastate": 0,
				"realname": "Patrick M.",
				"primaryclanid": "103582791429521408",
				"timecreated": 1063373603,
				"loccountrycode": "PL",
				"locstatecode": "35",
				"loccityid": 35933
			}
		]
		
	}
}