{
	"response": {
		"players": [
			{
				"steamid": "76561197960398431",
				"communityvisibilitystate": 3,
				"profilestate": 1,
				"personaname": "Eraser-FX-",
				"lastlogoff": 1362607011,
				"profileurl": "http://steamcommunity.com/id/Eraser-FX-/",
				"avatar": "http://media.steampowered.com/steamcommunity/public/images/avatars/94/944fa8714595667822214b6c095aca55c21ac334.jpg",
				"avatarmedium": "http://media.steampowered.com/steamcommunity/public/images/avatars/94/944fa8714595667822214b6c095aca55c21ac334_medium.jpg",
				"avatarfull": "http://media.steampowered.com/steamcommunity/public/images/avatars/94/944fa8714595667822214b6c095aca55c21ac334_full.jpg",
				"personastate": 0,
				"primaryclanid": "103582791429521408",
				"timecreated": 1063390673
			},
			{
				"steamid": "76561197960398427",
				"communityvisibilitystate": 3,
				"profilestate": 1,
				"personaname": "barafael",
				"lastlogoff": 1362572763,
				"commentpermission": 1,
				"profileurl": "http://steamcommunity.com/id/barafael/",
				"avatar": "http://media.steampowered.com/steamcommunity/public/images/avatars/5f/5fdbeece2d5e0f426a2a3c61a93117d9360c774d.jpg",
				"avatarmedium": "http://media.steampowered.com/steamcommunity/public/images/avatars/5f/5fdbeece2d5e0f426a2a3c61a93117d9360c774d_medium.jpg",
				"avatarfull": "http://media.steampowered.com/steamcommunity/public/images/avatars/5f/5fdbeece2d5e0f426a2a3c61a93117d9360c774d_full.jpg",
				"personastate": 3,
				"realname": "Rafael",
				"primaryclanid": "103582791429526811",
				"timecreated": 1063390673,
				"loccountrycode": "BR",
				"locstatecode": "18",
				"loccityid": 7679
			},
			{
				"steamid": "76561197960398415",
				"communityvisibilitystate": 1,
				"profilestate": 1,
				"personaname": "koviq",
				"lastlogoff": 1359078643,
				"profileurl": "http://steamcommunity.com/profiles/76561197960398415/",
				"avatar": "http://media.steampowered.com/steamcommunity/public/images/avatars/fe/fef49e7fa7e1997310d705b2a6158ff8dc1cdfeb.jpg",
				"avatarmedium": "http://media.steampowered.com/steamcommunity/public/images/avatars/fe/fef49e7fa7e1997310d705b2a6158ff8dc1cdfeb_medium.jpg",
				"avatarfull": "http://media.steampowered.com/steamcommunity/public/images/avatars/fe/fef49e7fa7e1997310d705b2a6158ff8dc1cdfeb_full.jpg",
				"personastate": 0
			},
			{
				"steamid": "76561197960398385",
				"communityvisibilitystate": 3,
				"profilestate": 1,
				"personaname": "j^esse-$g-",
				"lastlogoff": 1240468625,
				"profileurl": "http://steamcommunity.com/profiles/76561197960398385/",
				"avatar": "http://media.steampowered.com/steamcommunity/public/images/avatars/72/72100a394d80e00489fd1acf287d481aea409253.jpg",
				"avatarmedium": "http://media.steampowered.com/steamcommunity/public/images/avatars/72/72100a394d80e00489fd1acf287d481aea409253_medium.jpg",
				"avatarfull": "http://media.steampowered.com/steamcommunity/public/images/avatars/72/72100a394d80e00489fd1acf287d481aea409253_full.jpg",
				"personastate": 0,
				"primaryclanid": "103582791430151624",
				"timecreated": 1063390645,
				"loccountrycode": "US",
				"locstatecode": "FL"
			},
			{
				"steamid": "76561197960398503",
				"communityvisibilitystate": 3,
				"profilestate": 1,
				"personaname": "cöps",
				"lastlogoff": 1282615021,
				"profileurl": "http://steamcommunity.com/id/coeps/",
				"avatar": "http://media.steampowered.com/steamcommunity/public/images/avatars/fe/fef49e7fa7e1997310d705b2a6158ff8dc1cdfeb.jpg",
				"avatarmedium": "http://media.steampowered.com/steamcommunity/public/images/avatars/fe/fef49e7fa7e1997310d705b2a6158ff8dc1cdfeb_medium.jpg",
				"avatarfull": "http://media.steampowered.com/steamcommunity/public/images/avatars/fe/fef49e7fa7e1997310d705b2a6158ff8dc1cdfeb_full.jpg",
				"personastate": 0,
				"primaryclanid": "103582791429521408",
				"timecreated": 1063390719,
				"loccountrycode": "CH",
				"locstatecode": "11",
				"loccityid": 9446
			},
			{
				"steamid": "76561197960398499",
				"communityvisibilitystate": 1,
				"personaname": "willimartin",
				"profileurl": "http://steamcommunity.com/profiles/76561197960398499/",
				"avatar": "http://media.steampowered.com/steamcommunity/public/images/avatars/fe/fef49e7fa7e1997310d705b2a6158ff8dc1cdfeb.jpg",
				"avatarmedium": "http://media.steampowered.com/steamcommunity/public/images/avatars/fe/fef49e7fa7e1997310d705b2a6158ff8dc1cdfeb_medium.jpg",
				"avatarfull": "http://media.steampowered.com/steamcommunity/public/images/avatars/fe/fef49e7fa7e1997310d705b2a6158ff8dc1cdfeb_full.jpg",
				"personastate": 0
			},
			{
				"steamid": "76561197960398365",
				"communityvisibilitystate": 3,
				"profilestate": 1,
				"personaname": "Cordier",
				"lastlogoff": 1362011407,
				"profileurl": "http://steamcommunity.com/profiles/76561197960398365/",
				"avatar": "http://media.steampowered.com/steamcommunity/public/images/avatars/ec/ec89c06d6a1b4b99656bc5d2581dba2bddbf0cf1.jpg",
				"avatarmedium": "http://media.steampowered.com/steamcommunity/public/images/avatars/ec/ec89c06d6a1b4b99656bc5d2581dba2bddbf0cf1_medium.jpg",
				"avatarfull": "http://media.steampowered.com/steamcommunity/public/images/avatars/ec/ec89c06d6a1b4b99656bc5d2581dba2bddbf0cf1_full.jpg",
				"personastate": 0,
				"realname": "Thomas",
				"primaryclanid": "103582791430185423",
				"timecreated": 1063390634,
				"loccountrycode": "DK",
				"locstatecode": "04",
				"loccityid": 14130
			},
			{
				"steamid": "76561197960398483",
				"communityvisibilitystate": 3,
				"profilestate": 1,
				"personaname": "Floww.",
				"lastlogoff": 1362610437,
				"profileurl": "http://steamcommunity.com/profiles/76561197960398483/",
				"avatar": "http://media.steampowered.com/steamcommunity/public/images/avatars/fe/fef49e7fa7e1997310d705b2a6158ff8dc1cdfeb.jpg",
				"avatarmedium": "http://media.steampowered.com/steamcommunity/public/images/avatars/fe/fef49e7fa7e1997310d705b2a6158ff8dc1cdfeb_medium.jpg",
				"avatarfull": "http://media.steampowered.com/steamcommunity/public/images/avatars/fe/fef49e7fa7e1997310d705b2a6158ff8dc1cdfeb_full.jpg",
				"personastate": 1,
				"primaryclanid": "103582791429523286",
				"timecreated": 1063390709
			},
			{
				"steamid": "76561197960398363",
				"communityvisibilitystate": 3,
				"profilestate": 1,
				"personaname": "Jagi",
				"lastlogoff": 1362250428,
				"profileurl": "http://steamcommunity.com/profiles/76561197960398363/",
				"avatar": "http://media.steampowered.com/steamcommunity/public/images/avatars/f9/f90c3f2e0f5816c6ef88fb5a800e13cbc685e0d8.jpg",
				"avatarmedium": "http://media.steampowered.com/steamcommunity/public/images/avatars/f9/f90c3f2e0f5816c6ef88fb5a800e13cbc685e0d8_medium.jpg",
				"avatarfull": "http://media.steampowered.com/steamcommunity/public/images/avatars/f9/f90c3f2e0f5816c6ef88fb5a800e13cbc685e0d8_full.jpg",
				"personastate": 0,
				"primaryclanid": "103582791429975451",
				"timecreated": 1063390633,
				"loccountrycode": "BB"
			},
			{
				"steamid": "76561197960398481",
				"communityvisibilitystate": 3,
				"profilestate": 1,
				"personaname": "Morpheus_dizi",
				"lastlogoff": 1359979367,
				"profileurl": "http://steamcommunity.com/profiles/76561197960398481/",
				"avatar": "http://media.steampowered.com/steamcommunity/public/images/avatars/86/86c33aa1fe914efca1b9a6e6ebf5433355002c34.jpg",
				"avatarmedium": "http://media.steampowered.com/steamcommunity/public/images/avatars/86/86c33aa1fe914efca1b9a6e6ebf5433355002c34_medium.jpg",
				"avatarfull": "http://media.steampowered.com/steamcommunity/public/images/avatars/86/86c33aa1fe914efca1b9a6e6ebf5433355002c34_full.jpg",
				"personastate": 0,
				"realname": "Dieter Zimmermann",
				"primaryclanid": "103582791431058587",
				"timecreated": 1063390708,
				"loccountrycode": "DE",
				"locstatecode": "08",
				"loccityid": 12550
			},
			{
				"steamid": "76561197960398329",
				"communityvisibilitystate": 1,
				"profilestate": 1,
				"personaname": "Contract Killer",
				"lastlogoff": 1362571385,
				"profileurl": "http://steamcommunity.com/profiles/76561197960398329/",
				"avatar": "http://media.steampowered.com/steamcommunity/public/images/avatars/3c/3ce8048142dcb1bb094d123a4067dc0bd276193b.jpg",
				"avatarmedium": "http://media.steampowered.com/steamcommunity/public/images/avatars/3c/3ce8048142dcb1bb094d123a4067dc0bd276193b_medium.jpg",
				"avatarfull": "http://media.steampowered.com/steamcommunity/public/images/avatars/3c/3ce8048142dcb1bb094d123a4067dc0bd276193b_full.jpg",
				"personastate": 0
			},
			{
				"steamid": "76561197960398447",
				"communityvisibilitystate": 1,
				"profilestate": 1,
				"personaname": "lumen",
				"lastlogoff": 1360856886,
				"commentpermission": 2,
				"profileurl": "http://steamcommunity.com/id/66359/",
				"avatar": "http://media.steampowered.com/steamcommunity/public/images/avatars/fc/fcf4a77c9d9fa7681c9060003611d77571cb1e6d.jpg",
				"avatarmedium": "http://media.steampowered.com/steamcommunity/public/images/avatars/fc/fcf4a77c9d9fa7681c9060003611d77571cb1e6d_medium.jpg",
				"avatarfull": "http://media.steampowered.com/steamcommunity/public/images/avatars/fc/fcf4a77c9d9fa7681c9060003611d77571cb1e6d_full.jpg",
				"personastate": 0
			},
			{
				"steamid": "76561197960398341",
				"communityvisibilitystate": 3,
				"profilestate": 1,
				"personaname": "Coji",
				"lastlogoff": 1362596722,
				"profileurl": "http://steamcommunity.com/profiles/76561197960398341/",
				"avatar": "http://media.steampowered.com/steamcommunity/public/images/avatars/6f/6feee20f52898c654ecc388e9a65b8056befa8c0.jpg",
				"avatarmedium": "http://media.steampowered.com/steamcommunity/public/images/avatars/6f/6feee20f52898c654ecc388e9a65b8056befa8c0_medium.jpg",
				"avatarfull": "http://media.steampowered.com/steamcommunity/public/images/avatars/6f/6feee20f52898c654ecc388e9a65b8056befa8c0_full.jpg",
				"personastate": 0,
				"realname": "Ian",
				"primaryclanid": "103582791429820015",
				"timecreated": 1063390618,
				"loccountrycode": "GB"
			},
			{
				"steamid": "76561197960398459",
				"communityvisibilitystate": 1,
				"profilestate": 1,
				"personaname": "rbN",
				"lastlogoff": 1360334311,
				"profileurl": "http://steamcommunity.com/profiles/76561197960398459/",
				"avatar": "http://media.steampowered.com/steamcommunity/public/images/avatars/ac/acc64e5287f7ec2a70f2e410b22d1d42099c9d09.jpg",
				"avatarmedium": "http://media.steampowered.com/steamcommunity/public/images/avatars/ac/acc64e5287f7ec2a70f2e410b22d1d42099c9d09_medium.jpg",
				"avatarfull": "http://media.steampowered.com/steamcommunity/public/images/avatars/ac/acc64e5287f7ec2a70f2e410b22d1d42099c9d09_full.jpg",
				"personastate": 0
			},
			{
				"steamid": "76561197960398435",
				"communityvisibilitystate": 3,
				"profilestate": 1,
				"personaname": "[CoFR]TomJones",
				"lastlogoff": 1362513384,
				"profileurl": "http://steamcommunity.com/profiles/76561197960398435/",
				"avatar": "http://media.steampowered.com/steamcommunity/public/images/avatars/d9/d91be8d35261d3320d852bc1caa3025ebd5e143c.jpg",
				"avatarmedium": "http://media.steampowered.com/steamcommunity/public/images/avatars/d9/d91be8d35261d3320d852bc1caa3025ebd5e143c_medium.jpg",
				"avatarfull": "http://media.steampowered.com/steamcommunity/public/images/avatars/d9/d91be8d35261d3320d852bc1caa3025ebd5e143c_full.jpg",
				"personastate": 0,
				"realname": "Freddan",
				"primaryclanid": "103582791429532720",
				"timecreated": 1063390673,
				"loccountrycode": "SE",
				"locstatecode": "18"
			},
			{
				"steamid": "76561197960398445",
				"communityvisibilitystate": 3,
				"profilestate": 1,
				"personaname": "hamen",
				"lastlogoff": 1362589984,
				"profileurl": "http://steamcommunity.com/profiles/76561197960398445/",
				"avatar": "http://media.steampowered.com/steamcommunity/public/images/avatars/fe/fef49e7fa7e1997310d705b2a6158ff8dc1cdfeb.jpg",
				"avatarmedium": "http://media.steampowered.com/steamcommunity/public/images/avatars/fe/fef49e7fa7e1997310d705b2a6158ff8dc1cdfeb_medium.jpg",
				"avatarfull": "http://media.steampowered.com/steamcommunity/public/images/avatars/fe/fef49e7fa7e1997310d705b2a6158ff8dc1cdfeb_full.jpg",
				"personastate": 1,
				"primaryclanid": "103582791431058587",
				"timecreated": 1063390683,
				"gameserverip": "78.34.205.153:0",
				"gameextrainfo": "Dota 2",
				"gameid": "570",
				"gameserversteamid": "90086179668495362"
			},
			{
				"steamid": "76561197960398407",
				"communityvisibilitystate": 3,
				"profilestate": 1,
				"personaname": "Zedkhov",
				"lastlogoff": 1362462518,
				"profileurl": "http://steamcommunity.com/profiles/76561197960398407/",
				"avatar": "http://media.steampowered.com/steamcommunity/public/images/avatars/e3/e321d0c3656fec32ab4107dd46a8b72b5f551a20.jpg",
				"avatarmedium": "http://media.steampowered.com/steamcommunity/public/images/avatars/e3/e321d0c3656fec32ab4107dd46a8b72b5f551a20_medium.jpg",
				"avatarfull": "http://media.steampowered.com/steamcommunity/public/images/avatars/e3/e321d0c3656fec32ab4107dd46a8b72b5f551a20_full.jpg",
				"personastate": 0,
				"realname": "Zach",
				"primaryclanid": "103582791430380703",
				"timecreated": 1063390666,
				"loccountrycode": "CA",
				"locstatecode": "BC",
				"loccityid": 4839
			},
			{
				"steamid": "76561197960398383",
				"communityvisibilitystate": 3,
				"profilestate": 1,
				"personaname": "Imram",
				"lastlogoff": 1362521058,
				"profileurl": "http://steamcommunity.com/profiles/76561197960398383/",
				"avatar": "http://media.steampowered.com/steamcommunity/public/images/avatars/fe/fef49e7fa7e1997310d705b2a6158ff8dc1cdfeb.jpg",
				"avatarmedium": "http://media.steampowered.com/steamcommunity/public/images/avatars/fe/fef49e7fa7e1997310d705b2a6158ff8dc1cdfeb_medium.jpg",
				"avatarfull": "http://media.steampowered.com/steamcommunity/public/images/avatars/fe/fef49e7fa7e1997310d705b2a6158ff8dc1cdfeb_full.jpg",
				"personastate": 0,
				"primaryclanid": "103582791429590935",
				"timecreated": 1063390643,
				"loccountrycode": "DE"
			},
			{
				"steamid": "76561197960398501",
				"communityvisibilitystate": 3,
				"profilestate": 1,
				"personaname": "dahammer",
				"lastlogoff": 1362604194,
				"profileurl": "http://steamcommunity.com/profiles/76561197960398501/",
				"avatar": "http://media.steampowered.com/steamcommunity/public/images/avatars/cd/cd37aa201a0d94ddd5587859645dde5ef4dc31dd.jpg",
				"avatarmedium": "http://media.steampowered.com/steamcommunity/public/images/avatars/cd/cd37aa201a0d94ddd5587859645dde5ef4dc31dd_medium.jpg",
				"avatarfull": "http://media.steampowered.com/steamcommunity/public/images/avatars/cd/cd37aa201a0d94ddd5587859645dde5ef4dc31dd_full.jpg",
				"personastate": 4,
				"realname": "Michael Branston",
				"primaryclanid": "103582791429546485",
				"timecreated": 1063390718,
				"loccountrycode": "CA"
			},
			{
				"steamid": "76561197960398413",
				"communityvisibilitystate": 1,
				"profilestate": 1,
				"personaname": "Musicman",
				"lastlogoff": 1362555935,
				"profileurl": "http://steamcommunity.com/profiles/76561197960398413/",
				"avatar": "http://media.steampowered.com/steamcommunity/public/images/avatars/66/66cb3c78d0c220ef709dce8c220949d2bdf9792d.jpg",
				"avatarmedium": "http://media.steampowered.com/steamcommunity/public/images/avatars/66/66cb3c78d0c220ef709dce8c220949d2bdf9792d_medium.jpg",
				"avatarfull": "http://media.steampowered.com/steamcommunity/public/images/avatars/66/66cb3c78d0c220ef709dce8c220949d2bdf9792d_full.jpg",
				"personastate": 0
			},
			{
				"steamid": "76561197960398423",
				"communityvisibilitystate": 3,
				"profilestate": 1,
				"personaname": "haxxcoto",
				"lastlogoff": 1361669515,
				"profileurl": "http://steamcommunity.com/profiles/76561197960398423/",
				"avatar": "http://media.steampowered.com/steamcommunity/public/images/avatars/47/477872db245ccad599886239ce95f916f617616a.jpg",
				"avatarmedium": "http://media.steampowered.com/steamcommunity/public/images/avatars/47/477872db245ccad599886239ce95f916f617616a_medium.jpg",
				"avatarfull": "http://media.steampowered.com/steamcommunity/public/images/avatars/47/477872db245ccad599886239ce95f916f617616a_full.jpg",
				"personastate": 0,
				"realname": "Joonas Ukkonen",
				"primaryclanid": "103582791429730588",
				"timecreated": 1063390672,
				"loccountrycode": "SE",
				"locstatecode": "26",
				"loccityid": 43754
			},
			{
				"steamid": "76561197960398349",
				"communityvisibilitystate": 1,
				"profilestate": 1,
				"personaname": "HammU",
				"lastlogoff": 1362528173,
				"profileurl": "http://steamcommunity.com/profiles/76561197960398349/",
				"avatar": "http://media.steampowered.com/steamcommunity/public/images/avatars/0f/0febedcaa43755277cfdfbfc5ec64eccd255ba23.jpg",
				"avatarmedium": "http://media.steampowered.com/steamcommunity/public/images/avatars/0f/0febedcaa43755277cfdfbfc5ec64eccd255ba23_medium.jpg",
				"avatarfull": "http://media.steampowered.com/steamcommunity/public/images/avatars/0f/0febedcaa43755277cfdfbfc5ec64eccd255ba23_full.jpg",
				"personastate": 0
			},
			{
				"steamid": "76561197960398433",
				"communityvisibilitystate": 1,
				"personaname": "sam38",
				"profileurl": "http://steamcommunity.com/profiles/76561197960398433/",
				"avatar": "http://media.steampowered.com/steamcommunity/public/images/avatars/fe/fef49e7fa7e1997310d705b2a6158ff8dc1cdfeb.jpg",
				"avatarmedium": "http://media.steampowered.com/steamcommunity/public/images/avatars/fe/fef49e7fa7e1997310d705b2a6158ff8dc1cdfeb_medium.jpg",
				"avatarfull": "http://media.steampowered.com/steamcommunity/public/images/avatars/fe/fef49e7fa7e1997310d705b2a6158ff8dc1cdfeb_full.jpg",
				"personastate": 0
			},
			{
				"steamid": "76561197960398343",
				"communityvisibilitystate": 3,
				"profilestate": 1,
				"personaname": "Looper",
				"lastlogoff": 1362535448,
				"profileurl": "http://steamcommunity.com/profiles/76561197960398343/",
				"avatar": "http://media.steampowered.com/steamcommunity/public/images/avatars/67/67b948b6ba045da014067416b62ae9b620cc00b1.jpg",
				"avatarmedium": "http://media.steampowered.com/steamcommunity/public/images/avatars/67/67b948b6ba045da014067416b62ae9b620cc00b1_medium.jpg",
				"avatarfull": "http://media.steampowered.com/steamcommunity/public/images/avatars/67/67b948b6ba045da014067416b62ae9b620cc00b1_full.jpg",
				"personastate": 1,
				"primaryclanid": "103582791433776744",
				"timecreated": 1063390620,
				"gameextrainfo": "Tomb Raider",
				"gameid": "203160"
			},
			{
				"steamid": "76561197960398395",
				"communityvisibilitystate": 1,
				"personaname": "xns_moonz",
				"profileurl": "http://steamcommunity.com/profiles/76561197960398395/",
				"avatar": "http://media.steampowered.com/steamcommunity/public/images/avatars/fe/fef49e7fa7e1997310d705b2a6158ff8dc1cdfeb.jpg",
				"avatarmedium": "http://media.steampowered.com/steamcommunity/public/images/avatars/fe/fef49e7fa7e1997310d705b2a6158ff8dc1cdfeb_medium.jpg",
				"avatarfull": "http://media.steampowered.com/steamcommunity/public/images/avatars/fe/fef49e7fa7e1997310d705b2a6158ff8dc1cdfeb_full.jpg",
				"personastate": 0
			},
			{
				"steamid": "76561197960398513",
				"communityvisibilitystate": 3,
				"profilestate": 1,
				"personaname": "Hakansson",
				"lastlogoff": 1361777477,
				"profileurl": "http://steamcommunity.com/profiles/76561197960398513/",
				"avatar": "http://media.steampowered.com/steamcommunity/public/images/avatars/fe/fef49e7fa7e1997310d705b2a6158ff8dc1cdfeb.jpg",
				"avatarmedium": "http://media.steampowered.com/steamcommunity/public/images/avatars/fe/fef49e7fa7e1997310d705b2a6158ff8dc1cdfeb_medium.jpg",
				"avatarfull": "http://media.steampowered.com/steamcommunity/public/images/avatars/fe/fef49e7fa7e1997310d705b2a6158ff8dc1cdfeb_full.jpg",
				"personastate": 0,
				"realname": "hampus",
				"primaryclanid": "103582791429521408",
				"timecreated": 1063390723,
				"loccountrycode": "SE"
			},
			{
				"steamid": "76561197960398443",
				"communityvisibilitystate": 1,
				"profilestate": 1,
				"personaname": "Awx",
				"lastlogoff": 1362594549,
				"commentpermission": 1,
				"profileurl": "http://steamcommunity.com/profiles/76561197960398443/",
				"avatar": "http://media.steampowered.com/steamcommunity/public/images/avatars/fe/fef49e7fa7e1997310d705b2a6158ff8dc1cdfeb.jpg",
				"avatarmedium": "http://media.steampowered.com/steamcommunity/public/images/avatars/fe/fef49e7fa7e1997310d705b2a6158ff8dc1cdfeb_medium.jpg",
				"avatarfull": "http://media.steampowered.com/steamcommunity/public/images/avatars/fe/fef49e7fa7e1997310d705b2a6158ff8dc1cdfeb_full.jpg",
				"personastate": 0
			},
			{
				"steamid": "76561197960398331",
				"communityvisibilitystate": 3,
				"personaname": "jussi.hayha",
				"lastlogoff": 1321638240,
				"profileurl": "http://steamcommunity.com/profiles/76561197960398331/",
				"avatar": "http://media.steampowered.com/steamcommunity/public/images/avatars/fe/fef49e7fa7e1997310d705b2a6158ff8dc1cdfeb.jpg",
				"avatarmedium": "http://media.steampowered.com/steamcommunity/public/images/avatars/fe/fef49e7fa7e1997310d705b2a6158ff8dc1cdfeb_medium.jpg",
				"avatarfull": "http://media.steampowered.com/steamcommunity/public/images/avatars/fe/fef49e7fa7e1997310d705b2a6158ff8dc1cdfeb_full.jpg",
				"personastate": 0,
				"primaryclanid": "103582791429521408",
				"timecreated": 1063390608
			},
			{
				"steamid": "76561197960398449",
				"communityvisibilitystate": 1,
				"personaname": "paul.mckay3",
				"profileurl": "http://steamcommunity.com/profiles/76561197960398449/",
				"avatar": "http://media.steampowered.com/steamcommunity/public/images/avatars/fe/fef49e7fa7e1997310d705b2a6158ff8dc1cdfeb.jpg",
				"avatarmedium": "http://media.steampowered.com/steamcommunity/public/images/avatars/fe/fef49e7fa7e1997310d705b2a6158ff8dc1cdfeb_medium.jpg",
				"avatarfull": "http://media.steampowered.com/steamcommunity/public/images/avatars/fe/fef49e7fa7e1997310d705b2a6158ff8dc1cdfeb_full.jpg",
				"personastate": 0
			},
			{
				"steamid": "76561197960398393",
				"communityvisibilitystate": 3,
				"profilestate": 1,
				"personaname": "strike",
				"lastlogoff": 1362608175,
				"profileurl": "http://steamcommunity.com/profiles/76561197960398393/",
				"avatar": "http://media.steampowered.com/steamcommunity/public/images/avatars/fe/fef49e7fa7e1997310d705b2a6158ff8dc1cdfeb.jpg",
				"avatarmedium": "http://media.steampowered.com/steamcommunity/public/images/avatars/fe/fef49e7fa7e1997310d705b2a6158ff8dc1cdfeb_medium.jpg",
				"avatarfull": "http://media.steampowered.com/steamcommunity/public/images/avatars/fe/fef49e7fa7e1997310d705b2a6158ff8dc1cdfeb_full.jpg",
				"personastate": 0,
				"primaryclanid": "103582791430816420",
				"timecreated": 1063390652
			},
			{
				"steamid": "76561197960398511",
				"communityvisibilitystate": 1,
				"profilestate": 1,
				"personaname": "hegi",
				"lastlogoff": 1357324253,
				"commentpermission": 2,
				"profileurl": "http://steamcommunity.com/profiles/76561197960398511/",
				"avatar": "http://media.steampowered.com/steamcommunity/public/images/avatars/fe/fef49e7fa7e1997310d705b2a6158ff8dc1cdfeb.jpg",
				"avatarmedium": "http://media.steampowered.com/steamcommunity/public/images/avatars/fe/fef49e7fa7e1997310d705b2a6158ff8dc1cdfeb_medium.jpg",
				"avatarfull": "http://media.steampowered.com/steamcommunity/public/images/avatars/fe/fef49e7fa7e1997310d705b2a6158ff8dc1cdfeb_full.jpg",
				"personastate": 0
			},
			{
				"steamid": "76561197960398417",
				"communityvisibilitystate": 3,
				"personaname": "danifr",
				"lastlogoff": 1255614700,
				"profileurl": "http://steamcommunity.com/profiles/76561197960398417/",
				"avatar": "http://media.steampowered.com/steamcommunity/public/images/avatars/fe/fef49e7fa7e1997310d705b2a6158ff8dc1cdfeb.jpg",
				"avatarmedium": "http://media.steampowered.com/steamcommunity/public/images/avatars/fe/fef49e7fa7e1997310d705b2a6158ff8dc1cdfeb_medium.jpg",
				"avatarfull": "http://media.steampowered.com/steamcommunity/public/images/avatars/fe/fef49e7fa7e1997310d705b2a6158ff8dc1cdfeb_full.jpg",
				"personastate": 0,
				"primaryclanid": "103582791429521408",
				"timecreated": 1063390670
			},
			{
				"steamid": "76561197960398375",
				"communityvisibilitystate": 3,
				"personaname": "lem88my",
				"lastlogoff": 1156346341,
				"profileurl": "http://steamcommunity.com/profiles/76561197960398375/",
				"avatar": "http://media.steampowered.com/steamcommunity/public/images/avatars/fe/fef49e7fa7e1997310d705b2a6158ff8dc1cdfeb.jpg",
				"avatarmedium": "http://media.steampowered.com/steamcommunity/public/images/avatars/fe/fef49e7fa7e1997310d705b2a6158ff8dc1cdfeb_medium.jpg",
				"avatarfull": "http://media.steampowered.com/steamcommunity/public/images/avatars/fe/fef49e7fa7e1997310d705b2a6158ff8dc1cdfeb_full.jpg",
				"personastate": 0,
				"primaryclanid": "103582791429521408",
				"timecreated": 1063390641
			},
			{
				"steamid": "76561197960398493",
				"communityvisibilitystate": 3,
				"profilestate": 1,
				"personaname": "heleos.bmp",
				"lastlogoff": 1362532013,
				"profileurl": "http://steamcommunity.com/id/heleos/",
				"avatar": "http://media.steampowered.com/steamcommunity/public/images/avatars/57/57a9f247cb93b0b8ef11c59c22ca5d31af42cf11.jpg",
				"avatarmedium": "http://media.steampowered.com/steamcommunity/public/images/avatars/57/57a9f247cb93b0b8ef11c59c22ca5d31af42cf11_medium.jpg",
				"avatarfull": "http://media.steampowered.com/steamcommunity/public/images/avatars/57/57a9f247cb93b0b8ef11c59c22ca5d31af42cf11_full.jpg",
				"personastate": 0,
				"primaryclanid": "103582791433276965",
				"timecreated": 1063390715,
				"loccountrycode": "US",
				"locstatecode": "ME"
			},
			{
				"steamid": "76561197960398355",
				"communityvisibilitystate": 3,
				"personaname": "kemmi",
				"lastlogoff": 1255258103,
				"profileurl": "http://steamcommunity.com/profiles/76561197960398355/",
				"avatar": "http://media.steampowered.com/steamcommunity/public/images/avatars/fe/fef49e7fa7e1997310d705b2a6158ff8dc1cdfeb.jpg",
				"avatarmedium": "http://media.steampowered.com/steamcommunity/public/images/avatars/fe/fef49e7fa7e1997310d705b2a6158ff8dc1cdfeb_medium.jpg",
				"avatarfull": "http://media.steampowered.com/steamcommunity/public/images/avatars/fe/fef49e7fa7e1997310d705b2a6158ff8dc1cdfeb_full.jpg",
				"personastate": 0,
				"primaryclanid": "103582791429521408",
				"timecreated": 1063390631
			},
			{
				"steamid": "76561197960398473",
				"communityvisibilitystate": 1,
				"personaname": "gnczeus1",
				"profileurl": "http://steamcommunity.com/profiles/76561197960398473/",
				"avatar": "http://media.steampowered.com/steamcommunity/public/images/avatars/fe/fef49e7fa7e1997310d705b2a6158ff8dc1cdfeb.jpg",
				"avatarmedium": "http://media.steampowered.com/steamcommunity/public/images/avatars/fe/fef49e7fa7e1997310d705b2a6158ff8dc1cdfeb_medium.jpg",
				"avatarfull": "http://media.steampowered.com/steamcommunity/public/images/avatars/fe/fef49e7fa7e1997310d705b2a6158ff8dc1cdfeb_full.jpg",
				"personastate": 0
			},
			{
				"steamid": "76561197960398339",
				"communityvisibilitystate": 1,
				"personaname": "samuel.merdrignac",
				"profileurl": "http://steamcommunity.com/profiles/76561197960398339/",
				"avatar": "http://media.steampowered.com/steamcommunity/public/images/avatars/fe/fef49e7fa7e1997310d705b2a6158ff8dc1cdfeb.jpg",
				"avatarmedium": "http://media.steampowered.com/steamcommunity/public/images/avatars/fe/fef49e7fa7e1997310d705b2a6158ff8dc1cdfeb_medium.jpg",
				"avatarfull": "http://media.steampowered.com/steamcommunity/public/images/avatars/fe/fef49e7fa7e1997310d705b2a6158ff8dc1cdfeb_full.jpg",
				"personastate": 0
			},
			{
				"steamid": "76561197960398457",
				"communityvisibilitystate": 3,
				"profilestate": 1,
				"personaname": "Harry in de Warry",
				"lastlogoff": 1292356393,
				"profileurl": "http://steamcommunity.com/profiles/76561197960398457/",
				"avatar": "http://media.steampowered.com/steamcommunity/public/images/avatars/fe/fef49e7fa7e1997310d705b2a6158ff8dc1cdfeb.jpg",
				"avatarmedium": "http://media.steampowered.com/steamcommunity/public/images/avatars/fe/fef49e7fa7e1997310d705b2a6158ff8dc1cdfeb_medium.jpg",
				"avatarfull": "http://media.steampowered.com/steamcommunity/public/images/avatars/fe/fef49e7fa7e1997310d705b2a6158ff8dc1cdfeb_full.jpg",
				"personastate": 0,
				"primaryclanid": "103582791429521408",
				"timecreated": 1063390691
			},
			{
				"steamid": "76561197960398367",
				"communityvisibilitystate": 3,
				"profilestate": 1,
				"personaname": "superflu",
				"lastlogoff": 1358605309,
				"profileurl": "http://steamcommunity.com/profiles/76561197960398367/",
				"avatar": "http://media.steampowered.com/steamcommunity/public/images/avatars/fe/fef49e7fa7e1997310d705b2a6158ff8dc1cdfeb.jpg",
				"avatarmedium": "http://media.steampowered.com/steamcommunity/public/images/avatars/fe/fef49e7fa7e1997310d705b2a6158ff8dc1cdfeb_medium.jpg",
				"avatarfull": "http://media.steampowered.com/steamcommunity/public/images/avatars/fe/fef49e7fa7e1997310d705b2a6158ff8dc1cdfeb_full.jpg",
				"personastate": 0,
				"realname": "fgfghdfgdf",
				"primaryclanid": "103582791429521408",
				"timecreated": 1063390635,
				"loccountrycode": "GB",
				"locstatecode": "H9"
			},
			{
				"steamid": "76561197960398485",
				"communityvisibilitystate": 3,
				"profilestate": 1,
				"personaname": "o_0",
				"lastlogoff": 1359211888,
				"profileurl": "http://steamcommunity.com/profiles/76561197960398485/",
				"avatar": "http://media.steampowered.com/steamcommunity/public/images/avatars/70/70cb5b5d80d19e799dfc8533d8acbedb68587c70.jpg",
				"avatarmedium": "http://media.steampowered.com/steamcommunity/public/images/avatars/70/70cb5b5d80d19e799dfc8533d8acbedb68587c70_medium.jpg",
				"avatarfull": "http://media.steampowered.com/steamcommunity/public/images/avatars/70/70cb5b5d80d19e799dfc8533d8acbedb68587c70_full.jpg",
				"personastate": 0,
				"primaryclanid": "103582791429521408",
				"timecreated": 1063390714,
				"loccountrycode": "DE"
			},
			{
				"steamid": "76561197960398361",
				"communityvisibilitystate": 1,
				"personaname": "520086801248-0001",
				"profileurl": "http://steamcommunity.com/profiles/76561197960398361/",
				"avatar": "http://media.steampowered.com/steamcommunity/public/images/avatars/fe/fef49e7fa7e1997310d705b2a6158ff8dc1cdfeb.jpg",
				"avatarmedium": "http://media.steampowered.com/steamcommunity/public/images/avatars/fe/fef49e7fa7e1997310d705b2a6158ff8dc1cdfeb_medium.jpg",
				"avatarfull": "http://media.steampowered.com/steamcommunity/public/images/avatars/fe/fef49e7fa7e1997310d705b2a6158ff8dc1cdfeb_full.jpg",
				"personastate": 0
			},
			{
				"steamid": "76561197960398479",
				"communityvisibilitystate": 1,
				"personaname": "systemz",
				"profileurl": "http://steamcommunity.com/profiles/76561197960398479/",
				"avatar": "http://media.steampowered.com/steamcommunity/public/images/avatars/fe/fef49e7fa7e1997310d705b2a6158ff8dc1cdfeb.jpg",
				"avatarmedium": "http://media.steampowered.com/steamcommunity/public/images/avatars/fe/fef49e7fa7e1997310d705b2a6158ff8dc1cdfeb_medium.jpg",
				"avatarfull": "http://media.steampowered.com/steamcommunity/public/images/avatars/fe/fef49e7fa7e1997310d705b2a6158ff8dc1cdfeb_full.jpg",
				"personastate": 0
			},
			{
				"steamid": "76561197960398509",
				"communityvisibilitystate": 3,
				"personaname": "JNgu",
				"lastlogoff": 1205451200,
				"profileurl": "http://steamcommunity.com/profiles/76561197960398509/",
				"avatar": "http://media.steampowered.com/steamcommunity/public/images/avatars/fe/fef49e7fa7e1997310d705b2a6158ff8dc1cdfeb.jpg",
				"avatarmedium": "http://media.steampowered.com/steamcommunity/public/images/avatars/fe/fef49e7fa7e1997310d705b2a6158ff8dc1cdfeb_medium.jpg",
				"avatarfull": "http://media.steampowered.com/steamcommunity/public/images/avatars/fe/fef49e7fa7e1997310d705b2a6158ff8dc1cdfeb_full.jpg",
				"personastate": 0,
				"primaryclanid": "103582791429521408",
				"timecreated": 1063390720
			},
			{
				"steamid": "76561197960398463",
				"communityvisibilitystate": 3,
				"profilestate": 1,
				"personaname": "ash",
				"lastlogoff": 1250647365,
				"profileurl": "http://steamcommunity.com/profiles/76561197960398463/",
				"avatar": "http://media.steampowered.com/steamcommunity/public/images/avatars/fe/fef49e7fa7e1997310d705b2a6158ff8dc1cdfeb.jpg",
				"avatarmedium": "http://media.steampowered.com/steamcommunity/public/images/avatars/fe/fef49e7fa7e1997310d705b2a6158ff8dc1cdfeb_medium.jpg",
				"avatarfull": "http://media.steampowered.com/steamcommunity/public/images/avatars/fe/fef49e7fa7e1997310d705b2a6158ff8dc1cdfeb_full.jpg",
				"personastate": 0,
				"primaryclanid": "103582791429521408",
				"timecreated": 1063390695
			},
			{
				"steamid": "76561197960398377",
				"communityvisibilitystate": 3,
				"profilestate": 1,
				"personaname": "/dev/null Ted Nugent",
				"lastlogoff": 1218824316,
				"profileurl": "http://steamcommunity.com/profiles/76561197960398377/",
				"avatar": "http://media.steampowered.com/steamcommunity/public/images/avatars/fe/fef49e7fa7e1997310d705b2a6158ff8dc1cdfeb.jpg",
				"avatarmedium": "http://media.steampowered.com/steamcommunity/public/images/avatars/fe/fef49e7fa7e1997310d705b2a6158ff8dc1cdfeb_medium.jpg",
				"avatarfull": "http://media.steampowered.com/steamcommunity/public/images/avatars/fe/fef49e7fa7e1997310d705b2a6158ff8dc1cdfeb_full.jpg",
				"personastate": 0,
				"primaryclanid": "103582791429521408",
				"timecreated": 1063390641,
				"loccountrycode": "GR"
			},
			{
				"steamid": "76561197960398495",
				"communityvisibilitystate": 3,
				"profilestate": 1,
				"personaname": "kruiperth",
				"lastlogoff": 1264796276,
				"profileurl": "http://steamcommunity.com/id/kruipert/",
				"avatar": "http://media.steampowered.com/steamcommunity/public/images/avatars/c9/c96c02990e96ff51bb296fb01e09e35ea22442c7.jpg",
				"avatarmedium": "http://media.steampowered.com/steamcommunity/public/images/avatars/c9/c96c02990e96ff51bb296fb01e09e35ea22442c7_medium.jpg",
				"avatarfull": "http://media.steampowered.com/steamcommunity/public/images/avatars/c9/c96c02990e96ff51bb296fb01e09e35ea22442c7_full.jpg",
				"personastate": 0,
				"realname": "Thomas Kraak",
				"primaryclanid": "103582791429771610",
				"timecreated": 1063390715,
				"loccountrycode": "NL",
				"locstatecode": "07",
				"loccityid": 30198
			},
			{
				"steamid": "76561197960398399",
				"communityvisibilitystate": 3,
				"profilestate": 1,
				"personaname": "Champipi",
				"lastlogoff": 1254495129,
				"profileurl": "http://steamcommunity.com/profiles/76561197960398399/",
				"avatar": "http://media.steampowered.com/steamcommunity/public/images/avatars/fe/fef49e7fa7e1997310d705b2a6158ff8dc1cdfeb.jpg",
				"avatarmedium": "http://media.steampowered.com/steamcommunity/public/images/avatars/fe/fef49e7fa7e1997310d705b2a6158ff8dc1cdfeb_medium.jpg",
				"avatarfull": "http://media.steampowered.com/steamcommunity/public/images/avatars/fe/fef49e7fa7e1997310d705b2a6158ff8dc1cdfeb_full.jpg",
				"personastate": 0,
				"realname": "Tony",
				"primaryclanid": "103582791429560099",
				"timecreated": 1063390661,
				"loccountrycode": "FR",
				"locstatecode": "A7",
				"loccityid": 16219
			},
			{
				"steamid": "76561197960398517",
				"communityvisibilitystate": 3,
				"profilestate": 1,
				"personaname": "hAUGEN",
				"lastlogoff": 1256927912,
				"profileurl": "http://steamcommunity.com/profiles/76561197960398517/",
				"avatar": "http://media.steampowered.com/steamcommunity/public/images/avatars/fe/fef49e7fa7e1997310d705b2a6158ff8dc1cdfeb.jpg",
				"avatarmedium": "http://media.steampowered.com/steamcommunity/public/images/avatars/fe/fef49e7fa7e1997310d705b2a6158ff8dc1cdfeb_medium.jpg",
				"avatarfull": "http://media.steampowered.com/steamcommunity/public/images/avatars/fe/fef49e7fa7e1997310d705b2a6158ff8dc1cdfeb_full.jpg",
				"personastate": 0,
				"primaryclanid": "103582791429521408",
				"timecreated": 1063390726
			},
			{
				"steamid": "76561197960398389",
				"communityvisibilitystate": 3,
				"profilestate": 1,
				"personaname": "Kurenko",
				"lastlogoff": 1347563058,
				"profileurl": "http://steamcommunity.com/profiles/76561197960398389/",
				"avatar": "http://media.steampowered.com/steamcommunity/public/images/avatars/fe/fef49e7fa7e1997310d705b2a6158ff8dc1cdfeb.jpg",
				"avatarmedium": "http://media.steampowered.com/steamcommunity/public/images/avatars/fe/fef49e7fa7e1997310d705b2a6158ff8dc1cdfeb_medium.jpg",
				"avatarfull": "http://media.steampowered.com/steamcommunity/public/images/avatars/fe/fef49e7fa7e1997310d705b2a6158ff8dc1cdfeb_full.jpg",
				"personastate": 0,
				"primaryclanid": "103582791429838771",
				"timecreated": 1063390650
			},
			{
				"steamid": "76561197960398507",
				"communityvisibilitystate": 3,
				"personaname": "DRT-GotGame",
				"lastlogoff": 1235165442,
				"profileurl": "http://steamcommunity.com/profiles/76561197960398507/",
				"avatar": "http://media.steampowered.com/steamcommunity/public/images/avatars/fe/fef49e7fa7e1997310d705b2a6158ff8dc1cdfeb.jpg",
				"avatarmedium": "http://media.steampowered.com/steamcommunity/public/images/avatars/fe/fef49e7fa7e1997310d705b2a6158ff8dc1cdfeb_medium.jpg",
				"avatarfull": "http://media.steampowered.com/steamcommunity/public/images/avatars/fe/fef49e7fa7e1997310d705b2a6158ff8dc1cdfeb_full.jpg",
				"personastate": 0,
				"primaryclanid": "103582791429521408",
				"timecreated": 1063390720
			},
			{
				"steamid": "76561197960398403",
				"communityvisibilitystate": 3,
				"personaname": "DeSpY",
				"lastlogoff": 1300215253,
				"profileurl": "http://steamcommunity.com/profiles/76561197960398403/",
				"avatar": "http://media.steampowered.com/steamcommunity/public/images/avatars/fe/fef49e7fa7e1997310d705b2a6158ff8dc1cdfeb.jpg",
				"avatarmedium": "http://media.steampowered.com/steamcommunity/public/images/avatars/fe/fef49e7fa7e1997310d705b2a6158ff8dc1cdfeb_medium.jpg",
				"avatarfull": "http://media.steampowered.com/steamcommunity/public/images/avatars/fe/fef49e7fa7e1997310d705b2a6158ff8dc1cdfeb_full.jpg",
				"personastate": 0,
				"primaryclanid": "103582791429521408",
				"timecreated": 1063390664
			},
			{
				"steamid": "76561197960398521",
				"communityvisibilitystate": 1,
				"personaname": "so1sauce",
				"profileurl": "http://steamcommunity.com/profiles/76561197960398521/",
				"avatar": "http://media.steampowered.com/steamcommunity/public/images/avatars/fe/fef49e7fa7e1997310d705b2a6158ff8dc1cdfeb.jpg",
				"avatarmedium": "http://media.steampowered.com/steamcommunity/public/images/avatars/fe/fef49e7fa7e1997310d705b2a6158ff8dc1cdfeb_medium.jpg",
				"avatarfull": "http://media.steampowered.com/steamcommunity/public/images/avatars/fe/fef49e7fa7e1997310d705b2a6158ff8dc1cdfeb_full.jpg",
				"personastate": 0
			},
			{
				"steamid": "76561197960398437",
				"communityvisibilitystate": 3,
				"personaname": "CoCCa",
				"lastlogoff": 1241974752,
				"profileurl": "http://steamcommunity.com/profiles/76561197960398437/",
				"avatar": "http://media.steampowered.com/steamcommunity/public/images/avatars/fe/fef49e7fa7e1997310d705b2a6158ff8dc1cdfeb.jpg",
				"avatarmedium": "http://media.steampowered.com/steamcommunity/public/images/avatars/fe/fef49e7fa7e1997310d705b2a6158ff8dc1cdfeb_medium.jpg",
				"avatarfull": "http://media.steampowered.com/steamcommunity/public/images/avatars/fe/fef49e7fa7e1997310d705b2a6158ff8dc1cdfeb_full.jpg",
				"personastate": 0,
				"primaryclanid": "103582791429521408",
				"timecreated": 1063390674
			},
			{
				"steamid": "76561197960398351",
				"communityvisibilitystate": 3,
				"profilestate": 1,
				"personaname": "|$m0k!n|-BlackJack-[GER]",
				"lastlogoff": 1360955411,
				"profileurl": "http://steamcommunity.com/id/blackjack/",
				"avatar": "http://media.steampowered.com/steamcommunity/public/images/avatars/cd/cde96bfebbf93a9d2782d75fd61fe291359fa705.jpg",
				"avatarmedium": "http://media.steampowered.com/steamcommunity/public/images/avatars/cd/cde96bfebbf93a9d2782d75fd61fe291359fa705_medium.jpg",
				"avatarfull": "http://media.steampowered.com/steamcommunity/public/images/avatars/cd/cde96bfebbf93a9d2782d75fd61fe291359fa705_full.jpg",
				"personastate": 0,
				"realname": "Sven",
				"primaryclanid": "103582791429535150",
				"timecreated": 1063390626,
				"loccountrycode": "DE",
				"locstatecode": "07",
				"loccityid": 13632
			},
			{
				"steamid": "76561197960398469",
				"communityvisibilitystate": 1,
				"personaname": "miloose06",
				"profileurl": "http://steamcommunity.com/profiles/76561197960398469/",
				"avatar": "http://media.steampowered.com/steamcommunity/public/images/avatars/fe/fef49e7fa7e1997310d705b2a6158ff8dc1cdfeb.jpg",
				"avatarmedium": "http://media.steampowered.com/steamcommunity/public/images/avatars/fe/fef49e7fa7e1997310d705b2a6158ff8dc1cdfeb_medium.jpg",
				"avatarfull": "http://media.steampowered.com/steamcommunity/public/images/avatars/fe/fef49e7fa7e1997310d705b2a6158ff8dc1cdfeb_full.jpg",
				"personastate": 0
			},
			{
				"steamid": "76561197960398439",
				"communityvisibilitystate": 3,
				"personaname": "myherofaker",
				"lastlogoff": 1241475589,
				"profileurl": "http://steamcommunity.com/profiles/76561197960398439/",
				"avatar": "http://media.steampowered.com/steamcommunity/public/images/avatars/fe/fef49e7fa7e1997310d705b2a6158ff8dc1cdfeb.jpg",
				"avatarmedium": "http://media.steampowered.com/steamcommunity/public/images/avatars/fe/fef49e7fa7e1997310d705b2a6158ff8dc1cdfeb_medium.jpg",
				"avatarfull": "http://media.steampowered.com/steamcommunity/public/images/avatars/fe/fef49e7fa7e1997310d705b2a6158ff8dc1cdfeb_full.jpg",
				"personastate": 0,
				"primaryclanid": "103582791429521408",
				"timecreated": 1063390678
			},
			{
				"steamid": "76561197960398373",
				"communityvisibilitystate": 1,
				"personaname": "webmaster",
				"profileurl": "http://steamcommunity.com/profiles/76561197960398373/",
				"avatar": "http://media.steampowered.com/steamcommunity/public/images/avatars/fe/fef49e7fa7e1997310d705b2a6158ff8dc1cdfeb.jpg",
				"avatarmedium": "http://media.steampowered.com/steamcommunity/public/images/avatars/fe/fef49e7fa7e1997310d705b2a6158ff8dc1cdfeb_medium.jpg",
				"avatarfull": "http://media.steampowered.com/steamcommunity/public/images/avatars/fe/fef49e7fa7e1997310d705b2a6158ff8dc1cdfeb_full.jpg",
				"personastate": 0
			},
			{
				"steamid": "76561197960398491",
				"communityvisibilitystate": 3,
				"profilestate": 1,
				"personaname": "Mac Gregor",
				"lastlogoff": 1320440270,
				"profileurl": "http://steamcommunity.com/profiles/76561197960398491/",
				"avatar": "http://media.steampowered.com/steamcommunity/public/images/avatars/07/077ad82a2fde13e1b0ceb729e7dae20de97398fb.jpg",
				"avatarmedium": "http://media.steampowered.com/steamcommunity/public/images/avatars/07/077ad82a2fde13e1b0ceb729e7dae20de97398fb_medium.jpg",
				"avatarfull": "http://media.steampowered.com/steamcommunity/public/images/avatars/07/077ad82a2fde13e1b0ceb729e7dae20de97398fb_full.jpg",
				"personastate": 0,
				"primaryclanid": "103582791430989676",
				"timecreated": 1063390714,
				"loccountrycode": "FR",
				"locstatecode": "B3",
				"loccityid": 16348
			},
			{
				"steamid": "76561197960398465",
				"communityvisibilitystate": 3,
				"personaname": "§¤1µ7юη|Ŋзפλ7!ϋ€",
				"lastlogoff": 1358700198,
				"profileurl": "http://steamcommunity.com/profiles/76561197960398465/",
				"avatar": "http://media.steampowered.com/steamcommunity/public/images/avatars/91/917db1c741e93407111abac4fbf584c3e02a3c1c.jpg",
				"avatarmedium": "http://media.steampowered.com/steamcommunity/public/images/avatars/91/917db1c741e93407111abac4fbf584c3e02a3c1c_medium.jpg",
				"avatarfull": "http://media.steampowered.com/steamcommunity/public/images/avatars/91/917db1c741e93407111abac4fbf584c3e02a3c1c_full.jpg",
				"personastate": 0,
				"primaryclanid": "103582791429521408",
				"timecreated": 1063390695
			},
			{
				"steamid": "76561197960398371",
				"communityvisibilitystate": 1,
				"personaname": "olilamo",
				"profileurl": "http://steamcommunity.com/profiles/76561197960398371/",
				"avatar": "http://media.steampowered.com/steamcommunity/public/images/avatars/fe/fef49e7fa7e1997310d705b2a6158ff8dc1cdfeb.jpg",
				"avatarmedium": "http://media.steampowered.com/steamcommunity/public/images/avatars/fe/fef49e7fa7e1997310d705b2a6158ff8dc1cdfeb_medium.jpg",
				"avatarfull": "http://media.steampowered.com/steamcommunity/public/images/avatars/fe/fef49e7fa7e1997310d705b2a6158ff8dc1cdfeb_full.jpg",
				"personastate": 0
			},
			{
				"steamid": "76561197960398489",
				"communityvisibilitystate": 3,
				"personaname": "deameat",
				"lastlogoff": 1247073791,
				"profileurl": "http://steamcommunity.com/profiles/76561197960398489/",
				"avatar": "http://media.steampowered.com/steamcommunity/public/images/avatars/fe/fef49e7fa7e1997310d705b2a6158ff8dc1cdfeb.jpg",
				"avatarmedium": "http://media.steampowered.com/steamcommunity/public/images/avatars/fe/fef49e7fa7e1997310d705b2a6158ff8dc1cdfeb_medium.jpg",
				"avatarfull": "http://media.steampowered.com/steamcommunity/public/images/avatars/fe/fef49e7fa7e1997310d705b2a6158ff8dc1cdfeb_full.jpg",
				"personastate": 0,
				"primaryclanid": "103582791429521408",
				"timecreated": 1063390714
			},
			{
				"steamid": "76561197960398411",
				"communityvisibilitystate": 3,
				"personaname": "pattyn_david",
				"lastlogoff": 1318769330,
				"profileurl": "http://steamcommunity.com/profiles/76561197960398411/",
				"avatar": "http://media.steampowered.com/steamcommunity/public/images/avatars/fe/fef49e7fa7e1997310d705b2a6158ff8dc1cdfeb.jpg",
				"avatarmedium": "http://media.steampowered.com/steamcommunity/public/images/avatars/fe/fef49e7fa7e1997310d705b2a6158ff8dc1cdfeb_medium.jpg",
				"avatarfull": "http://media.steampowered.com/steamcommunity/public/images/avatars/fe/fef49e7fa7e1997310d705b2a6158ff8dc1cdfeb_full.jpg",
				"personastate": 0,
				"primaryclanid": "103582791429521408",
				"timecreated": 1063390668
			},
			{
				"steamid": "76561197960398333",
				"communityvisibilitystate": 1,
				"personaname": "grego.dias",
				"profileurl": "http://steamcommunity.com/profiles/76561197960398333/",
				"avatar": "http://media.steampowered.com/steamcommunity/public/images/avatars/fe/fef49e7fa7e1997310d705b2a6158ff8dc1cdfeb.jpg",
				"avatarmedium": "http://media.steampowered.com/steamcommunity/public/images/avatars/fe/fef49e7fa7e1997310d705b2a6158ff8dc1cdfeb_medium.jpg",
				"avatarfull": "http://media.steampowered.com/steamcommunity/public/images/avatars/fe/fef49e7fa7e1997310d705b2a6158ff8dc1cdfeb_full.jpg",
				"personastate": 0
			},
			{
				"steamid": "76561197960398451",
				"communityvisibilitystate": 3,
				"profilestate": 1,
				"personaname": "Method<3",
				"lastlogoff": 1236898920,
				"profileurl": "http://steamcommunity.com/profiles/76561197960398451/",
				"avatar": "http://media.steampowered.com/steamcommunity/public/images/avatars/58/58aedfdd9bba981d8f34a7024807d072988cc70c.jpg",
				"avatarmedium": "http://media.steampowered.com/steamcommunity/public/images/avatars/58/58aedfdd9bba981d8f34a7024807d072988cc70c_medium.jpg",
				"avatarfull": "http://media.steampowered.com/steamcommunity/public/images/avatars/58/58aedfdd9bba981d8f34a7024807d072988cc70c_full.jpg",
				"personastate": 0,
				"primaryclanid": "103582791430266528",
				"timecreated": 1063390687
			},
			{
				"steamid": "76561197960398357",
				"communityvisibilitystate": 3,
				"personaname": "Devil*Qc*",
				"lastlogoff": 1186623713,
				"profileurl": "http://steamcommunity.com/profiles/76561197960398357/",
				"avatar": "http://media.steampowered.com/steamcommunity/public/images/avatars/fe/fef49e7fa7e1997310d705b2a6158ff8dc1cdfeb.jpg",
				"avatarmedium": "http://media.steampowered.com/steamcommunity/public/images/avatars/fe/fef49e7fa7e1997310d705b2a6158ff8dc1cdfeb_medium.jpg",
				"avatarfull": "http://media.steampowered.com/steamcommunity/public/images/avatars/fe/fef49e7fa7e1997310d705b2a6158ff8dc1cdfeb_full.jpg",
				"personastate": 0,
				"primaryclanid": "103582791429521408",
				"timecreated": 1063390632
			},
			{
				"steamid": "76561197960398475",
				"communityvisibilitystate": 3,
				"profilestate": 1,
				"personaname": "Dredj",
				"lastlogoff": 1362541758,
				"profileurl": "http://steamcommunity.com/profiles/76561197960398475/",
				"avatar": "http://media.steampowered.com/steamcommunity/public/images/avatars/74/742f718f4d5188c35eec2c482e584f802a2770b9.jpg",
				"avatarmedium": "http://media.steampowered.com/steamcommunity/public/images/avatars/74/742f718f4d5188c35eec2c482e584f802a2770b9_medium.jpg",
				"avatarfull": "http://media.steampowered.com/steamcommunity/public/images/avatars/74/742f718f4d5188c35eec2c482e584f802a2770b9_full.jpg",
				"personastate": 1,
				"primaryclanid": "103582791429524369",
				"timecreated": 1063390704,
				"loccountrycode": "GB"
			},
			{
				"steamid": "76561197960398519",
				"communityvisibilitystate": 3,
				"profilestate": 1,
				"personaname": "sn00k",
				"lastlogoff": 1361501156,
				"profileurl": "http://steamcommunity.com/profiles/76561197960398519/",
				"avatar": "http://media.steampowered.com/steamcommunity/public/images/avatars/fe/fef49e7fa7e1997310d705b2a6158ff8dc1cdfeb.jpg",
				"avatarmedium": "http://media.steampowered.com/steamcommunity/public/images/avatars/fe/fef49e7fa7e1997310d705b2a6158ff8dc1cdfeb_medium.jpg",
				"avatarfull": "http://media.steampowered.com/steamcommunity/public/images/avatars/fe/fef49e7fa7e1997310d705b2a6158ff8dc1cdfeb_full.jpg",
				"personastate": 0,
				"primaryclanid": "103582791429639803",
				"timecreated": 1063390726
			},
			{
				"steamid": "76561197960398353",
				"communityvisibilitystate": 1,
				"personaname": "pajiawan",
				"profileurl": "http://steamcommunity.com/profiles/76561197960398353/",
				"avatar": "http://media.steampowered.com/steamcommunity/public/images/avatars/fe/fef49e7fa7e1997310d705b2a6158ff8dc1cdfeb.jpg",
				"avatarmedium": "http://media.steampowered.com/steamcommunity/public/images/avatars/fe/fef49e7fa7e1997310d705b2a6158ff8dc1cdfeb_medium.jpg",
				"avatarfull": "http://media.steampowered.com/steamcommunity/public/images/avatars/fe/fef49e7fa7e1997310d705b2a6158ff8dc1cdfeb_full.jpg",
				"personastate": 0
			},
			{
				"steamid": "76561197960398471",
				"communityvisibilitystate": 3,
				"profilestate": 1,
				"personaname": "cHyNNNNNNNNNNNNNNNNNNNNN",
				"lastlogoff": 1294256696,
				"commentpermission": 1,
				"profileurl": "http://steamcommunity.com/id/SEVENDE969/",
				"avatar": "http://media.steampowered.com/steamcommunity/public/images/avatars/8e/8ecfdc7e16e6ce39528f05eff68f9c65413bae4f.jpg",
				"avatarmedium": "http://media.steampowered.com/steamcommunity/public/images/avatars/8e/8ecfdc7e16e6ce39528f05eff68f9c65413bae4f_medium.jpg",
				"avatarfull": "http://media.steampowered.com/steamcommunity/public/images/avatars/8e/8ecfdc7e16e6ce39528f05eff68f9c65413bae4f_full.jpg",
				"personastate": 0,
				"primaryclanid": "103582791431549452",
				"timecreated": 1063390702,
				"loccountrycode": "RU"
			},
			{
				"steamid": "76561197960398421",
				"communityvisibilitystate": 3,
				"personaname": "passo_r",
				"lastlogoff": 1179097132,
				"profileurl": "http://steamcommunity.com/profiles/76561197960398421/",
				"avatar": "http://media.steampowered.com/steamcommunity/public/images/avatars/fe/fef49e7fa7e1997310d705b2a6158ff8dc1cdfeb.jpg",
				"avatarmedium": "http://media.steampowered.com/steamcommunity/public/images/avatars/fe/fef49e7fa7e1997310d705b2a6158ff8dc1cdfeb_medium.jpg",
				"avatarfull": "http://media.steampowered.com/steamcommunity/public/images/avatars/fe/fef49e7fa7e1997310d705b2a6158ff8dc1cdfeb_full.jpg",
				"personastate": 0,
				"primaryclanid": "103582791429521408",
				"timecreated": 1063390671
			},
			{
				"steamid": "76561197960398387",
				"communityvisibilitystate": 3,
				"profilestate": 1,
				"personaname": "dinoroger",
				"lastlogoff": 1359946479,
				"profileurl": "http://steamcommunity.com/profiles/76561197960398387/",
				"avatar": "http://media.steampowered.com/steamcommunity/public/images/avatars/fe/fef49e7fa7e1997310d705b2a6158ff8dc1cdfeb.jpg",
				"avatarmedium": "http://media.steampowered.com/steamcommunity/public/images/avatars/fe/fef49e7fa7e1997310d705b2a6158ff8dc1cdfeb_medium.jpg",
				"avatarfull": "http://media.steampowered.com/steamcommunity/public/images/avatars/fe/fef49e7fa7e1997310d705b2a6158ff8dc1cdfeb_full.jpg",
				"personastate": 0,
				"primaryclanid": "103582791429521408",
				"timecreated": 1063390646
			},
			{
				"steamid": "76561197960398523",
				"communityvisibilitystate": 3,
				"personaname": "Arithmetisches Mittel",
				"lastlogoff": 1357252488,
				"profileurl": "http://steamcommunity.com/profiles/76561197960398523/",
				"avatar": "http://media.steampowered.com/steamcommunity/public/images/avatars/99/99afd0c6f2925382de6ca8e984017bd6cccca1f5.jpg",
				"avatarmedium": "http://media.steampowered.com/steamcommunity/public/images/avatars/99/99afd0c6f2925382de6ca8e984017bd6cccca1f5_medium.jpg",
				"avatarfull": "http://media.steampowered.com/steamcommunity/public/images/avatars/99/99afd0c6f2925382de6ca8e984017bd6cccca1f5_full.jpg",
				"personastate": 0,
				"primaryclanid": "103582791429521408",
				"timecreated": 1063390726
			},
			{
				"steamid": "76561197960398379",
				"communityvisibilitystate": 1,
				"personaname": "fraelsaren",
				"profileurl": "http://steamcommunity.com/profiles/76561197960398379/",
				"avatar": "http://media.steampowered.com/steamcommunity/public/images/avatars/fe/fef49e7fa7e1997310d705b2a6158ff8dc1cdfeb.jpg",
				"avatarmedium": "http://media.steampowered.com/steamcommunity/public/images/avatars/fe/fef49e7fa7e1997310d705b2a6158ff8dc1cdfeb_medium.jpg",
				"avatarfull": "http://media.steampowered.com/steamcommunity/public/images/avatars/fe/fef49e7fa7e1997310d705b2a6158ff8dc1cdfeb_full.jpg",
				"personastate": 0
			},
			{
				"steamid": "76561197960398409",
				"communityvisibilitystate": 3,
				"personaname": "the_only81",
				"lastlogoff": 1220400326,
				"profileurl": "http://steamcommunity.com/profiles/76561197960398409/",
				"avatar": "http://media.steampowered.com/steamcommunity/public/images/avatars/fe/fef49e7fa7e1997310d705b2a6158ff8dc1cdfeb.jpg",
				"avatarmedium": "http://media.steampowered.com/steamcommunity/public/images/avatars/fe/fef49e7fa7e1997310d705b2a6158ff8dc1cdfeb_medium.jpg",
				"avatarfull": "http://media.steampowered.com/steamcommunity/public/images/avatars/fe/fef49e7fa7e1997310d705b2a6158ff8dc1cdfeb_full.jpg",
				"personastate": 0,
				"primaryclanid": "103582791429521408",
				"timecreated": 1063390667
			},
			{
				"steamid": "76561197960398397",
				"communityvisibilitystate": 1,
				"profilestate": 1,
				"personaname": "LeTalon",
				"lastlogoff": 1362269471,
				"profileurl": "http://steamcommunity.com/profiles/76561197960398397/",
				"avatar": "http://media.steampowered.com/steamcommunity/public/images/avatars/47/47e88e93a11ad26a119b03aca222a01a885cc598.jpg",
				"avatarmedium": "http://media.steampowered.com/steamcommunity/public/images/avatars/47/47e88e93a11ad26a119b03aca222a01a885cc598_medium.jpg",
				"avatarfull": "http://media.steampowered.com/steamcommunity/public/images/avatars/47/47e88e93a11ad26a119b03aca222a01a885cc598_full.jpg",
				"personastate": 0
			},
			{
				"steamid": "76561197960398359",
				"communityvisibilitystate": 3,
				"personaname": "joakimbergqvist",
				"lastlogoff": 1162503450,
				"profileurl": "http://steamcommunity.com/profiles/76561197960398359/",
				"avatar": "http://media.steampowered.com/steamcommunity/public/images/avatars/fe/fef49e7fa7e1997310d705b2a6158ff8dc1cdfeb.jpg",
				"avatarmedium": "http://media.steampowered.com/steamcommunity/public/images/avatars/fe/fef49e7fa7e1997310d705b2a6158ff8dc1cdfeb_medium.jpg",
				"avatarfull": "http://media.steampowered.com/steamcommunity/public/images/avatars/fe/fef49e7fa7e1997310d705b2a6158ff8dc1cdfeb_full.jpg",
				"personastate": 0,
				"primaryclanid": "103582791429521408",
				"timecreated": 1063390632
			},
			{
				"steamid": "76561197960398369",
				"communityvisibilitystate": 1,
				"personaname": "stefneo01",
				"profileurl": "http://steamcommunity.com/profiles/76561197960398369/",
				"avatar": "http://media.steampowered.com/steamcommunity/public/images/avatars/fe/fef49e7fa7e1997310d705b2a6158ff8dc1cdfeb.jpg",
				"avatarmedium": "http://media.steampowered.com/steamcommunity/public/images/avatars/fe/fef49e7fa7e1997310d705b2a6158ff8dc1cdfeb_medium.jpg",
				"avatarfull": "http://media.steampowered.com/steamcommunity/public/images/avatars/fe/fef49e7fa7e1997310d705b2a6158ff8dc1cdfeb_full.jpg",
				"personastate": 0
			},
			{
				"steamid": "76561197960398487",
				"communityvisibilitystate": 3,
				"personaname": "ssssssssssssssssssssssssssssssssssss",
				"lastlogoff": 1179576935,
				"profileurl": "http://steamcommunity.com/profiles/76561197960398487/",
				"avatar": "http://media.steampowered.com/steamcommunity/public/images/avatars/fe/fef49e7fa7e1997310d705b2a6158ff8dc1cdfeb.jpg",
				"avatarmedium": "http://media.steampowered.com/steamcommunity/public/images/avatars/fe/fef49e7fa7e1997310d705b2a6158ff8dc1cdfeb_medium.jpg",
				"avatarfull": "http://media.steampowered.com/steamcommunity/public/images/avatars/fe/fef49e7fa7e1997310d705b2a6158ff8dc1cdfeb_full.jpg",
				"personastate": 0,
				"primaryclanid": "103582791429521408",
				"timecreated": 1063390714
			},
			{
				"steamid": "76561197960398335",
				"communityvisibilitystate": 3,
				"personaname": "julienurech",
				"lastlogoff": 1161885770,
				"profileurl": "http://steamcommunity.com/profiles/76561197960398335/",
				"avatar": "http://media.steampowered.com/steamcommunity/public/images/avatars/fe/fef49e7fa7e1997310d705b2a6158ff8dc1cdfeb.jpg",
				"avatarmedium": "http://media.steampowered.com/steamcommunity/public/images/avatars/fe/fef49e7fa7e1997310d705b2a6158ff8dc1cdfeb_medium.jpg",
				"avatarfull": "http://media.steampowered.com/steamcommunity/public/images/avatars/fe/fef49e7fa7e1997310d705b2a6158ff8dc1cdfeb_full.jpg",
				"personastate": 0,
				"primaryclanid": "103582791429521408",
				"timecreated": 1063390615
			},
			{
				"steamid": "76561197960398453",
				"communityvisibilitystate": 3,
				"profilestate": 1,
				"personaname": "Anaconda",
				"lastlogoff": 1249060205,
				"profileurl": "http://steamcommunity.com/profiles/76561197960398453/",
				"avatar": "http://media.steampowered.com/steamcommunity/public/images/avatars/fe/fef49e7fa7e1997310d705b2a6158ff8dc1cdfeb.jpg",
				"avatarmedium": "http://media.steampowered.com/steamcommunity/public/images/avatars/fe/fef49e7fa7e1997310d705b2a6158ff8dc1cdfeb_medium.jpg",
				"avatarfull": "http://media.steampowered.com/steamcommunity/public/images/avatars/fe/fef49e7fa7e1997310d705b2a6158ff8dc1cdfeb_full.jpg",
				"personastate": 0,
				"primaryclanid": "103582791429639803",
				"timecreated": 1063390690
			},
			{
				"steamid": "76561197960398425",
				"communityvisibilitystate": 3,
				"profilestate": 1,
				"personaname": "Muzza",
				"lastlogoff": 1362567260,
				"profileurl": "http://steamcommunity.com/profiles/76561197960398425/",
				"avatar": "http://media.steampowered.com/steamcommunity/public/images/avatars/c1/c1e11bc18244cd893c0bd9261949cf3465b050ba.jpg",
				"avatarmedium": "http://media.steampowered.com/steamcommunity/public/images/avatars/c1/c1e11bc18244cd893c0bd9261949cf3465b050ba_medium.jpg",
				"avatarfull": "http://media.steampowered.com/steamcommunity/public/images/avatars/c1/c1e11bc18244cd893c0bd9261949cf3465b050ba_full.jpg",
				"personastate": 0,
				"realname": "Alastair Murray",
				"primaryclanid": "103582791429521408",
				"timecreated": 1063390672,
				"loccountrycode": "GB",
				"locstatecode": "P5",
				"loccityid": 16988
			}
		]
		
	}
}