{
	"response": {
		"players": [
			{
				"steamid": "76561197960295603",
				"communityvisibilitystate": 1,
				"personaname": "huney_bear64",
				"profileurl": "http://steamcommunity.com/profiles/76561197960295603/",
				"avatar": "http://media.steampowered.com/steamcommunity/public/images/avatars/fe/fef49e7fa7e1997310d705b2a6158ff8dc1cdfeb.jpg",
				"avatarmedium": "http://media.steampowered.com/steamcommunity/public/images/avatars/fe/fef49e7fa7e1997310d705b2a6158ff8dc1cdfeb_medium.jpg",
				"avatarfull": "http://media.steampowered.com/steamcommunity/public/images/avatars/fe/fef49e7fa7e1997310d705b2a6158ff8dc1cdfeb_full.jpg",
				"personastate": 0
			},
			{
				"steamid": "76561197960295721",
				"communityvisibilitystate": 1,
				"personaname": "raviv-d",
				"profileurl": "http://steamcommunity.com/profiles/76561197960295721/",
				"avatar": "http://media.steampowered.com/steamcommunity/public/images/avatars/fe/fef49e7fa7e1997310d705b2a6158ff8dc1cdfeb.jpg",
				"avatarmedium": "http://media.steampowered.com/steamcommunity/public/images/avatars/fe/fef49e7fa7e1997310d705b2a6158ff8dc1cdfeb_medium.jpg",
				"avatarfull": "http://media.steampowered.com/steamcommunity/public/images/avatars/fe/fef49e7fa7e1997310d705b2a6158ff8dc1cdfeb_full.jpg",
				"personastate": 0
			},
			{
				"steamid": "76561197960295567",
				"communityvisibilitystate": 1,
				"profilestate": 1,
				"personaname": "specht",
				"lastlogoff": 1360870173,
				"commentpermission": 2,
				"profileurl": "http://steamcommunity.com/id/spechtelmechtel/",
				"avatar": "http://media.steampowered.com/steamcommunity/public/images/avatars/91/9110ac6a28a56626eeec8b22ac8cada01a516bad.jpg",
				"avatarmedium": "http://media.steampowered.com/steamcommunity/public/images/avatars/91/9110ac6a28a56626eeec8b22ac8cada01a516bad_medium.jpg",
				"avatarfull": "http://media.steampowered.com/steamcommunity/public/images/avatars/91/9110ac6a28a56626eeec8b22ac8cada01a516bad_full.jpg",
				"personastate": 0
			},
			{
				"steamid": "76561197960295685",
				"communityvisibilitystate": 3,
				"profilestate": 1,
				"personaname": "MeiSTeR",
				"lastlogoff": 1313841004,
				"profileurl": "http://steamcommunity.com/profiles/76561197960295685/",
				"avatar": "http://media.steampowered.com/steamcommunity/public/images/avatars/fe/fef49e7fa7e1997310d705b2a6158ff8dc1cdfeb.jpg",
				"avatarmedium": "http://media.steampowered.com/steamcommunity/public/images/avatars/fe/fef49e7fa7e1997310d705b2a6158ff8dc1cdfeb_medium.jpg",
				"avatarfull": "http://media.steampowered.com/steamcommunity/public/images/avatars/fe/fef49e7fa7e1997310d705b2a6158ff8dc1cdfeb_full.jpg",
				"personastate": 0,
				"realname": "Oscar Diez",
				"primaryclanid": "103582791429594085",
				"timecreated": 1063360120,
				"loccountrycode": "ES",
				"locstatecode": "29",
				"loccityid": 15113
			},
			{
				"steamid": "76561197960295573",
				"communityvisibilitystate": 3,
				"profilestate": 1,
				"personaname": "Thorfish",
				"lastlogoff": 1360961806,
				"profileurl": "http://steamcommunity.com/id/thorfish/",
				"avatar": "http://media.steampowered.com/steamcommunity/public/images/avatars/49/49fbf30f1493cf8a284fc371b746e56d49e27cd6.jpg",
				"avatarmedium": "http://media.steampowered.com/steamcommunity/public/images/avatars/49/49fbf30f1493cf8a284fc371b746e56d49e27cd6_medium.jpg",
				"avatarfull": "http://media.steampowered.com/steamcommunity/public/images/avatars/49/49fbf30f1493cf8a284fc371b746e56d49e27cd6_full.jpg",
				"personastate": 0,
				"primaryclanid": "103582791429521408",
				"timecreated": 1063360087,
				"loccountrycode": "DE",
				"locstatecode": "07"
			},
			{
				"steamid": "76561197960295691",
				"communityvisibilitystate": 3,
				"profilestate": 1,
				"personaname": "RokkstarR",
				"lastlogoff": 1360151595,
				"profileurl": "http://steamcommunity.com/id/sinestra/",
				"avatar": "http://media.steampowered.com/steamcommunity/public/images/avatars/d9/d9b6444d9fd8edf0e83d4d4a61ccd12b93383771.jpg",
				"avatarmedium": "http://media.steampowered.com/steamcommunity/public/images/avatars/d9/d9b6444d9fd8edf0e83d4d4a61ccd12b93383771_medium.jpg",
				"avatarfull": "http://media.steampowered.com/steamcommunity/public/images/avatars/d9/d9b6444d9fd8edf0e83d4d4a61ccd12b93383771_full.jpg",
				"personastate": 0,
				"primaryclanid": "103582791429576963",
				"timecreated": 1063360122,
				"loccountrycode": "JP",
				"locstatecode": "19",
				"loccityid": 26218
			},
			{
				"steamid": "76561197960295635",
				"communityvisibilitystate": 3,
				"personaname": "SnaKe**",
				"lastlogoff": 1156228110,
				"profileurl": "http://steamcommunity.com/profiles/76561197960295635/",
				"avatar": "http://media.steampowered.com/steamcommunity/public/images/avatars/fe/fef49e7fa7e1997310d705b2a6158ff8dc1cdfeb.jpg",
				"avatarmedium": "http://media.steampowered.com/steamcommunity/public/images/avatars/fe/fef49e7fa7e1997310d705b2a6158ff8dc1cdfeb_medium.jpg",
				"avatarfull": "http://media.steampowered.com/steamcommunity/public/images/avatars/fe/fef49e7fa7e1997310d705b2a6158ff8dc1cdfeb_full.jpg",
				"personastate": 0,
				"primaryclanid": "103582791429521408",
				"timecreated": 1063360106
			},
			{
				"steamid": "76561197960295579",
				"communityvisibilitystate": 3,
				"profilestate": 1,
				"personaname": ".b0d0.*",
				"lastlogoff": 1319647015,
				"profileurl": "http://steamcommunity.com/profiles/76561197960295579/",
				"avatar": "http://media.steampowered.com/steamcommunity/public/images/avatars/fe/fef49e7fa7e1997310d705b2a6158ff8dc1cdfeb.jpg",
				"avatarmedium": "http://media.steampowered.com/steamcommunity/public/images/avatars/fe/fef49e7fa7e1997310d705b2a6158ff8dc1cdfeb_medium.jpg",
				"avatarfull": "http://media.steampowered.com/steamcommunity/public/images/avatars/fe/fef49e7fa7e1997310d705b2a6158ff8dc1cdfeb_full.jpg",
				"personastate": 0,
				"primaryclanid": "103582791429521408",
				"timecreated": 1063360088
			},
			{
				"steamid": "76561197960295697",
				"communityvisibilitystate": 3,
				"personaname": "elixer1203",
				"lastlogoff": 1234368332,
				"profileurl": "http://steamcommunity.com/profiles/76561197960295697/",
				"avatar": "http://media.steampowered.com/steamcommunity/public/images/avatars/fe/fef49e7fa7e1997310d705b2a6158ff8dc1cdfeb.jpg",
				"avatarmedium": "http://media.steampowered.com/steamcommunity/public/images/avatars/fe/fef49e7fa7e1997310d705b2a6158ff8dc1cdfeb_medium.jpg",
				"avatarfull": "http://media.steampowered.com/steamcommunity/public/images/avatars/fe/fef49e7fa7e1997310d705b2a6158ff8dc1cdfeb_full.jpg",
				"personastate": 0,
				"primaryclanid": "103582791429521408",
				"timecreated": 1063360124
			},
			{
				"steamid": "76561197960295601",
				"communityvisibilitystate": 3,
				"profilestate": 1,
				"personaname": "ExesS",
				"lastlogoff": 1356302692,
				"profileurl": "http://steamcommunity.com/profiles/76561197960295601/",
				"avatar": "http://media.steampowered.com/steamcommunity/public/images/avatars/f0/f0c0896798ea129b0a4009d18a7ccdd732e8c423.jpg",
				"avatarmedium": "http://media.steampowered.com/steamcommunity/public/images/avatars/f0/f0c0896798ea129b0a4009d18a7ccdd732e8c423_medium.jpg",
				"avatarfull": "http://media.steampowered.com/steamcommunity/public/images/avatars/f0/f0c0896798ea129b0a4009d18a7ccdd732e8c423_full.jpg",
				"personastate": 0,
				"realname": "Saint omer, Pas-de-Calais",
				"primaryclanid": "103582791430731742",
				"timecreated": 1063360095,
				"loccountrycode": "FX"
			},
			{
				"steamid": "76561197960295719",
				"communityvisibilitystate": 3,
				"profilestate": 1,
				"personaname": "Rove",
				"lastlogoff": 1360955550,
				"profileurl": "http://steamcommunity.com/id/rAfs/",
				"avatar": "http://media.steampowered.com/steamcommunity/public/images/avatars/9e/9e797f84a6bd8d21ad578c17632124b170ceb8c0.jpg",
				"avatarmedium": "http://media.steampowered.com/steamcommunity/public/images/avatars/9e/9e797f84a6bd8d21ad578c17632124b170ceb8c0_medium.jpg",
				"avatarfull": "http://media.steampowered.com/steamcommunity/public/images/avatars/9e/9e797f84a6bd8d21ad578c17632124b170ceb8c0_full.jpg",
				"personastate": 0,
				"primaryclanid": "103582791429555411",
				"timecreated": 1063360128
			},
			{
				"steamid": "76561197960295641",
				"communityvisibilitystate": 3,
				"profilestate": 1,
				"personaname": "SonyLvigital",
				"lastlogoff": 1360915286,
				"profileurl": "http://steamcommunity.com/profiles/76561197960295641/",
				"avatar": "http://media.steampowered.com/steamcommunity/public/images/avatars/38/388734084bf06a8439e0d96d1803bc5c77bed067.jpg",
				"avatarmedium": "http://media.steampowered.com/steamcommunity/public/images/avatars/38/388734084bf06a8439e0d96d1803bc5c77bed067_medium.jpg",
				"avatarfull": "http://media.steampowered.com/steamcommunity/public/images/avatars/38/388734084bf06a8439e0d96d1803bc5c77bed067_full.jpg",
				"personastate": 3,
				"primaryclanid": "103582791430125472",
				"timecreated": 1063360108
			},
			{
				"steamid": "76561197960295549",
				"communityvisibilitystate": 1,
				"personaname": "alcatraz",
				"profileurl": "http://steamcommunity.com/profiles/76561197960295549/",
				"avatar": "http://media.steampowered.com/steamcommunity/public/images/avatars/fe/fef49e7fa7e1997310d705b2a6158ff8dc1cdfeb.jpg",
				"avatarmedium": "http://media.steampowered.com/steamcommunity/public/images/avatars/fe/fef49e7fa7e1997310d705b2a6158ff8dc1cdfeb_medium.jpg",
				"avatarfull": "http://media.steampowered.com/steamcommunity/public/images/avatars/fe/fef49e7fa7e1997310d705b2a6158ff8dc1cdfeb_full.jpg",
				"personastate": 0
			},
			{
				"steamid": "76561197960295667",
				"communityvisibilitystate": 1,
				"personaname": "oddessey",
				"profileurl": "http://steamcommunity.com/profiles/76561197960295667/",
				"avatar": "http://media.steampowered.com/steamcommunity/public/images/avatars/fe/fef49e7fa7e1997310d705b2a6158ff8dc1cdfeb.jpg",
				"avatarmedium": "http://media.steampowered.com/steamcommunity/public/images/avatars/fe/fef49e7fa7e1997310d705b2a6158ff8dc1cdfeb_medium.jpg",
				"avatarfull": "http://media.steampowered.com/steamcommunity/public/images/avatars/fe/fef49e7fa7e1997310d705b2a6158ff8dc1cdfeb_full.jpg",
				"personastate": 0
			},
			{
				"steamid": "76561197960295613",
				"communityvisibilitystate": 1,
				"personaname": "cstriker_jan",
				"profileurl": "http://steamcommunity.com/profiles/76561197960295613/",
				"avatar": "http://media.steampowered.com/steamcommunity/public/images/avatars/fe/fef49e7fa7e1997310d705b2a6158ff8dc1cdfeb.jpg",
				"avatarmedium": "http://media.steampowered.com/steamcommunity/public/images/avatars/fe/fef49e7fa7e1997310d705b2a6158ff8dc1cdfeb_medium.jpg",
				"avatarfull": "http://media.steampowered.com/steamcommunity/public/images/avatars/fe/fef49e7fa7e1997310d705b2a6158ff8dc1cdfeb_full.jpg",
				"personastate": 0
			},
			{
				"steamid": "76561197960295547",
				"communityvisibilitystate": 3,
				"personaname": "dang3r",
				"lastlogoff": 1245305650,
				"profileurl": "http://steamcommunity.com/profiles/76561197960295547/",
				"avatar": "http://media.steampowered.com/steamcommunity/public/images/avatars/fe/fef49e7fa7e1997310d705b2a6158ff8dc1cdfeb.jpg",
				"avatarmedium": "http://media.steampowered.com/steamcommunity/public/images/avatars/fe/fef49e7fa7e1997310d705b2a6158ff8dc1cdfeb_medium.jpg",
				"avatarfull": "http://media.steampowered.com/steamcommunity/public/images/avatars/fe/fef49e7fa7e1997310d705b2a6158ff8dc1cdfeb_full.jpg",
				"personastate": 0,
				"primaryclanid": "103582791429521408",
				"timecreated": 1063360079
			},
			{
				"steamid": "76561197960295665",
				"communityvisibilitystate": 1,
				"personaname": "trollbasket",
				"profileurl": "http://steamcommunity.com/profiles/76561197960295665/",
				"avatar": "http://media.steampowered.com/steamcommunity/public/images/avatars/fe/fef49e7fa7e1997310d705b2a6158ff8dc1cdfeb.jpg",
				"avatarmedium": "http://media.steampowered.com/steamcommunity/public/images/avatars/fe/fef49e7fa7e1997310d705b2a6158ff8dc1cdfeb_medium.jpg",
				"avatarfull": "http://media.steampowered.com/steamcommunity/public/images/avatars/fe/fef49e7fa7e1997310d705b2a6158ff8dc1cdfeb_full.jpg",
				"personastate": 0
			},
			{
				"steamid": "76561197960295631",
				"communityvisibilitystate": 3,
				"personaname": "Foxtrot Uniform Charlie Kilo",
				"lastlogoff": 1162449671,
				"profileurl": "http://steamcommunity.com/profiles/76561197960295631/",
				"avatar": "http://media.steampowered.com/steamcommunity/public/images/avatars/fe/fef49e7fa7e1997310d705b2a6158ff8dc1cdfeb.jpg",
				"avatarmedium": "http://media.steampowered.com/steamcommunity/public/images/avatars/fe/fef49e7fa7e1997310d705b2a6158ff8dc1cdfeb_medium.jpg",
				"avatarfull": "http://media.steampowered.com/steamcommunity/public/images/avatars/fe/fef49e7fa7e1997310d705b2a6158ff8dc1cdfeb_full.jpg",
				"personastate": 0,
				"primaryclanid": "103582791429521408",
				"timecreated": 1063360106
			},
			{
				"steamid": "76561197960295585",
				"communityvisibilitystate": 3,
				"profilestate": 1,
				"personaname": "whiskeytangofoxtrot",
				"lastlogoff": 1352612845,
				"profileurl": "http://steamcommunity.com/profiles/76561197960295585/",
				"avatar": "http://media.steampowered.com/steamcommunity/public/images/avatars/fe/fef49e7fa7e1997310d705b2a6158ff8dc1cdfeb.jpg",
				"avatarmedium": "http://media.steampowered.com/steamcommunity/public/images/avatars/fe/fef49e7fa7e1997310d705b2a6158ff8dc1cdfeb_medium.jpg",
				"avatarfull": "http://media.steampowered.com/steamcommunity/public/images/avatars/fe/fef49e7fa7e1997310d705b2a6158ff8dc1cdfeb_full.jpg",
				"personastate": 0,
				"primaryclanid": "103582791429521408",
				"timecreated": 1063360089
			},
			{
				"steamid": "76561197960295703",
				"communityvisibilitystate": 1,
				"personaname": "a",
				"profileurl": "http://steamcommunity.com/profiles/76561197960295703/",
				"avatar": "http://media.steampowered.com/steamcommunity/public/images/avatars/fe/fef49e7fa7e1997310d705b2a6158ff8dc1cdfeb.jpg",
				"avatarmedium": "http://media.steampowered.com/steamcommunity/public/images/avatars/fe/fef49e7fa7e1997310d705b2a6158ff8dc1cdfeb_medium.jpg",
				"avatarfull": "http://media.steampowered.com/steamcommunity/public/images/avatars/fe/fef49e7fa7e1997310d705b2a6158ff8dc1cdfeb_full.jpg",
				"personastate": 0
			},
			{
				"steamid": "76561197960295575",
				"communityvisibilitystate": 1,
				"personaname": "steve_bailey",
				"profileurl": "http://steamcommunity.com/profiles/76561197960295575/",
				"avatar": "http://media.steampowered.com/steamcommunity/public/images/avatars/fe/fef49e7fa7e1997310d705b2a6158ff8dc1cdfeb.jpg",
				"avatarmedium": "http://media.steampowered.com/steamcommunity/public/images/avatars/fe/fef49e7fa7e1997310d705b2a6158ff8dc1cdfeb_medium.jpg",
				"avatarfull": "http://media.steampowered.com/steamcommunity/public/images/avatars/fe/fef49e7fa7e1997310d705b2a6158ff8dc1cdfeb_full.jpg",
				"personastate": 0
			},
			{
				"steamid": "76561197960295693",
				"communityvisibilitystate": 1,
				"personaname": "damma18",
				"profileurl": "http://steamcommunity.com/profiles/76561197960295693/",
				"avatar": "http://media.steampowered.com/steamcommunity/public/images/avatars/fe/fef49e7fa7e1997310d705b2a6158ff8dc1cdfeb.jpg",
				"avatarmedium": "http://media.steampowered.com/steamcommunity/public/images/avatars/fe/fef49e7fa7e1997310d705b2a6158ff8dc1cdfeb_medium.jpg",
				"avatarfull": "http://media.steampowered.com/steamcommunity/public/images/avatars/fe/fef49e7fa7e1997310d705b2a6158ff8dc1cdfeb_full.jpg",
				"personastate": 0
			},
			{
				"steamid": "76561197960295619",
				"communityvisibilitystate": 3,
				"profilestate": 1,
				"personaname": "frederique_deschoemaecker",
				"lastlogoff": 1345216821,
				"profileurl": "http://steamcommunity.com/profiles/76561197960295619/",
				"avatar": "http://media.steampowered.com/steamcommunity/public/images/avatars/fe/fef49e7fa7e1997310d705b2a6158ff8dc1cdfeb.jpg",
				"avatarmedium": "http://media.steampowered.com/steamcommunity/public/images/avatars/fe/fef49e7fa7e1997310d705b2a6158ff8dc1cdfeb_medium.jpg",
				"avatarfull": "http://media.steampowered.com/steamcommunity/public/images/avatars/fe/fef49e7fa7e1997310d705b2a6158ff8dc1cdfeb_full.jpg",
				"personastate": 0,
				"primaryclanid": "103582791429521408",
				"timecreated": 1063360102
			},
			{
				"steamid": "76561197960295639",
				"communityvisibilitystate": 3,
				"profilestate": 1,
				"personaname": "d0t.c0m",
				"lastlogoff": 1351770883,
				"profileurl": "http://steamcommunity.com/profiles/76561197960295639/",
				"avatar": "http://media.steampowered.com/steamcommunity/public/images/avatars/ed/ed4f7a2b0a15a9132f682f1f968a80eb924d450a.jpg",
				"avatarmedium": "http://media.steampowered.com/steamcommunity/public/images/avatars/ed/ed4f7a2b0a15a9132f682f1f968a80eb924d450a_medium.jpg",
				"avatarfull": "http://media.steampowered.com/steamcommunity/public/images/avatars/ed/ed4f7a2b0a15a9132f682f1f968a80eb924d450a_full.jpg",
				"personastate": 0,
				"realname": "Sebastian",
				"primaryclanid": "103582791429524891",
				"timecreated": 1063360108,
				"loccountrycode": "DE",
				"locstatecode": "12",
				"loccityid": 13910
			},
			{
				"steamid": "76561197960295627",
				"communityvisibilitystate": 3,
				"personaname": "DragonOrb",
				"lastlogoff": 1158002811,
				"profileurl": "http://steamcommunity.com/profiles/76561197960295627/",
				"avatar": "http://media.steampowered.com/steamcommunity/public/images/avatars/fe/fef49e7fa7e1997310d705b2a6158ff8dc1cdfeb.jpg",
				"avatarmedium": "http://media.steampowered.com/steamcommunity/public/images/avatars/fe/fef49e7fa7e1997310d705b2a6158ff8dc1cdfeb_medium.jpg",
				"avatarfull": "http://media.steampowered.com/steamcommunity/public/images/avatars/fe/fef49e7fa7e1997310d705b2a6158ff8dc1cdfeb_full.jpg",
				"personastate": 0,
				"primaryclanid": "103582791429521408",
				"timecreated": 1063360106
			},
			{
				"steamid": "76561197960295555",
				"communityvisibilitystate": 1,
				"personaname": "nick.thedick",
				"profileurl": "http://steamcommunity.com/profiles/76561197960295555/",
				"avatar": "http://media.steampowered.com/steamcommunity/public/images/avatars/fe/fef49e7fa7e1997310d705b2a6158ff8dc1cdfeb.jpg",
				"avatarmedium": "http://media.steampowered.com/steamcommunity/public/images/avatars/fe/fef49e7fa7e1997310d705b2a6158ff8dc1cdfeb_medium.jpg",
				"avatarfull": "http://media.steampowered.com/steamcommunity/public/images/avatars/fe/fef49e7fa7e1997310d705b2a6158ff8dc1cdfeb_full.jpg",
				"personastate": 0
			},
			{
				"steamid": "76561197960295673",
				"communityvisibilitystate": 1,
				"personaname": "diggy",
				"profileurl": "http://steamcommunity.com/profiles/76561197960295673/",
				"avatar": "http://media.steampowered.com/steamcommunity/public/images/avatars/fe/fef49e7fa7e1997310d705b2a6158ff8dc1cdfeb.jpg",
				"avatarmedium": "http://media.steampowered.com/steamcommunity/public/images/avatars/fe/fef49e7fa7e1997310d705b2a6158ff8dc1cdfeb_medium.jpg",
				"avatarfull": "http://media.steampowered.com/steamcommunity/public/images/avatars/fe/fef49e7fa7e1997310d705b2a6158ff8dc1cdfeb_full.jpg",
				"personastate": 0
			},
			{
				"steamid": "76561197960295565",
				"communityvisibilitystate": 1,
				"profilestate": 1,
				"personaname": "haeggi",
				"lastlogoff": 1359845717,
				"profileurl": "http://steamcommunity.com/id/Hackerschrecker/",
				"avatar": "http://media.steampowered.com/steamcommunity/public/images/avatars/27/271e10800baaec63160094445ede68ff3ff8ec33.jpg",
				"avatarmedium": "http://media.steampowered.com/steamcommunity/public/images/avatars/27/271e10800baaec63160094445ede68ff3ff8ec33_medium.jpg",
				"avatarfull": "http://media.steampowered.com/steamcommunity/public/images/avatars/27/271e10800baaec63160094445ede68ff3ff8ec33_full.jpg",
				"personastate": 0
			},
			{
				"steamid": "76561197960295683",
				"communityvisibilitystate": 3,
				"profilestate": 1,
				"personaname": "SpaceCak",
				"lastlogoff": 1357842571,
				"profileurl": "http://steamcommunity.com/profiles/76561197960295683/",
				"avatar": "http://media.steampowered.com/steamcommunity/public/images/avatars/94/945c58eb72f93833db7a97a0785fe3deb6e3bd8f.jpg",
				"avatarmedium": "http://media.steampowered.com/steamcommunity/public/images/avatars/94/945c58eb72f93833db7a97a0785fe3deb6e3bd8f_medium.jpg",
				"avatarfull": "http://media.steampowered.com/steamcommunity/public/images/avatars/94/945c58eb72f93833db7a97a0785fe3deb6e3bd8f_full.jpg",
				"personastate": 0,
				"primaryclanid": "103582791430510969",
				"timecreated": 1063360119,
				"loccountrycode": "FX"
			},
			{
				"steamid": "76561197960295561",
				"communityvisibilitystate": 1,
				"personaname": "baekdoo006",
				"profileurl": "http://steamcommunity.com/profiles/76561197960295561/",
				"avatar": "http://media.steampowered.com/steamcommunity/public/images/avatars/fe/fef49e7fa7e1997310d705b2a6158ff8dc1cdfeb.jpg",
				"avatarmedium": "http://media.steampowered.com/steamcommunity/public/images/avatars/fe/fef49e7fa7e1997310d705b2a6158ff8dc1cdfeb_medium.jpg",
				"avatarfull": "http://media.steampowered.com/steamcommunity/public/images/avatars/fe/fef49e7fa7e1997310d705b2a6158ff8dc1cdfeb_full.jpg",
				"personastate": 0
			},
			{
				"steamid": "76561197960295679",
				"communityvisibilitystate": 3,
				"personaname": "unaldo666",
				"lastlogoff": 1233692586,
				"profileurl": "http://steamcommunity.com/profiles/76561197960295679/",
				"avatar": "http://media.steampowered.com/steamcommunity/public/images/avatars/fe/fef49e7fa7e1997310d705b2a6158ff8dc1cdfeb.jpg",
				"avatarmedium": "http://media.steampowered.com/steamcommunity/public/images/avatars/fe/fef49e7fa7e1997310d705b2a6158ff8dc1cdfeb_medium.jpg",
				"avatarfull": "http://media.steampowered.com/steamcommunity/public/images/avatars/fe/fef49e7fa7e1997310d705b2a6158ff8dc1cdfeb_full.jpg",
				"personastate": 0,
				"primaryclanid": "103582791429521408",
				"timecreated": 1063360118
			},
			{
				"steamid": "76561197960295645",
				"communityvisibilitystate": 1,
				"personaname": "j3nsen",
				"profileurl": "http://steamcommunity.com/profiles/76561197960295645/",
				"avatar": "http://media.steampowered.com/steamcommunity/public/images/avatars/fe/fef49e7fa7e1997310d705b2a6158ff8dc1cdfeb.jpg",
				"avatarmedium": "http://media.steampowered.com/steamcommunity/public/images/avatars/fe/fef49e7fa7e1997310d705b2a6158ff8dc1cdfeb_medium.jpg",
				"avatarfull": "http://media.steampowered.com/steamcommunity/public/images/avatars/fe/fef49e7fa7e1997310d705b2a6158ff8dc1cdfeb_full.jpg",
				"personastate": 0
			},
			{
				"steamid": "76561197960295537",
				"communityvisibilitystate": 3,
				"profilestate": 1,
				"personaname": "m4DD3n dein Lieblingsgamer",
				"lastlogoff": 1262795961,
				"profileurl": "http://steamcommunity.com/profiles/76561197960295537/",
				"avatar": "http://media.steampowered.com/steamcommunity/public/images/avatars/fe/fef49e7fa7e1997310d705b2a6158ff8dc1cdfeb.jpg",
				"avatarmedium": "http://media.steampowered.com/steamcommunity/public/images/avatars/fe/fef49e7fa7e1997310d705b2a6158ff8dc1cdfeb_medium.jpg",
				"avatarfull": "http://media.steampowered.com/steamcommunity/public/images/avatars/fe/fef49e7fa7e1997310d705b2a6158ff8dc1cdfeb_full.jpg",
				"personastate": 0,
				"primaryclanid": "103582791429521408",
				"timecreated": 1063360075
			},
			{
				"steamid": "76561197960295655",
				"communityvisibilitystate": 3,
				"profilestate": 1,
				"personaname": "demusliM compte piraté",
				"lastlogoff": 1340675541,
				"profileurl": "http://steamcommunity.com/profiles/76561197960295655/",
				"avatar": "http://media.steampowered.com/steamcommunity/public/images/avatars/fe/fef49e7fa7e1997310d705b2a6158ff8dc1cdfeb.jpg",
				"avatarmedium": "http://media.steampowered.com/steamcommunity/public/images/avatars/fe/fef49e7fa7e1997310d705b2a6158ff8dc1cdfeb_medium.jpg",
				"avatarfull": "http://media.steampowered.com/steamcommunity/public/images/avatars/fe/fef49e7fa7e1997310d705b2a6158ff8dc1cdfeb_full.jpg",
				"personastate": 0,
				"realname": "poaph",
				"primaryclanid": "103582791429521408",
				"timecreated": 1063360111,
				"loccountrycode": "FR",
				"locstatecode": "B9",
				"loccityid": 16029
			},
			{
				"steamid": "76561197960295543",
				"communityvisibilitystate": 3,
				"profilestate": 1,
				"personaname": "Arf",
				"lastlogoff": 1360865628,
				"profileurl": "http://steamcommunity.com/id/fra_arf/",
				"avatar": "http://media.steampowered.com/steamcommunity/public/images/avatars/fe/fef49e7fa7e1997310d705b2a6158ff8dc1cdfeb.jpg",
				"avatarmedium": "http://media.steampowered.com/steamcommunity/public/images/avatars/fe/fef49e7fa7e1997310d705b2a6158ff8dc1cdfeb_medium.jpg",
				"avatarfull": "http://media.steampowered.com/steamcommunity/public/images/avatars/fe/fef49e7fa7e1997310d705b2a6158ff8dc1cdfeb_full.jpg",
				"personastate": 0,
				"realname": "Arf",
				"primaryclanid": "103582791429592387",
				"timecreated": 1063360078,
				"loccountrycode": "FR",
				"locstatecode": "A8"
			},
			{
				"steamid": "76561197960295661",
				"communityvisibilitystate": 1,
				"profilestate": 1,
				"personaname": "nulpe1981",
				"profileurl": "http://steamcommunity.com/profiles/76561197960295661/",
				"avatar": "http://media.steampowered.com/steamcommunity/public/images/avatars/fe/fef49e7fa7e1997310d705b2a6158ff8dc1cdfeb.jpg",
				"avatarmedium": "http://media.steampowered.com/steamcommunity/public/images/avatars/fe/fef49e7fa7e1997310d705b2a6158ff8dc1cdfeb_medium.jpg",
				"avatarfull": "http://media.steampowered.com/steamcommunity/public/images/avatars/fe/fef49e7fa7e1997310d705b2a6158ff8dc1cdfeb_full.jpg",
				"personastate": 0
			},
			{
				"steamid": "76561197960295581",
				"communityvisibilitystate": 3,
				"personaname": "Infi01",
				"lastlogoff": 1348508473,
				"profileurl": "http://steamcommunity.com/profiles/76561197960295581/",
				"avatar": "http://media.steampowered.com/steamcommunity/public/images/avatars/fe/fef49e7fa7e1997310d705b2a6158ff8dc1cdfeb.jpg",
				"avatarmedium": "http://media.steampowered.com/steamcommunity/public/images/avatars/fe/fef49e7fa7e1997310d705b2a6158ff8dc1cdfeb_medium.jpg",
				"avatarfull": "http://media.steampowered.com/steamcommunity/public/images/avatars/fe/fef49e7fa7e1997310d705b2a6158ff8dc1cdfeb_full.jpg",
				"personastate": 0,
				"primaryclanid": "103582791429521408",
				"timecreated": 1063360088
			},
			{
				"steamid": "76561197960295699",
				"communityvisibilitystate": 3,
				"profilestate": 1,
				"personaname": "byte",
				"lastlogoff": 1359753400,
				"profileurl": "http://steamcommunity.com/id/byte/",
				"avatar": "http://media.steampowered.com/steamcommunity/public/images/avatars/b2/b252c8ae156b4b23ed5415e27b14377a1c811559.jpg",
				"avatarmedium": "http://media.steampowered.com/steamcommunity/public/images/avatars/b2/b252c8ae156b4b23ed5415e27b14377a1c811559_medium.jpg",
				"avatarfull": "http://media.steampowered.com/steamcommunity/public/images/avatars/b2/b252c8ae156b4b23ed5415e27b14377a1c811559_full.jpg",
				"personastate": 0,
				"realname": "Sebastian K",
				"primaryclanid": "103582791429555040",
				"timecreated": 1063360124,
				"loccountrycode": "DE",
				"locstatecode": "16",
				"loccityid": 12623
			},
			{
				"steamid": "76561197960295609",
				"communityvisibilitystate": 3,
				"personaname": "hiougz",
				"lastlogoff": 1227316773,
				"profileurl": "http://steamcommunity.com/profiles/76561197960295609/",
				"avatar": "http://media.steampowered.com/steamcommunity/public/images/avatars/fe/fef49e7fa7e1997310d705b2a6158ff8dc1cdfeb.jpg",
				"avatarmedium": "http://media.steampowered.com/steamcommunity/public/images/avatars/fe/fef49e7fa7e1997310d705b2a6158ff8dc1cdfeb_medium.jpg",
				"avatarfull": "http://media.steampowered.com/steamcommunity/public/images/avatars/fe/fef49e7fa7e1997310d705b2a6158ff8dc1cdfeb_full.jpg",
				"personastate": 0,
				"primaryclanid": "103582791429521408",
				"timecreated": 1063360099
			},
			{
				"steamid": "76561197960295727",
				"communityvisibilitystate": 3,
				"profilestate": 1,
				"personaname": "icey",
				"lastlogoff": 1356765899,
				"profileurl": "http://steamcommunity.com/profiles/76561197960295727/",
				"avatar": "http://media.steampowered.com/steamcommunity/public/images/avatars/fe/fef49e7fa7e1997310d705b2a6158ff8dc1cdfeb.jpg",
				"avatarmedium": "http://media.steampowered.com/steamcommunity/public/images/avatars/fe/fef49e7fa7e1997310d705b2a6158ff8dc1cdfeb_medium.jpg",
				"avatarfull": "http://media.steampowered.com/steamcommunity/public/images/avatars/fe/fef49e7fa7e1997310d705b2a6158ff8dc1cdfeb_full.jpg",
				"personastate": 0,
				"primaryclanid": "103582791429521408",
				"timecreated": 1063360130
			},
			{
				"steamid": "76561197960295539",
				"communityvisibilitystate": 3,
				"personaname": "overkill29",
				"lastlogoff": 1356085190,
				"profileurl": "http://steamcommunity.com/profiles/76561197960295539/",
				"avatar": "http://media.steampowered.com/steamcommunity/public/images/avatars/fe/fef49e7fa7e1997310d705b2a6158ff8dc1cdfeb.jpg",
				"avatarmedium": "http://media.steampowered.com/steamcommunity/public/images/avatars/fe/fef49e7fa7e1997310d705b2a6158ff8dc1cdfeb_medium.jpg",
				"avatarfull": "http://media.steampowered.com/steamcommunity/public/images/avatars/fe/fef49e7fa7e1997310d705b2a6158ff8dc1cdfeb_full.jpg",
				"personastate": 0,
				"primaryclanid": "103582791429521408",
				"timecreated": 1063360076
			},
			{
				"steamid": "76561197960295657",
				"communityvisibilitystate": 3,
				"profilestate": 1,
				"personaname": "RBS24",
				"lastlogoff": 1360709930,
				"profileurl": "http://steamcommunity.com/profiles/76561197960295657/",
				"avatar": "http://media.steampowered.com/steamcommunity/public/images/avatars/fe/fef49e7fa7e1997310d705b2a6158ff8dc1cdfeb.jpg",
				"avatarmedium": "http://media.steampowered.com/steamcommunity/public/images/avatars/fe/fef49e7fa7e1997310d705b2a6158ff8dc1cdfeb_medium.jpg",
				"avatarfull": "http://media.steampowered.com/steamcommunity/public/images/avatars/fe/fef49e7fa7e1997310d705b2a6158ff8dc1cdfeb_full.jpg",
				"personastate": 0,
				"primaryclanid": "103582791429521408",
				"timecreated": 1063360112,
				"loccountrycode": "GB",
				"locstatecode": "P5",
				"loccityid": 16988
			},
			{
				"steamid": "76561197960295541",
				"communityvisibilitystate": 3,
				"profilestate": 1,
				"personaname": "paralyzed",
				"lastlogoff": 1360955568,
				"profileurl": "http://steamcommunity.com/profiles/76561197960295541/",
				"avatar": "http://media.steampowered.com/steamcommunity/public/images/avatars/bf/bfb49bdb1385fa869c19c700841f62e9112e61f0.jpg",
				"avatarmedium": "http://media.steampowered.com/steamcommunity/public/images/avatars/bf/bfb49bdb1385fa869c19c700841f62e9112e61f0_medium.jpg",
				"avatarfull": "http://media.steampowered.com/steamcommunity/public/images/avatars/bf/bfb49bdb1385fa869c19c700841f62e9112e61f0_full.jpg",
				"personastate": 0,
				"primaryclanid": "103582791430648014",
				"timecreated": 1063360077
			},
			{
				"steamid": "76561197960295659",
				"communityvisibilitystate": 1,
				"personaname": "xenon.dg",
				"profileurl": "http://steamcommunity.com/profiles/76561197960295659/",
				"avatar": "http://media.steampowered.com/steamcommunity/public/images/avatars/fe/fef49e7fa7e1997310d705b2a6158ff8dc1cdfeb.jpg",
				"avatarmedium": "http://media.steampowered.com/steamcommunity/public/images/avatars/fe/fef49e7fa7e1997310d705b2a6158ff8dc1cdfeb_medium.jpg",
				"avatarfull": "http://media.steampowered.com/steamcommunity/public/images/avatars/fe/fef49e7fa7e1997310d705b2a6158ff8dc1cdfeb_full.jpg",
				"personastate": 0
			},
			{
				"steamid": "76561197960295615",
				"communityvisibilitystate": 3,
				"personaname": "sn@sh",
				"lastlogoff": 1196618752,
				"profileurl": "http://steamcommunity.com/profiles/76561197960295615/",
				"avatar": "http://media.steampowered.com/steamcommunity/public/images/avatars/fe/fef49e7fa7e1997310d705b2a6158ff8dc1cdfeb.jpg",
				"avatarmedium": "http://media.steampowered.com/steamcommunity/public/images/avatars/fe/fef49e7fa7e1997310d705b2a6158ff8dc1cdfeb_medium.jpg",
				"avatarfull": "http://media.steampowered.com/steamcommunity/public/images/avatars/fe/fef49e7fa7e1997310d705b2a6158ff8dc1cdfeb_full.jpg",
				"personastate": 0,
				"primaryclanid": "103582791429521408",
				"timecreated": 1063360100
			},
			{
				"steamid": "76561197960295589",
				"communityvisibilitystate": 1,
				"personaname": "azz0r",
				"profileurl": "http://steamcommunity.com/profiles/76561197960295589/",
				"avatar": "http://media.steampowered.com/steamcommunity/public/images/avatars/fe/fef49e7fa7e1997310d705b2a6158ff8dc1cdfeb.jpg",
				"avatarmedium": "http://media.steampowered.com/steamcommunity/public/images/avatars/fe/fef49e7fa7e1997310d705b2a6158ff8dc1cdfeb_medium.jpg",
				"avatarfull": "http://media.steampowered.com/steamcommunity/public/images/avatars/fe/fef49e7fa7e1997310d705b2a6158ff8dc1cdfeb_full.jpg",
				"personastate": 0
			},
			{
				"steamid": "76561197960295707",
				"communityvisibilitystate": 1,
				"profilestate": 1,
				"personaname": "m00",
				"lastlogoff": 1360881892,
				"profileurl": "http://steamcommunity.com/profiles/76561197960295707/",
				"avatar": "http://media.steampowered.com/steamcommunity/public/images/avatars/3f/3fb8ff61024fcb5fde48e407bf0c9a97cac12bf6.jpg",
				"avatarmedium": "http://media.steampowered.com/steamcommunity/public/images/avatars/3f/3fb8ff61024fcb5fde48e407bf0c9a97cac12bf6_medium.jpg",
				"avatarfull": "http://media.steampowered.com/steamcommunity/public/images/avatars/3f/3fb8ff61024fcb5fde48e407bf0c9a97cac12bf6_full.jpg",
				"personastate": 0
			},
			{
				"steamid": "76561197960295605",
				"communityvisibilitystate": 3,
				"profilestate": 1,
				"personaname": "elemen7al",
				"lastlogoff": 1360404090,
				"commentpermission": 1,
				"profileurl": "http://steamcommunity.com/profiles/76561197960295605/",
				"avatar": "http://media.steampowered.com/steamcommunity/public/images/avatars/fe/fef49e7fa7e1997310d705b2a6158ff8dc1cdfeb.jpg",
				"avatarmedium": "http://media.steampowered.com/steamcommunity/public/images/avatars/fe/fef49e7fa7e1997310d705b2a6158ff8dc1cdfeb_medium.jpg",
				"avatarfull": "http://media.steampowered.com/steamcommunity/public/images/avatars/fe/fef49e7fa7e1997310d705b2a6158ff8dc1cdfeb_full.jpg",
				"personastate": 0,
				"realname": "Jason",
				"primaryclanid": "103582791429521408",
				"timecreated": 1063360098,
				"loccountrycode": "GB"
			},
			{
				"steamid": "76561197960295723",
				"communityvisibilitystate": 1,
				"personaname": "zeroox",
				"profileurl": "http://steamcommunity.com/profiles/76561197960295723/",
				"avatar": "http://media.steampowered.com/steamcommunity/public/images/avatars/fe/fef49e7fa7e1997310d705b2a6158ff8dc1cdfeb.jpg",
				"avatarmedium": "http://media.steampowered.com/steamcommunity/public/images/avatars/fe/fef49e7fa7e1997310d705b2a6158ff8dc1cdfeb_medium.jpg",
				"avatarfull": "http://media.steampowered.com/steamcommunity/public/images/avatars/fe/fef49e7fa7e1997310d705b2a6158ff8dc1cdfeb_full.jpg",
				"personastate": 0
			},
			{
				"steamid": "76561197960295569",
				"communityvisibilitystate": 1,
				"personaname": "veiko001",
				"profileurl": "http://steamcommunity.com/profiles/76561197960295569/",
				"avatar": "http://media.steampowered.com/steamcommunity/public/images/avatars/fe/fef49e7fa7e1997310d705b2a6158ff8dc1cdfeb.jpg",
				"avatarmedium": "http://media.steampowered.com/steamcommunity/public/images/avatars/fe/fef49e7fa7e1997310d705b2a6158ff8dc1cdfeb_medium.jpg",
				"avatarfull": "http://media.steampowered.com/steamcommunity/public/images/avatars/fe/fef49e7fa7e1997310d705b2a6158ff8dc1cdfeb_full.jpg",
				"personastate": 0
			},
			{
				"steamid": "76561197960295687",
				"communityvisibilitystate": 3,
				"personaname": "5th-sfg",
				"lastlogoff": 1186047891,
				"profileurl": "http://steamcommunity.com/profiles/76561197960295687/",
				"avatar": "http://media.steampowered.com/steamcommunity/public/images/avatars/fe/fef49e7fa7e1997310d705b2a6158ff8dc1cdfeb.jpg",
				"avatarmedium": "http://media.steampowered.com/steamcommunity/public/images/avatars/fe/fef49e7fa7e1997310d705b2a6158ff8dc1cdfeb_medium.jpg",
				"avatarfull": "http://media.steampowered.com/steamcommunity/public/images/avatars/fe/fef49e7fa7e1997310d705b2a6158ff8dc1cdfeb_full.jpg",
				"personastate": 0,
				"primaryclanid": "103582791429521408",
				"timecreated": 1063360121
			},
			{
				"steamid": "76561197960295625",
				"communityvisibilitystate": 3,
				"personaname": "dunklas",
				"lastlogoff": 1279015926,
				"profileurl": "http://steamcommunity.com/profiles/76561197960295625/",
				"avatar": "http://media.steampowered.com/steamcommunity/public/images/avatars/fe/fef49e7fa7e1997310d705b2a6158ff8dc1cdfeb.jpg",
				"avatarmedium": "http://media.steampowered.com/steamcommunity/public/images/avatars/fe/fef49e7fa7e1997310d705b2a6158ff8dc1cdfeb_medium.jpg",
				"avatarfull": "http://media.steampowered.com/steamcommunity/public/images/avatars/fe/fef49e7fa7e1997310d705b2a6158ff8dc1cdfeb_full.jpg",
				"personastate": 0,
				"primaryclanid": "103582791429521408",
				"timecreated": 1063360105
			},
			{
				"steamid": "76561197960295621",
				"communityvisibilitystate": 3,
				"personaname": "bearxbeary",
				"lastlogoff": 1360747056,
				"profileurl": "http://steamcommunity.com/profiles/76561197960295621/",
				"avatar": "http://media.steampowered.com/steamcommunity/public/images/avatars/fe/fef49e7fa7e1997310d705b2a6158ff8dc1cdfeb.jpg",
				"avatarmedium": "http://media.steampowered.com/steamcommunity/public/images/avatars/fe/fef49e7fa7e1997310d705b2a6158ff8dc1cdfeb_medium.jpg",
				"avatarfull": "http://media.steampowered.com/steamcommunity/public/images/avatars/fe/fef49e7fa7e1997310d705b2a6158ff8dc1cdfeb_full.jpg",
				"personastate": 0,
				"primaryclanid": "103582791429521408",
				"timecreated": 1063360103
			},
			{
				"steamid": "76561197960295643",
				"communityvisibilitystate": 1,
				"personaname": "cpm.tb",
				"profileurl": "http://steamcommunity.com/profiles/76561197960295643/",
				"avatar": "http://media.steampowered.com/steamcommunity/public/images/avatars/fe/fef49e7fa7e1997310d705b2a6158ff8dc1cdfeb.jpg",
				"avatarmedium": "http://media.steampowered.com/steamcommunity/public/images/avatars/fe/fef49e7fa7e1997310d705b2a6158ff8dc1cdfeb_medium.jpg",
				"avatarfull": "http://media.steampowered.com/steamcommunity/public/images/avatars/fe/fef49e7fa7e1997310d705b2a6158ff8dc1cdfeb_full.jpg",
				"personastate": 0
			},
			{
				"steamid": "76561197960295577",
				"communityvisibilitystate": 1,
				"profilestate": 1,
				"personaname": "bosjaH",
				"lastlogoff": 1359851713,
				"profileurl": "http://steamcommunity.com/id/bosjaH/",
				"avatar": "http://media.steampowered.com/steamcommunity/public/images/avatars/fe/fef49e7fa7e1997310d705b2a6158ff8dc1cdfeb.jpg",
				"avatarmedium": "http://media.steampowered.com/steamcommunity/public/images/avatars/fe/fef49e7fa7e1997310d705b2a6158ff8dc1cdfeb_medium.jpg",
				"avatarfull": "http://media.steampowered.com/steamcommunity/public/images/avatars/fe/fef49e7fa7e1997310d705b2a6158ff8dc1cdfeb_full.jpg",
				"personastate": 0
			},
			{
				"steamid": "76561197960295695",
				"communityvisibilitystate": 3,
				"profilestate": 1,
				"personaname": "EsCaFlOwN*",
				"lastlogoff": 1360932595,
				"profileurl": "http://steamcommunity.com/profiles/76561197960295695/",
				"avatar": "http://media.steampowered.com/steamcommunity/public/images/avatars/6c/6c443eecd87d249bc70a10515a7909c9a0c99a3a.jpg",
				"avatarmedium": "http://media.steampowered.com/steamcommunity/public/images/avatars/6c/6c443eecd87d249bc70a10515a7909c9a0c99a3a_medium.jpg",
				"avatarfull": "http://media.steampowered.com/steamcommunity/public/images/avatars/6c/6c443eecd87d249bc70a10515a7909c9a0c99a3a_full.jpg",
				"personastate": 1,
				"primaryclanid": "103582791432274701",
				"timecreated": 1063360123,
				"loccountrycode": "FR",
				"locstatecode": "B4",
				"loccityid": 15781
			},
			{
				"steamid": "76561197960295545",
				"communityvisibilitystate": 3,
				"profilestate": 1,
				"personaname": "uZaaaY",
				"lastlogoff": 1231350296,
				"profileurl": "http://steamcommunity.com/profiles/76561197960295545/",
				"avatar": "http://media.steampowered.com/steamcommunity/public/images/avatars/13/13a6197dfa985b949f80084151238ee5237e9e28.jpg",
				"avatarmedium": "http://media.steampowered.com/steamcommunity/public/images/avatars/13/13a6197dfa985b949f80084151238ee5237e9e28_medium.jpg",
				"avatarfull": "http://media.steampowered.com/steamcommunity/public/images/avatars/13/13a6197dfa985b949f80084151238ee5237e9e28_full.jpg",
				"personastate": 0,
				"primaryclanid": "103582791429521890",
				"timecreated": 1063360078,
				"loccountrycode": "US",
				"locstatecode": "NY"
			},
			{
				"steamid": "76561197960295663",
				"communityvisibilitystate": 3,
				"profilestate": 1,
				"personaname": "reliant2a",
				"lastlogoff": 1360814043,
				"profileurl": "http://steamcommunity.com/profiles/76561197960295663/",
				"avatar": "http://media.steampowered.com/steamcommunity/public/images/avatars/3f/3f74a3b8e1be2ff20a354c1cbb97da9e8912f7ee.jpg",
				"avatarmedium": "http://media.steampowered.com/steamcommunity/public/images/avatars/3f/3f74a3b8e1be2ff20a354c1cbb97da9e8912f7ee_medium.jpg",
				"avatarfull": "http://media.steampowered.com/steamcommunity/public/images/avatars/3f/3f74a3b8e1be2ff20a354c1cbb97da9e8912f7ee_full.jpg",
				"personastate": 3,
				"primaryclanid": "103582791432525340",
				"timecreated": 1063360114,
				"loccountrycode": "AU",
				"locstatecode": "WA"
			},
			{
				"steamid": "76561197960295637",
				"communityvisibilitystate": 3,
				"personaname": "Space Invaderz",
				"lastlogoff": 1162469645,
				"profileurl": "http://steamcommunity.com/profiles/76561197960295637/",
				"avatar": "http://media.steampowered.com/steamcommunity/public/images/avatars/fe/fef49e7fa7e1997310d705b2a6158ff8dc1cdfeb.jpg",
				"avatarmedium": "http://media.steampowered.com/steamcommunity/public/images/avatars/fe/fef49e7fa7e1997310d705b2a6158ff8dc1cdfeb_medium.jpg",
				"avatarfull": "http://media.steampowered.com/steamcommunity/public/images/avatars/fe/fef49e7fa7e1997310d705b2a6158ff8dc1cdfeb_full.jpg",
				"personastate": 0,
				"primaryclanid": "103582791429521408",
				"timecreated": 1063360107
			},
			{
				"steamid": "76561197960295677",
				"communityvisibilitystate": 3,
				"personaname": "tomzta",
				"lastlogoff": 1202256665,
				"profileurl": "http://steamcommunity.com/profiles/76561197960295677/",
				"avatar": "http://media.steampowered.com/steamcommunity/public/images/avatars/fe/fef49e7fa7e1997310d705b2a6158ff8dc1cdfeb.jpg",
				"avatarmedium": "http://media.steampowered.com/steamcommunity/public/images/avatars/fe/fef49e7fa7e1997310d705b2a6158ff8dc1cdfeb_medium.jpg",
				"avatarfull": "http://media.steampowered.com/steamcommunity/public/images/avatars/fe/fef49e7fa7e1997310d705b2a6158ff8dc1cdfeb_full.jpg",
				"personastate": 0,
				"primaryclanid": "103582791429521408",
				"timecreated": 1063360117
			},
			{
				"steamid": "76561197960295591",
				"communityvisibilitystate": 3,
				"profilestate": 1,
				"personaname": "IDA",
				"lastlogoff": 1302626060,
				"profileurl": "http://steamcommunity.com/profiles/76561197960295591/",
				"avatar": "http://media.steampowered.com/steamcommunity/public/images/avatars/fe/fef49e7fa7e1997310d705b2a6158ff8dc1cdfeb.jpg",
				"avatarmedium": "http://media.steampowered.com/steamcommunity/public/images/avatars/fe/fef49e7fa7e1997310d705b2a6158ff8dc1cdfeb_medium.jpg",
				"avatarfull": "http://media.steampowered.com/steamcommunity/public/images/avatars/fe/fef49e7fa7e1997310d705b2a6158ff8dc1cdfeb_full.jpg",
				"personastate": 0,
				"realname": "Mauri",
				"primaryclanid": "103582791429521408",
				"timecreated": 1063360092,
				"loccountrycode": "FI"
			},
			{
				"steamid": "76561197960295709",
				"communityvisibilitystate": 3,
				"profilestate": 1,
				"personaname": "c7c",
				"lastlogoff": 1360060656,
				"profileurl": "http://steamcommunity.com/profiles/76561197960295709/",
				"avatar": "http://media.steampowered.com/steamcommunity/public/images/avatars/0f/0f2e9c7b3db77e99328b3d32c8bc316d5889aa45.jpg",
				"avatarmedium": "http://media.steampowered.com/steamcommunity/public/images/avatars/0f/0f2e9c7b3db77e99328b3d32c8bc316d5889aa45_medium.jpg",
				"avatarfull": "http://media.steampowered.com/steamcommunity/public/images/avatars/0f/0f2e9c7b3db77e99328b3d32c8bc316d5889aa45_full.jpg",
				"personastate": 0,
				"realname": "c7c",
				"primaryclanid": "103582791429521408",
				"timecreated": 1063360126,
				"loccountrycode": "FI"
			},
			{
				"steamid": "76561197960295607",
				"communityvisibilitystate": 3,
				"profilestate": 1,
				"personaname": "pati",
				"lastlogoff": 1231707784,
				"profileurl": "http://steamcommunity.com/profiles/76561197960295607/",
				"avatar": "http://media.steampowered.com/steamcommunity/public/images/avatars/fe/fef49e7fa7e1997310d705b2a6158ff8dc1cdfeb.jpg",
				"avatarmedium": "http://media.steampowered.com/steamcommunity/public/images/avatars/fe/fef49e7fa7e1997310d705b2a6158ff8dc1cdfeb_medium.jpg",
				"avatarfull": "http://media.steampowered.com/steamcommunity/public/images/avatars/fe/fef49e7fa7e1997310d705b2a6158ff8dc1cdfeb_full.jpg",
				"personastate": 0,
				"primaryclanid": "103582791429521408",
				"timecreated": 1063360098
			},
			{
				"steamid": "76561197960295725",
				"communityvisibilitystate": 3,
				"profilestate": 1,
				"personaname": "Cavaletta",
				"lastlogoff": 1360907747,
				"profileurl": "http://steamcommunity.com/profiles/76561197960295725/",
				"avatar": "http://media.steampowered.com/steamcommunity/public/images/avatars/ea/eaa67d11bd644f626155023e3301700385598a8f.jpg",
				"avatarmedium": "http://media.steampowered.com/steamcommunity/public/images/avatars/ea/eaa67d11bd644f626155023e3301700385598a8f_medium.jpg",
				"avatarfull": "http://media.steampowered.com/steamcommunity/public/images/avatars/ea/eaa67d11bd644f626155023e3301700385598a8f_full.jpg",
				"personastate": 0,
				"realname": "Adam Richardson",
				"primaryclanid": "103582791429680367",
				"timecreated": 1063360130,
				"loccountrycode": "NZ",
				"locstatecode": "00",
				"loccityid": 30830
			},
			{
				"steamid": "76561197960295597",
				"communityvisibilitystate": 3,
				"profilestate": 1,
				"personaname": "Emotional Huhn",
				"lastlogoff": 1343601153,
				"profileurl": "http://steamcommunity.com/profiles/76561197960295597/",
				"avatar": "http://media.steampowered.com/steamcommunity/public/images/avatars/e7/e79d150f9be6cef1ee5fa0466665388ad65d73cf.jpg",
				"avatarmedium": "http://media.steampowered.com/steamcommunity/public/images/avatars/e7/e79d150f9be6cef1ee5fa0466665388ad65d73cf_medium.jpg",
				"avatarfull": "http://media.steampowered.com/steamcommunity/public/images/avatars/e7/e79d150f9be6cef1ee5fa0466665388ad65d73cf_full.jpg",
				"personastate": 0,
				"realname": "christian",
				"primaryclanid": "103582791429639803",
				"timecreated": 1063360094,
				"loccountrycode": "DE"
			},
			{
				"steamid": "76561197960295715",
				"communityvisibilitystate": 1,
				"personaname": "gangl_s",
				"profileurl": "http://steamcommunity.com/profiles/76561197960295715/",
				"avatar": "http://media.steampowered.com/steamcommunity/public/images/avatars/fe/fef49e7fa7e1997310d705b2a6158ff8dc1cdfeb.jpg",
				"avatarmedium": "http://media.steampowered.com/steamcommunity/public/images/avatars/fe/fef49e7fa7e1997310d705b2a6158ff8dc1cdfeb_medium.jpg",
				"avatarfull": "http://media.steampowered.com/steamcommunity/public/images/avatars/fe/fef49e7fa7e1997310d705b2a6158ff8dc1cdfeb_full.jpg",
				"personastate": 0
			},
			{
				"steamid": "76561197960295583",
				"communityvisibilitystate": 1,
				"profilestate": 1,
				"personaname": "Headhunter",
				"lastlogoff": 1359626853,
				"profileurl": "http://steamcommunity.com/profiles/76561197960295583/",
				"avatar": "http://media.steampowered.com/steamcommunity/public/images/avatars/7f/7fe0c33d5112b994f5880640cbbfa449170e6412.jpg",
				"avatarmedium": "http://media.steampowered.com/steamcommunity/public/images/avatars/7f/7fe0c33d5112b994f5880640cbbfa449170e6412_medium.jpg",
				"avatarfull": "http://media.steampowered.com/steamcommunity/public/images/avatars/7f/7fe0c33d5112b994f5880640cbbfa449170e6412_full.jpg",
				"personastate": 0
			},
			{
				"steamid": "76561197960295599",
				"communityvisibilitystate": 3,
				"profilestate": 1,
				"personaname": "mr",
				"lastlogoff": 1358427956,
				"profileurl": "http://steamcommunity.com/profiles/76561197960295599/",
				"avatar": "http://media.steampowered.com/steamcommunity/public/images/avatars/fe/fef49e7fa7e1997310d705b2a6158ff8dc1cdfeb.jpg",
				"avatarmedium": "http://media.steampowered.com/steamcommunity/public/images/avatars/fe/fef49e7fa7e1997310d705b2a6158ff8dc1cdfeb_medium.jpg",
				"avatarfull": "http://media.steampowered.com/steamcommunity/public/images/avatars/fe/fef49e7fa7e1997310d705b2a6158ff8dc1cdfeb_full.jpg",
				"personastate": 0,
				"primaryclanid": "103582791431058587",
				"timecreated": 1063360095
			},
			{
				"steamid": "76561197960295717",
				"communityvisibilitystate": 3,
				"profilestate": 1,
				"personaname": "kangman",
				"lastlogoff": 1321126862,
				"profileurl": "http://steamcommunity.com/profiles/76561197960295717/",
				"avatar": "http://media.steampowered.com/steamcommunity/public/images/avatars/fe/fef49e7fa7e1997310d705b2a6158ff8dc1cdfeb.jpg",
				"avatarmedium": "http://media.steampowered.com/steamcommunity/public/images/avatars/fe/fef49e7fa7e1997310d705b2a6158ff8dc1cdfeb_medium.jpg",
				"avatarfull": "http://media.steampowered.com/steamcommunity/public/images/avatars/fe/fef49e7fa7e1997310d705b2a6158ff8dc1cdfeb_full.jpg",
				"personastate": 0,
				"primaryclanid": "103582791429521408",
				"timecreated": 1063360127
			},
			{
				"steamid": "76561197960295633",
				"communityvisibilitystate": 3,
				"personaname": "laubfrosch",
				"lastlogoff": 1186847591,
				"profileurl": "http://steamcommunity.com/profiles/76561197960295633/",
				"avatar": "http://media.steampowered.com/steamcommunity/public/images/avatars/fe/fef49e7fa7e1997310d705b2a6158ff8dc1cdfeb.jpg",
				"avatarmedium": "http://media.steampowered.com/steamcommunity/public/images/avatars/fe/fef49e7fa7e1997310d705b2a6158ff8dc1cdfeb_medium.jpg",
				"avatarfull": "http://media.steampowered.com/steamcommunity/public/images/avatars/fe/fef49e7fa7e1997310d705b2a6158ff8dc1cdfeb_full.jpg",
				"personastate": 0,
				"primaryclanid": "103582791429521408",
				"timecreated": 1063360106
			},
			{
				"steamid": "76561197960295623",
				"communityvisibilitystate": 3,
				"personaname": "raffaele.principe",
				"lastlogoff": 1359398894,
				"profileurl": "http://steamcommunity.com/profiles/76561197960295623/",
				"avatar": "http://media.steampowered.com/steamcommunity/public/images/avatars/fe/fef49e7fa7e1997310d705b2a6158ff8dc1cdfeb.jpg",
				"avatarmedium": "http://media.steampowered.com/steamcommunity/public/images/avatars/fe/fef49e7fa7e1997310d705b2a6158ff8dc1cdfeb_medium.jpg",
				"avatarfull": "http://media.steampowered.com/steamcommunity/public/images/avatars/fe/fef49e7fa7e1997310d705b2a6158ff8dc1cdfeb_full.jpg",
				"personastate": 0,
				"primaryclanid": "103582791429521408",
				"timecreated": 1063360104
			},
			{
				"steamid": "76561197960295533",
				"communityvisibilitystate": 1,
				"personaname": "yuskycs",
				"profileurl": "http://steamcommunity.com/profiles/76561197960295533/",
				"avatar": "http://media.steampowered.com/steamcommunity/public/images/avatars/fe/fef49e7fa7e1997310d705b2a6158ff8dc1cdfeb.jpg",
				"avatarmedium": "http://media.steampowered.com/steamcommunity/public/images/avatars/fe/fef49e7fa7e1997310d705b2a6158ff8dc1cdfeb_medium.jpg",
				"avatarfull": "http://media.steampowered.com/steamcommunity/public/images/avatars/fe/fef49e7fa7e1997310d705b2a6158ff8dc1cdfeb_full.jpg",
				"personastate": 0
			},
			{
				"steamid": "76561197960295651",
				"communityvisibilitystate": 3,
				"profilestate": 1,
				"personaname": "Kr4zy",
				"lastlogoff": 1306068057,
				"profileurl": "http://steamcommunity.com/profiles/76561197960295651/",
				"avatar": "http://media.steampowered.com/steamcommunity/public/images/avatars/fe/fef49e7fa7e1997310d705b2a6158ff8dc1cdfeb.jpg",
				"avatarmedium": "http://media.steampowered.com/steamcommunity/public/images/avatars/fe/fef49e7fa7e1997310d705b2a6158ff8dc1cdfeb_medium.jpg",
				"avatarfull": "http://media.steampowered.com/steamcommunity/public/images/avatars/fe/fef49e7fa7e1997310d705b2a6158ff8dc1cdfeb_full.jpg",
				"personastate": 0,
				"realname": "MAXX",
				"primaryclanid": "103582791429708379",
				"timecreated": 1063360111
			},
			{
				"steamid": "76561197960295529",
				"communityvisibilitystate": 3,
				"profilestate": 1,
				"personaname": "parsifalcoeurdeloi",
				"lastlogoff": 1309704704,
				"profileurl": "http://steamcommunity.com/profiles/76561197960295529/",
				"avatar": "http://media.steampowered.com/steamcommunity/public/images/avatars/fe/fef49e7fa7e1997310d705b2a6158ff8dc1cdfeb.jpg",
				"avatarmedium": "http://media.steampowered.com/steamcommunity/public/images/avatars/fe/fef49e7fa7e1997310d705b2a6158ff8dc1cdfeb_medium.jpg",
				"avatarfull": "http://media.steampowered.com/steamcommunity/public/images/avatars/fe/fef49e7fa7e1997310d705b2a6158ff8dc1cdfeb_full.jpg",
				"personastate": 0,
				"realname": "xavier",
				"primaryclanid": "103582791429521408",
				"timecreated": 1063360073,
				"loccountrycode": "FX"
			},
			{
				"steamid": "76561197960295647",
				"communityvisibilitystate": 3,
				"profilestate": 1,
				"personaname": "iZiDuR",
				"lastlogoff": 1359413967,
				"profileurl": "http://steamcommunity.com/id/iZiDuR/",
				"avatar": "http://media.steampowered.com/steamcommunity/public/images/avatars/bf/bf43a7dc051693b988eafe06cfc942fede6d5de6.jpg",
				"avatarmedium": "http://media.steampowered.com/steamcommunity/public/images/avatars/bf/bf43a7dc051693b988eafe06cfc942fede6d5de6_medium.jpg",
				"avatarfull": "http://media.steampowered.com/steamcommunity/public/images/avatars/bf/bf43a7dc051693b988eafe06cfc942fede6d5de6_full.jpg",
				"personastate": 0,
				"realname": "Txiki Martinez Martinez",
				"primaryclanid": "103582791431491355",
				"timecreated": 1063360110,
				"loccountrycode": "ES",
				"locstatecode": "60",
				"loccityid": 14936
			},
			{
				"steamid": "76561197960295617",
				"communityvisibilitystate": 1,
				"personaname": "pc02",
				"profileurl": "http://steamcommunity.com/profiles/76561197960295617/",
				"avatar": "http://media.steampowered.com/steamcommunity/public/images/avatars/fe/fef49e7fa7e1997310d705b2a6158ff8dc1cdfeb.jpg",
				"avatarmedium": "http://media.steampowered.com/steamcommunity/public/images/avatars/fe/fef49e7fa7e1997310d705b2a6158ff8dc1cdfeb_medium.jpg",
				"avatarfull": "http://media.steampowered.com/steamcommunity/public/images/avatars/fe/fef49e7fa7e1997310d705b2a6158ff8dc1cdfeb_full.jpg",
				"personastate": 0
			},
			{
				"steamid": "76561197960295551",
				"communityvisibilitystate": 1,
				"profilestate": 1,
				"personaname": "raw",
				"lastlogoff": 1342723206,
				"commentpermission": 2,
				"profileurl": "http://steamcommunity.com/id/raw50/",
				"avatar": "http://media.steampowered.com/steamcommunity/public/images/avatars/ae/aeab214e709e18081e35188fbb350b455d279272.jpg",
				"avatarmedium": "http://media.steampowered.com/steamcommunity/public/images/avatars/ae/aeab214e709e18081e35188fbb350b455d279272_medium.jpg",
				"avatarfull": "http://media.steampowered.com/steamcommunity/public/images/avatars/ae/aeab214e709e18081e35188fbb350b455d279272_full.jpg",
				"personastate": 0
			},
			{
				"steamid": "76561197960295669",
				"communityvisibilitystate": 1,
				"personaname": "der_christ",
				"profileurl": "http://steamcommunity.com/profiles/76561197960295669/",
				"avatar": "http://media.steampowered.com/steamcommunity/public/images/avatars/fe/fef49e7fa7e1997310d705b2a6158ff8dc1cdfeb.jpg",
				"avatarmedium": "http://media.steampowered.com/steamcommunity/public/images/avatars/fe/fef49e7fa7e1997310d705b2a6158ff8dc1cdfeb_medium.jpg",
				"avatarfull": "http://media.steampowered.com/steamcommunity/public/images/avatars/fe/fef49e7fa7e1997310d705b2a6158ff8dc1cdfeb_full.jpg",
				"personastate": 0
			},
			{
				"steamid": "76561197960295595",
				"communityvisibilitystate": 1,
				"personaname": "shark1337",
				"profileurl": "http://steamcommunity.com/profiles/76561197960295595/",
				"avatar": "http://media.steampowered.com/steamcommunity/public/images/avatars/fe/fef49e7fa7e1997310d705b2a6158ff8dc1cdfeb.jpg",
				"avatarmedium": "http://media.steampowered.com/steamcommunity/public/images/avatars/fe/fef49e7fa7e1997310d705b2a6158ff8dc1cdfeb_medium.jpg",
				"avatarfull": "http://media.steampowered.com/steamcommunity/public/images/avatars/fe/fef49e7fa7e1997310d705b2a6158ff8dc1cdfeb_full.jpg",
				"personastate": 0
			},
			{
				"steamid": "76561197960295713",
				"communityvisibilitystate": 1,
				"personaname": "smokey4812",
				"profileurl": "http://steamcommunity.com/profiles/76561197960295713/",
				"avatar": "http://media.steampowered.com/steamcommunity/public/images/avatars/fe/fef49e7fa7e1997310d705b2a6158ff8dc1cdfeb.jpg",
				"avatarmedium": "http://media.steampowered.com/steamcommunity/public/images/avatars/fe/fef49e7fa7e1997310d705b2a6158ff8dc1cdfeb_medium.jpg",
				"avatarfull": "http://media.steampowered.com/steamcommunity/public/images/avatars/fe/fef49e7fa7e1997310d705b2a6158ff8dc1cdfeb_full.jpg",
				"personastate": 0
			},
			{
				"steamid": "76561197960295611",
				"communityvisibilitystate": 3,
				"profilestate": 1,
				"personaname": "Blåtann",
				"lastlogoff": 1335282821,
				"profileurl": "http://steamcommunity.com/profiles/76561197960295611/",
				"avatar": "http://media.steampowered.com/steamcommunity/public/images/avatars/fe/fef49e7fa7e1997310d705b2a6158ff8dc1cdfeb.jpg",
				"avatarmedium": "http://media.steampowered.com/steamcommunity/public/images/avatars/fe/fef49e7fa7e1997310d705b2a6158ff8dc1cdfeb_medium.jpg",
				"avatarfull": "http://media.steampowered.com/steamcommunity/public/images/avatars/fe/fef49e7fa7e1997310d705b2a6158ff8dc1cdfeb_full.jpg",
				"personastate": 0,
				"realname": "Trond Lyshol",
				"primaryclanid": "103582791429521408",
				"timecreated": 1063360099,
				"loccountrycode": "NO"
			},
			{
				"steamid": "76561197960295711",
				"communityvisibilitystate": 3,
				"profilestate": 1,
				"personaname": "Volle Pulle",
				"lastlogoff": 1360690609,
				"profileurl": "http://steamcommunity.com/profiles/76561197960295711/",
				"avatar": "http://media.steampowered.com/steamcommunity/public/images/avatars/2e/2e088fdb579476902c86d3a0d34dae6d8579d259.jpg",
				"avatarmedium": "http://media.steampowered.com/steamcommunity/public/images/avatars/2e/2e088fdb579476902c86d3a0d34dae6d8579d259_medium.jpg",
				"avatarfull": "http://media.steampowered.com/steamcommunity/public/images/avatars/2e/2e088fdb579476902c86d3a0d34dae6d8579d259_full.jpg",
				"personastate": 0,
				"primaryclanid": "103582791429531914",
				"timecreated": 1063360126,
				"loccountrycode": "DE"
			},
			{
				"steamid": "76561197960295681",
				"communityvisibilitystate": 3,
				"profilestate": 1,
				"personaname": "PsychoAxeKiller",
				"lastlogoff": 1360775440,
				"profileurl": "http://steamcommunity.com/id/GDI75/",
				"avatar": "http://media.steampowered.com/steamcommunity/public/images/avatars/fd/fd8431289cb15c75d84a222509fdc8fa8c8b79c6.jpg",
				"avatarmedium": "http://media.steampowered.com/steamcommunity/public/images/avatars/fd/fd8431289cb15c75d84a222509fdc8fa8c8b79c6_medium.jpg",
				"avatarfull": "http://media.steampowered.com/steamcommunity/public/images/avatars/fd/fd8431289cb15c75d84a222509fdc8fa8c8b79c6_full.jpg",
				"personastate": 0,
				"realname": "Tim",
				"primaryclanid": "103582791429523346",
				"timecreated": 1063360118,
				"loccountrycode": "GB"
			},
			{
				"steamid": "76561197960295531",
				"communityvisibilitystate": 3,
				"personaname": "taylorsherman",
				"lastlogoff": 1198805830,
				"profileurl": "http://steamcommunity.com/profiles/76561197960295531/",
				"avatar": "http://media.steampowered.com/steamcommunity/public/images/avatars/fe/fef49e7fa7e1997310d705b2a6158ff8dc1cdfeb.jpg",
				"avatarmedium": "http://media.steampowered.com/steamcommunity/public/images/avatars/fe/fef49e7fa7e1997310d705b2a6158ff8dc1cdfeb_medium.jpg",
				"avatarfull": "http://media.steampowered.com/steamcommunity/public/images/avatars/fe/fef49e7fa7e1997310d705b2a6158ff8dc1cdfeb_full.jpg",
				"personastate": 0,
				"primaryclanid": "103582791429521408",
				"timecreated": 1063360073
			},
			{
				"steamid": "76561197960295587",
				"communityvisibilitystate": 1,
				"personaname": "chris_holgate17",
				"profileurl": "http://steamcommunity.com/profiles/76561197960295587/",
				"avatar": "http://media.steampowered.com/steamcommunity/public/images/avatars/fe/fef49e7fa7e1997310d705b2a6158ff8dc1cdfeb.jpg",
				"avatarmedium": "http://media.steampowered.com/steamcommunity/public/images/avatars/fe/fef49e7fa7e1997310d705b2a6158ff8dc1cdfeb_medium.jpg",
				"avatarfull": "http://media.steampowered.com/steamcommunity/public/images/avatars/fe/fef49e7fa7e1997310d705b2a6158ff8dc1cdfeb_full.jpg",
				"personastate": 0
			},
			{
				"steamid": "76561197960295571",
				"communityvisibilitystate": 3,
				"profilestate": 1,
				"personaname": "shai'tan",
				"lastlogoff": 1231885418,
				"profileurl": "http://steamcommunity.com/profiles/76561197960295571/",
				"avatar": "http://media.steampowered.com/steamcommunity/public/images/avatars/fe/fef49e7fa7e1997310d705b2a6158ff8dc1cdfeb.jpg",
				"avatarmedium": "http://media.steampowered.com/steamcommunity/public/images/avatars/fe/fef49e7fa7e1997310d705b2a6158ff8dc1cdfeb_medium.jpg",
				"avatarfull": "http://media.steampowered.com/steamcommunity/public/images/avatars/fe/fef49e7fa7e1997310d705b2a6158ff8dc1cdfeb_full.jpg",
				"personastate": 0,
				"primaryclanid": "103582791429521408",
				"timecreated": 1063360086
			},
			{
				"steamid": "76561197960295675",
				"communityvisibilitystate": 3,
				"profilestate": 1,
				"personaname": "Muta",
				"lastlogoff": 1360938657,
				"profileurl": "http://steamcommunity.com/profiles/76561197960295675/",
				"avatar": "http://media.steampowered.com/steamcommunity/public/images/avatars/fe/fef49e7fa7e1997310d705b2a6158ff8dc1cdfeb.jpg",
				"avatarmedium": "http://media.steampowered.com/steamcommunity/public/images/avatars/fe/fef49e7fa7e1997310d705b2a6158ff8dc1cdfeb_medium.jpg",
				"avatarfull": "http://media.steampowered.com/steamcommunity/public/images/avatars/fe/fef49e7fa7e1997310d705b2a6158ff8dc1cdfeb_full.jpg",
				"personastate": 0,
				"primaryclanid": "103582791430844976",
				"timecreated": 1063360117,
				"loccountrycode": "FI"
			},
			{
				"steamid": "76561197960295553",
				"communityvisibilitystate": 1,
				"personaname": "peacekeeper2391",
				"profileurl": "http://steamcommunity.com/profiles/76561197960295553/",
				"avatar": "http://media.steampowered.com/steamcommunity/public/images/avatars/fe/fef49e7fa7e1997310d705b2a6158ff8dc1cdfeb.jpg",
				"avatarmedium": "http://media.steampowered.com/steamcommunity/public/images/avatars/fe/fef49e7fa7e1997310d705b2a6158ff8dc1cdfeb_medium.jpg",
				"avatarfull": "http://media.steampowered.com/steamcommunity/public/images/avatars/fe/fef49e7fa7e1997310d705b2a6158ff8dc1cdfeb_full.jpg",
				"personastate": 0
			},
			{
				"steamid": "76561197960295671",
				"communityvisibilitystate": 3,
				"profilestate": 1,
				"personaname": "RUDE BOY 99",
				"lastlogoff": 1315852247,
				"profileurl": "http://steamcommunity.com/profiles/76561197960295671/",
				"avatar": "http://media.steampowered.com/steamcommunity/public/images/avatars/f5/f56dc49cadf61ddfee0d1199cce70e56da2c2245.jpg",
				"avatarmedium": "http://media.steampowered.com/steamcommunity/public/images/avatars/f5/f56dc49cadf61ddfee0d1199cce70e56da2c2245_medium.jpg",
				"avatarfull": "http://media.steampowered.com/steamcommunity/public/images/avatars/f5/f56dc49cadf61ddfee0d1199cce70e56da2c2245_full.jpg",
				"personastate": 0,
				"realname": "kaine lowndes",
				"primaryclanid": "103582791429524061",
				"timecreated": 1063360115,
				"loccountrycode": "GB",
				"locstatecode": "A7",
				"loccityid": 16551
			},
			{
				"steamid": "76561197960295629",
				"communityvisibilitystate": 3,
				"profilestate": 1,
				"personaname": "[Noc] Kaidengaran",
				"lastlogoff": 1347065239,
				"profileurl": "http://steamcommunity.com/id/Kaidengaran/",
				"avatar": "http://media.steampowered.com/steamcommunity/public/images/avatars/fe/fef49e7fa7e1997310d705b2a6158ff8dc1cdfeb.jpg",
				"avatarmedium": "http://media.steampowered.com/steamcommunity/public/images/avatars/fe/fef49e7fa7e1997310d705b2a6158ff8dc1cdfeb_medium.jpg",
				"avatarfull": "http://media.steampowered.com/steamcommunity/public/images/avatars/fe/fef49e7fa7e1997310d705b2a6158ff8dc1cdfeb_full.jpg",
				"personastate": 0,
				"realname": "M Taylor",
				"primaryclanid": "103582791429549990",
				"timecreated": 1063360106,
				"loccountrycode": "NZ",
				"locstatecode": "00",
				"loccityid": 30840
			}
		]
		
	}
}