{
	"response": {
		"players": [
			{
				"steamid": "76561197960309963",
				"communityvisibilitystate": 3,
				"profilestate": 1,
				"personaname": "Nilleshaker",
				"lastlogoff": 1319653999,
				"profileurl": "http://steamcommunity.com/profiles/76561197960309963/",
				"avatar": "http://media.steampowered.com/steamcommunity/public/images/avatars/5b/5b96c25f2bbe76bf24b737dba85c71f21d33813d.jpg",
				"avatarmedium": "http://media.steampowered.com/steamcommunity/public/images/avatars/5b/5b96c25f2bbe76bf24b737dba85c71f21d33813d_medium.jpg",
				"avatarfull": "http://media.steampowered.com/steamcommunity/public/images/avatars/5b/5b96c25f2bbe76bf24b737dba85c71f21d33813d_full.jpg",
				"personastate": 0,
				"realname": "Michael Schaffhauser",
				"primaryclanid": "103582791429930799",
				"timecreated": 1063364832,
				"loccountrycode": "HM"
			},
			{
				"steamid": "76561197960310081",
				"communityvisibilitystate": 3,
				"profilestate": 1,
				"personaname": "nikke_",
				"lastlogoff": 1331728092,
				"profileurl": "http://steamcommunity.com/profiles/76561197960310081/",
				"avatar": "http://media.steampowered.com/steamcommunity/public/images/avatars/fe/fef49e7fa7e1997310d705b2a6158ff8dc1cdfeb.jpg",
				"avatarmedium": "http://media.steampowered.com/steamcommunity/public/images/avatars/fe/fef49e7fa7e1997310d705b2a6158ff8dc1cdfeb_medium.jpg",
				"avatarfull": "http://media.steampowered.com/steamcommunity/public/images/avatars/fe/fef49e7fa7e1997310d705b2a6158ff8dc1cdfeb_full.jpg",
				"personastate": 0,
				"primaryclanid": "103582791429521408",
				"timecreated": 1063364854
			},
			{
				"steamid": "76561197960310023",
				"communityvisibilitystate": 1,
				"profilestate": 1,
				"personaname": "tasKer",
				"lastlogoff": 1277928959,
				"commentpermission": 2,
				"profileurl": "http://steamcommunity.com/profiles/76561197960310023/",
				"avatar": "http://media.steampowered.com/steamcommunity/public/images/avatars/3a/3a32fc98d2856fc4348eeada36dd8e63a76d9f50.jpg",
				"avatarmedium": "http://media.steampowered.com/steamcommunity/public/images/avatars/3a/3a32fc98d2856fc4348eeada36dd8e63a76d9f50_medium.jpg",
				"avatarfull": "http://media.steampowered.com/steamcommunity/public/images/avatars/3a/3a32fc98d2856fc4348eeada36dd8e63a76d9f50_full.jpg",
				"personastate": 0
			},
			{
				"steamid": "76561197960309965",
				"communityvisibilitystate": 1,
				"personaname": "jadinl",
				"profileurl": "http://steamcommunity.com/profiles/76561197960309965/",
				"avatar": "http://media.steampowered.com/steamcommunity/public/images/avatars/fe/fef49e7fa7e1997310d705b2a6158ff8dc1cdfeb.jpg",
				"avatarmedium": "http://media.steampowered.com/steamcommunity/public/images/avatars/fe/fef49e7fa7e1997310d705b2a6158ff8dc1cdfeb_medium.jpg",
				"avatarfull": "http://media.steampowered.com/steamcommunity/public/images/avatars/fe/fef49e7fa7e1997310d705b2a6158ff8dc1cdfeb_full.jpg",
				"personastate": 0
			},
			{
				"steamid": "76561197960310083",
				"communityvisibilitystate": 3,
				"profilestate": 1,
				"personaname": "-JuliuS-",
				"lastlogoff": 1338682063,
				"profileurl": "http://steamcommunity.com/profiles/76561197960310083/",
				"avatar": "http://media.steampowered.com/steamcommunity/public/images/avatars/d9/d9771c2dcf82dcd1a4d7903f4c9a293839b28a1f.jpg",
				"avatarmedium": "http://media.steampowered.com/steamcommunity/public/images/avatars/d9/d9771c2dcf82dcd1a4d7903f4c9a293839b28a1f_medium.jpg",
				"avatarfull": "http://media.steampowered.com/steamcommunity/public/images/avatars/d9/d9771c2dcf82dcd1a4d7903f4c9a293839b28a1f_full.jpg",
				"personastate": 0,
				"primaryclanid": "103582791431139568",
				"timecreated": 1063364854,
				"loccountrycode": "ES"
			},
			{
				"steamid": "76561197960309967",
				"communityvisibilitystate": 3,
				"personaname": "IHR FOTZEN!!!",
				"lastlogoff": 1341677467,
				"profileurl": "http://steamcommunity.com/profiles/76561197960309967/",
				"avatar": "http://media.steampowered.com/steamcommunity/public/images/avatars/ce/cebd899a55bf29c2220a5812262f2587b95b7596.jpg",
				"avatarmedium": "http://media.steampowered.com/steamcommunity/public/images/avatars/ce/cebd899a55bf29c2220a5812262f2587b95b7596_medium.jpg",
				"avatarfull": "http://media.steampowered.com/steamcommunity/public/images/avatars/ce/cebd899a55bf29c2220a5812262f2587b95b7596_full.jpg",
				"personastate": 0,
				"primaryclanid": "103582791429521408",
				"timecreated": 1063364834,
				"loccountrycode": "DE"
			},
			{
				"steamid": "76561197960310085",
				"communityvisibilitystate": 3,
				"profilestate": 1,
				"personaname": "WurschTus MaXiMuS",
				"lastlogoff": 1360888041,
				"profileurl": "http://steamcommunity.com/id/Flo1984/",
				"avatar": "http://media.steampowered.com/steamcommunity/public/images/avatars/3c/3cbd6c90b233570f849f9f77501acdf0edc7a4ab.jpg",
				"avatarmedium": "http://media.steampowered.com/steamcommunity/public/images/avatars/3c/3cbd6c90b233570f849f9f77501acdf0edc7a4ab_medium.jpg",
				"avatarfull": "http://media.steampowered.com/steamcommunity/public/images/avatars/3c/3cbd6c90b233570f849f9f77501acdf0edc7a4ab_full.jpg",
				"personastate": 3,
				"realname": "Rüdiger",
				"primaryclanid": "103582791429523370",
				"timecreated": 1063364854,
				"loccountrycode": "DE",
				"locstatecode": "02",
				"loccityid": 12598
			},
			{
				"steamid": "76561197960309969",
				"communityvisibilitystate": 1,
				"personaname": "j00sukit",
				"profileurl": "http://steamcommunity.com/profiles/76561197960309969/",
				"avatar": "http://media.steampowered.com/steamcommunity/public/images/avatars/fe/fef49e7fa7e1997310d705b2a6158ff8dc1cdfeb.jpg",
				"avatarmedium": "http://media.steampowered.com/steamcommunity/public/images/avatars/fe/fef49e7fa7e1997310d705b2a6158ff8dc1cdfeb_medium.jpg",
				"avatarfull": "http://media.steampowered.com/steamcommunity/public/images/avatars/fe/fef49e7fa7e1997310d705b2a6158ff8dc1cdfeb_full.jpg",
				"personastate": 0
			},
			{
				"steamid": "76561197960310087",
				"communityvisibilitystate": 1,
				"personaname": "drdroid",
				"profileurl": "http://steamcommunity.com/profiles/76561197960310087/",
				"avatar": "http://media.steampowered.com/steamcommunity/public/images/avatars/fe/fef49e7fa7e1997310d705b2a6158ff8dc1cdfeb.jpg",
				"avatarmedium": "http://media.steampowered.com/steamcommunity/public/images/avatars/fe/fef49e7fa7e1997310d705b2a6158ff8dc1cdfeb_medium.jpg",
				"avatarfull": "http://media.steampowered.com/steamcommunity/public/images/avatars/fe/fef49e7fa7e1997310d705b2a6158ff8dc1cdfeb_full.jpg",
				"personastate": 0
			},
			{
				"steamid": "76561197960309971",
				"communityvisibilitystate": 3,
				"personaname": "jOhn",
				"lastlogoff": 1358973903,
				"profileurl": "http://steamcommunity.com/profiles/76561197960309971/",
				"avatar": "http://media.steampowered.com/steamcommunity/public/images/avatars/fe/fef49e7fa7e1997310d705b2a6158ff8dc1cdfeb.jpg",
				"avatarmedium": "http://media.steampowered.com/steamcommunity/public/images/avatars/fe/fef49e7fa7e1997310d705b2a6158ff8dc1cdfeb_medium.jpg",
				"avatarfull": "http://media.steampowered.com/steamcommunity/public/images/avatars/fe/fef49e7fa7e1997310d705b2a6158ff8dc1cdfeb_full.jpg",
				"personastate": 0,
				"primaryclanid": "103582791429521408",
				"timecreated": 1063364834
			},
			{
				"steamid": "76561197960310089",
				"communityvisibilitystate": 3,
				"personaname": "bf",
				"lastlogoff": 1241328567,
				"profileurl": "http://steamcommunity.com/profiles/76561197960310089/",
				"avatar": "http://media.steampowered.com/steamcommunity/public/images/avatars/fe/fef49e7fa7e1997310d705b2a6158ff8dc1cdfeb.jpg",
				"avatarmedium": "http://media.steampowered.com/steamcommunity/public/images/avatars/fe/fef49e7fa7e1997310d705b2a6158ff8dc1cdfeb_medium.jpg",
				"avatarfull": "http://media.steampowered.com/steamcommunity/public/images/avatars/fe/fef49e7fa7e1997310d705b2a6158ff8dc1cdfeb_full.jpg",
				"personastate": 0,
				"primaryclanid": "103582791429521408",
				"timecreated": 1063364856
			},
			{
				"steamid": "76561197960309973",
				"communityvisibilitystate": 3,
				"personaname": "nikolehmann",
				"lastlogoff": 1329144774,
				"profileurl": "http://steamcommunity.com/profiles/76561197960309973/",
				"avatar": "http://media.steampowered.com/steamcommunity/public/images/avatars/fe/fef49e7fa7e1997310d705b2a6158ff8dc1cdfeb.jpg",
				"avatarmedium": "http://media.steampowered.com/steamcommunity/public/images/avatars/fe/fef49e7fa7e1997310d705b2a6158ff8dc1cdfeb_medium.jpg",
				"avatarfull": "http://media.steampowered.com/steamcommunity/public/images/avatars/fe/fef49e7fa7e1997310d705b2a6158ff8dc1cdfeb_full.jpg",
				"personastate": 0,
				"primaryclanid": "103582791429521408",
				"timecreated": 1063364835
			},
			{
				"steamid": "76561197960310091",
				"communityvisibilitystate": 1,
				"profilestate": 1,
				"personaname": "Gmi",
				"lastlogoff": 1360956988,
				"profileurl": "http://steamcommunity.com/profiles/76561197960310091/",
				"avatar": "http://media.steampowered.com/steamcommunity/public/images/avatars/91/91f3ca5160b1add6e0d05adea152388dc2991775.jpg",
				"avatarmedium": "http://media.steampowered.com/steamcommunity/public/images/avatars/91/91f3ca5160b1add6e0d05adea152388dc2991775_medium.jpg",
				"avatarfull": "http://media.steampowered.com/steamcommunity/public/images/avatars/91/91f3ca5160b1add6e0d05adea152388dc2991775_full.jpg",
				"personastate": 0
			},
			{
				"steamid": "76561197960310033",
				"communityvisibilitystate": 1,
				"personaname": "dobi_90",
				"profileurl": "http://steamcommunity.com/profiles/76561197960310033/",
				"avatar": "http://media.steampowered.com/steamcommunity/public/images/avatars/fe/fef49e7fa7e1997310d705b2a6158ff8dc1cdfeb.jpg",
				"avatarmedium": "http://media.steampowered.com/steamcommunity/public/images/avatars/fe/fef49e7fa7e1997310d705b2a6158ff8dc1cdfeb_medium.jpg",
				"avatarfull": "http://media.steampowered.com/steamcommunity/public/images/avatars/fe/fef49e7fa7e1997310d705b2a6158ff8dc1cdfeb_full.jpg",
				"personastate": 0
			},
			{
				"steamid": "76561197960310035",
				"communityvisibilitystate": 3,
				"personaname": "tapz",
				"lastlogoff": 1218265193,
				"profileurl": "http://steamcommunity.com/profiles/76561197960310035/",
				"avatar": "http://media.steampowered.com/steamcommunity/public/images/avatars/fe/fef49e7fa7e1997310d705b2a6158ff8dc1cdfeb.jpg",
				"avatarmedium": "http://media.steampowered.com/steamcommunity/public/images/avatars/fe/fef49e7fa7e1997310d705b2a6158ff8dc1cdfeb_medium.jpg",
				"avatarfull": "http://media.steampowered.com/steamcommunity/public/images/avatars/fe/fef49e7fa7e1997310d705b2a6158ff8dc1cdfeb_full.jpg",
				"personastate": 0,
				"primaryclanid": "103582791429521408",
				"timecreated": 1063364844
			},
			{
				"steamid": "76561197960309977",
				"communityvisibilitystate": 3,
				"profilestate": 1,
				"personaname": "Hawkes",
				"lastlogoff": 1360884640,
				"profileurl": "http://steamcommunity.com/id/hawkes1234/",
				"avatar": "http://media.steampowered.com/steamcommunity/public/images/avatars/3b/3bd624f09887fbd2dbdc12fc67424513730b4bad.jpg",
				"avatarmedium": "http://media.steampowered.com/steamcommunity/public/images/avatars/3b/3bd624f09887fbd2dbdc12fc67424513730b4bad_medium.jpg",
				"avatarfull": "http://media.steampowered.com/steamcommunity/public/images/avatars/3b/3bd624f09887fbd2dbdc12fc67424513730b4bad_full.jpg",
				"personastate": 0,
				"realname": "Peter Pan",
				"primaryclanid": "103582791429600493",
				"timecreated": 1063364835,
				"loccountrycode": "DE",
				"locstatecode": "16",
				"loccityid": 12623
			},
			{
				"steamid": "76561197960310095",
				"communityvisibilitystate": 1,
				"personaname": "dj_____",
				"profileurl": "http://steamcommunity.com/profiles/76561197960310095/",
				"avatar": "http://media.steampowered.com/steamcommunity/public/images/avatars/fe/fef49e7fa7e1997310d705b2a6158ff8dc1cdfeb.jpg",
				"avatarmedium": "http://media.steampowered.com/steamcommunity/public/images/avatars/fe/fef49e7fa7e1997310d705b2a6158ff8dc1cdfeb_medium.jpg",
				"avatarfull": "http://media.steampowered.com/steamcommunity/public/images/avatars/fe/fef49e7fa7e1997310d705b2a6158ff8dc1cdfeb_full.jpg",
				"personastate": 0
			},
			{
				"steamid": "76561197960310037",
				"communityvisibilitystate": 3,
				"profilestate": 1,
				"personaname": "Westcliff Peach",
				"lastlogoff": 1360876146,
				"profileurl": "http://steamcommunity.com/profiles/76561197960310037/",
				"avatar": "http://media.steampowered.com/steamcommunity/public/images/avatars/93/932e87e6d05e038061328154868bab4865fdf969.jpg",
				"avatarmedium": "http://media.steampowered.com/steamcommunity/public/images/avatars/93/932e87e6d05e038061328154868bab4865fdf969_medium.jpg",
				"avatarfull": "http://media.steampowered.com/steamcommunity/public/images/avatars/93/932e87e6d05e038061328154868bab4865fdf969_full.jpg",
				"personastate": 0,
				"primaryclanid": "103582791432629110",
				"timecreated": 1063364845
			},
			{
				"steamid": "76561197960310045",
				"communityvisibilitystate": 3,
				"personaname": "m4x3",
				"lastlogoff": 1322170257,
				"profileurl": "http://steamcommunity.com/profiles/76561197960310045/",
				"avatar": "http://media.steampowered.com/steamcommunity/public/images/avatars/fe/fef49e7fa7e1997310d705b2a6158ff8dc1cdfeb.jpg",
				"avatarmedium": "http://media.steampowered.com/steamcommunity/public/images/avatars/fe/fef49e7fa7e1997310d705b2a6158ff8dc1cdfeb_medium.jpg",
				"avatarfull": "http://media.steampowered.com/steamcommunity/public/images/avatars/fe/fef49e7fa7e1997310d705b2a6158ff8dc1cdfeb_full.jpg",
				"personastate": 0,
				"primaryclanid": "103582791429521408",
				"timecreated": 1063364846
			},
			{
				"steamid": "76561197960309979",
				"communityvisibilitystate": 3,
				"personaname": "amigo",
				"lastlogoff": 1279221849,
				"profileurl": "http://steamcommunity.com/profiles/76561197960309979/",
				"avatar": "http://media.steampowered.com/steamcommunity/public/images/avatars/fe/fef49e7fa7e1997310d705b2a6158ff8dc1cdfeb.jpg",
				"avatarmedium": "http://media.steampowered.com/steamcommunity/public/images/avatars/fe/fef49e7fa7e1997310d705b2a6158ff8dc1cdfeb_medium.jpg",
				"avatarfull": "http://media.steampowered.com/steamcommunity/public/images/avatars/fe/fef49e7fa7e1997310d705b2a6158ff8dc1cdfeb_full.jpg",
				"personastate": 0,
				"primaryclanid": "103582791429521408",
				"timecreated": 1063364835
			},
			{
				"steamid": "76561197960310097",
				"communityvisibilitystate": 3,
				"profilestate": 1,
				"personaname": "lacu",
				"lastlogoff": 1351788206,
				"profileurl": "http://steamcommunity.com/profiles/76561197960310097/",
				"avatar": "http://media.steampowered.com/steamcommunity/public/images/avatars/fe/fef49e7fa7e1997310d705b2a6158ff8dc1cdfeb.jpg",
				"avatarmedium": "http://media.steampowered.com/steamcommunity/public/images/avatars/fe/fef49e7fa7e1997310d705b2a6158ff8dc1cdfeb_medium.jpg",
				"avatarfull": "http://media.steampowered.com/steamcommunity/public/images/avatars/fe/fef49e7fa7e1997310d705b2a6158ff8dc1cdfeb_full.jpg",
				"personastate": 0,
				"primaryclanid": "103582791429521408",
				"timecreated": 1063364856
			},
			{
				"steamid": "76561197960309929",
				"communityvisibilitystate": 3,
				"profilestate": 1,
				"personaname": "Yuval Duval",
				"lastlogoff": 1358040959,
				"profileurl": "http://steamcommunity.com/profiles/76561197960309929/",
				"avatar": "http://media.steampowered.com/steamcommunity/public/images/avatars/d4/d46eb05e66293a97842e34da50825093cf017109.jpg",
				"avatarmedium": "http://media.steampowered.com/steamcommunity/public/images/avatars/d4/d46eb05e66293a97842e34da50825093cf017109_medium.jpg",
				"avatarfull": "http://media.steampowered.com/steamcommunity/public/images/avatars/d4/d46eb05e66293a97842e34da50825093cf017109_full.jpg",
				"personastate": 0,
				"primaryclanid": "103582791429521408",
				"timecreated": 1063364826,
				"loccountrycode": "IL",
				"locstatecode": "05"
			},
			{
				"steamid": "76561197960310047",
				"communityvisibilitystate": 1,
				"profilestate": 1,
				"personaname": "bunjiboys",
				"lastlogoff": 1360923697,
				"profileurl": "http://steamcommunity.com/id/bunjiboys/",
				"avatar": "http://media.steampowered.com/steamcommunity/public/images/avatars/ab/ab9246ae068cc93e78af96a5ec17c9a265762667.jpg",
				"avatarmedium": "http://media.steampowered.com/steamcommunity/public/images/avatars/ab/ab9246ae068cc93e78af96a5ec17c9a265762667_medium.jpg",
				"avatarfull": "http://media.steampowered.com/steamcommunity/public/images/avatars/ab/ab9246ae068cc93e78af96a5ec17c9a265762667_full.jpg",
				"personastate": 0
			},
			{
				"steamid": "76561197960309931",
				"communityvisibilitystate": 3,
				"personaname": "Napoleon",
				"lastlogoff": 1161620090,
				"profileurl": "http://steamcommunity.com/profiles/76561197960309931/",
				"avatar": "http://media.steampowered.com/steamcommunity/public/images/avatars/fe/fef49e7fa7e1997310d705b2a6158ff8dc1cdfeb.jpg",
				"avatarmedium": "http://media.steampowered.com/steamcommunity/public/images/avatars/fe/fef49e7fa7e1997310d705b2a6158ff8dc1cdfeb_medium.jpg",
				"avatarfull": "http://media.steampowered.com/steamcommunity/public/images/avatars/fe/fef49e7fa7e1997310d705b2a6158ff8dc1cdfeb_full.jpg",
				"personastate": 0,
				"primaryclanid": "103582791429521408",
				"timecreated": 1063364827
			},
			{
				"steamid": "76561197960310049",
				"communityvisibilitystate": 3,
				"profilestate": 1,
				"personaname": "LouisvilleChugger",
				"lastlogoff": 1324711650,
				"profileurl": "http://steamcommunity.com/profiles/76561197960310049/",
				"avatar": "http://media.steampowered.com/steamcommunity/public/images/avatars/fe/fef49e7fa7e1997310d705b2a6158ff8dc1cdfeb.jpg",
				"avatarmedium": "http://media.steampowered.com/steamcommunity/public/images/avatars/fe/fef49e7fa7e1997310d705b2a6158ff8dc1cdfeb_medium.jpg",
				"avatarfull": "http://media.steampowered.com/steamcommunity/public/images/avatars/fe/fef49e7fa7e1997310d705b2a6158ff8dc1cdfeb_full.jpg",
				"personastate": 0,
				"realname": "Theo",
				"primaryclanid": "103582791429521408",
				"timecreated": 1063364847,
				"loccountrycode": "US",
				"locstatecode": "KY",
				"loccityid": 1581
			},
			{
				"steamid": "76561197960310007",
				"communityvisibilitystate": 1,
				"profilestate": 1,
				"personaname": "davepss",
				"lastlogoff": 1356639528,
				"commentpermission": 2,
				"profileurl": "http://steamcommunity.com/id/davepss/",
				"avatar": "http://media.steampowered.com/steamcommunity/public/images/avatars/fe/fef49e7fa7e1997310d705b2a6158ff8dc1cdfeb.jpg",
				"avatarmedium": "http://media.steampowered.com/steamcommunity/public/images/avatars/fe/fef49e7fa7e1997310d705b2a6158ff8dc1cdfeb_medium.jpg",
				"avatarfull": "http://media.steampowered.com/steamcommunity/public/images/avatars/fe/fef49e7fa7e1997310d705b2a6158ff8dc1cdfeb_full.jpg",
				"personastate": 0
			},
			{
				"steamid": "76561197960310125",
				"communityvisibilitystate": 3,
				"profilestate": 1,
				"personaname": "koRn",
				"lastlogoff": 1355333771,
				"profileurl": "http://steamcommunity.com/profiles/76561197960310125/",
				"avatar": "http://media.steampowered.com/steamcommunity/public/images/avatars/d5/d532d961b30cf54bb9e1a3a760e370958b91abde.jpg",
				"avatarmedium": "http://media.steampowered.com/steamcommunity/public/images/avatars/d5/d532d961b30cf54bb9e1a3a760e370958b91abde_medium.jpg",
				"avatarfull": "http://media.steampowered.com/steamcommunity/public/images/avatars/d5/d532d961b30cf54bb9e1a3a760e370958b91abde_full.jpg",
				"personastate": 0,
				"realname": "Christian",
				"primaryclanid": "103582791429521408",
				"timecreated": 1063364861,
				"loccountrycode": "DE",
				"locstatecode": "15",
				"loccityid": 13705
			},
			{
				"steamid": "76561197960309935",
				"communityvisibilitystate": 3,
				"personaname": "rif_clan",
				"lastlogoff": 1257270521,
				"profileurl": "http://steamcommunity.com/profiles/76561197960309935/",
				"avatar": "http://media.steampowered.com/steamcommunity/public/images/avatars/fe/fef49e7fa7e1997310d705b2a6158ff8dc1cdfeb.jpg",
				"avatarmedium": "http://media.steampowered.com/steamcommunity/public/images/avatars/fe/fef49e7fa7e1997310d705b2a6158ff8dc1cdfeb_medium.jpg",
				"avatarfull": "http://media.steampowered.com/steamcommunity/public/images/avatars/fe/fef49e7fa7e1997310d705b2a6158ff8dc1cdfeb_full.jpg",
				"personastate": 0,
				"primaryclanid": "103582791429521408",
				"timecreated": 1063364828
			},
			{
				"steamid": "76561197960310053",
				"communityvisibilitystate": 3,
				"profilestate": 1,
				"personaname": "Magic BuLLet",
				"lastlogoff": 1360932600,
				"profileurl": "http://steamcommunity.com/profiles/76561197960310053/",
				"avatar": "http://media.steampowered.com/steamcommunity/public/images/avatars/16/1632124a480543b7700b7b39c7c20796214b43be.jpg",
				"avatarmedium": "http://media.steampowered.com/steamcommunity/public/images/avatars/16/1632124a480543b7700b7b39c7c20796214b43be_medium.jpg",
				"avatarfull": "http://media.steampowered.com/steamcommunity/public/images/avatars/16/1632124a480543b7700b7b39c7c20796214b43be_full.jpg",
				"personastate": 1,
				"primaryclanid": "103582791431058587",
				"timecreated": 1063364847,
				"loccountrycode": "AU",
				"locstatecode": "VIC",
				"loccityid": 4990
			},
			{
				"steamid": "76561197960309941",
				"communityvisibilitystate": 3,
				"profilestate": 1,
				"personaname": "s!nx",
				"lastlogoff": 1352049496,
				"profileurl": "http://steamcommunity.com/profiles/76561197960309941/",
				"avatar": "http://media.steampowered.com/steamcommunity/public/images/avatars/69/6963da59daec299e1306a84ef41b8ed31a0aa067.jpg",
				"avatarmedium": "http://media.steampowered.com/steamcommunity/public/images/avatars/69/6963da59daec299e1306a84ef41b8ed31a0aa067_medium.jpg",
				"avatarfull": "http://media.steampowered.com/steamcommunity/public/images/avatars/69/6963da59daec299e1306a84ef41b8ed31a0aa067_full.jpg",
				"personastate": 0,
				"realname": "Id@m",
				"primaryclanid": "103582791432155970",
				"timecreated": 1063364829,
				"loccountrycode": "DE"
			},
			{
				"steamid": "76561197960310059",
				"communityvisibilitystate": 1,
				"personaname": "piemiip1",
				"profileurl": "http://steamcommunity.com/profiles/76561197960310059/",
				"avatar": "http://media.steampowered.com/steamcommunity/public/images/avatars/fe/fef49e7fa7e1997310d705b2a6158ff8dc1cdfeb.jpg",
				"avatarmedium": "http://media.steampowered.com/steamcommunity/public/images/avatars/fe/fef49e7fa7e1997310d705b2a6158ff8dc1cdfeb_medium.jpg",
				"avatarfull": "http://media.steampowered.com/steamcommunity/public/images/avatars/fe/fef49e7fa7e1997310d705b2a6158ff8dc1cdfeb_full.jpg",
				"personastate": 0
			},
			{
				"steamid": "76561197960309945",
				"communityvisibilitystate": 1,
				"personaname": "juha.merila",
				"profileurl": "http://steamcommunity.com/profiles/76561197960309945/",
				"avatar": "http://media.steampowered.com/steamcommunity/public/images/avatars/fe/fef49e7fa7e1997310d705b2a6158ff8dc1cdfeb.jpg",
				"avatarmedium": "http://media.steampowered.com/steamcommunity/public/images/avatars/fe/fef49e7fa7e1997310d705b2a6158ff8dc1cdfeb_medium.jpg",
				"avatarfull": "http://media.steampowered.com/steamcommunity/public/images/avatars/fe/fef49e7fa7e1997310d705b2a6158ff8dc1cdfeb_full.jpg",
				"personastate": 0
			},
			{
				"steamid": "76561197960310063",
				"communityvisibilitystate": 3,
				"profilestate": 1,
				"personaname": "gaben",
				"lastlogoff": 1229202824,
				"profileurl": "http://steamcommunity.com/profiles/76561197960310063/",
				"avatar": "http://media.steampowered.com/steamcommunity/public/images/avatars/fe/fef49e7fa7e1997310d705b2a6158ff8dc1cdfeb.jpg",
				"avatarmedium": "http://media.steampowered.com/steamcommunity/public/images/avatars/fe/fef49e7fa7e1997310d705b2a6158ff8dc1cdfeb_medium.jpg",
				"avatarfull": "http://media.steampowered.com/steamcommunity/public/images/avatars/fe/fef49e7fa7e1997310d705b2a6158ff8dc1cdfeb_full.jpg",
				"personastate": 0,
				"primaryclanid": "103582791429521408",
				"timecreated": 1063364850
			},
			{
				"steamid": "76561197960310009",
				"communityvisibilitystate": 1,
				"profilestate": 1,
				"personaname": "w!se",
				"lastlogoff": 1360930506,
				"commentpermission": 2,
				"profileurl": "http://steamcommunity.com/profiles/76561197960310009/",
				"avatar": "http://media.steampowered.com/steamcommunity/public/images/avatars/55/550f5741276b99d5ef64ff4cb0a40f6dd91ba3b8.jpg",
				"avatarmedium": "http://media.steampowered.com/steamcommunity/public/images/avatars/55/550f5741276b99d5ef64ff4cb0a40f6dd91ba3b8_medium.jpg",
				"avatarfull": "http://media.steampowered.com/steamcommunity/public/images/avatars/55/550f5741276b99d5ef64ff4cb0a40f6dd91ba3b8_full.jpg",
				"personastate": 0
			},
			{
				"steamid": "76561197960310127",
				"communityvisibilitystate": 3,
				"profilestate": 1,
				"personaname": "^0Gamea.^5se^0|^7Rasu",
				"lastlogoff": 1352389342,
				"profileurl": "http://steamcommunity.com/profiles/76561197960310127/",
				"avatar": "http://media.steampowered.com/steamcommunity/public/images/avatars/9d/9d8bfa5f59379f834a4f5816a714e16e915dd29a.jpg",
				"avatarmedium": "http://media.steampowered.com/steamcommunity/public/images/avatars/9d/9d8bfa5f59379f834a4f5816a714e16e915dd29a_medium.jpg",
				"avatarfull": "http://media.steampowered.com/steamcommunity/public/images/avatars/9d/9d8bfa5f59379f834a4f5816a714e16e915dd29a_full.jpg",
				"personastate": 0,
				"realname": "Rasmus",
				"primaryclanid": "103582791430822912",
				"timecreated": 1063364862,
				"loccountrycode": "SE",
				"locstatecode": "27"
			},
			{
				"steamid": "76561197960309957",
				"communityvisibilitystate": 1,
				"personaname": "corli",
				"profileurl": "http://steamcommunity.com/profiles/76561197960309957/",
				"avatar": "http://media.steampowered.com/steamcommunity/public/images/avatars/fe/fef49e7fa7e1997310d705b2a6158ff8dc1cdfeb.jpg",
				"avatarmedium": "http://media.steampowered.com/steamcommunity/public/images/avatars/fe/fef49e7fa7e1997310d705b2a6158ff8dc1cdfeb_medium.jpg",
				"avatarfull": "http://media.steampowered.com/steamcommunity/public/images/avatars/fe/fef49e7fa7e1997310d705b2a6158ff8dc1cdfeb_full.jpg",
				"personastate": 0
			},
			{
				"steamid": "76561197960310075",
				"communityvisibilitystate": 3,
				"personaname": "haweewwewewe",
				"lastlogoff": 1221080215,
				"profileurl": "http://steamcommunity.com/profiles/76561197960310075/",
				"avatar": "http://media.steampowered.com/steamcommunity/public/images/avatars/fe/fef49e7fa7e1997310d705b2a6158ff8dc1cdfeb.jpg",
				"avatarmedium": "http://media.steampowered.com/steamcommunity/public/images/avatars/fe/fef49e7fa7e1997310d705b2a6158ff8dc1cdfeb_medium.jpg",
				"avatarfull": "http://media.steampowered.com/steamcommunity/public/images/avatars/fe/fef49e7fa7e1997310d705b2a6158ff8dc1cdfeb_full.jpg",
				"personastate": 0,
				"primaryclanid": "103582791429521408",
				"timecreated": 1063364852
			},
			{
				"steamid": "76561197960309997",
				"communityvisibilitystate": 3,
				"profilestate": 1,
				"personaname": "Nathim",
				"lastlogoff": 1359211203,
				"profileurl": "http://steamcommunity.com/profiles/76561197960309997/",
				"avatar": "http://media.steampowered.com/steamcommunity/public/images/avatars/fe/fef49e7fa7e1997310d705b2a6158ff8dc1cdfeb.jpg",
				"avatarmedium": "http://media.steampowered.com/steamcommunity/public/images/avatars/fe/fef49e7fa7e1997310d705b2a6158ff8dc1cdfeb_medium.jpg",
				"avatarfull": "http://media.steampowered.com/steamcommunity/public/images/avatars/fe/fef49e7fa7e1997310d705b2a6158ff8dc1cdfeb_full.jpg",
				"personastate": 0,
				"realname": "Maik",
				"primaryclanid": "103582791429521408",
				"timecreated": 1063364838,
				"loccountrycode": "DE",
				"locstatecode": "16"
			},
			{
				"steamid": "76561197960310115",
				"communityvisibilitystate": 3,
				"personaname": "serb_soldier@hotmail.com",
				"lastlogoff": 1162461355,
				"profileurl": "http://steamcommunity.com/profiles/76561197960310115/",
				"avatar": "http://media.steampowered.com/steamcommunity/public/images/avatars/fe/fef49e7fa7e1997310d705b2a6158ff8dc1cdfeb.jpg",
				"avatarmedium": "http://media.steampowered.com/steamcommunity/public/images/avatars/fe/fef49e7fa7e1997310d705b2a6158ff8dc1cdfeb_medium.jpg",
				"avatarfull": "http://media.steampowered.com/steamcommunity/public/images/avatars/fe/fef49e7fa7e1997310d705b2a6158ff8dc1cdfeb_full.jpg",
				"personastate": 0,
				"primaryclanid": "103582791429521408",
				"timecreated": 1063364859
			},
			{
				"steamid": "76561197960310019",
				"communityvisibilitystate": 1,
				"personaname": "noden_",
				"profileurl": "http://steamcommunity.com/profiles/76561197960310019/",
				"avatar": "http://media.steampowered.com/steamcommunity/public/images/avatars/fe/fef49e7fa7e1997310d705b2a6158ff8dc1cdfeb.jpg",
				"avatarmedium": "http://media.steampowered.com/steamcommunity/public/images/avatars/fe/fef49e7fa7e1997310d705b2a6158ff8dc1cdfeb_medium.jpg",
				"avatarfull": "http://media.steampowered.com/steamcommunity/public/images/avatars/fe/fef49e7fa7e1997310d705b2a6158ff8dc1cdfeb_full.jpg",
				"personastate": 0
			},
			{
				"steamid": "76561197960310021",
				"communityvisibilitystate": 3,
				"personaname": "*****powered",
				"lastlogoff": 1299191774,
				"profileurl": "http://steamcommunity.com/profiles/76561197960310021/",
				"avatar": "http://media.steampowered.com/steamcommunity/public/images/avatars/fe/fef49e7fa7e1997310d705b2a6158ff8dc1cdfeb.jpg",
				"avatarmedium": "http://media.steampowered.com/steamcommunity/public/images/avatars/fe/fef49e7fa7e1997310d705b2a6158ff8dc1cdfeb_medium.jpg",
				"avatarfull": "http://media.steampowered.com/steamcommunity/public/images/avatars/fe/fef49e7fa7e1997310d705b2a6158ff8dc1cdfeb_full.jpg",
				"personastate": 0,
				"primaryclanid": "103582791429521408",
				"timecreated": 1063364842
			},
			{
				"steamid": "76561197960309987",
				"communityvisibilitystate": 3,
				"personaname": "NoName",
				"lastlogoff": 1342206953,
				"profileurl": "http://steamcommunity.com/profiles/76561197960309987/",
				"avatar": "http://media.steampowered.com/steamcommunity/public/images/avatars/fe/fef49e7fa7e1997310d705b2a6158ff8dc1cdfeb.jpg",
				"avatarmedium": "http://media.steampowered.com/steamcommunity/public/images/avatars/fe/fef49e7fa7e1997310d705b2a6158ff8dc1cdfeb_medium.jpg",
				"avatarfull": "http://media.steampowered.com/steamcommunity/public/images/avatars/fe/fef49e7fa7e1997310d705b2a6158ff8dc1cdfeb_full.jpg",
				"personastate": 0,
				"primaryclanid": "103582791429521408",
				"timecreated": 1063364836
			},
			{
				"steamid": "76561197960310105",
				"communityvisibilitystate": 3,
				"profilestate": 1,
				"personaname": "Bawsly",
				"lastlogoff": 1360535241,
				"profileurl": "http://steamcommunity.com/id/mil1i/",
				"avatar": "http://media.steampowered.com/steamcommunity/public/images/avatars/d8/d8f99afdcc1add68e598458039fb5b32f054171e.jpg",
				"avatarmedium": "http://media.steampowered.com/steamcommunity/public/images/avatars/d8/d8f99afdcc1add68e598458039fb5b32f054171e_medium.jpg",
				"avatarfull": "http://media.steampowered.com/steamcommunity/public/images/avatars/d8/d8f99afdcc1add68e598458039fb5b32f054171e_full.jpg",
				"personastate": 0,
				"realname": "Matt Milligan",
				"primaryclanid": "103582791429521543",
				"timecreated": 1063364858,
				"loccountrycode": "US",
				"locstatecode": "OH",
				"loccityid": 2992
			},
			{
				"steamid": "76561197960309989",
				"communityvisibilitystate": 1,
				"profilestate": 1,
				"personaname": "Oshli",
				"lastlogoff": 1360881608,
				"profileurl": "http://steamcommunity.com/id/oshli/",
				"avatar": "http://media.steampowered.com/steamcommunity/public/images/avatars/fc/fc33b83d261d39562252b4829be2f6db9993d907.jpg",
				"avatarmedium": "http://media.steampowered.com/steamcommunity/public/images/avatars/fc/fc33b83d261d39562252b4829be2f6db9993d907_medium.jpg",
				"avatarfull": "http://media.steampowered.com/steamcommunity/public/images/avatars/fc/fc33b83d261d39562252b4829be2f6db9993d907_full.jpg",
				"personastate": 0
			},
			{
				"steamid": "76561197960310107",
				"communityvisibilitystate": 3,
				"profilestate": 1,
				"personaname": "dEv0",
				"lastlogoff": 1360927233,
				"profileurl": "http://steamcommunity.com/profiles/76561197960310107/",
				"avatar": "http://media.steampowered.com/steamcommunity/public/images/avatars/78/78eed6979bca970a3fb052376febf249b41ef488.jpg",
				"avatarmedium": "http://media.steampowered.com/steamcommunity/public/images/avatars/78/78eed6979bca970a3fb052376febf249b41ef488_medium.jpg",
				"avatarfull": "http://media.steampowered.com/steamcommunity/public/images/avatars/78/78eed6979bca970a3fb052376febf249b41ef488_full.jpg",
				"personastate": 3,
				"realname": "Ryan Devlin",
				"primaryclanid": "103582791429636261",
				"timecreated": 1063364858
			},
			{
				"steamid": "76561197960309985",
				"communityvisibilitystate": 1,
				"personaname": "roland.burger",
				"profileurl": "http://steamcommunity.com/profiles/76561197960309985/",
				"avatar": "http://media.steampowered.com/steamcommunity/public/images/avatars/fe/fef49e7fa7e1997310d705b2a6158ff8dc1cdfeb.jpg",
				"avatarmedium": "http://media.steampowered.com/steamcommunity/public/images/avatars/fe/fef49e7fa7e1997310d705b2a6158ff8dc1cdfeb_medium.jpg",
				"avatarfull": "http://media.steampowered.com/steamcommunity/public/images/avatars/fe/fef49e7fa7e1997310d705b2a6158ff8dc1cdfeb_full.jpg",
				"personastate": 0
			},
			{
				"steamid": "76561197960310103",
				"communityvisibilitystate": 1,
				"personaname": "squall08",
				"profileurl": "http://steamcommunity.com/profiles/76561197960310103/",
				"avatar": "http://media.steampowered.com/steamcommunity/public/images/avatars/fe/fef49e7fa7e1997310d705b2a6158ff8dc1cdfeb.jpg",
				"avatarmedium": "http://media.steampowered.com/steamcommunity/public/images/avatars/fe/fef49e7fa7e1997310d705b2a6158ff8dc1cdfeb_medium.jpg",
				"avatarfull": "http://media.steampowered.com/steamcommunity/public/images/avatars/fe/fef49e7fa7e1997310d705b2a6158ff8dc1cdfeb_full.jpg",
				"personastate": 0
			},
			{
				"steamid": "76561197960309939",
				"communityvisibilitystate": 3,
				"profilestate": 1,
				"personaname": "Ghost",
				"lastlogoff": 1360771407,
				"profileurl": "http://steamcommunity.com/profiles/76561197960309939/",
				"avatar": "http://media.steampowered.com/steamcommunity/public/images/avatars/e3/e3781353f43ac17054bd8df3135b3edc696c56e5.jpg",
				"avatarmedium": "http://media.steampowered.com/steamcommunity/public/images/avatars/e3/e3781353f43ac17054bd8df3135b3edc696c56e5_medium.jpg",
				"avatarfull": "http://media.steampowered.com/steamcommunity/public/images/avatars/e3/e3781353f43ac17054bd8df3135b3edc696c56e5_full.jpg",
				"personastate": 0,
				"primaryclanid": "103582791429639803",
				"timecreated": 1063364829,
				"loccountrycode": "IL"
			},
			{
				"steamid": "76561197960310057",
				"communityvisibilitystate": 1,
				"personaname": "massive_sniper",
				"profileurl": "http://steamcommunity.com/profiles/76561197960310057/",
				"avatar": "http://media.steampowered.com/steamcommunity/public/images/avatars/fe/fef49e7fa7e1997310d705b2a6158ff8dc1cdfeb.jpg",
				"avatarmedium": "http://media.steampowered.com/steamcommunity/public/images/avatars/fe/fef49e7fa7e1997310d705b2a6158ff8dc1cdfeb_medium.jpg",
				"avatarfull": "http://media.steampowered.com/steamcommunity/public/images/avatars/fe/fef49e7fa7e1997310d705b2a6158ff8dc1cdfeb_full.jpg",
				"personastate": 0
			},
			{
				"steamid": "76561197960309995",
				"communityvisibilitystate": 3,
				"profilestate": 1,
				"personaname": "Bagge",
				"lastlogoff": 1351014467,
				"profileurl": "http://steamcommunity.com/profiles/76561197960309995/",
				"avatar": "http://media.steampowered.com/steamcommunity/public/images/avatars/fe/fef49e7fa7e1997310d705b2a6158ff8dc1cdfeb.jpg",
				"avatarmedium": "http://media.steampowered.com/steamcommunity/public/images/avatars/fe/fef49e7fa7e1997310d705b2a6158ff8dc1cdfeb_medium.jpg",
				"avatarfull": "http://media.steampowered.com/steamcommunity/public/images/avatars/fe/fef49e7fa7e1997310d705b2a6158ff8dc1cdfeb_full.jpg",
				"personastate": 0,
				"primaryclanid": "103582791429748115",
				"timecreated": 1063364838
			},
			{
				"steamid": "76561197960310113",
				"communityvisibilitystate": 3,
				"profilestate": 1,
				"personaname": "paT",
				"lastlogoff": 1302310006,
				"profileurl": "http://steamcommunity.com/profiles/76561197960310113/",
				"avatar": "http://media.steampowered.com/steamcommunity/public/images/avatars/fe/fef49e7fa7e1997310d705b2a6158ff8dc1cdfeb.jpg",
				"avatarmedium": "http://media.steampowered.com/steamcommunity/public/images/avatars/fe/fef49e7fa7e1997310d705b2a6158ff8dc1cdfeb_medium.jpg",
				"avatarfull": "http://media.steampowered.com/steamcommunity/public/images/avatars/fe/fef49e7fa7e1997310d705b2a6158ff8dc1cdfeb_full.jpg",
				"personastate": 0,
				"primaryclanid": "103582791429521408",
				"timecreated": 1063364859
			},
			{
				"steamid": "76561197960309955",
				"communityvisibilitystate": 1,
				"personaname": "forces_prophet",
				"profileurl": "http://steamcommunity.com/profiles/76561197960309955/",
				"avatar": "http://media.steampowered.com/steamcommunity/public/images/avatars/fe/fef49e7fa7e1997310d705b2a6158ff8dc1cdfeb.jpg",
				"avatarmedium": "http://media.steampowered.com/steamcommunity/public/images/avatars/fe/fef49e7fa7e1997310d705b2a6158ff8dc1cdfeb_medium.jpg",
				"avatarfull": "http://media.steampowered.com/steamcommunity/public/images/avatars/fe/fef49e7fa7e1997310d705b2a6158ff8dc1cdfeb_full.jpg",
				"personastate": 0
			},
			{
				"steamid": "76561197960310073",
				"communityvisibilitystate": 3,
				"profilestate": 1,
				"personaname": "kAiSa",
				"lastlogoff": 1239691372,
				"profileurl": "http://steamcommunity.com/id/kAiSa84/",
				"avatar": "http://media.steampowered.com/steamcommunity/public/images/avatars/fe/fef49e7fa7e1997310d705b2a6158ff8dc1cdfeb.jpg",
				"avatarmedium": "http://media.steampowered.com/steamcommunity/public/images/avatars/fe/fef49e7fa7e1997310d705b2a6158ff8dc1cdfeb_medium.jpg",
				"avatarfull": "http://media.steampowered.com/steamcommunity/public/images/avatars/fe/fef49e7fa7e1997310d705b2a6158ff8dc1cdfeb_full.jpg",
				"personastate": 0,
				"realname": "Thorsten",
				"primaryclanid": "103582791429564112",
				"timecreated": 1063364851,
				"loccountrycode": "DE",
				"locstatecode": "07",
				"loccityid": 13673
			},
			{
				"steamid": "76561197960309959",
				"communityvisibilitystate": 3,
				"profilestate": 1,
				"personaname": "Aphrodite",
				"lastlogoff": 1360950634,
				"profileurl": "http://steamcommunity.com/profiles/76561197960309959/",
				"avatar": "http://media.steampowered.com/steamcommunity/public/images/avatars/73/73fc82fae16a73a6b1559ae4c68141550ca88ade.jpg",
				"avatarmedium": "http://media.steampowered.com/steamcommunity/public/images/avatars/73/73fc82fae16a73a6b1559ae4c68141550ca88ade_medium.jpg",
				"avatarfull": "http://media.steampowered.com/steamcommunity/public/images/avatars/73/73fc82fae16a73a6b1559ae4c68141550ca88ade_full.jpg",
				"personastate": 0,
				"realname": "Varinia",
				"primaryclanid": "103582791433499905",
				"timecreated": 1063364832,
				"loccountrycode": "DE",
				"locstatecode": "07",
				"loccityid": 13700
			},
			{
				"steamid": "76561197960310077",
				"communityvisibilitystate": 3,
				"personaname": "enh2k",
				"lastlogoff": 1203077710,
				"profileurl": "http://steamcommunity.com/profiles/76561197960310077/",
				"avatar": "http://media.steampowered.com/steamcommunity/public/images/avatars/fe/fef49e7fa7e1997310d705b2a6158ff8dc1cdfeb.jpg",
				"avatarmedium": "http://media.steampowered.com/steamcommunity/public/images/avatars/fe/fef49e7fa7e1997310d705b2a6158ff8dc1cdfeb_medium.jpg",
				"avatarfull": "http://media.steampowered.com/steamcommunity/public/images/avatars/fe/fef49e7fa7e1997310d705b2a6158ff8dc1cdfeb_full.jpg",
				"personastate": 0,
				"primaryclanid": "103582791429521408",
				"timecreated": 1063364852
			},
			{
				"steamid": "76561197960310043",
				"communityvisibilitystate": 3,
				"profilestate": 1,
				"personaname": "CRKN//*<3  :y",
				"lastlogoff": 1360954090,
				"profileurl": "http://steamcommunity.com/profiles/76561197960310043/",
				"avatar": "http://media.steampowered.com/steamcommunity/public/images/avatars/41/419cef20329a1e6d176caa5d37994065c5bb8ac0.jpg",
				"avatarmedium": "http://media.steampowered.com/steamcommunity/public/images/avatars/41/419cef20329a1e6d176caa5d37994065c5bb8ac0_medium.jpg",
				"avatarfull": "http://media.steampowered.com/steamcommunity/public/images/avatars/41/419cef20329a1e6d176caa5d37994065c5bb8ac0_full.jpg",
				"personastate": 0,
				"realname": "Pauli",
				"primaryclanid": "103582791429575999",
				"timecreated": 1063364846,
				"loccountrycode": "DE",
				"locstatecode": "02",
				"loccityid": 13377
			},
			{
				"steamid": "76561197960310017",
				"communityvisibilitystate": 1,
				"personaname": "joeyleone",
				"profileurl": "http://steamcommunity.com/profiles/76561197960310017/",
				"avatar": "http://media.steampowered.com/steamcommunity/public/images/avatars/fe/fef49e7fa7e1997310d705b2a6158ff8dc1cdfeb.jpg",
				"avatarmedium": "http://media.steampowered.com/steamcommunity/public/images/avatars/fe/fef49e7fa7e1997310d705b2a6158ff8dc1cdfeb_medium.jpg",
				"avatarfull": "http://media.steampowered.com/steamcommunity/public/images/avatars/fe/fef49e7fa7e1997310d705b2a6158ff8dc1cdfeb_full.jpg",
				"personastate": 0
			},
			{
				"steamid": "76561197960310041",
				"communityvisibilitystate": 3,
				"profilestate": 1,
				"personaname": "Jo®†",
				"lastlogoff": 1358124875,
				"profileurl": "http://steamcommunity.com/profiles/76561197960310041/",
				"avatar": "http://media.steampowered.com/steamcommunity/public/images/avatars/8a/8aac4bb4c8ca434a19bfa7f6a4d4d2355667c272.jpg",
				"avatarmedium": "http://media.steampowered.com/steamcommunity/public/images/avatars/8a/8aac4bb4c8ca434a19bfa7f6a4d4d2355667c272_medium.jpg",
				"avatarfull": "http://media.steampowered.com/steamcommunity/public/images/avatars/8a/8aac4bb4c8ca434a19bfa7f6a4d4d2355667c272_full.jpg",
				"personastate": 0,
				"primaryclanid": "103582791429639803",
				"timecreated": 1063364846,
				"loccountrycode": "BE",
				"locstatecode": "04",
				"loccityid": 6222
			},
			{
				"steamid": "76561197960309993",
				"communityvisibilitystate": 3,
				"personaname": "French gabber",
				"lastlogoff": 1162384793,
				"profileurl": "http://steamcommunity.com/profiles/76561197960309993/",
				"avatar": "http://media.steampowered.com/steamcommunity/public/images/avatars/fe/fef49e7fa7e1997310d705b2a6158ff8dc1cdfeb.jpg",
				"avatarmedium": "http://media.steampowered.com/steamcommunity/public/images/avatars/fe/fef49e7fa7e1997310d705b2a6158ff8dc1cdfeb_medium.jpg",
				"avatarfull": "http://media.steampowered.com/steamcommunity/public/images/avatars/fe/fef49e7fa7e1997310d705b2a6158ff8dc1cdfeb_full.jpg",
				"personastate": 0,
				"primaryclanid": "103582791429521408",
				"timecreated": 1063364838
			},
			{
				"steamid": "76561197960310111",
				"communityvisibilitystate": 3,
				"profilestate": 1,
				"personaname": "a1ex",
				"lastlogoff": 1358611725,
				"profileurl": "http://steamcommunity.com/profiles/76561197960310111/",
				"avatar": "http://media.steampowered.com/steamcommunity/public/images/avatars/99/998a3f68b4304f134c96b8f7e540db4e4bc253e9.jpg",
				"avatarmedium": "http://media.steampowered.com/steamcommunity/public/images/avatars/99/998a3f68b4304f134c96b8f7e540db4e4bc253e9_medium.jpg",
				"avatarfull": "http://media.steampowered.com/steamcommunity/public/images/avatars/99/998a3f68b4304f134c96b8f7e540db4e4bc253e9_full.jpg",
				"personastate": 0,
				"primaryclanid": "103582791429629808",
				"timecreated": 1063364858
			},
			{
				"steamid": "76561197960309991",
				"communityvisibilitystate": 1,
				"profilestate": 1,
				"personaname": "Solid_R",
				"lastlogoff": 1357676333,
				"profileurl": "http://steamcommunity.com/profiles/76561197960309991/",
				"avatar": "http://media.steampowered.com/steamcommunity/public/images/avatars/06/0659239d53924d4fe1fedb76d9d5bf4f062c1e4c.jpg",
				"avatarmedium": "http://media.steampowered.com/steamcommunity/public/images/avatars/06/0659239d53924d4fe1fedb76d9d5bf4f062c1e4c_medium.jpg",
				"avatarfull": "http://media.steampowered.com/steamcommunity/public/images/avatars/06/0659239d53924d4fe1fedb76d9d5bf4f062c1e4c_full.jpg",
				"personastate": 0
			},
			{
				"steamid": "76561197960310109",
				"communityvisibilitystate": 3,
				"profilestate": 1,
				"personaname": "LiTuP-iS-BACK!! hopefully",
				"lastlogoff": 1324259835,
				"profileurl": "http://steamcommunity.com/profiles/76561197960310109/",
				"avatar": "http://media.steampowered.com/steamcommunity/public/images/avatars/ce/ceaef5da3511ad172ebb251013263a00af4f3adc.jpg",
				"avatarmedium": "http://media.steampowered.com/steamcommunity/public/images/avatars/ce/ceaef5da3511ad172ebb251013263a00af4f3adc_medium.jpg",
				"avatarfull": "http://media.steampowered.com/steamcommunity/public/images/avatars/ce/ceaef5da3511ad172ebb251013263a00af4f3adc_full.jpg",
				"personastate": 0,
				"realname": "Chad Weizer",
				"primaryclanid": "103582791430434231",
				"timecreated": 1063364858
			},
			{
				"steamid": "76561197960310039",
				"communityvisibilitystate": 3,
				"profilestate": 1,
				"personaname": "wagass",
				"lastlogoff": 1360903969,
				"profileurl": "http://steamcommunity.com/id/wagass/",
				"avatar": "http://media.steampowered.com/steamcommunity/public/images/avatars/b6/b6d6adba79f7bab6726f68a7d608da3a645389ba.jpg",
				"avatarmedium": "http://media.steampowered.com/steamcommunity/public/images/avatars/b6/b6d6adba79f7bab6726f68a7d608da3a645389ba_medium.jpg",
				"avatarfull": "http://media.steampowered.com/steamcommunity/public/images/avatars/b6/b6d6adba79f7bab6726f68a7d608da3a645389ba_full.jpg",
				"personastate": 0,
				"realname": "Chris",
				"primaryclanid": "103582791430831856",
				"timecreated": 1063364845,
				"loccountrycode": "US",
				"locstatecode": "LA",
				"loccityid": 1607
			},
			{
				"steamid": "76561197960309953",
				"communityvisibilitystate": 3,
				"profilestate": 1,
				"personaname": "Mikz",
				"lastlogoff": 1360901905,
				"profileurl": "http://steamcommunity.com/profiles/76561197960309953/",
				"avatar": "http://media.steampowered.com/steamcommunity/public/images/avatars/fe/fef49e7fa7e1997310d705b2a6158ff8dc1cdfeb.jpg",
				"avatarmedium": "http://media.steampowered.com/steamcommunity/public/images/avatars/fe/fef49e7fa7e1997310d705b2a6158ff8dc1cdfeb_medium.jpg",
				"avatarfull": "http://media.steampowered.com/steamcommunity/public/images/avatars/fe/fef49e7fa7e1997310d705b2a6158ff8dc1cdfeb_full.jpg",
				"personastate": 1,
				"realname": "Mikko",
				"primaryclanid": "103582791429570094",
				"timecreated": 1063364830,
				"loccountrycode": "FI"
			},
			{
				"steamid": "76561197960310071",
				"communityvisibilitystate": 3,
				"profilestate": 1,
				"personaname": "arbaz",
				"lastlogoff": 1356495853,
				"profileurl": "http://steamcommunity.com/id/arbaz/",
				"avatar": "http://media.steampowered.com/steamcommunity/public/images/avatars/ec/ec2bea6d35daddac68800e4f9852559f446ac159.jpg",
				"avatarmedium": "http://media.steampowered.com/steamcommunity/public/images/avatars/ec/ec2bea6d35daddac68800e4f9852559f446ac159_medium.jpg",
				"avatarfull": "http://media.steampowered.com/steamcommunity/public/images/avatars/ec/ec2bea6d35daddac68800e4f9852559f446ac159_full.jpg",
				"personastate": 0,
				"realname": "Damien",
				"primaryclanid": "103582791429521408",
				"timecreated": 1063364851,
				"loccountrycode": "CA",
				"locstatecode": "QC",
				"loccityid": 4561
			},
			{
				"steamid": "76561197960309937",
				"communityvisibilitystate": 1,
				"personaname": "romaindb",
				"profileurl": "http://steamcommunity.com/profiles/76561197960309937/",
				"avatar": "http://media.steampowered.com/steamcommunity/public/images/avatars/fe/fef49e7fa7e1997310d705b2a6158ff8dc1cdfeb.jpg",
				"avatarmedium": "http://media.steampowered.com/steamcommunity/public/images/avatars/fe/fef49e7fa7e1997310d705b2a6158ff8dc1cdfeb_medium.jpg",
				"avatarfull": "http://media.steampowered.com/steamcommunity/public/images/avatars/fe/fef49e7fa7e1997310d705b2a6158ff8dc1cdfeb_full.jpg",
				"personastate": 0
			},
			{
				"steamid": "76561197960310055",
				"communityvisibilitystate": 1,
				"personaname": "a.tiberio",
				"profileurl": "http://steamcommunity.com/profiles/76561197960310055/",
				"avatar": "http://media.steampowered.com/steamcommunity/public/images/avatars/fe/fef49e7fa7e1997310d705b2a6158ff8dc1cdfeb.jpg",
				"avatarmedium": "http://media.steampowered.com/steamcommunity/public/images/avatars/fe/fef49e7fa7e1997310d705b2a6158ff8dc1cdfeb_medium.jpg",
				"avatarfull": "http://media.steampowered.com/steamcommunity/public/images/avatars/fe/fef49e7fa7e1997310d705b2a6158ff8dc1cdfeb_full.jpg",
				"personastate": 0
			},
			{
				"steamid": "76561197960310011",
				"communityvisibilitystate": 1,
				"profilestate": 1,
				"personaname": "Adel",
				"lastlogoff": 1360874395,
				"profileurl": "http://steamcommunity.com/profiles/76561197960310011/",
				"avatar": "http://media.steampowered.com/steamcommunity/public/images/avatars/fe/fef49e7fa7e1997310d705b2a6158ff8dc1cdfeb.jpg",
				"avatarmedium": "http://media.steampowered.com/steamcommunity/public/images/avatars/fe/fef49e7fa7e1997310d705b2a6158ff8dc1cdfeb_medium.jpg",
				"avatarfull": "http://media.steampowered.com/steamcommunity/public/images/avatars/fe/fef49e7fa7e1997310d705b2a6158ff8dc1cdfeb_full.jpg",
				"personastate": 0
			},
			{
				"steamid": "76561197960310003",
				"communityvisibilitystate": 1,
				"profilestate": 1,
				"personaname": "Shouta",
				"lastlogoff": 1360958313,
				"profileurl": "http://steamcommunity.com/profiles/76561197960310003/",
				"avatar": "http://media.steampowered.com/steamcommunity/public/images/avatars/1c/1c95c04cfafac89d3cd80e7d0e6a2d5da48a9a62.jpg",
				"avatarmedium": "http://media.steampowered.com/steamcommunity/public/images/avatars/1c/1c95c04cfafac89d3cd80e7d0e6a2d5da48a9a62_medium.jpg",
				"avatarfull": "http://media.steampowered.com/steamcommunity/public/images/avatars/1c/1c95c04cfafac89d3cd80e7d0e6a2d5da48a9a62_full.jpg",
				"personastate": 0
			},
			{
				"steamid": "76561197960310121",
				"communityvisibilitystate": 1,
				"personaname": "bahamut55",
				"profileurl": "http://steamcommunity.com/profiles/76561197960310121/",
				"avatar": "http://media.steampowered.com/steamcommunity/public/images/avatars/fe/fef49e7fa7e1997310d705b2a6158ff8dc1cdfeb.jpg",
				"avatarmedium": "http://media.steampowered.com/steamcommunity/public/images/avatars/fe/fef49e7fa7e1997310d705b2a6158ff8dc1cdfeb_medium.jpg",
				"avatarfull": "http://media.steampowered.com/steamcommunity/public/images/avatars/fe/fef49e7fa7e1997310d705b2a6158ff8dc1cdfeb_full.jpg",
				"personastate": 0
			},
			{
				"steamid": "76561197960309949",
				"communityvisibilitystate": 3,
				"personaname": "daniel.ch",
				"lastlogoff": 1160602696,
				"profileurl": "http://steamcommunity.com/profiles/76561197960309949/",
				"avatar": "http://media.steampowered.com/steamcommunity/public/images/avatars/fe/fef49e7fa7e1997310d705b2a6158ff8dc1cdfeb.jpg",
				"avatarmedium": "http://media.steampowered.com/steamcommunity/public/images/avatars/fe/fef49e7fa7e1997310d705b2a6158ff8dc1cdfeb_medium.jpg",
				"avatarfull": "http://media.steampowered.com/steamcommunity/public/images/avatars/fe/fef49e7fa7e1997310d705b2a6158ff8dc1cdfeb_full.jpg",
				"personastate": 0,
				"primaryclanid": "103582791429521408",
				"timecreated": 1063364829
			},
			{
				"steamid": "76561197960310067",
				"communityvisibilitystate": 1,
				"personaname": "zundapp50",
				"profileurl": "http://steamcommunity.com/profiles/76561197960310067/",
				"avatar": "http://media.steampowered.com/steamcommunity/public/images/avatars/fe/fef49e7fa7e1997310d705b2a6158ff8dc1cdfeb.jpg",
				"avatarmedium": "http://media.steampowered.com/steamcommunity/public/images/avatars/fe/fef49e7fa7e1997310d705b2a6158ff8dc1cdfeb_medium.jpg",
				"avatarfull": "http://media.steampowered.com/steamcommunity/public/images/avatars/fe/fef49e7fa7e1997310d705b2a6158ff8dc1cdfeb_full.jpg",
				"personastate": 0
			},
			{
				"steamid": "76561197960310015",
				"communityvisibilitystate": 3,
				"personaname": "duranllanos",
				"lastlogoff": 1300612323,
				"profileurl": "http://steamcommunity.com/profiles/76561197960310015/",
				"avatar": "http://media.steampowered.com/steamcommunity/public/images/avatars/fe/fef49e7fa7e1997310d705b2a6158ff8dc1cdfeb.jpg",
				"avatarmedium": "http://media.steampowered.com/steamcommunity/public/images/avatars/fe/fef49e7fa7e1997310d705b2a6158ff8dc1cdfeb_medium.jpg",
				"avatarfull": "http://media.steampowered.com/steamcommunity/public/images/avatars/fe/fef49e7fa7e1997310d705b2a6158ff8dc1cdfeb_full.jpg",
				"personastate": 0,
				"primaryclanid": "103582791429521408",
				"timecreated": 1063364841
			},
			{
				"steamid": "76561197960309999",
				"communityvisibilitystate": 3,
				"profilestate": 1,
				"personaname": "xander",
				"lastlogoff": 1360842895,
				"profileurl": "http://steamcommunity.com/profiles/76561197960309999/",
				"avatar": "http://media.steampowered.com/steamcommunity/public/images/avatars/fe/fef49e7fa7e1997310d705b2a6158ff8dc1cdfeb.jpg",
				"avatarmedium": "http://media.steampowered.com/steamcommunity/public/images/avatars/fe/fef49e7fa7e1997310d705b2a6158ff8dc1cdfeb_medium.jpg",
				"avatarfull": "http://media.steampowered.com/steamcommunity/public/images/avatars/fe/fef49e7fa7e1997310d705b2a6158ff8dc1cdfeb_full.jpg",
				"personastate": 0,
				"primaryclanid": "103582791429654026",
				"timecreated": 1063364839
			},
			{
				"steamid": "76561197960310117",
				"communityvisibilitystate": 1,
				"personaname": "otto.v",
				"profileurl": "http://steamcommunity.com/profiles/76561197960310117/",
				"avatar": "http://media.steampowered.com/steamcommunity/public/images/avatars/fe/fef49e7fa7e1997310d705b2a6158ff8dc1cdfeb.jpg",
				"avatarmedium": "http://media.steampowered.com/steamcommunity/public/images/avatars/fe/fef49e7fa7e1997310d705b2a6158ff8dc1cdfeb_medium.jpg",
				"avatarfull": "http://media.steampowered.com/steamcommunity/public/images/avatars/fe/fef49e7fa7e1997310d705b2a6158ff8dc1cdfeb_full.jpg",
				"personastate": 0
			},
			{
				"steamid": "76561197960309983",
				"communityvisibilitystate": 3,
				"profilestate": 1,
				"personaname": "DeJinX",
				"lastlogoff": 1196961599,
				"profileurl": "http://steamcommunity.com/id/dejinx/",
				"avatar": "http://media.steampowered.com/steamcommunity/public/images/avatars/a1/a1d908567a801d3c93eeab933e827fa5f3239302.jpg",
				"avatarmedium": "http://media.steampowered.com/steamcommunity/public/images/avatars/a1/a1d908567a801d3c93eeab933e827fa5f3239302_medium.jpg",
				"avatarfull": "http://media.steampowered.com/steamcommunity/public/images/avatars/a1/a1d908567a801d3c93eeab933e827fa5f3239302_full.jpg",
				"personastate": 0,
				"realname": "David Buchwald",
				"primaryclanid": "103582791429521408",
				"timecreated": 1063364835,
				"loccountrycode": "DE"
			},
			{
				"steamid": "76561197960310101",
				"communityvisibilitystate": 3,
				"profilestate": 1,
				"personaname": "Trusher",
				"lastlogoff": 1360940639,
				"profileurl": "http://steamcommunity.com/id/trusher/",
				"avatar": "http://media.steampowered.com/steamcommunity/public/images/avatars/c2/c2182f09bb5cf0c99212cb40acf399701d1b30f4.jpg",
				"avatarmedium": "http://media.steampowered.com/steamcommunity/public/images/avatars/c2/c2182f09bb5cf0c99212cb40acf399701d1b30f4_medium.jpg",
				"avatarfull": "http://media.steampowered.com/steamcommunity/public/images/avatars/c2/c2182f09bb5cf0c99212cb40acf399701d1b30f4_full.jpg",
				"personastate": 0,
				"realname": "Oliver",
				"primaryclanid": "103582791429629643",
				"timecreated": 1063364857,
				"loccountrycode": "DE"
			},
			{
				"steamid": "76561197960309975",
				"communityvisibilitystate": 1,
				"personaname": "vincent.beauclair",
				"profileurl": "http://steamcommunity.com/profiles/76561197960309975/",
				"avatar": "http://media.steampowered.com/steamcommunity/public/images/avatars/fe/fef49e7fa7e1997310d705b2a6158ff8dc1cdfeb.jpg",
				"avatarmedium": "http://media.steampowered.com/steamcommunity/public/images/avatars/fe/fef49e7fa7e1997310d705b2a6158ff8dc1cdfeb_medium.jpg",
				"avatarfull": "http://media.steampowered.com/steamcommunity/public/images/avatars/fe/fef49e7fa7e1997310d705b2a6158ff8dc1cdfeb_full.jpg",
				"personastate": 0
			},
			{
				"steamid": "76561197960310093",
				"communityvisibilitystate": 1,
				"personaname": "sabine.landerneau",
				"profileurl": "http://steamcommunity.com/profiles/76561197960310093/",
				"avatar": "http://media.steampowered.com/steamcommunity/public/images/avatars/fe/fef49e7fa7e1997310d705b2a6158ff8dc1cdfeb.jpg",
				"avatarmedium": "http://media.steampowered.com/steamcommunity/public/images/avatars/fe/fef49e7fa7e1997310d705b2a6158ff8dc1cdfeb_medium.jpg",
				"avatarfull": "http://media.steampowered.com/steamcommunity/public/images/avatars/fe/fef49e7fa7e1997310d705b2a6158ff8dc1cdfeb_full.jpg",
				"personastate": 0
			},
			{
				"steamid": "76561197960310013",
				"communityvisibilitystate": 1,
				"personaname": "wuut",
				"profileurl": "http://steamcommunity.com/profiles/76561197960310013/",
				"avatar": "http://media.steampowered.com/steamcommunity/public/images/avatars/fe/fef49e7fa7e1997310d705b2a6158ff8dc1cdfeb.jpg",
				"avatarmedium": "http://media.steampowered.com/steamcommunity/public/images/avatars/fe/fef49e7fa7e1997310d705b2a6158ff8dc1cdfeb_medium.jpg",
				"avatarfull": "http://media.steampowered.com/steamcommunity/public/images/avatars/fe/fef49e7fa7e1997310d705b2a6158ff8dc1cdfeb_full.jpg",
				"personastate": 0
			},
			{
				"steamid": "76561197960310027",
				"communityvisibilitystate": 1,
				"profilestate": 1,
				"personaname": "slow",
				"lastlogoff": 1360915286,
				"profileurl": "http://steamcommunity.com/profiles/76561197960310027/",
				"avatar": "http://media.steampowered.com/steamcommunity/public/images/avatars/fe/fef49e7fa7e1997310d705b2a6158ff8dc1cdfeb.jpg",
				"avatarmedium": "http://media.steampowered.com/steamcommunity/public/images/avatars/fe/fef49e7fa7e1997310d705b2a6158ff8dc1cdfeb_medium.jpg",
				"avatarfull": "http://media.steampowered.com/steamcommunity/public/images/avatars/fe/fef49e7fa7e1997310d705b2a6158ff8dc1cdfeb_full.jpg",
				"personastate": 0
			},
			{
				"steamid": "76561197960310029",
				"communityvisibilitystate": 3,
				"personaname": "Moot",
				"lastlogoff": 1329391376,
				"profileurl": "http://steamcommunity.com/profiles/76561197960310029/",
				"avatar": "http://media.steampowered.com/steamcommunity/public/images/avatars/fe/fef49e7fa7e1997310d705b2a6158ff8dc1cdfeb.jpg",
				"avatarmedium": "http://media.steampowered.com/steamcommunity/public/images/avatars/fe/fef49e7fa7e1997310d705b2a6158ff8dc1cdfeb_medium.jpg",
				"avatarfull": "http://media.steampowered.com/steamcommunity/public/images/avatars/fe/fef49e7fa7e1997310d705b2a6158ff8dc1cdfeb_full.jpg",
				"personastate": 0,
				"primaryclanid": "103582791429521408",
				"timecreated": 1063364844
			},
			{
				"steamid": "76561197960310001",
				"communityvisibilitystate": 3,
				"personaname": "Daniel d;",
				"lastlogoff": 1186005988,
				"profileurl": "http://steamcommunity.com/profiles/76561197960310001/",
				"avatar": "http://media.steampowered.com/steamcommunity/public/images/avatars/fe/fef49e7fa7e1997310d705b2a6158ff8dc1cdfeb.jpg",
				"avatarmedium": "http://media.steampowered.com/steamcommunity/public/images/avatars/fe/fef49e7fa7e1997310d705b2a6158ff8dc1cdfeb_medium.jpg",
				"avatarfull": "http://media.steampowered.com/steamcommunity/public/images/avatars/fe/fef49e7fa7e1997310d705b2a6158ff8dc1cdfeb_full.jpg",
				"personastate": 0,
				"primaryclanid": "103582791429521408",
				"timecreated": 1063364839
			},
			{
				"steamid": "76561197960310119",
				"communityvisibilitystate": 3,
				"profilestate": 1,
				"personaname": "HighTower",
				"lastlogoff": 1360951546,
				"profileurl": "http://steamcommunity.com/id/ht/",
				"avatar": "http://media.steampowered.com/steamcommunity/public/images/avatars/8d/8da1ff6d0828f1b9eaaba2b377241fb6546e29e0.jpg",
				"avatarmedium": "http://media.steampowered.com/steamcommunity/public/images/avatars/8d/8da1ff6d0828f1b9eaaba2b377241fb6546e29e0_medium.jpg",
				"avatarfull": "http://media.steampowered.com/steamcommunity/public/images/avatars/8d/8da1ff6d0828f1b9eaaba2b377241fb6546e29e0_full.jpg",
				"personastate": 0,
				"realname": "Rudy Søgaard",
				"primaryclanid": "103582791432196150",
				"timecreated": 1063364860,
				"loccountrycode": "DK",
				"locstatecode": "09",
				"loccityid": 14051
			},
			{
				"steamid": "76561197960309951",
				"communityvisibilitystate": 3,
				"profilestate": 1,
				"personaname": "asmo",
				"lastlogoff": 1233114547,
				"profileurl": "http://steamcommunity.com/id/PLAYGAMESNSHHITLOL/",
				"avatar": "http://media.steampowered.com/steamcommunity/public/images/avatars/fe/fef49e7fa7e1997310d705b2a6158ff8dc1cdfeb.jpg",
				"avatarmedium": "http://media.steampowered.com/steamcommunity/public/images/avatars/fe/fef49e7fa7e1997310d705b2a6158ff8dc1cdfeb_medium.jpg",
				"avatarfull": "http://media.steampowered.com/steamcommunity/public/images/avatars/fe/fef49e7fa7e1997310d705b2a6158ff8dc1cdfeb_full.jpg",
				"personastate": 0,
				"realname": "PLAYGAMESNSHHITLOL",
				"primaryclanid": "103582791429521408",
				"timecreated": 1063364830,
				"loccountrycode": "BO"
			},
			{
				"steamid": "76561197960310051",
				"communityvisibilitystate": 1,
				"personaname": "dev",
				"profileurl": "http://steamcommunity.com/profiles/76561197960310051/",
				"avatar": "http://media.steampowered.com/steamcommunity/public/images/avatars/fe/fef49e7fa7e1997310d705b2a6158ff8dc1cdfeb.jpg",
				"avatarmedium": "http://media.steampowered.com/steamcommunity/public/images/avatars/fe/fef49e7fa7e1997310d705b2a6158ff8dc1cdfeb_medium.jpg",
				"avatarfull": "http://media.steampowered.com/steamcommunity/public/images/avatars/fe/fef49e7fa7e1997310d705b2a6158ff8dc1cdfeb_full.jpg",
				"personastate": 0
			},
			{
				"steamid": "76561197960310065",
				"communityvisibilitystate": 3,
				"profilestate": 1,
				"personaname": "Smirroll",
				"lastlogoff": 1360830968,
				"profileurl": "http://steamcommunity.com/profiles/76561197960310065/",
				"avatar": "http://media.steampowered.com/steamcommunity/public/images/avatars/ba/ba6eeaf6da4f11cf055fd982296d9e902dfaad9f.jpg",
				"avatarmedium": "http://media.steampowered.com/steamcommunity/public/images/avatars/ba/ba6eeaf6da4f11cf055fd982296d9e902dfaad9f_medium.jpg",
				"avatarfull": "http://media.steampowered.com/steamcommunity/public/images/avatars/ba/ba6eeaf6da4f11cf055fd982296d9e902dfaad9f_full.jpg",
				"personastate": 0,
				"realname": "Pablo B.",
				"primaryclanid": "103582791429886861",
				"timecreated": 1063364850
			},
			{
				"steamid": "76561197960310061",
				"communityvisibilitystate": 3,
				"profilestate": 1,
				"personaname": "lars274",
				"lastlogoff": 1360956824,
				"profileurl": "http://steamcommunity.com/profiles/76561197960310061/",
				"avatar": "http://media.steampowered.com/steamcommunity/public/images/avatars/c0/c03393146a553025f76024a2dd8c57ee737378de.jpg",
				"avatarmedium": "http://media.steampowered.com/steamcommunity/public/images/avatars/c0/c03393146a553025f76024a2dd8c57ee737378de_medium.jpg",
				"avatarfull": "http://media.steampowered.com/steamcommunity/public/images/avatars/c0/c03393146a553025f76024a2dd8c57ee737378de_full.jpg",
				"personastate": 0,
				"realname": "Lars  Holstein",
				"primaryclanid": "103582791433553822",
				"timecreated": 1063364849,
				"loccountrycode": "DE",
				"locstatecode": "04",
				"loccityid": 13004
			},
			{
				"steamid": "76561197960310099",
				"communityvisibilitystate": 3,
				"personaname": "suxep[panzer]",
				"lastlogoff": 1201974709,
				"profileurl": "http://steamcommunity.com/profiles/76561197960310099/",
				"avatar": "http://media.steampowered.com/steamcommunity/public/images/avatars/fe/fef49e7fa7e1997310d705b2a6158ff8dc1cdfeb.jpg",
				"avatarmedium": "http://media.steampowered.com/steamcommunity/public/images/avatars/fe/fef49e7fa7e1997310d705b2a6158ff8dc1cdfeb_medium.jpg",
				"avatarfull": "http://media.steampowered.com/steamcommunity/public/images/avatars/fe/fef49e7fa7e1997310d705b2a6158ff8dc1cdfeb_full.jpg",
				"personastate": 0,
				"primaryclanid": "103582791429521408",
				"timecreated": 1063364857
			}
		]
		
	}
}