{
	"response": {
		"success": true,
		"groups": [
			{
				"gid": "128"
			},
			{
				"gid": "576680"
			},
			{
				"gid": "964095"
			},
			{
				"gid": "2274628"
			},
			{
				"gid": "2440706"
			},
			{
				"gid": "3049006"
			},
			{
				"gid": "3185176"
			}
		]
		
	}
}