{
	"friendslist": {
		"friends": [
			{
				"steamid": "76561197960283291",
				"relationship": "friend",
				"friend_since": 0
			},
			{
				"steamid": "76561197960302050",
				"relationship": "friend",
				"friend_since": 0
			},
			{
				"steamid": "76561197960357095",
				"relationship": "friend",
				"friend_since": 0
			},
			{
				"steamid": "76561197960663141",
				"relationship": "friend",
				"friend_since": 0
			},
			{
				"steamid": "76561197962082651",
				"relationship": "friend",
				"friend_since": 0
			},
			{
				"steamid": "76561197965846972",
				"relationship": "friend",
				"friend_since": 0
			},
			{
				"steamid": "76561197966739999",
				"relationship": "friend",
				"friend_since": 0
			},
			{
				"steamid": "76561197973409097",
				"relationship": "friend",
				"friend_since": 0
			}
		]
		
	}
}