{
	"friendslist": {
		"friends": [
			{
				"steamid": "76561197960808898",
				"relationship": "friend",
				"friend_since": 0
			},
			{
				"steamid": "76561197961262700",
				"relationship": "friend",
				"friend_since": 0
			},
			{
				"steamid": "76561197961906670",
				"relationship": "friend",
				"friend_since": 1315853263
			},
			{
				"steamid": "76561197962207736",
				"relationship": "friend",
				"friend_since": 1272336789
			},
			{
				"steamid": "76561197963799457",
				"relationship": "friend",
				"friend_since": 1351642151
			},
			{
				"steamid": "76561197965073566",
				"relationship": "friend",
				"friend_since": 1252372144
			},
			{
				"steamid": "76561197965890608",
				"relationship": "friend",
				"friend_since": 1272936610
			},
			{
				"steamid": "76561197966209204",
				"relationship": "friend",
				"friend_since": 1268095777
			},
			{
				"steamid": "76561197966382880",
				"relationship": "friend",
				"friend_since": 1266967194
			},
			{
				"steamid": "76561197966918784",
				"relationship": "friend",
				"friend_since": 0
			},
			{
				"steamid": "76561197967393897",
				"relationship": "friend",
				"friend_since": 0
			},
			{
				"steamid": "76561197968096301",
				"relationship": "friend",
				"friend_since": 0
			},
			{
				"steamid": "76561197968355397",
				"relationship": "friend",
				"friend_since": 1353465594
			},
			{
				"steamid": "76561197970323706",
				"relationship": "friend",
				"friend_since": 1249016886
			},
			{
				"steamid": "76561197970508870",
				"relationship": "friend",
				"friend_since": 1267053320
			},
			{
				"steamid": "76561197971443610",
				"relationship": "friend",
				"friend_since": 1276571495
			},
			{
				"steamid": "76561197972495661",
				"relationship": "friend",
				"friend_since": 0
			},
			{
				"steamid": "76561197973207923",
				"relationship": "friend",
				"friend_since": 1310612508
			},
			{
				"steamid": "76561197973225118",
				"relationship": "friend",
				"friend_since": 1352054849
			},
			{
				"steamid": "76561197975361633",
				"relationship": "friend",
				"friend_since": 1273780399
			},
			{
				"steamid": "76561197975642271",
				"relationship": "friend",
				"friend_since": 1269652976
			},
			{
				"steamid": "76561197975699935",
				"relationship": "friend",
				"friend_since": 1327978776
			},
			{
				"steamid": "76561197975707026",
				"relationship": "friend",
				"friend_since": 1327978775
			},
			{
				"steamid": "76561197975900838",
				"relationship": "friend",
				"friend_since": 0
			},
			{
				"steamid": "76561197976055250",
				"relationship": "friend",
				"friend_since": 1286232686
			},
			{
				"steamid": "76561197977820587",
				"relationship": "friend",
				"friend_since": 1254265455
			},
			{
				"steamid": "76561197980794349",
				"relationship": "friend",
				"friend_since": 0
			},
			{
				"steamid": "76561197982852607",
				"relationship": "friend",
				"friend_since": 0
			},
			{
				"steamid": "76561197983234733",
				"relationship": "friend",
				"friend_since": 1260582130
			},
			{
				"steamid": "76561197983568853",
				"relationship": "friend",
				"friend_since": 1351374006
			},
			{
				"steamid": "76561197984114562",
				"relationship": "friend",
				"friend_since": 1310608527
			},
			{
				"steamid": "76561197985629267",
				"relationship": "friend",
				"friend_since": 0
			},
			{
				"steamid": "76561197988317589",
				"relationship": "friend",
				"friend_since": 1359173981
			},
			{
				"steamid": "76561197990023812",
				"relationship": "friend",
				"friend_since": 1317082061
			},
			{
				"steamid": "76561197990072261",
				"relationship": "friend",
				"friend_since": 1297035965
			},
			{
				"steamid": "76561197992436184",
				"relationship": "friend",
				"friend_since": 0
			},
			{
				"steamid": "76561197992722710",
				"relationship": "friend",
				"friend_since": 1286634880
			},
			{
				"steamid": "76561197993464285",
				"relationship": "friend",
				"friend_since": 1240159653
			},
			{
				"steamid": "76561197993529073",
				"relationship": "friend",
				"friend_since": 1267052483
			},
			{
				"steamid": "76561197993653722",
				"relationship": "friend",
				"friend_since": 1258159113
			},
			{
				"steamid": "76561197993754889",
				"relationship": "friend",
				"friend_since": 1291871272
			},
			{
				"steamid": "76561197994124584",
				"relationship": "friend",
				"friend_since": 0
			},
			{
				"steamid": "76561197995059330",
				"relationship": "friend",
				"friend_since": 1266963681
			},
			{
				"steamid": "76561197995824079",
				"relationship": "friend",
				"friend_since": 1291871274
			},
			{
				"steamid": "76561198001437431",
				"relationship": "friend",
				"friend_since": 1358029286
			},
			{
				"steamid": "76561198002166854",
				"relationship": "friend",
				"friend_since": 1258498114
			},
			{
				"steamid": "76561198004518256",
				"relationship": "friend",
				"friend_since": 1273784093
			},
			{
				"steamid": "76561198006787678",
				"relationship": "friend",
				"friend_since": 1257377059
			},
			{
				"steamid": "76561198008018275",
				"relationship": "friend",
				"friend_since": 1297181696
			},
			{
				"steamid": "76561198009538089",
				"relationship": "friend",
				"friend_since": 1258086118
			},
			{
				"steamid": "76561198010167656",
				"relationship": "friend",
				"friend_since": 1356116529
			},
			{
				"steamid": "76561198012757393",
				"relationship": "friend",
				"friend_since": 1263785296
			},
			{
				"steamid": "76561198013201092",
				"relationship": "friend",
				"friend_since": 1355610497
			},
			{
				"steamid": "76561198013937800",
				"relationship": "friend",
				"friend_since": 1266963671
			},
			{
				"steamid": "76561198017250327",
				"relationship": "friend",
				"friend_since": 1296925207
			},
			{
				"steamid": "76561198018878370",
				"relationship": "friend",
				"friend_since": 1300914869
			},
			{
				"steamid": "76561198019088286",
				"relationship": "friend",
				"friend_since": 1262225702
			},
			{
				"steamid": "76561198021699489",
				"relationship": "friend",
				"friend_since": 1268275587
			},
			{
				"steamid": "76561198024801583",
				"relationship": "friend",
				"friend_since": 1310351138
			},
			{
				"steamid": "76561198026952081",
				"relationship": "friend",
				"friend_since": 1346372381
			},
			{
				"steamid": "76561198027143467",
				"relationship": "friend",
				"friend_since": 1277837085
			},
			{
				"steamid": "76561198030694874",
				"relationship": "friend",
				"friend_since": 1297044220
			},
			{
				"steamid": "76561198060016281",
				"relationship": "friend",
				"friend_since": 1332808951
			},
			{
				"steamid": "76561198065161223",
				"relationship": "friend",
				"friend_since": 1345427967
			},
			{
				"steamid": "76561198067036629",
				"relationship": "friend",
				"friend_since": 1346371240
			},
			{
				"steamid": "76561198074474429",
				"relationship": "friend",
				"friend_since": 1351440120
			}
		]
		
	}
}